autonomy_state = {
	id = autonomy_military_district
	
	is_puppet = yes
	
	min_freedom_level = 0.0
	
	rule = {
		can_not_declare_war = yes
		can_decline_call_to_war = no
	}
	
	modifier = {
		autonomy_manpower_share = 1.0
		can_master_build_for_us = 1
		extra_trade_to_overlord_factor = 1.0
		overlord_trade_cost_factor = -0.9
		cic_to_overlord_factor = 0.25
		mic_to_overlord_factor = 0.75

		research_sharing_per_country_bonus_factor = -0.5
	}
	
	ai_subject_wants_higher = {
		factor = 1.0
	}
	
	ai_overlord_wants_lower = {
		factor = 1.0
	}

	ai_overlord_wants_garrison = {
		always = yes
	}

	allowed = {
		is_subject_of = WRS
	}
	
	can_take_level = {
		always = no
	}

	can_lose_level = {
		always = no
	}
}