SAFWAR_propose_a_ceasefire_category = {
    SAFWAR_propose_ofn_leaning_ceasefire_usa = {
    	allowed = {
			original_tag = USA
		}
        visible = {
		    AND = {
				has_global_flag = south_african_war
				has_global_flag = south_african_war_ceasefires_enabled
				has_country_flag = USA_SAF_WAR_Can_Do_Ceasefires
			}
        }
        available = {
            AND = {
			    ANG = {
				    surrender_progress > 0.6
				}
				MZB = {
				    surrender_progress > 0.6
				}
			}
        }
		
		ai_will_do = {
			factor = 10
        }
		
		days_remove = 30
		fire_only_once = no
		custom_cost_trigger = { command_power > 49.99 }
		custom_cost_text = decision_cost_50_cp
	    complete_effect = {
			log = "[GetDateText]: [Root.GetName]: Decision SAFWAR_propose_ofn_leaning_ceasefire"
			add_command_power = -50
			if = {
			    limit = {
				    MZB = {
					    is_ai = no
					}
				}
				set_global_flag = SAFWAR_USA_proposes_ceasefire
				MZB = {
			        country_event = { 
			            id = SAFWAR.14
		                days = 1		
			        }
		        }
			}
			if = {
				limit = {
					ANG = {
						is_ai = no
					}
				}
				set_global_flag = SAFWAR_USA_proposes_ceasefire
				ANG = {
					country_event = { 
						id = SAFWAR.14
						days = 1		
					}
				}
			}
			if = {
			    limit = {
				    COG = {
					    is_ai = no
					}
				}
				set_global_flag = SAFWAR_USA_proposes_ceasefire
				COG = {
		            country_event = { 
		                id = SAFWAR.14
	                    days = 1		
		            }
	            }
			}
			if = {
			    limit = {
				    AND = {
					    MZB = {
						    is_ai = yes
						}
						ANG = {
						    is_ai = yes
						}
						COG = {
						    is_ai = yes
						}
					}
				}
				set_global_flag = SAFWAR_USA_proposes_ceasefire
				GER = {
			        country_event = { 
			            id = SAFWAR.14
		                days = 1		
			        }
		        }
			}
			if = {
			    limit = {
				    AND = {
					    MZB = {
						    is_ai = yes
						}
						ANG = {
						    is_ai = yes
						}
						COG = {
						    is_ai = yes
						}
						has_global_flag = german_civil_war
					}
				}
				set_global_flag = SAFWAR_USA_proposes_ceasefire
				MZB = {
		           country_event = { 
		                id = SAFWAR.14
	                    days = 1		
		            }
	            }
			}
		}
	}
	
	SAFWAR_propose_ofn_leaning_ceasefire_mzb = {
		allowed = {
			original_tag = MZB
		}
        visible = {
		    AND = {
				has_global_flag = south_african_war
				has_global_flag = south_african_war_ceasefires_enabled
				GER = {
					is_ai = yes
				}
				ANG = {
					is_ai = yes
				}
				COG = {
					is_ai = yes
				}
			}
        }
        available = {
            AND = {
			    ANG = {
				    surrender_progress > 0.6
				}
				MZB = {
				    surrender_progress > 0.6
				}
			}
        }
		
		ai_will_do = {
			factor = 10
        }
		
		days_remove = 30
		fire_only_once = no
		custom_cost_trigger = { command_power > 49.99 }
		custom_cost_text = decision_cost_50_cp
	    complete_effect = {
			log = "[GetDateText]: [Root.GetName]: Decision SAFWAR_propose_ofn_leaning_ceasefire"
			add_command_power = -50
			if = {
				limit = {
				    AND = {
				        SAF = {
					        is_ai = no
					    }
						USA = {
					        is_ai = yes
					    }
					}
				}
				set_global_flag = SAFWAR_MZB_proposes_ceasefire
				SAF = {
		            country_event = { 
		                id = SAFWAR.19
	                    days = 1		
		            }
	            }
			}
			if = {
			    limit = {
				    AND = {
				        SAF = {
					        is_ai = no
					    }
						USA = {
					        is_ai = no
					    }
					}
				}
				set_global_flag = SAFWAR_MZB_proposes_ceasefire
				USA = {
		            country_event = { 
		                id = SAFWAR.19
	                    days = 1		
		            }
	            }
			}
			if = {
			    limit = {
				    AND = {
				        SAF = {
					        is_ai = yes
					    }
						USA = {
					        is_ai = no
					    }
					}
				}
				set_global_flag = SAFWAR_MZB_proposes_ceasefire
				USA = {
		            country_event = { 
		                id = SAFWAR.19
	                    days = 1		
		            }
	            }
			}
			if = {
			    limit = {
				    AND = {
				        SAF = {
					        is_ai = yes
					    }
						USA = {
					        is_ai = yes
					    }
					}
				}
				set_global_flag = SAFWAR_MZB_proposes_ceasefire
				USA = {
		            country_event = { 
		                id = SAFWAR.19
	                    days = 1		
		            }
	            }
			}			
		}
	}
	
	SAFWAR_propose_ofn_leaning_ceasefire_ang = {
		allowed = {
			original_tag = ANG
		}
        visible = {
		    AND = {
				has_global_flag = south_african_war
				has_global_flag = south_african_war_ceasefires_enabled
				GER = {
					is_ai = yes
				}
				MZB = {
					is_ai = yes
				}
				COG = {
					is_ai = yes
				}
			}
        }
        available = {
            AND = {
			    ANG = {
				    surrender_progress > 0.6
				}
				MZB = {
				    surrender_progress > 0.6
				}
			}
        }
		
		ai_will_do = {
			factor = 10
        }
		
		days_remove = 30
		fire_only_once = no
		custom_cost_trigger = { command_power > 49.99 }
		custom_cost_text = decision_cost_50_cp
	    complete_effect = {
			log = "[GetDateText]: [Root.GetName]: Decision SAFWAR_propose_ofn_leaning_ceasefire"
			add_command_power = -50
			if = {
			    limit = {
				    AND = {
				        SAF = {
					        is_ai = no
					    }
						USA = {
					        is_ai = yes
					    }
					}
				}
				set_global_flag = SAFWAR_ANG_proposes_ceasefire
				SAF = {
		            country_event = { 
		                id = SAFWAR.19
	                    days = 1		
		            }
	            }
			}
			if = {
			    limit = {
				    AND = {
				        SAF = {
					        is_ai = no
					    }
						USA = {
					        is_ai = no
					    }
					}
				}
				set_global_flag = SAFWAR_ANG_proposes_ceasefire
				USA = {
		            country_event = { 
		                id = SAFWAR.19
	                    days = 1		
		            }
	            }
			}
			if = {
			    limit = {
				    AND = {
				        SAF = {
					        is_ai = yes
					    }
						USA = {
					        is_ai = no
					    }
					}
				}
				set_global_flag = SAFWAR_ANG_proposes_ceasefire
				USA = {
		            country_event = { 
		                id = SAFWAR.19
	                    days = 1		
		            }
	            }
			}
			if = {
			    limit = {
				    AND = {
				        SAF = {
					        is_ai = yes
					    }
						USA = {
					        is_ai = yes
					    }
					}
				}
				set_global_flag = SAFWAR_ANG_proposes_ceasefire
				USA = {
		            country_event = { 
		                id = SAFWAR.19
	                    days = 1		
		            }
	            }
			}
		}		
	}
	
	SAFWAR_propose_ofn_leaning_ceasefire_cog = {
		allowed = {
			original_tag = COG
		}
        visible = {
		    AND = {
				has_global_flag = south_african_war
				has_global_flag = south_african_war_ceasefires_enabled
				GER = {
					is_ai = yes
				}
				MZB = {
					is_ai = yes
				}
				ANG = {
					is_ai = yes
				}
			}
        }
        available = {
            AND = {
			    ANG = {
				    surrender_progress > 0.6
				}
				MZB = {
				    surrender_progress > 0.6
				}
			}
        }
		
		ai_will_do = {
			factor = 10
        }
		
		days_remove = 30
		fire_only_once = no
		custom_cost_trigger = { command_power > 49.99 }
		custom_cost_text = decision_cost_50_cp
	    complete_effect = {
			log = "[GetDateText]: [Root.GetName]: Decision SAFWAR_propose_ofn_leaning_ceasefire"
			add_command_power = -50
			if = {
				limit = {
				    AND = {
				        SAF = {
					        is_ai = no
					    }
						USA = {
					        is_ai = yes
					    }
					}
				}
				set_global_flag = SAFWAR_COG_proposes_ceasefire
				SAF = {
		            country_event = { 
		                id = SAFWAR.19
                        days = 1		
		            }
	            }
			}
			if = {
			    limit = {
				    AND = {
				        SAF = {
					        is_ai = no
					    }
						USA = {
					        is_ai = no
					    }
					}
				}
				set_global_flag = SAFWAR_COG_proposes_ceasefire
				USA = {
		            country_event = { 
		                id = SAFWAR.19
	                    days = 1		
		            }
	            }
			}
			if = {
			    limit = {
				    AND = {
				        SAF = {
					        is_ai = yes
					    }
						USA = {
					        is_ai = no
					    }
					}
				}
				set_global_flag = SAFWAR_COG_proposes_ceasefire
				USA = {
		            country_event = { 
		                id = SAFWAR.19
	                    days = 1		
		            }
	            }
			}
			if = {
			    limit = {
				    AND = {
				        SAF = {
					        is_ai = yes
					    }
						USA = {
					        is_ai = yes
					    }
					}
				}
				set_global_flag = SAFWAR_COG_proposes_ceasefire
				USA = {
		            country_event = { 
		                id = SAFWAR.19
	                    days = 1		
		            }
	            }
			}	
		}		
	}
	
	SAFWAR_propose_ofn_leaning_ceasefire_ger = {
		allowed = {
			original_tag = GER
		}
        visible = {
		    AND = {
				has_global_flag = south_african_war
				has_global_flag = south_african_war_ceasefires_enabled
				COG = {
					is_ai = yes
				}
				MZB = {
					is_ai = yes
				}
				ANG = {
					is_ai = yes
				}
			}
        }
        available = {
            AND = {
			    ANG = {
				    surrender_progress > 0.6
				}
				MZB = {
				    surrender_progress > 0.6
				}
			}
        }
		
		ai_will_do = {
			factor = 10
        }
		
		days_remove = 30
		fire_only_once = no
		custom_cost_trigger = { command_power > 49.99 }
		custom_cost_text = decision_cost_50_cp
	    complete_effect = {
			log = "[GetDateText]: [Root.GetName]: Decision SAFWAR_propose_ofn_leaning_ceasefire"
				add_command_power = -50
				if = {
			    limit = {
				    AND = {
				        SAF = {
					        is_ai = no
					    }
						USA = {
					        is_ai = yes
					    }
					}
				}
				set_global_flag = SAFWAR_GER_proposes_ceasefire
				SAF = {
		            country_event = { 
		                id = SAFWAR.19
	                    days = 1		
		            }
	            }
			}
			if = {
			    limit = {
				    AND = {
				        SAF = {
					        is_ai = no
					    }
						USA = {
					        is_ai = no
					    }
					}
				}
				set_global_flag = SAFWAR_GER_proposes_ceasefire
				USA = {
		            country_event = { 
		                id = SAFWAR.19
	                    days = 1		
		            }
	            }
			}
			if = {
			    limit = {
				    AND = {
				        SAF = {
					        is_ai = yes
					    }
						USA = {
					        is_ai = no
					    }
					}
				}
				set_global_flag = SAFWAR_GER_proposes_ceasefire
				USA = {
		            country_event = { 
		                id = SAFWAR.19
	                    days = 1		
		            }
	            }
			}
			if = {
			    limit = {
				    AND = {
				        SAF = {
					        is_ai = yes
					    }
						USA = {
					        is_ai = yes
					    }
					}
				}
				set_global_flag = SAFWAR_GER_proposes_ceasefire
				USA = {
		            country_event = { 
		                id = SAFWAR.19
	                    days = 1		
		            }
	            }
			}		
		}		
	}
	
	SAFWAR_propose_stalemate_ceasefire_usa = {
		allowed = {
			original_tag = USA
		}
        visible = {
		    AND = {
				has_global_flag = south_african_war
				has_global_flag = south_african_war_ceasefires_enabled
				SAF = {
					is_ai = yes
				}
				has_country_flag = USA_SAF_WAR_Can_Do_Ceasefires
			}
        }
        available = {
            AND = {
			    ANG = {
				    surrender_progress < 0.2
				}
				MZB = {
				    surrender_progress < 0.2
				}
				COG = {
				    surrender_progress < 0.2
				}
				SAF = {
				    surrender_progress < 0.2
				}
			}
        }
		
		ai_will_do = {
			factor = 10
        }
		
		days_remove = 30
		fire_only_once = no
		custom_cost_trigger = { command_power > 49.99 }
		custom_cost_text = decision_cost_50_cp
	    complete_effect = {
			log = "[GetDateText]: [Root.GetName]: Decision SAFWAR_propose_stalemate_ceasefire"
			add_command_power = -50
			if = {
			    limit = {
				    MZB = {
					    is_ai = no
					}
				}
				set_global_flag = SAFWAR_USA_proposes_ceasefire
				MZB = {
		            country_event = { 
		                id = SAFWAR.15
	                    days = 1		
		            }
	            }
			}
			if = {
			    limit = {
				    ANG = {
					    is_ai = no
					}
				}
				set_global_flag = SAFWAR_USA_proposes_ceasefire
				ANG = {
		            country_event = { 
		                id = SAFWAR.15
	                    days = 1		
		            }
	            }
			}
			if = {
			    limit = {
				    COG = {
					    is_ai = no
					}
				}
				set_global_flag = SAFWAR_USA_proposes_ceasefire
				COG = {
		            country_event = { 
		                id = SAFWAR.15
	                    days = 1		
		            }
	            }
			}
			if = {
			    limit = {
				    AND = {
					    MZB = {
						    is_ai = yes
						}
						ANG = {
						    is_ai = yes
						}
						COG = {
						    is_ai = yes
						}
					}
				}
				set_global_flag = SAFWAR_USA_proposes_ceasefire
				GER = {
		            country_event = { 
		                id = SAFWAR.15
	                    days = 1		
		            }
	            }
			}
			if = {
			    limit = {
				    AND = {
					    MZB = {
						    is_ai = yes
						}
						ANG = {
						    is_ai = yes
						}
						COG = {
						    is_ai = yes
						}
						has_global_flag = german_civil_war
					}
				}
				set_global_flag = SAFWAR_USA_proposes_ceasefire
				MZB = {
		            country_event = { 
		                id = SAFWAR.15
	                    days = 1		
		            }
	            }
			}
        }
    }
	
	SAFWAR_propose_stalemate_ceasefire_mzb = {
		allowed = {
			original_tag = MZB
		}
        visible = {
		    AND = {
				has_global_flag = south_african_war
				has_global_flag = south_african_war_ceasefires_enabled
				GER = {
					is_ai = yes
				}
				ANG = {
					is_ai = yes
				}
				COG = {
					is_ai = yes
				}
			}
        }
        available = {
            AND = {
			    ANG = {
				    surrender_progress < 0.2
				}
				MZB = {
				    surrender_progress < 0.2
				}
				COG = {
				    surrender_progress < 0.2
				}
				SAF = {
				    surrender_progress < 0.2
				}
			}
        }
		
		ai_will_do = {
			factor = 10
        }
		
		days_remove = 30
		fire_only_once = no
		custom_cost_trigger = { command_power > 49.99 }
		custom_cost_text = decision_cost_50_cp
	    complete_effect = {
			log = "[GetDateText]: [Root.GetName]: Decision SAFWAR_propose_stalemate_ceasefire"
			add_command_power = -50
			if = {
			    limit = {
				    AND = {
				        SAF = {
					        is_ai = no
					    }
						USA = {
					        is_ai = yes
					    }
					}
				}
				set_global_flag = SAFWAR_MZB_proposes_ceasefire
				SAF = {
		            country_event = { 
		                id = SAFWAR.18
	                    days = 1		
		            }
	            }
			}
			if = {
			    limit = {
				    AND = {
				        SAF = {
					        is_ai = no
					    }
						USA = {
					        is_ai = no
					    }
					}
				}
				set_global_flag = SAFWAR_MZB_proposes_ceasefire
				USA = {
		            country_event = { 
		                id = SAFWAR.18
	                    days = 1		
		            }
	            }
			}
			if = {
			    limit = {
				    AND = {
				        SAF = {
					        is_ai = yes
					    }
						USA = {
					        is_ai = no
					    }
					}
				}
				set_global_flag = SAFWAR_MZB_proposes_ceasefire
				USA = {
		            country_event = { 
		                id = SAFWAR.18
	                    days = 1		
		            }
	            }
			}
			if = {
			    limit = {
				    AND = {
				        SAF = {
					        is_ai = yes
					    }
						USA = {
					        is_ai = yes
					    }
					}
				}
				set_global_flag = SAFWAR_MZB_proposes_ceasefire
				USA = {
		            country_event = { 
		                id = SAFWAR.18
	                    days = 1		
		            }
	            }
			}		
        }
    }
	
	SAFWAR_propose_stalemate_ceasefire_ang = {
		allowed = {
			original_tag = ANG
		}
        visible = {
		    AND = {
				has_global_flag = south_african_war
				has_global_flag = south_african_war_ceasefires_enabled
				GER = {
					is_ai = yes
				}
				MZB = {
					is_ai = yes
				}
				COG = {
					is_ai = yes
				}
			}
        }
        available = {
            AND = {
			    ANG = {
				    surrender_progress < 0.2
				}
				MZB = {
				    surrender_progress < 0.2
				}
				COG = {
				    surrender_progress < 0.2
				}
				SAF = {
				    surrender_progress < 0.2
				}
			}
        }
		
		ai_will_do = {
			factor = 10
        }
		
		days_remove = 30
		fire_only_once = no
		custom_cost_trigger = { command_power > 49.99 }
		custom_cost_text = decision_cost_50_cp
	    complete_effect = {
			log = "[GetDateText]: [Root.GetName]: Decision SAFWAR_propose_stalemate_ceasefire"
			add_command_power = -50
			if = {
			    limit = {
				    AND = {
				        SAF = {
					        is_ai = no
					    }
						USA = {
					        is_ai = yes
					    }
					}
				}
				set_global_flag = SAFWAR_ANG_proposes_ceasefire
				SAF = {
		            country_event = { 
		                id = SAFWAR.18
	                    days = 1		
		            }
	            }
			}
			if = {
			    limit = {
				    AND = {
				        SAF = {
					        is_ai = no
					    }
						USA = {
					        is_ai = no
					    }
					}
				}
				set_global_flag = SAFWAR_ANG_proposes_ceasefire
				USA = {
		            country_event = { 
		                id = SAFWAR.18
	                    days = 1		
		            }
	            }
			}
			if = {
			    limit = {
				    AND = {
				        SAF = {
					        is_ai = yes
					    }
						USA = {
					        is_ai = no
					    }
					}
				}
				set_global_flag = SAFWAR_ANG_proposes_ceasefire
				USA = {
		            country_event = { 
		                id = SAFWAR.18
	                    days = 1		
		            }
	            }
			}
			if = {
			    limit = {
				    AND = {
				        SAF = {
					        is_ai = yes
					    }
						USA = {
					        is_ai = yes
					    }
					}
				}
				set_global_flag = SAFWAR_ANG_proposes_ceasefire
				USA = {
		            country_event = { 
		                id = SAFWAR.18
	                    days = 1		
		            }
	            }
			}			
        }
    }
	
	SAFWAR_propose_stalemate_ceasefire_cog = {
		allowed = {
			original_tag = COG
		}
        visible = {
		    AND = {
				has_global_flag = south_african_war
				has_global_flag = south_african_war_ceasefires_enabled
				GER = {
					is_ai = yes
				}
				MZB = {
					is_ai = yes
				}
				ANG = {
					is_ai = yes
				}
			}
        }
        available = {
            AND = {
			    ANG = {
				    surrender_progress < 0.2
				}
				MZB = {
				    surrender_progress < 0.2
				}
				COG = {
				    surrender_progress < 0.2
				}
				SAF = {
				    surrender_progress < 0.2
				}
			}
        }
		
		ai_will_do = {
			factor = 10
        }
		
		days_remove = 30
		fire_only_once = no
		custom_cost_trigger = { command_power > 49.99 }
		custom_cost_text = decision_cost_50_cp
	    complete_effect = {
			log = "[GetDateText]: [Root.GetName]: Decision SAFWAR_propose_stalemate_ceasefire"
			add_command_power = -50
			if = {
			    limit = {
				    AND = {
				        SAF = {
					        is_ai = no
					    }
						USA = {
					        is_ai = yes
					    }
					}
				}
				set_global_flag = SAFWAR_COG_proposes_ceasefire
				SAF = {
		            country_event = { 
		                id = SAFWAR.18
	                    days = 1		
		            }
	            }
			}
			if = {
			    limit = {
				    AND = {
				        SAF = {
					        is_ai = no
					    }
						USA = {
					        is_ai = no
					    }
					}
				}
				set_global_flag = SAFWAR_COG_proposes_ceasefire
				USA = {
		            country_event = { 
		                id = SAFWAR.18
	                    days = 1		
		            }
	            }
			}
			if = {
			    limit = {
				    AND = {
				        SAF = {
					        is_ai = yes
					    }
						USA = {
					        is_ai = no
					    }
					}
				}
				set_global_flag = SAFWAR_COG_proposes_ceasefire
				USA = {
		            country_event = { 
		                id = SAFWAR.18
	                    days = 1		
		            }
	            }
			}
			if = {
			    limit = {
				    AND = {
				        SAF = {
					        is_ai = yes
					    }
						USA = {
					        is_ai = yes
					    }
					}
				}
				set_global_flag = SAFWAR_COG_proposes_ceasefire
				USA = {
		            country_event = { 
		                id = SAFWAR.18
	                    days = 1		
		            }
	            }
			}			
        }
    }
	
	SAFWAR_propose_stalemate_ceasefire_ger = {
		allowed = {
			original_tag = GER
		}
        visible = {
		    AND = {
				has_global_flag = south_african_war
				has_global_flag = south_african_war_ceasefires_enabled
				COG = {
					is_ai = yes
				}
				MZB = {
					is_ai = yes
				}
				ANG = {
					is_ai = yes
				}
			}
        }
        available = {
            AND = {
			    ANG = {
				    surrender_progress < 0.2
				}
				MZB = {
				    surrender_progress < 0.2
				}
				COG = {
				    surrender_progress < 0.2
				}
				SAF = {
				    surrender_progress < 0.2
				}
			}
        }
		
		ai_will_do = {
			factor = 10
        }
		
		days_remove = 30
		fire_only_once = no
		custom_cost_trigger = { command_power > 49.99 }
		custom_cost_text = decision_cost_50_cp
	    complete_effect = {
			log = "[GetDateText]: [Root.GetName]: Decision SAFWAR_propose_stalemate_ceasefire"
			add_command_power = -50
			if = {
			    limit = {
				    AND = {
				        SAF = {
					        is_ai = no
					    }
						USA = {
					        is_ai = yes
					    }
					}
				}
				set_global_flag = SAFWAR_GER_proposes_ceasefire
				SAF = {
		            country_event = { 
		                id = SAFWAR.18
	                    days = 1		
		            }
	            }
			}
			if = {
			    limit = {
				    AND = {
				        SAF = {
					        is_ai = no
					    }
						USA = {
					        is_ai = no
					    }
					}
				}
				set_global_flag = SAFWAR_GER_proposes_ceasefire
				USA = {
		            country_event = { 
		                id = SAFWAR.18
	                    days = 1		
		            }
	            }
			}
			if = {
			    limit = {
				    AND = {
				        SAF = {
					        is_ai = yes
					    }
						USA = {
					        is_ai = no
					    }
					}
				}
				set_global_flag = SAFWAR_GER_proposes_ceasefire
				USA = {
		            country_event = { 
		                id = SAFWAR.18
	                    days = 1		
		            }
	            }
			}
			if = {
			    limit = {
				    AND = {
				        SAF = {
					        is_ai = yes
					    }
						USA = {
					        is_ai = yes
					    }
					}
				}
				set_global_flag = SAFWAR_GER_proposes_ceasefire
				USA = {
		            country_event = { 
		                id = SAFWAR.18
	                    days = 1		
		            }
	            }
			}				
        }
    }
	
	SAFWAR_propose_schild_leaning_ceasefire_usa = {
		allowed = {
			original_tag = USA
		}
        visible = {
		    AND = {
				has_global_flag = south_african_war
				has_global_flag = south_african_war_ceasefires_enabled
				SAF = {
					is_ai = yes
				}
				has_country_flag = USA_SAF_WAR_Can_Do_Ceasefires
			}
        }
        available = {
			SAF = {
				surrender_progress > 0.6
		    }
        }
		
		ai_will_do = {
			factor = 10
		}
		
		days_remove = 30
		fire_only_once = no
		custom_cost_trigger = { command_power > 49.99 }
		custom_cost_text = decision_cost_50_cp
	    complete_effect = {
			log = "[GetDateText]: [Root.GetName]: Decision SAFWAR_propose_schild_leaning_ceasefire"
			add_command_power = -50
			if = {
			    limit = {
				    MZB = {
					    is_ai = no
					}
				}
				set_global_flag = SAFWAR_USA_proposes_ceasefire
				MZB = {
		            country_event = { 
		                id = SAFWAR.16
	                    days = 1		
		            }
	            }
			}
			if = {
			    limit = {
				    ANG = {
					    is_ai = no
					}
				}
				set_global_flag = SAFWAR_USA_proposes_ceasefire
				ANG = {
		            country_event = { 
		                id = SAFWAR.16
	                    days = 1		
		            }
	            }
			}
			if = {
			    limit = {
				    COG = {
					    is_ai = no
					}
				}
				set_global_flag = SAFWAR_USA_proposes_ceasefire
				COG = {
		            country_event = { 
		                id = SAFWAR.16
	                    days = 1		
		            }
	            }
			}
			if = {
			    limit = {
				    AND = {
					    MZB = {
						    is_ai = yes
						}
						ANG = {
						    is_ai = yes
						}
						COG = {
						    is_ai = yes
						}
					}
				}
				set_global_flag = SAFWAR_USA_proposes_ceasefire
				GER = {
		            country_event = { 
		                id = SAFWAR.16
	                    days = 1		
		            }
	            }
			}
			if = {
			    limit = {
				    AND = {
					    MZB = {
						    is_ai = yes
						}
						ANG = {
						    is_ai = yes
						}
						COG = {
						    is_ai = yes
						}
						has_global_flag = german_civil_war
					}
				}
				set_global_flag = SAFWAR_USA_proposes_ceasefire
				MZB = {
		            country_event = { 
		                id = SAFWAR.16
	                    days = 1		
		            }
	            }
			}		
        }
    }
	
	SAFWAR_propose_schild_leaning_ceasefire_mzb = {
		allowed = {
			original_tag = MZB
		}
        visible = {
		    AND = {
				has_global_flag = south_african_war
				has_global_flag = south_african_war_ceasefires_enabled
				GER = {
					is_ai = yes
				}
				ANG = {
					is_ai = yes
				}
				COG = {
					is_ai = yes
				}
			}
        }
        available = {
			SAF = {
				surrender_progress > 0.6
		    }
        }
		
		ai_will_do = {
			factor = 10
		}
		
		days_remove = 30
		fire_only_once = no
		custom_cost_trigger = { command_power > 49.99 }
		custom_cost_text = decision_cost_50_cp
	    complete_effect = {
			log = "[GetDateText]: [Root.GetName]: Decision SAFWAR_propose_schild_leaning_ceasefire"
			add_command_power = -50
			if = {
			    limit = {
				    AND = {
				        SAF = {
					        is_ai = no
					    }
						USA = {
					        is_ai = yes
					    }
					}
				}
				set_global_flag = SAFWAR_MZB_proposes_ceasefire
				SAF = {
		            country_event = { 
		                id = SAFWAR.17
	                    days = 1		
		            }
	            }
			}
			if = {
			    limit = {
				    AND = {
				        SAF = {
					        is_ai = no
					    }
						USA = {
					        is_ai = no
					    }
					}
				}
				set_global_flag = SAFWAR_MZB_proposes_ceasefire
				USA = {
		            country_event = { 
		                id = SAFWAR.17
	                    days = 1		
		            }
	            }
			}
			if = {
			    limit = {
				    AND = {
				        SAF = {
					        is_ai = yes
					    }
						USA = {
					        is_ai = no
					    }
					}
				}
				set_global_flag = SAFWAR_MZB_proposes_ceasefire
				USA = {
		            country_event = { 
		                id = SAFWAR.17
	                    days = 1		
		            }
	            }
			}
			if = {
			    limit = {
				    AND = {
				        SAF = {
					        is_ai = yes
					    }
						USA = {
					        is_ai = yes
					    }
					}
				}
				set_global_flag = SAFWAR_MZB_proposes_ceasefire
				USA = {
		            country_event = { 
		                id = SAFWAR.17
	                    days = 1		
		            }
	            }
			}			
        }
    }
	
	SAFWAR_propose_schild_leaning_ceasefire_ang = {
		allowed = {
			original_tag = ANG
		}
        visible = {
		    AND = {
				has_global_flag = south_african_war
				has_global_flag = south_african_war_ceasefires_enabled
				GER = {
					is_ai = yes
				}
				MZB = {
					is_ai = yes
				}
				COG = {
					is_ai = yes
				}
			}
        }
        available = {
			SAF = {
				surrender_progress > 0.6
		    }
        }
		
		ai_will_do = {
			factor = 10
		}
		
		days_remove = 30
		fire_only_once = no
		custom_cost_trigger = { command_power > 49.99 }
		custom_cost_text = decision_cost_50_cp
	    complete_effect = {
			log = "[GetDateText]: [Root.GetName]: Decision SAFWAR_propose_schild_leaning_ceasefire"
			add_command_power = -50
			if = {
			    limit = {
				    AND = {
				        SAF = {
					        is_ai = no
					    }
						USA = {
					        is_ai = yes
					    }
					}
				}
				set_global_flag = SAFWAR_ANG_proposes_ceasefire
				SAF = {
		            country_event = { 
		                id = SAFWAR.17
	                    days = 1		
		            }
	            }
			}
			if = {
			    limit = {
				    AND = {
				        SAF = {
					        is_ai = no
					    }
						USA = {
					        is_ai = no
					    }
					}
				}
				set_global_flag = SAFWAR_ANG_proposes_ceasefire
				USA = {
		            country_event = { 
		                id = SAFWAR.17
	                    days = 1		
		            }
	            }
			}
			if = {
			    limit = {
				    AND = {
				        SAF = {
					        is_ai = yes
					    }
						USA = {
					        is_ai = no
					    }
					}
				}
				set_global_flag = SAFWAR_ANG_proposes_ceasefire
				USA = {
		            country_event = { 
		                id = SAFWAR.17
	                    days = 1		
		            }
	            }
			}
			if = {
			    limit = {
				    AND = {
				        SAF = {
					        is_ai = yes
					    }
						USA = {
					        is_ai = yes
					    }
					}
				}
				set_global_flag = SAFWAR_ANG_proposes_ceasefire
				USA = {
		            country_event = { 
		                id = SAFWAR.17
	                    days = 1		
		            }
	            }
			}					
        }
    }
	
	SAFWAR_propose_schild_leaning_ceasefire_cog = {
		allowed = {
			original_tag = COG
		}
        visible = {
		    AND = {
				has_global_flag = south_african_war
				has_global_flag = south_african_war_ceasefires_enabled
				GER = {
					is_ai = yes
				}
				MZB = {
					is_ai = yes
				}
				ANG = {
					is_ai = yes
				}
			}
        }
        available = {
			SAF = {
				surrender_progress > 0.6
		    }
        }
		
		ai_will_do = {
			factor = 10
		}
		
		days_remove = 30
		fire_only_once = no
		custom_cost_trigger = { command_power > 49.99 }
		custom_cost_text = decision_cost_50_cp
	    complete_effect = {
			log = "[GetDateText]: [Root.GetName]: Decision SAFWAR_propose_schild_leaning_ceasefire"
			add_command_power = -50
			if = {
			    limit = {
				    AND = {
				        SAF = {
					        is_ai = no
					    }
						USA = {
					        is_ai = yes
					    }
					}
				}
				set_global_flag = SAFWAR_COG_proposes_ceasefire
				SAF = {
		            country_event = { 
		                id = SAFWAR.17
	                    days = 1		
		            }
	            }
			}
			if = {
			    limit = {
				    AND = {
				        SAF = {
					        is_ai = no
					    }
						USA = {
					        is_ai = no
					    }
					}
				}
				set_global_flag = SAFWAR_COG_proposes_ceasefire
				USA = {
		            country_event = { 
		                id = SAFWAR.17
	                    days = 1		
		            }
	            }
			}
			if = {
			    limit = {
				    AND = {
				        SAF = {
					        is_ai = yes
					    }
						USA = {
					        is_ai = no
					    }
					}
				}
				set_global_flag = SAFWAR_COG_proposes_ceasefire
				USA = {
		            country_event = { 
		                id = SAFWAR.17
	                    days = 1		
		            }
	            }
			}
			if = {
			    limit = {
				    AND = {
				        SAF = {
					        is_ai = yes
					    }
						USA = {
					        is_ai = yes
					    }
					}
				}
				set_global_flag = SAFWAR_COG_proposes_ceasefire
				USA = {
		            country_event = { 
		                id = SAFWAR.17
	                    days = 1		
		            }
	            }
			}		
        }
    }
	
	SAFWAR_propose_schild_leaning_ceasefire_ger = {
		allowed = {
			original_tag = GER
		}
        visible = {
		    AND = {
				has_global_flag = south_african_war
				has_global_flag = south_african_war_ceasefires_enabled
				COG = {
					is_ai = yes
				}
				MZB = {
					is_ai = yes
				}
				ANG = {
					is_ai = yes
				}
			}
        }
        available = {
			SAF = {
				surrender_progress > 0.6
		    }
        }
		
		ai_will_do = {
			factor = 10
		}
		
		days_remove = 30
		fire_only_once = no
		custom_cost_trigger = { command_power > 49.99 }
		custom_cost_text = decision_cost_50_cp
	    complete_effect = {
			log = "[GetDateText]: [Root.GetName]: Decision SAFWAR_propose_schild_leaning_ceasefire"
			add_command_power = -50
			if = {
			    limit = {
				    AND = {
				        SAF = {
					        is_ai = no
					    }
						USA = {
					        is_ai = yes
					    }
					}
				}
				set_global_flag = SAFWAR_GER_proposes_ceasefire
				SAF = {
		            country_event = { 
		                id = SAFWAR.17
	                    days = 1		
		            }
	            }
			}
			if = {
			    limit = {
				    AND = {
				        SAF = {
					        is_ai = no
					    }
						USA = {
					        is_ai = no
					    }
					}
				}
				set_global_flag = SAFWAR_GER_proposes_ceasefire
				USA = {
		            country_event = { 
		                id = SAFWAR.17
	                    days = 1		
		            }
	            }
			}
			if = {
			    limit = {
				    AND = {
				        SAF = {
					        is_ai = yes
					    }
						USA = {
					        is_ai = no
					    }
					}
				}
				set_global_flag = SAFWAR_GER_proposes_ceasefire
				USA = {
		            country_event = { 
		                id = SAFWAR.17
	                    days = 1		
		            }
	            }
			}
			if = {
			    limit = {
				    AND = {
				        SAF = {
					        is_ai = yes
					    }
						USA = {
					        is_ai = yes
					    }
					}
				}
				set_global_flag = SAFWAR_GER_proposes_ceasefire
				USA = {
		            country_event = { 
		                id = SAFWAR.17
	                    days = 1		
		            }
	            }
			}		
        }
    }
}