ITA_ENI_exploitation = {

	ITA_increase_exploitation_algeria = {
		cost = 75
		days_remove = 80
		visible = {
			NOT = {
				if = {
					check_variable = { ITA_ENI_algeria_stage = 2 }
					has_country_flag = ILG_low_turnout_algeria
				}
				else_if = {
					check_variable = { ITA_ENI_algeria_stage = 4 }
					has_country_flag = ILG_medium_turnout_algeria
				}
			}
			if = {
				check_variable = {
					var = ITA_ENI_algeria_stage
					value = 0
					compare = not_equals
				}
				check_variable = {
					var = ITA_ENI_algeria_stage
					value = 5
					compare = less_than
				}
			}
		}
		complete_effect = {
			add_to_variable = { ENI_algeria_selector = 1 }
			ENI_increase_exploitation_ALG = yes
		}
	}
	ITA_increase_exploitation_albania = {
		cost = 75
		days_remove = 80
		visible = {
			NOT = {
				if = {
					check_variable = { ITA_ENI_albania_stage = 2 }
					has_country_flag = ALB_low_turnout_albania
				}
				else_if = {
					check_variable = { ITA_ENI_albania_stage = 4 }
					has_country_flag = ALB_medium_turnout_albania
				}
			}
			if = {
				check_variable = {
					var = ITA_ENI_albania_stage
					value = 0
					compare = not_equals
				}
				check_variable = {
					var = ITA_ENI_albania_stage
					value = 5
					compare = less_than
				}
			}
		}
		complete_effect = {
			add_to_variable = { ENI_albania_selector = 1 }
			ENI_increase_exploitation_ALB = yes
		}
	}
	ITA_increase_exploitation_croatia = {
		cost = 75
		days_remove = 80
		visible = {
			NOT = {
				if = {
					check_variable = { ITA_ENI_croatia_stage = 2 }
					has_country_flag = ILG_low_turnout_croatia
				}
				else_if = {
					check_variable = { ITA_ENI_croatia_stage = 4 }
					has_country_flag = ILG_medium_turnout_croatia
				}
			}
			if = {
				check_variable = {
					var = ITA_ENI_croatia_stage
					value = 0
					compare = not_equals
				}
				check_variable = {
					var = ITA_ENI_croatia_stage
					value = 5
					compare = less_than
				}
			}
		}
		complete_effect = {
			add_to_variable = { ENI_croatia_selector = 1 }
			ENI_increase_exploitation_CRO = yes
		}
	}
	ITA_increase_exploitation_east_africa = {
		cost = 75
		days_remove = 80
		visible = {
			NOT = {
				if = {
					check_variable = { ITA_ENI_east_africa_stage = 2 }
					has_country_flag = ILG_low_turnout_east_africa
				}
				else_if = {
						check_variable = { ITA_ENI_east_africa_stage = 4 }
						has_country_flag = ILG_medium_turnout_east_africa
					}
				}
			if = {
				check_variable = {
					var = ITA_ENI_east_africa_stage
					value = 0
					compare = not_equals
				}
				check_variable = {
					var = ITA_ENI_east_africa_stage
					value = 5
					compare = less_than
				}
			}
		}
		complete_effect = {
			add_to_variable = { ENI_east_africa_selector = 1 }
			ENI_increase_exploitation_IEA = yes
		}
	}
	ITA_increase_exploitation_egypt = {
		cost = 75
		days_remove = 80
		visible = {
			NOT = {
				if = {
					check_variable = { ITA_ENI_egypt_stage = 2 }
					has_country_flag = ILG_low_turnout_egypt
				}
				else_if = {
					check_variable = { ITA_ENI_egypt_stage = 4 }
					has_country_flag = ILG_medium_turnout_egypt
				}
			}
			if = {
				check_variable = {
					var = ITA_ENI_egypt_stage
					value = 0
					compare = not_equals
				}
				check_variable = {
					var = ITA_ENI_egypt_stage
					value = 5
					compare = less_than
				}
			}
		}
		complete_effect = {
			add_to_variable = { ENI_egypt_selector = 1 }
			ENI_increase_exploitation_EGY = yes
		}
	}
	ITA_increase_exploitation_greece = {
		cost = 75
		days_remove = 80
		visible = {
			NOT = {
				if = {
					check_variable = { ITA_ENI_greece_stage = 2 }
					has_country_flag = ILG_low_turnout_greece
				}
				else_if = {
					check_variable = { ITA_ENI_greece_stage = 4 }
					has_country_flag = ILG_medium_turnout_greece
				}
			}
			if = {
				check_variable = {
					var = ITA_ENI_greece_stage
					value = 0
					compare = not_equals
				}
				check_variable = {
					var = ITA_ENI_greece_stage
					value = 5
					compare = less_than
				}
			}
		}
		complete_effect = {
			add_to_variable = { ENI_greece_selector = 1 }
			ENI_increase_exploitation_GRE = yes
		}
	}
	
	ITA_increase_exploitation_kuwait = {
		cost = 75
		days_remove = 80
		visible = {
			NOT = {
				if = {
					check_variable = { ITA_ENI_kuwait_stage = 2 }
					has_country_flag = ILG_low_turnout_kuwait
				}
				else_if = {
					check_variable = { ITA_ENI_kuwait_stage = 4 }
					has_country_flag = ILG_medium_turnout_kuwait
				}
			}
			if = {
				check_variable = {
					var = ITA_ENI_kuwait_stage
					value = 0
					compare = not_equals
				}
				check_variable = {
					var = ITA_ENI_kuwait_stage
					value = 5
					compare = less_than
				}
			}
		}
		complete_effect = {
			add_to_variable = { ENI_kuwait_selector = 1 }
			ENI_increase_exploitation_KUW = yes
		}
	}
	ITA_increase_exploitation_iraq = {
		cost = 75
		days_remove = 80
		visible = {
			NOT = {
				if = {
					check_variable = { ITA_ENI_iraq_stage = 2 }
					has_country_flag = ILG_low_turnout_iraq
				}
				else_if = {
					check_variable = { ITA_ENI_iraq_stage = 4 }
					has_country_flag = ILG_medium_turnout_iraq
				}
			}
			if = {
				check_variable = {
					var = ITA_ENI_iraq_stage
					value = 0
					compare = not_equals
				}
				check_variable = {
					var = ITA_ENI_iraq_stage
					value = 5
					compare = less_than
				}
			}
		}
		complete_effect = {
			add_to_variable = { ENI_iraq_selector = 1 }
			ENI_increase_exploitation_IRQ = yes
		}
	}
	ITA_increase_exploitation_italy = {
		cost = 75
		days_remove = 80
		visible = {
			NOT = {
				if = {
					check_variable = { ITA_ENI_italy_stage = 2 }
					has_country_flag = ILG_low_turnout_italy
				}
				else_if = {
					check_variable = { ITA_ENI_italy_stage = 4 }
					has_country_flag = ILG_medium_turnout_italy
				}
			}
			if = {
				check_variable = {
					var = ITA_ENI_italy_stage
					value = 0
					compare = not_equals
				}
				check_variable = {
					var = ITA_ENI_italy_stage
					value = 5
					compare = less_than
				}
			}
		}
		complete_effect = {
			add_to_variable = { ENI_italy_selector = 1 }
			ENI_increase_exploitation_ITA = yes
		}
	}
	ITA_increase_exploitation_libya = {
		cost = 75
		days_remove = 80
		visible = {
			NOT = {
				if = {
					check_variable = { ITA_ENI_libya_stage = 2 }
					has_country_flag = ILG_low_turnout_libya
				}
				else_if = {
					check_variable = { ITA_ENI_libya_stage = 4 }
					has_country_flag = ILG_medium_turnout_libya
				}
			}
			if = {
				check_variable = {
					var = ITA_ENI_libya_stage
					value = 0
					compare = not_equals
				}
				check_variable = {
					var = ITA_ENI_libya_stage
					value = 5
					compare = less_than
				}
			}
		}
		complete_effect = {
			add_to_variable = { ENI_libya_selector = 1 }
			ENI_increase_exploitation_LIB = yes
		}
	}
	ITA_increase_exploitation_north_sudan = {
		cost = 75
		days_remove = 80
		visible = {
			NOT = {
				if = {
					check_variable = { ITA_ENI_north_sudan_stage = 2 }
					has_country_flag = ILG_low_turnout_north_sudan
				}
				else_if = {
					check_variable = { ITA_ENI_north_sudan_stage = 4 }
					has_country_flag = ILG_medium_turnout_north_sudan
				}
			}
			if = {
				check_variable = {
					var = ITA_ENI_north_sudan_stage
					value = 0
					compare = not_equals
				}
				check_variable = {
					var = ITA_ENI_north_sudan_stage
					value = 5
					compare = less_than
				}
			}
		}
		complete_effect = {
			add_to_variable = { ENI_north_sudan_selector = 1 }
			ENI_increase_exploitation_NSUDAN = yes
		}
	}
	ITA_increase_exploitation_oman = {
		cost = 75
		days_remove = 80
		visible = {
			NOT = {
				if = {
					check_variable = { ITA_ENI_oman_stage = 2 }
					has_country_flag = ILG_low_turnout_oman
				}
				else_if = {
					check_variable = { ITA_ENI_oman_stage = 4 }
					has_country_flag = ILG_medium_turnout_oman
				}
			}
			if = {
				check_variable = {
					var = ITA_ENI_oman_stage
					value = 0
					compare = not_equals
				}
				check_variable = {
					var = ITA_ENI_oman_stage
					value = 5
					compare = less_than
				}
			}
		}
		complete_effect = {
			add_to_variable = { ENI_oman_selector = 1 }
			ENI_increase_exploitation_OMA = yes
		}
	}
	ITA_increase_exploitation_palestine = {
		cost = 75
		days_remove = 80
		visible = {
			NOT = {
				if = {
					check_variable = { ITA_ENI_palestine_stage = 2 }
					has_country_flag = ILG_low_turnout_palestine
				}
				else_if = {
					check_variable = { ITA_ENI_palestine_stage = 4 }
					has_country_flag = ILG_medium_turnout_palestine
				}
			}
			if = {
				check_variable = {
					var = ITA_ENI_palestine_stage
					value = 0
					compare = not_equals
				}
				check_variable = {
					var = ITA_ENI_palestine_stage
					value = 5
					compare = less_than
				}
			}
		}
		complete_effect = {
			add_to_variable = { ENI_palestine_selector = 1 }
			ENI_increase_exploitation_PAL = yes
		}
	}
	ITA_increase_exploitation_persian_gulf = {
		cost = 75
		days_remove = 80
		visible = {
			NOT = {
				if = {
					check_variable = { ITA_ENI_persian_gulf_stage = 2 }
					has_country_flag = ILG_low_turnout_persian_gulf
				}
				else_if = {
					check_variable = { ITA_ENI_persian_gulf_stage = 4 }
					has_country_flag = ILG_medium_turnout_persian_gulf
				}
			}
			if = {
				check_variable = {
					var = ITA_ENI_persian_gulf_stage
					value = 0
					compare = not_equals
				}
				check_variable = {
					var = ITA_ENI_persian_gulf_stage
					value = 5
					compare = less_than
				}
			}
		}
		complete_effect = {
			add_to_variable = { ENI_persian_gulf_selector = 1 }
			ENI_increase_exploitation_GULF = yes
		}
	}
	ITA_increase_exploitation_south_sudan = {
		cost = 75
		days_remove = 80
		visible = {
			NOT = {
				if = {
					check_variable = { ITA_ENI_south_sudan_stage = 2 }
					has_country_flag = ILG_low_turnout_south_sudan
				}
				else_if = {
					check_variable = { ITA_ENI_south_sudan_stage = 4 }
					has_country_flag = ILG_medium_turnout_south_sudan
				}
			}
			if = {
				check_variable = {
					var = ITA_ENI_south_sudan_stage
					value = 0
					compare = not_equals
				}
				check_variable = {
					var = ITA_ENI_south_sudan_stage
					value = 5
					compare = less_than
				}
			}
		}
		
		complete_effect = {
			add_to_variable = { ENI_south_sudan_selector = 1 }
			ENI_increase_exploitation_SSUDAN = yes
		}
	}
	ITA_increase_exploitation_transjordan = {
		cost = 75
		days_remove = 80
		visible = {
			NOT = {
				if = {
					check_variable = { ITA_ENI_transjordan_stage = 2 }
					has_country_flag = ILG_low_turnout_transjordan
				}
				else_if = {
					check_variable = { ITA_ENI_transjordan_stage = 4 }
					has_country_flag = ILG_medium_turnout_transjordan
				}
			}
			if = {
				check_variable = {
					var = ITA_ENI_transjordan_stage
					value = 0
					compare = not_equals
				}
				check_variable = {
					var = ITA_ENI_transjordan_stage
					value = 5
					compare = less_than
				}
			}
		}
		complete_effect = {
			add_to_variable = { ENI_transjordan_selector = 1 }
			ENI_increase_exploitation_JOR = yes
		}
	}
	ITA_increase_exploitation_tunisia = {
		cost = 75
		days_remove = 80
		visible = {
			NOT = {
				if = {
					check_variable = { ITA_ENI_tunisia_stage = 2 }
					has_country_flag = ILG_low_turnout_tunisia
				}
				else_if = {
					check_variable = { ITA_ENI_tunisia_stage = 4 }
					has_country_flag = ILG_medium_turnout_tunisia
				}
			}
			if = {
				check_variable = {
					var = ITA_ENI_tunisia_stage
					value = 0
					compare = not_equals
				}
				check_variable = {
					var = ITA_ENI_tunisia_stage
					value = 5
					compare = less_than
				}
			}
		}
		complete_effect = {
			add_to_variable = { ENI_tunisia_selector = 1 }
			ENI_increase_exploitation_TUN = yes
		}
	}
	ITA_increase_exploitation_yemen = {
		cost = 75
		days_remove = 80
		visible = {
			NOT = {
				if = {
					check_variable = { ITA_ENI_yemen_stage = 2 }
					has_country_flag = ILG_low_turnout_yemen
				}
				else_if = {
					check_variable = { ITA_ENI_yemen_stage = 4 }
					has_country_flag = ILG_medium_turnout_yemen
				}
			}
			if = {
				check_variable = {
					var = ITA_ENI_yemen_stage
					value = 0
					compare = not_equals
				}
				check_variable = {
					var = ITA_ENI_yemen_stage
					value = 5
					compare = less_than
				}
			}
		}
		complete_effect = {
			add_to_variable = { ENI_yemen_selector = 1 }
			ENI_increase_exploitation_YEM = yes
		}
	}
}