PRM_aryanism_category = {
	PRM_aryanism_rite = {
		available = {
			check_variable = {PRM_aryan_strength < 5}
			check_variable = {PRM_aryan_sacrifices > 0}
		}
		custom_cost_trigger = { always = yes } #no cost
		ai_will_do = {
			factor = 4000
		}

		fire_only_once = no
		days_re_enable = 182

		complete_effect = {
			hidden_effect = {
				add_to_variable = {PRM_aryan_strength = 1}
				subtract_from_variable = {PRM_aryan_sacrifices = 1}
				set_temp_variable = {PRM_rite_manpower_temp = 500}
				multiply_temp_variable = {PRM_rite_manpower_temp = num_owned_controlled_states}
				add_to_temp_variable = {PRM_rite_manpower_temp = 1500}
				add_manpower = PRM_rite_manpower_temp
				if = {
					limit = {has_idea = PRM_aryan_control_4}
					swap_ideas = {
						remove_idea = PRM_aryan_control_4
						add_idea = PRM_aryan_control_5
					}
				}


				if = {
					limit = {has_idea = PRM_aryan_control_3}
					swap_ideas = {
						remove_idea = PRM_aryan_control_3
						add_idea = PRM_aryan_control_4
					}
				}


				if = {
					limit = {has_idea = PRM_aryan_control_2}
					swap_ideas = {
						remove_idea = PRM_aryan_control_2
						add_idea = PRM_aryan_control_3
					}
				}


				if = {
					limit = {has_idea = PRM_aryan_control_1}
					swap_ideas = {
						remove_idea = PRM_aryan_control_1
						add_idea = PRM_aryan_control_2
					}
				}
			}
			custom_effect_tooltip = PRM_AB_rite_decision_tt
		}
	}
}
