VIN_Vietcong = {

	VIN_Vietcong_Raids = {

		icon = generic_civil_support

		available = {
			tag = VIN
			NOT = { 
				has_idea = VIN_vietcong_idea 
			}
		}

		days_mission_timeout = 70

		activation = {
			has_idea = VIN_vietcong_idea
		}

		visible = {
			has_idea = VIN_vietcong_idea			
		}		

		fixed_random_seed = no

		fire_only_once = no

		is_good = no

		timeout_effect = {
			log = "[GetDateText]: [Root.GetName]: Decision timeout VIN_Vietcong_Raids"
			#VIN = {
			#	country_event = { days = 1 id = vietnam.5 }
			#}
		}
	}

	VIN_Propaganda_Campaign = {
		icon = generic_prospect_for_resources
		
		fire_only_once = yes
		
		available = {
			tag = VIN
			has_idea = VIN_vietcong_idea
		}


		ai_will_do = {
			factor = 1
			modifier = {
				factor = 1000
			}
		}

		modifier = {
			communist_drift = -0.01
		}

		cost = 25

		days_remove = 70
		days_re_enable = 50

		remove_effect = {
			log = "[GetDateText]: [Root.GetName]: Decision remove VIN_Propaganda_Campaign"

		}	
	}

	VIN_Search_and_Destroy = {
		icon = generic_prospect_for_resources
		
		fire_only_once = yes
		
		available = {
			tag = VIN
			has_idea = VIN_vietcong_idea

			has_equipment = {
    			infantry_equipment_1 > 500
			}
		}


		ai_will_do = {
			factor = 1
			modifier = {
				factor = 1000
			}
		}

		modifier = {
			communist_drift = -0.01
		}

		cost = 25

		days_remove = 7
		days_re_enable = 50

		remove_effect = {
			log = "[GetDateText]: [Root.GetName]: Decision remove VIN_Search_and_Destroy"
			random_list = {
				75 = {
					country_event = vietnam.6
				}
				25 = {
					country_event = vietnam.7
				}
			}
		}	
	}

	VIN_Bombing_Campaigns = {
		icon = generic_prospect_for_resources
		
		fire_only_once = yes
		
		available = {
			tag = VIN
			has_idea = VIN_vietcong_idea
			OR = {
				has_government = fascism
				has_government = national_socialism
			}
		}


		ai_will_do = {
			factor = 1
			modifier = {
				factor = 1000
			}
		}

		modifier = {
			communist_drift = -0.05

			stability_weekly = -0.01
		}

		cost = 100

		days_remove = 7
		days_re_enable = 50

		remove_effect = {
			log = "[GetDateText]: [Root.GetName]: Decision remove VIN_Bombing_Campaigns"

		}	
	}

	VIN_Reconcentration = {
		icon = generic_prospect_for_resources
		
		fire_only_once = yes
		
		available = {
			tag = VIN
			has_idea = VIN_vietcong_idea
			OR = {
				has_government = fascism
				has_government = national_socialism
			}
		}


		ai_will_do = {
			factor = 1
			modifier = {
				factor = 1000
			}
		}

		modifier = {
			communist_drift = -0.05

			stability_weekly = -0.01

			consumer_goods_factor = 0.1
		}

		cost = 150

		days_remove = 50
		days_re_enable = 100

		remove_effect = {
			log = "[GetDateText]: [Root.GetName]: Decision remove VIN_Reconcentration"

		}	
	}

	VIN_Public_Executions = {
		icon = generic_prospect_for_resources
		
		fire_only_once = yes
		
		available = {
			tag = VIN
			has_idea = VIN_vietcong_idea
			OR = {
				has_government = fascism
				has_government = national_socialism
			}
		}


		ai_will_do = {
			factor = 1
			modifier = {
				factor = 1000
			}
		}

		modifier = {
			communist_drift = -0.05

			stability_weekly = -0.03

		}

		cost = 200

		days_remove = 3
		days_re_enable = 150

		remove_effect = {
			log = "[GetDateText]: [Root.GetName]: Decision remove VIN_Public_Executions"

		}	
	}
}