ita_agip_reinvestment = {
	ita_add_agip_success = {
		allowed = {
			
			tag = ITA
		}
		visible = {
			has_country_flag = ita_reinvest_in_agip
		}
		available = {
			tag = ITA
			has_country_flag = ita_reinvest_in_agip
		}
		complete_effect = {
			log = "[GetDateText]: [Root.GetName]: Decision ita_add_agip_success"
			add_to_variable = {
				var = ITA_AGIP_Success
				value = 10
			}
		}
	}
	ita_subtract_agip_success = {
		allowed = {
			
			tag = ITA
		}
		visible = {
			has_country_flag = ita_reinvest_in_agip
		}
		available = {
			tag = ITA
			has_country_flag = ita_reinvest_in_agip
		}
		complete_effect = {
			log = "[GetDateText]: [Root.GetName]: Decision ita_subtract_agip_success"
			add_to_variable = {
				var = ITA_AGIP_Success
				value = -10
			}
		}
	}
}
