#RAJ_DEBUG_DECISIONS = {
#	RAJ_debug_TNO_RAJ_blank = {
#		allowed = {
#			OR = {
#				is_indian_nation = yes
#				tag = PRU
#			}
#		}
#		custom_cost_trigger = { always = yes } #no cost
#		fire_only_once = no
#		complete_effect = {
#			log = "[GetDateText]: [Root.GetName]: Decision RAJ_debug_TNO_RAJ_blank"
#			custom_effect_tooltip = debug_your_shit #just here to make sure the category does not disappear
#			load_focus_tree = TNO_RAJ_blank
#		}
#		ai_will_do = {
#			factor = 0
#		}
#	}
#	RAJ_debug_RAJ_Pakistan = {
#		allowed = {
#			OR = {
#				is_indian_nation = yes
#				tag = PRU
#			}
#		}
#		custom_cost_trigger = { always = yes } #no cost
#		fire_only_once = no
#		complete_effect = {
#			log = "[GetDateText]: [Root.GetName]: Decision RAJ_debug_RAJ_Pakistan"
#			custom_effect_tooltip = debug_your_shit
#			load_focus_tree = RAJ_Pakistan #just here to make sure the category does not disappear
#		}
#		ai_will_do = {
#			factor = 0
#		}
#	}
#	RAJ_debug_RAJ_elec_one = {
#		allowed = {
#			OR = {
#				is_indian_nation = yes
#				tag = PRU
#			}
#		}
#		custom_cost_trigger = { always = yes } #no cost
#		fire_only_once = no
#		complete_effect = {
#			log = "[GetDateText]: [Root.GetName]: Decision RAJ_debug_RAJ_elec_one"
#			custom_effect_tooltip = debug_your_shit
#			load_focus_tree = TNO_RAJ_elec_one #just here to make sure the category does not disappear
#		}
#		ai_will_do = {
#			factor = 0
#		}
#	}
#	RAJ_debug_RAJ_elec_two = {
#		allowed = {
#			OR = {
#				is_indian_nation = yes
#				tag = PRU
#			}
#		}
#		custom_cost_trigger = { always = yes } #no cost
#		fire_only_once = no
#		complete_effect = {
#			log = "[GetDateText]: [Root.GetName]: Decision RAJ_debug_RAJ_elec_two"
#			custom_effect_tooltip = debug_your_shit
#			load_focus_tree = TNO_RAJ_elec_two #just here to make sure the category does not disappear
#		}
#		ai_will_do = {
#			factor = 0
#		}
#	}
#	RAJ_debug_RAJ_elec_three = {
#		allowed = {
#			OR = {
#				is_indian_nation = yes
#				tag = PRU
#			}
#		}
#		custom_cost_trigger = { always = yes } #no cost
#		fire_only_once = no
#		complete_effect = {
#			log = "[GetDateText]: [Root.GetName]: Decision RAJ_debug_RAJ_elec_two"
#			custom_effect_tooltip = debug_your_shit
#			load_focus_tree = TNO_RAJ_elec_three #just here to make sure the category does not disappear
#		}
#		ai_will_do = {
#			factor = 0
#		}
#	}
#	RAJ_debug_TNO_RAJ_Start = {
#		allowed = {
#			OR = {
#				is_indian_nation = yes
#				tag = PRU
#			}
#		}
#		custom_cost_trigger = { always = yes } #no cost
#		fire_only_once = no
#		complete_effect = {
#			log = "[GetDateText]: [Root.GetName]: Decision RAJ_debug_TNO_RAJ_Start"
#			custom_effect_tooltip = debug_your_shit
#			load_focus_tree = TNO_RAJ_Start #just here to make sure the category does not disappear
#		}
#		ai_will_do = {
#			factor = 0
#		}
#	}
#	RAJ_debug_RAJ_soclib_1 = {
#		allowed = {
#			OR = {
#				is_indian_nation = yes
#				tag = PRU
#			}
#		}
#		custom_cost_trigger = { always = yes } #no cost
#		fire_only_once = no
#		complete_effect = {
#			log = "[GetDateText]: [Root.GetName]: Decision RAJ_debug_RAJ_soclib_1"
#			custom_effect_tooltip = debug_your_shit
#			load_focus_tree = RAJ_soclib_1 #just here to make sure the category does not disappear
#		}
#		ai_will_do = {
#			factor = 0
#		}
#	}
#
#	RAJ_debug_RAJ_cyclone = {
#		allowed = {
#			OR = {
#				is_indian_nation = yes
#				tag = PRU
#			}
#		}
#		custom_cost_trigger = { always = yes } #no cost
#		fire_only_once = no
#		complete_effect = {
#			log = "[GetDateText]: [Root.GetName]: Decision RAJ_debug_RAJ_cyclone"
#			custom_effect_tooltip = debug_your_shit
#			load_focus_tree = RAJ_soclib_cyclone #just here to make sure the category does not disappear
#		}
#		ai_will_do = {
#			factor = 0
#		}
#	}
#
#	RAJ_debug_RAJ_cyclone_get_fucked = {
#		allowed = {
#			OR = {
#				is_indian_nation = yes
#				tag = PRU
#			}
#		}
#		custom_cost_trigger = { always = yes } #no cost
#		fire_only_once = no
#		complete_effect = {
#			log = "[GetDateText]: [Root.GetName]: Decision RAJ_debug_RAJ_cyclone"
#			custom_effect_tooltip = debug_your_shit
#			set_country_flag = Cyclone_OH_FUCK
#			load_focus_tree = RAJ_soclib_cyclone2 #just here to make sure the category does not disappear
#		}
#		ai_will_do = {
#			factor = 0
#		}
#	}
#
#	RAJ_debug_RAJ_soclib_2 = {
#		allowed = {
#			OR = {
#				is_indian_nation = yes
#				tag = PRU
#			}
#		}
#		custom_cost_trigger = { always = yes } #no cost
#		fire_only_once = no
#		complete_effect = {
#			log = "[GetDateText]: [Root.GetName]: Decision RAJ_debug_RAJ_soclib_2"
#			custom_effect_tooltip = debug_your_shit
#			load_focus_tree = RAJ_soclib_2 #just here to make sure the category does not disappear
#		}
#		ai_will_do = {
#			factor = 0
#		}
#	}
#	RAJ_debug_RAJ_soclib_3 = {
#		allowed = {
#			OR = {
#				is_indian_nation = yes
#				tag = PRU
#			}
#		}
#		custom_cost_trigger = { always = yes } #no cost
#		fire_only_once = no
#		complete_effect = {
#			log = "[GetDateText]: [Root.GetName]: Decision RAJ_debug_RAJ_soclib_3"
#			custom_effect_tooltip = debug_your_shit
#			load_focus_tree = RAJ_soclib_3 #just here to make sure the category does not disappear
#		}
#		ai_will_do = {
#			factor = 0
#		}
#	}
#
#	RAJ_debug_RAJ_Soclib4_79_84 = {
#		allowed = {
#			OR = {
#				is_indian_nation = yes
#				tag = PRU
#			}
#		}
#		custom_cost_trigger = { always = yes } #no cost
#		fire_only_once = no
#		complete_effect = {
#			log = "[GetDateText]: [Root.GetName]: Decision RAJ_debug_RAJ_Soclib4_79_84"
#			custom_effect_tooltip = debug_your_shit
#			load_focus_tree = RAJ_soclib4_79_84 #just here to make sure the category does not disappear
#		}
#		ai_will_do = {
#			factor = 0
#		}
#	}
#
#	RAJ_debug_RAJ_soccon_1 = {
#		allowed = {
#			OR = {
#				is_indian_nation = yes
#				tag = PRU
#			}
#		}
#		custom_cost_trigger = { always = yes } #no cost
#		fire_only_once = no
#		complete_effect = {
#			log = "[GetDateText]: [Root.GetName]: Decision RAJ_debug_RAJ_soccon_1"
#			custom_effect_tooltip = debug_your_shit
#			load_focus_tree = RAJ_soccon_1 #just here to make sure the category does not disappear
#		}
#		ai_will_do = {
#			factor = 0
#		}
#	}
#	RAJ_debug_RAJ_soccon_2 = {
#		allowed = {
#			OR = {
#				is_indian_nation = yes
#				tag = PRU
#			}
#		}
#		custom_cost_trigger = { always = yes } #no cost
#		fire_only_once = no
#		complete_effect = {
#			log = "[GetDateText]: [Root.GetName]: Decision RAJ_debug_RAJ_soccon_2"
#			custom_effect_tooltip = debug_your_shit
#			load_focus_tree = RAJ_soccon_2 #just here to make sure the category does not disappear
#		}
#		ai_will_do = {
#			factor = 0
#		}
#	}
#	RAJ_debug_RAJ_soccon_3 = {
#		allowed = {
#			OR = {
#				is_indian_nation = yes
#				tag = PRU
#			}
#		}
#		custom_cost_trigger = { always = yes } #no cost
#		fire_only_once = no
#		complete_effect = {
#			log = "[GetDateText]: [Root.GetName]: Decision RAJ_debug_RAJ_soccon_3"
#			custom_effect_tooltip = debug_your_shit
#			load_focus_tree = RAJ_soccon_3 #just here to make sure the category does not disappear
#		}
#		ai_will_do = {
#			factor = 0
#		}
#	}
#	RAJ_debug_RAJ_soccon_4 = {
#		allowed = {
#			OR = {
#				is_indian_nation = yes
#				tag = PRU
#			}
#		}
#		custom_cost_trigger = { always = yes } #no cost
#		fire_only_once = no
#		complete_effect = {
#			log = "[GetDateText]: [Root.GetName]: Decision RAJ_debug_RAJ_soccon_4"
#			custom_effect_tooltip = debug_your_shit
#			load_focus_tree = RAJ_soccon_4 #just here to make sure the category does not disappear
#		}
#		ai_will_do = {
#			factor = 0
#		}
#	}
#	RAJ_debug_RAJ_authdem_3 = {
#		allowed = {
#			OR = {
#				is_indian_nation = yes
#				tag = PRU
#			}
#		}
#		custom_cost_trigger = { always = yes } #no cost
#		fire_only_once = no
#		complete_effect = {
#			log = "[GetDateText]: [Root.GetName]: Decision RAJ_debug_RAJ_authdem_3"
#			custom_effect_tooltip = debug_your_shit
#			load_focus_tree = RAJ_authdem_3 #just here to make sure the category does not disappear
#		}
#		ai_will_do = {
#			factor = 0
#		}
#	}
#	RAJ_debug_RAJ_authdem_4 = {
#		allowed = {
#			OR = {
#				is_indian_nation = yes
#				tag = PRU
#			}
#		}
#		custom_cost_trigger = { always = yes } #no cost
#		fire_only_once = no
#		complete_effect = {
#			log = "[GetDateText]: [Root.GetName]: Decision RAJ_debug_RAJ_authdem_4"
#			custom_effect_tooltip = debug_your_shit
#			load_focus_tree = RAJ_authdem_4 #just here to make sure the category does not disappear
#		}
#		ai_will_do = {
#			factor = 0
#		}
#	}
#	RAJ_debug_RAJ_warprep = {
#		allowed = {
#			OR = {
#				is_indian_nation = yes
#				tag = PRU
#			}
#		}
#		custom_cost_trigger = { always = yes } #no cost
#		fire_only_once = no
#		complete_effect = {
#			log = "[GetDateText]: [Root.GetName]: Decision RAJ_debug_RAJ_warprep"
#			custom_effect_tooltip = debug_your_shit
#			load_focus_tree = RAJ_warprep #just here to make sure the category does not disappear
#		}
#		ai_will_do = {
#			factor = 0
#		}
#	}
#
#	RAJ_debug_RAJ_Soc_1 = {
#		allowed = {
#			OR = {
#				is_indian_nation = yes
#				tag = PRU
#			}
#		}
#		custom_cost_trigger = { always = yes } #no cost
#		fire_only_once = no
#		complete_effect = {
#			log = "[GetDateText]: [Root.GetName]: Decision RAJ_debug_RAJ_Soc_1"
#			custom_effect_tooltip = debug_your_shit
#			load_focus_tree = RAJ_Soc_1 #just here to make sure the category does not disappear
#		}
#		ai_will_do = {
#			factor = 0
#		}
#	}
#	RAJ_debug_RAJ_Soc_2 = {
#		allowed = {
#			OR = {
#				is_indian_nation = yes
#				tag = PRU
#			}
#		}
#		custom_cost_trigger = { always = yes } #no cost
#		fire_only_once = no
#		complete_effect = {
#			log = "[GetDateText]: [Root.GetName]: Decision RAJ_debug_RAJ_Soc_2"
#			custom_effect_tooltip = debug_your_shit
#			load_focus_tree = RAJ_Soc_2 #just here to make sure the category does not disappear
#		}
#		ai_will_do = {
#			factor = 0
#		}
#	}
#	RAJ_debug_RAJ_Soc_3 = {
#		allowed = {
#			OR = {
#				is_indian_nation = yes
#				tag = PRU
#			}
#		}
#		custom_cost_trigger = { always = yes } #no cost
#		fire_only_once = no
#		complete_effect = {
#			log = "[GetDateText]: [Root.GetName]: Decision RAJ_debug_RAJ_Soc_3"
#			custom_effect_tooltip = debug_your_shit
#			load_focus_tree = RAJ_Soc_3 #just here to make sure the category does not disappear
#		}
#		ai_will_do = {
#			factor = 0
#		}
#	}
#	RAJ_debug_RAJ_Soc_Rev = {
#		allowed = {
#			OR = {
#				is_indian_nation = yes
#				tag = PRU
#			}
#		}
#		custom_cost_trigger = { always = yes } #no cost
#		fire_only_once = no
#		complete_effect = {
#			log = "[GetDateText]: [Root.GetName]: Decision RAJ_debug_RAJ_Soc_Rev"
#			custom_effect_tooltip = debug_your_shit
#			load_focus_tree = RAJ_Soc_Rev #just here to make sure the category does not disappear
#		}
#		ai_will_do = {
#			factor = 0
#		}
#	}
#	RAJ_debug_RAJ_socdem_1 = {
#		allowed = {
#			OR = {
#				is_indian_nation = yes
#				tag = PRU
#			}
#		}
#		custom_cost_trigger = { always = yes } #no cost
#		fire_only_once = no
#		complete_effect = {
#			log = "[GetDateText]: [Root.GetName]: Decision RAJ_debug_RAJ_socdem_1"
#			custom_effect_tooltip = debug_your_shit
#			load_focus_tree = RAJ_socdem_1 #just here to make sure the category does not disappear
#		}
#		ai_will_do = {
#			factor = 0
#		}
#	}
#	RAJ_debug_RAJ_socdem_2 = {
#		allowed = {
#			OR = {
#				is_indian_nation = yes
#				tag = PRU
#			}
#		}
#		custom_cost_trigger = { always = yes } #no cost
#		fire_only_once = no
#		complete_effect = {
#			log = "[GetDateText]: [Root.GetName]: Decision RAJ_debug_RAJ_socdem_2"
#			custom_effect_tooltip = debug_your_shit
#			load_focus_tree = RAJ_socdem_2 #just here to make sure the category does not disappear
#		}
#		ai_will_do = {
#			factor = 0
#		}
#	}
#	RAJ_debug_RAJ_socdem_3 = {
#		allowed = {
#			OR = {
#				is_indian_nation = yes
#				tag = PRU
#			}
#		}
#		custom_cost_trigger = { always = yes } #no cost
#		fire_only_once = no
#		complete_effect = {
#			log = "[GetDateText]: [Root.GetName]: Decision RAJ_debug_RAJ_socdem_3"
#			custom_effect_tooltip = debug_your_shit
#			load_focus_tree = RAJ_socdem_3 #just here to make sure the category does not disappear
#		}
#		ai_will_do = {
#			factor = 0
#		}
#	}
#	RAJ_debug_RAJ_socdem_4 = {
#		allowed = {
#			OR = {
#				is_indian_nation = yes
#				tag = PRU
#			}
#		}
#		custom_cost_trigger = { always = yes } #no cost
#		fire_only_once = no
#		complete_effect = {
#			log = "[GetDateText]: [Root.GetName]: Decision RAJ_debug_RAJ_socdem_4"
#			custom_effect_tooltip = debug_your_shit
#			load_focus_tree = RAJ_socdem_4 #just here to make sure the category does not disappear
#		}
#		ai_will_do = {
#			factor = 0
#		}
#	}
#	RAJ_debug_RAJ_Caste = {
#		allowed = {
#			OR = {
#				is_indian_nation = yes
#				tag = PRU
#			}
#		}
#		custom_cost_trigger = { always = yes } #no cost
#		fire_only_once = no
#		complete_effect = {
#			log = "[GetDateText]: [Root.GetName]: Decision RAJ_debug_RAJ_Caste"
#			custom_effect_tooltip = debug_your_shit
#			load_focus_tree = RAJ_Caste #just here to make sure the category does not disappear
#		}
#		ai_will_do = {
#			factor = 0
#		}
#	}
#	RAJ_debug_RAJ_Electrification = {
#		allowed = {
#			OR = {
#				is_indian_nation = yes
#				tag = PRU
#			}
#		}
#		custom_cost_trigger = { always = yes } #no cost
#		fire_only_once = no
#		complete_effect = {
#			log = "[GetDateText]: [Root.GetName]: Decision RAJ_debug_RAJ_Electrification"
#			custom_effect_tooltip = debug_your_shit
#			load_focus_tree = RAJ_Electrification #just here to make sure the category does not disappear
#		}
#		ai_will_do = {
#			factor = 0
#		}
#	}
#	RAJ_debug_RAJ_Indian_State = {
#		allowed = {
#			OR = {
#				is_indian_nation = yes
#				tag = PRU
#			}
#		}
#		custom_cost_trigger = { always = yes } #no cost
#		fire_only_once = no
#		complete_effect = {
#			log = "[GetDateText]: [Root.GetName]: Decision RAJ_debug_RAJ_Indian_State"
#			custom_effect_tooltip = debug_your_shit
#			set_country_flag = RAJ_Indian_State
#			load_focus_tree = RAJ_Indian_State #just here to make sure the category does not disappear
#		}
#		ai_will_do = {
#			factor = 0
#		}
#	}
#	RAJ_debug_RAJ_Fascist_Crisis_1  = {
#		allowed = {
#			OR = {
#				is_indian_nation = yes
#				tag = PRU
#			}
#		}
#		custom_cost_trigger = { always = yes } #no cost
#		fire_only_once = no
#		complete_effect = {
#			log = "[GetDateText]: [Root.GetName]: Decision RAJ_debug_RAJ_Fascist_Crisis_1"
#			custom_effect_tooltip = debug_your_shit
#			load_focus_tree = RAJ_Fascist_Crisis_1 #just here to make sure the category does not disappear
#		}
#		ai_will_do = {
#			factor = 0
#		}
#	}
#	RAJ_debug_RAJ_Fascist_Crisis_3  = {
#		allowed = {
#			OR = {
#				is_indian_nation = yes
#				tag = PRU
#			}
#		}
#		custom_cost_trigger = { always = yes } #no cost
#		fire_only_once = no
#		complete_effect = {
#			log = "[GetDateText]: [Root.GetName]: Decision RAJ_debug_RAJ_Fascist_Crisis_3"
#			custom_effect_tooltip = debug_your_shit
#			load_focus_tree = RAJ_Fascist_Crisis_3 #just here to make sure the category does not disappear
#		}
#		ai_will_do = {
#			factor = 0
#		}
#	}
#	RAJ_debug_RAJ_BJS_Victory = {
#		allowed = {
#			OR = {
#				is_indian_nation = yes
#				tag = PRU
#			}
#		}
#		custom_cost_trigger = { always = yes } #no cost
#		fire_only_once = no
#		complete_effect = {
#			log = "[GetDateText]: [Root.GetName]: Decision RAJ_debug_RAJ_BJS_Victory"
#			custom_effect_tooltip = debug_your_shit
#			set_country_flag = RAJ_BJS_Victory
#			load_focus_tree = RAJ_BJS_Victory #just here to make sure the category does not disappear
#		}
#		ai_will_do = {
#			factor = 0
#		}
#	}
#	RAJ_debug_RAJ_Golwalkar_Victory = {
#		allowed = {
#			OR = {
#				is_indian_nation = yes
#				tag = PRU
#			}
#		}
#		custom_cost_trigger = { always = yes } #no cost
#		fire_only_once = no
#		complete_effect = {
#			log = "[GetDateText]: [Root.GetName]: Decision RAJ_debug_RAJ_Golwalkar_Victory"
#			custom_effect_tooltip = debug_your_shit
#			load_focus_tree = RAJ_Golwalkar_Victory #just here to make sure the category does not disappear
#		}
#		ai_will_do = {
#			factor = 0
#		}
#	}
#	RAJ_debug_RAJ_Golwalkar_Post_Purge = {
#		allowed = {
#			OR = {
#				is_indian_nation = yes
#				tag = PRU
#			}
#		}
#		custom_cost_trigger = { always = yes } #no cost
#		fire_only_once = no
#		complete_effect = {
#			log = "[GetDateText]: [Root.GetName]: Decision RAJ_debug_RAJ_Golwalkar_Post_Purge"
#			custom_effect_tooltip = debug_your_shit
#			load_focus_tree = RAJ_Golwalkar_Post_Purge #just here to make sure the category does not disappear
#		}
#		ai_will_do = {
#			factor = 0
#		}
#	}
#	RAJ_debug_RAJ_Indian_Communist = {
#		allowed = {
#			OR = {
#				is_indian_nation = yes
#				tag = PRU
#			}
#		}
#		custom_cost_trigger = { always = yes } #no cost
#		fire_only_once = no
#		complete_effect = {
#			log = "[GetDateText]: [Root.GetName]: Decision RAJ_debug_RAJ_Indian_Communist"
#			custom_effect_tooltip = debug_your_shit
#			load_focus_tree = RAJ_Indian_Communist #just here to make sure the category does not disappear
#		}
#		ai_will_do = {
#			factor = 0
#		}
#	}
#	RAJ_debug_RAJ_Communist_Crisis_1 = {
#		allowed = {
#			OR = {
#				is_indian_nation = yes
#				tag = PRU
#			}
#		}
#		custom_cost_trigger = { always = yes } #no cost
#		fire_only_once = no
#		complete_effect = {
#			log = "[GetDateText]: [Root.GetName]: Decision RAJ_debug_RAJ_Communist_Crisis_1"
#			custom_effect_tooltip = debug_your_shit
#			load_focus_tree = RAJ_Communist_Crisis_1 #just here to make sure the category does not disappear
#		}
#		ai_will_do = {
#			factor = 0
#		}
#	}
#	RAJ_debug_RAJ_Dange_Victory = {
#		allowed = {
#			OR = {
#				is_indian_nation = yes
#				tag = PRU
#			}
#		}
#		custom_cost_trigger = { always = yes } #no cost
#		fire_only_once = no
#		complete_effect = {
#			log = "[GetDateText]: [Root.GetName]: Decision RAJ_debug_RAJ_Dange_Victory"
#			custom_effect_tooltip = debug_your_shit
#			load_focus_tree = RAJ_Dange_Victory #just here to make sure the category does not disappear
#		}
#		ai_will_do = {
#			factor = 0
#		}
#	}
#	RAJ_debug_RAJ_Marx_Victory = {
#		allowed = {
#			OR = {
#				is_indian_nation = yes
#				tag = PRU
#			}
#		}
#		custom_cost_trigger = { always = yes } #no cost
#		fire_only_once = no
#		complete_effect = {
#			log = "[GetDateText]: [Root.GetName]: Decision RAJ_debug_RAJ_Marx_Victory"
#			custom_effect_tooltip = debug_your_shit
#			load_focus_tree = RAJ_Marx_Victory #just here to make sure the category does not disappear
#		}
#		ai_will_do = {
#			factor = 0
#		}
#	}
#	RAJ_debug_RAJ_Tela_Victory = {
#		allowed = {
#			OR = {
#				is_indian_nation = yes
#				tag = PRU
#			}
#		}
#		custom_cost_trigger = { always = yes } #no cost
#		fire_only_once = no
#		complete_effect = {
#			log = "[GetDateText]: [Root.GetName]: Decision RAJ_debug_RAJ_Tela_Victory"
#			custom_effect_tooltip = debug_your_shit
#			load_focus_tree = RAJ_Tela_Victory #just here to make sure the category does not disappear
#		}
#		ai_will_do = {
#			factor = 0
#		}
#	}
#	RAJ_debug_RAJ_Indira_Victory = {
#		allowed = {
#			OR = {
#				is_indian_nation = yes
#				tag = PRU
#			}
#		}
#		custom_cost_trigger = { always = yes } #no cost
#		fire_only_once = no
#		complete_effect = {
#			log = "[GetDateText]: [Root.GetName]: Decision RAJ_debug_RAJ_Indira_Victory"
#			custom_effect_tooltip = debug_your_shit
#			load_focus_tree = RAJ_Indira_Victory_tree #just here to make sure the category does not disappear
#		}
#		ai_will_do = {
#			factor = 0
#		}
#	}
#	RAJ_debug_RAJ_Military_Victory = {
#		allowed = {
#			OR = {
#				is_indian_nation = yes
#				tag = PRU
#			}
#		}
#		custom_cost_trigger = { always = yes } #no cost
#		fire_only_once = no
#		complete_effect = {
#			log = "[GetDateText]: [Root.GetName]: Decision RAJ_debug_RAJ_Military_Victory"
#			custom_effect_tooltip = debug_your_shit
#			load_focus_tree = RAJ_Military_Victory_tree #just here to make sure the category does not disappear
#		}
#		ai_will_do = {
#			factor = 0
#		}
#	}
#	RAJ_debug_RAJ_Explosion = {
#		allowed = {
#			OR = {
#				is_indian_nation = yes
#				tag = PRU
#			}
#		}
#		custom_cost_trigger = { always = yes } #no cost
#		fire_only_once = no
#		complete_effect = {
#			log = "[GetDateText]: [Root.GetName]: Decision RAJ_debug_RAJ_Explosion"
#			custom_effect_tooltip = debug_your_shit
#			load_focus_tree = RAJ_Explosion #just here to make sure the category does not disappear
#		}
#		ai_will_do = {
#			factor = 0
#		}
#	}
#	RAJ_debug_RAJ_fake_exercises = {
#		allowed = {
#			OR = {
#				is_indian_nation = yes
#				tag = PRU
#			}
#		}
#		custom_cost_trigger = { always = yes } #no cost
#		fire_only_once = no
#		complete_effect = {
#			log = "[GetDateText]: [Root.GetName]: Decision RAJ_debug_RAJ_fake_exercises"
#			custom_effect_tooltip = debug_your_shit
#			load_focus_tree = RAJ_fake_exercises #just here to make sure the category does not disappear
#		}
#		ai_will_do = {
#			factor = 0
#		}
#	}
#	RAJ_debug_RAJ_guru_dead = {
#		allowed = {
#			OR = {
#				is_indian_nation = yes
#				tag = PRU
#			}
#		}
#		custom_cost_trigger = { always = yes } #no cost
#		fire_only_once = no
#		complete_effect = {
#			log = "[GetDateText]: [Root.GetName]: Decision RAJ_debug_RAJ_guru_dead"
#			custom_effect_tooltip = debug_your_shit
#			load_focus_tree = RAJ_guru_dead #just here to make sure the category does not disappear
#		}
#		ai_will_do = {
#			factor = 0
#		}
#	}
#	RAJ_debug_RAJ_enforce_1989 = {
#		allowed = {
#			OR = {
#				is_indian_nation = yes
#				tag = PRU
#			}
#		}
#		custom_cost_trigger = { always = yes } #no cost
#		fire_only_once = no
#		complete_effect = {
#			log = "[GetDateText]: [Root.GetName]: Decision RAJ_debug_RAJ_enforce_1989"
#			custom_effect_tooltip = debug_your_shit
#			load_focus_tree = RAJ_red_fort_dissent #just here to make sure the category does not disappear
#		}
#		ai_will_do = {
#			factor = 0
#		}
#	}
#	RAJ_debug_RAJ_rao_gang = {
#		allowed = {
#			OR = {
#				is_indian_nation = yes
#				tag = PRU
#			}
#		}
#		custom_cost_trigger = { always = yes } #no cost
#		fire_only_once = no
#		complete_effect = {
#			log = "[GetDateText]: [Root.GetName]: Decision RAJ_debug_RAJ_rao_gang"
#			custom_effect_tooltip = debug_your_shit
#			load_focus_tree = RAJ_rao_gang_wins #just here to make sure the category does not disappear
#		}
#		ai_will_do = {
#			factor = 0
#		}
#	}
#	RAJ_debug_RAJ_ultimate_rao_gang = {
#		allowed = {
#			OR = {
#				is_indian_nation = yes
#				tag = PRU
#			}
#		}
#		custom_cost_trigger = { always = yes } #no cost
#		fire_only_once = no
#		complete_effect = {
#			log = "[GetDateText]: [Root.GetName]: Decision RAJ_debug_RAJ_ultimate_rao_gang"
#			custom_effect_tooltip = debug_your_shit
#			load_focus_tree = rao_orissa_tree #just here to make sure the category does not disappear
#		}
#		ai_will_do = {
#			factor = 0
#		}
#	}
#	RAJ_debug_RAJ_nobody_came = {
#		allowed = {
#			OR = {
#				is_indian_nation = yes
#				tag = PRU
#			}
#		}
#		custom_cost_trigger = { always = yes } #no cost
#		fire_only_once = no
#		complete_effect = {
#			log = "[GetDateText]: [Root.GetName]: Decision RAJ_debug_RAJ_nobody_came"
#			custom_effect_tooltip = debug_your_shit
#			load_focus_tree = RAJ_INC_nobody #just here to make sure the category does not disappear
#		}
#		ai_will_do = {
#			factor = 0
#		}
#	}
#	RAJ_debug_RAJ_devi_tree = {
#		allowed = {
#			OR = {
#				is_indian_nation = yes
#				tag = PRU
#			}
#		}
#		custom_cost_trigger = { always = yes } #no cost
#		fire_only_once = no
#		complete_effect = {
#			log = "[GetDateText]: [Root.GetName]: Decision RAJ_debug_RAJ_devi_tree"
#			custom_effect_tooltip = debug_your_shit
#			load_focus_tree = RAJ_devi_tree #just here to make sure the category does not disappear
#		}
#		ai_will_do = {
#			factor = 0
#		}
#	}
#	RAJ_debug_RAJ_relaxed_devi_tree = {
#		allowed = {
#			OR = {
#				is_indian_nation = yes
#				tag = PRU
#			}
#		}
#		custom_cost_trigger = { always = yes } #no cost
#		fire_only_once = no
#		complete_effect = {
#			log = "[GetDateText]: [Root.GetName]: Decision RAJ_debug_RAJ_relaxed_devi_tree"
#			custom_effect_tooltip = debug_your_shit
#			load_focus_tree = RAJ_devi_relaxed_tree #just here to make sure the category does not disappear
#		}
#		ai_will_do = {
#			factor = 0
#		}
#	}
#	RAJ_debug_RAJ_crazy_devi_tree = {
#		allowed = {
#			OR = {
#				is_indian_nation = yes
#				tag = PRU
#			}
#		}
#		custom_cost_trigger = { always = yes } #no cost
#		fire_only_once = no
#		complete_effect = {
#			log = "[GetDateText]: [Root.GetName]: Decision RAJ_debug_RAJ_crazy_devi_tree"
#			custom_effect_tooltip = debug_your_shit
#			load_focus_tree = RAJ_devi_crazy_tree #just here to make sure the category does not disappear
#		}
#		ai_will_do = {
#			factor = 0
#		}
#	}
#	RAJ_debug_RAJ_marxcrisistree = {
#		allowed = {
#			OR = {
#				is_indian_nation = yes
#				tag = PRU
#			}
#		}
#		custom_cost_trigger = { always = yes } #no cost
#		fire_only_once = no
#		complete_effect = {
#			log = "[GetDateText]: [Root.GetName]: Decision RAJ_debug_RAJ_marxcrisistree"
#			custom_effect_tooltip = debug_your_shit
#			load_focus_tree = TNO_RAJ_Marxcrisis #just here to make sure the category does not disappear
#		}
#		ai_will_do = {
#			factor = 0
#		}
#	}
#
#	RAJ_debug_RAJ_CPISikhCrisistree = {
#		allowed = {
#			OR = {
#				is_indian_nation = yes
#				tag = PRU
#			}
#		}
#		custom_cost_trigger = { always = yes } #no cost
#		fire_only_once = no
#		complete_effect = {
#			log = "[GetDateText]: [Root.GetName]: Decision RAJ_debug_RAJ_CPISikhCrisistree"
#			custom_effect_tooltip = debug_your_shit
#			load_focus_tree = TNO_RAJ_CPISikhCrisis #just here to make sure the category does not disappear
#		}
#		ai_will_do = {
#			factor = 0
#		}
#	}
#
#	RAJ_debug_RAJ_RAJ_Famine_Crisis = {
#		allowed = {
#			OR = {
#				is_indian_nation = yes
#				tag = PRU
#			}
#		}
#		custom_cost_trigger = { always = yes } #no cost
#		fire_only_once = no
#		complete_effect = {
#			log = "[GetDateText]: [Root.GetName]: Decision RAJ_debug_RAJ_RAJ_Famine_Crisis"
#			custom_effect_tooltip = debug_your_shit
#			load_focus_tree = RAJ_Famine_Crisis #just here to make sure the category does not disappear
#		}
#		ai_will_do = {
#			factor = 0
#		}
#	}
#
#	RAJ_debug_RAJ_AntiGGR = {
#		allowed = {
#			OR = {
#				is_indian_nation = yes
#				tag = PRU
#			}
#		}
#		custom_cost_trigger = { always = yes } #no cost
#		fire_only_once = no
#		complete_effect = {
#			log = "[GetDateText]: [Root.GetName]: Decision RAJ_debug_RAJ_AntiGGR"
#			custom_effect_tooltip = debug_your_shit
#			load_focus_tree = RAJ_AntiGGR #just here to make sure the category does not disappear
#		}
#		ai_will_do = {
#			factor = 0
#		}
#	}
#
#	RAJ_debug_RAJ_IndianWarDem = {
#		allowed = {
#			OR = {
#				is_indian_nation = yes
#				tag = PRU
#			}
#		}
#		custom_cost_trigger = { always = yes } #no cost
#		fire_only_once = no
#		complete_effect = {
#			log = "[GetDateText]: [Root.GetName]: Decision RAJ_debug_RAJ_IndianWarDem"
#			custom_effect_tooltip = debug_your_shit
#			load_focus_tree = RAJ_IndianWarDem #just here to make sure the category does not disappear
#		}
#		ai_will_do = {
#			factor = 0
#		}
#	}
#
#	RAJ_debug_RAJ_set_fascism = {
#		allowed = {
#			OR = {
#				is_indian_nation = yes
#				tag = PRU
#			}
#		}
#		custom_cost_trigger = { always = yes } #no cost
#		fire_only_once = no
#		complete_effect = {
#			log = "[GetDateText]: [Root.GetName]: Decision RAJ_debug_RAJ_set_fascism"
#			custom_effect_tooltip = debug_your_shit
#			add_popularity = {
#				ideology = fascism
#				popularity = 0.5
#				} #just here to make sure the category does not disappear
#		}
#		ai_will_do = {
#			factor = 0
#		}
#	}
#	RAJ_debug_RAJ_set_commies = {
#		allowed = {
#			OR = {
#				is_indian_nation = yes
#				tag = PRU
#			}
#		}
#		custom_cost_trigger = { always = yes } #no cost
#		fire_only_once = no
#		complete_effect = {
#			log = "[GetDateText]: [Root.GetName]: Decision RAJ_debug_RAJ_set_commies"
#			custom_effect_tooltip = debug_your_shit
#			add_popularity = {
#				ideology = communist
#				popularity = 0.5
#				} #just here to make sure the category does not disappear
#		}
#		ai_will_do = {
#			factor = 0
#		}
#	}
#	RAJ_debug_release_rao = {
#		allowed = {
#			OR = {
#				is_indian_nation = yes
#				tag = PRU
#			}
#		}
#		custom_cost_trigger = { always = yes } #no cost
#		fire_only_once = no
#		complete_effect = {
#			log = "[GetDateText]: [Root.GetName]: Decision RAJ_debug_release_rao"
#			RAO = {
#				transfer_state = 426
#				}#just here to make sure the category does not disappear
#		}
#		ai_will_do = {
#			factor = 0
#		}
#	}
#	RAJ_debug_release_mercs = {
#		allowed = {
#			OR = {
#				is_indian_nation = yes
#				tag = PRU
#			}
#		}
#		custom_cost_trigger = { always = yes } #no cost
#		fire_only_once = no
#		complete_effect = {
#			log = "[GetDateText]: [Root.GetName]: Decision RAJ_debug_release_mercs"
#			MER = {
#				transfer_state = 422
#				transfer_state = 970
#				}#just here to make sure the category does not disappear
#		}
#		ai_will_do = {
#			factor = 0
#		}
#	}
#	RAJ_debug_release_tamils = {
#		allowed = {
#			OR = {
#				is_indian_nation = yes
#				tag = PRU
#			}
#		}
#		custom_cost_trigger = { always = yes } #no cost
#		fire_only_once = no
#		complete_effect = {
#			log = "[GetDateText]: [Root.GetName]: Decision RAJ_debug_release_tamils"
#			TIG = {
#				transfer_state = 970
#				}#just here to make sure the category does not disappear
#		}
#		ai_will_do = {
#			factor = 0
#		}
#	}
#	RAJ_debug_mercenary_bengal = {
#		allowed = {
#			OR = {
#				is_indian_nation = yes
#				tag = PRU
#			}
#		}
#		custom_cost_trigger = { always = yes } #no cost
#		fire_only_once = no
#		complete_effect = {
#			log = "[GetDateText]: [Root.GetName]: Decision RAJ_debug_mercenary_bengal"
#			BEN = {
#				set_politics = {
#					ruling_party = despotism
#				}
#				}#just here to make sure the category does not disappear
#		}
#		ai_will_do = {
#			factor = 0
#		}
#	}
#	RAJ_debug_release_kush = {
#		allowed = {
#			OR = {
#				is_indian_nation = yes
#				tag = PRU
#			}
#		}
#		custom_cost_trigger = { always = yes } #no cost
#		fire_only_once = no
#		complete_effect = {
#			log = "[GetDateText]: [Root.GetName]: Decision RAJ_debug_release_kush"
#			KAS = {
#				transfer_state = 441
#				}#just here to make sure the category does not disappear
#		}
#		ai_will_do = {
#			factor = 0
#		}
#	}
#	RAJ_debug_release_rss = {
#		allowed = {
#			OR = {
#				is_indian_nation = yes
#				tag = PRU
#			}
#		}
#		custom_cost_trigger = { always = yes } #no cost
#		fire_only_once = no
#		complete_effect = {
#			log = "[GetDateText]: [Root.GetName]: Decision RAJ_debug_release_rss"
#			RSS = {
#				transfer_state = 425
#				transfer_state = 932
#				}#just here to make sure the category does not disappear
#		}
#		ai_will_do = {
#			factor = 0
#		}
#	}
#	RAJ_debug_release_biharis = {
#		allowed = {
#			OR = {
#				is_indian_nation = yes
#				tag = PRU
#			}
#		}
#		custom_cost_trigger = { always = yes } #no cost
#		fire_only_once = no
#		complete_effect = {
#			log = "[GetDateText]: [Root.GetName]: Decision RAJ_debug_release_expats"
#			BIH = {
#				transfer_state = 435
#				load_oob = BIH_1972
#				}#just here to make sure the category does not disappear
#		}
#		ai_will_do = {
#			factor = 0
#		}
#	}
#	RAJ_debug_release_banglas = {
#		allowed = {
#			OR = {
#				is_indian_nation = yes
#				tag = PRU
#			}
#		}
#		custom_cost_trigger = { always = yes } #no cost
#		fire_only_once = no
#		complete_effect = {
#			log = "[GetDateText]: [Root.GetName]: Decision RAJ_debug_release_expats"
#			BAN = {
#				transfer_state = 430
#				load_oob = BAN_1972
#				}#just here to make sure the category does not disappear
#		}
#		ai_will_do = {
#			factor = 0
#		}
#	}
#	RAJ_debug_release_asses = {
#		allowed = {
#			OR = {
#				is_indian_nation = yes
#				tag = PRU
#			}
#		}
#		custom_cost_trigger = { always = yes } #no cost
#		fire_only_once = no
#		complete_effect = {
#			log = "[GetDateText]: [Root.GetName]: Decision RAJ_debug_release_expats"
#			ASS = {
#				transfer_state = 432
#				load_oob = ASS_1972
#				}#just here to make sure the category does not disappear
#			TIB = {
#				transfer_state = 434
#			}
#		}
#		ai_will_do = {
#			factor = 0
#		}
#	}
#	RAJ_debug_release_sindhis = {
#		allowed = {
#			OR = {
#				is_indian_nation = yes
#				tag = PRU
#			}
#		}
#		custom_cost_trigger = { always = yes } #no cost
#		fire_only_once = no
#		complete_effect = {
#			log = "[GetDateText]: [Root.GetName]: Decision RAJ_debug_release_expats"
#			SND = {
#				transfer_state = 443
#				load_oob = SND_1972
#				}#just here to make sure the category does not disappear
#		}
#		ai_will_do = {
#			factor = 0
#		}
#	}
#	RAJ_debug_right_wing_coup = {
#		allowed = {
#			OR = {
#				is_indian_nation = yes
#				tag = PRU
#			}
#		}
#		custom_cost_trigger = { always = yes } #no cost
#		fire_only_once = no
#		complete_effect = {
#			log = "[GetDateText]: [Root.GetName]: Decision RAJ_debug_right_wing_coup"
#			custom_effect_tooltip = debug_your_shit
#			load_focus_tree = RAJ_rightwingcoup #just here to make sure the category does not disappear
#		}
#		ai_will_do = {
#			factor = 0
#		}
#	}
#}
#