
strategic_region={
	id=144
	name="STRATEGICREGION_144"
	provinces={
		517 531 556 828 952 1137 1257 1367 1395 1458 1489 1551 1590 1608 1630 1647 1796 1811 1871 1893 1918 1933 1959 1976 1985 1999 2006 2022 2030 2045 2067 2087 2091 3427 3742 3745 4167 4222 4256 4295 4375 4403 4407 4495 4525 4555 4612 4655 4783 4925 4939 4960 4986 4999 5007 5025 5031 5048 5057 5092 5193 6638 6904 6999 7048 7208 7240 7256 7294 7301 7314 7397 7406 7418 7511 7545 7578 7631 7648 7659 7674 7727 7803 7911 7988 8026 8049 8055 8081 8102 8104 8127 9776 9966 10132 10144 10257 10363 10372 10397 10424 10451 10629 10724 10726 10733 10770 10787 10841 10854 10856 10880 10899 10903 11752 11865 12141 12156 12274 12331 12348 12356 12403 12448 12554 12609 12705 12706 12713 12724 12750 12767 12776 12819 12837 12880 12882 13249 13250 
	}
	weather={
		period={
			between={ 0.0 30.0 }
			temperature={ -10.0 -3.0 }
			temperature_day_night={ 8.0 -8.0 }
			no_phenomenon=0.700
			rain_light=0.000
			rain_heavy=0.000
			snow=0.200
			blizzard=0.100
			arctic_water=0.000
			mud=1.000
			sandstorm=0.000
			min_snow_level=0.000
		}
		period={
			between={ 0.1 27.1 }
			temperature={ -5.0 5.0 }
			temperature_day_night={ 8.0 -8.0 }
			no_phenomenon=0.750
			rain_light=0.000
			rain_heavy=0.000
			snow=0.200
			blizzard=0.050
			arctic_water=0.000
			mud=1.000
			sandstorm=0.000
			min_snow_level=0.000
		}
		period={
			between={ 0.2 30.2 }
			temperature={ 7.0 10.0 }
			temperature_day_night={ 8.0 -8.0 }
			no_phenomenon=0.850
			rain_light=0.050
			rain_heavy=0.000
			snow=0.050
			blizzard=0.050
			arctic_water=0.000
			mud=1.000
			sandstorm=0.000
			min_snow_level=0.000
		}
		period={
			between={ 0.3 29.3 }
			temperature={ 15.0 17.0 }
			temperature_day_night={ 8.0 -8.0 }
			no_phenomenon=0.850
			rain_light=0.100
			rain_heavy=0.050
			snow=0.000
			blizzard=0.000
			arctic_water=0.000
			mud=1.000
			sandstorm=0.000
			min_snow_level=0.000
		}
		period={
			between={ 0.4 30.4 }
			temperature={ 19.0 22.0 }
			temperature_day_night={ 8.0 -8.0 }
			no_phenomenon=0.750
			rain_light=0.100
			rain_heavy=0.150
			snow=0.000
			blizzard=0.000
			arctic_water=0.000
			mud=1.000
			sandstorm=0.000
			min_snow_level=0.000
		}
		period={
			between={ 0.5 29.5 }
			temperature={ 23.0 27.0 }
			temperature_day_night={ 8.0 -8.0 }
			no_phenomenon=0.650
			rain_light=0.100
			rain_heavy=0.250
			snow=0.000
			blizzard=0.000
			arctic_water=0.000
			mud=1.000
			sandstorm=0.000
			min_snow_level=0.000
		}
		period={
			between={ 0.6 30.6 }
			temperature={ 24.0 28.0 }
			temperature_day_night={ 8.0 -8.0 }
			no_phenomenon=0.600
			rain_light=0.150
			rain_heavy=0.250
			snow=0.000
			blizzard=0.000
			arctic_water=0.000
			mud=1.000
			sandstorm=0.000
			min_snow_level=0.000
		}
		period={
			between={ 0.7 30.7 }
			temperature={ 23.0 27.0 }
			temperature_day_night={ 8.0 -8.0 }
			no_phenomenon=0.650
			rain_light=0.150
			rain_heavy=0.200
			snow=0.000
			blizzard=0.000
			arctic_water=0.000
			mud=1.000
			sandstorm=0.000
			min_snow_level=0.000
		}
		period={
			between={ 0.8 29.8 }
			temperature={ 18.0 22.0 }
			temperature_day_night={ 8.0 -8.0 }
			no_phenomenon=0.750
			rain_light=0.100
			rain_heavy=0.150
			snow=0.000
			blizzard=0.000
			arctic_water=0.000
			mud=1.000
			sandstorm=0.000
			min_snow_level=0.000
		}
		period={
			between={ 0.9 30.9 }
			temperature={ 12.0 16.0 }
			temperature_day_night={ 8.0 -8.0 }
			no_phenomenon=0.850
			rain_light=0.070
			rain_heavy=0.080
			snow=0.000
			blizzard=0.000
			arctic_water=0.000
			mud=1.000
			sandstorm=0.000
			min_snow_level=0.000
		}
		period={
			between={ 0.10 29.10 }
			temperature={ 3.0 6.0 }
			temperature_day_night={ 8.0 -8.0 }
			no_phenomenon=0.900
			rain_light=0.050
			rain_heavy=0.000
			snow=0.050
			blizzard=0.000
			arctic_water=0.000
			mud=1.000
			sandstorm=0.000
			min_snow_level=0.000
		}
		period={
			between={ 0.11 30.11 }
			temperature={ -4.0 -3.0 }
			temperature_day_night={ 6.0 -6.0 }
			no_phenomenon=0.750
			rain_light=0.000
			rain_heavy=0.000
			snow=0.150
			blizzard=0.100
			arctic_water=0.000
			mud=1.000
			sandstorm=0.000
			min_snow_level=0.000
		}
	}
}
