
strategic_region={
	id=210
	name="STRATEGICREGION_211"
	provinces={
		344 6346 9046 9256 3259 6283 11236 366 3358 9302 11282 401 3327 14457 79 149 3151 6174 11068 104 126 181 3120 6139 6197 9097 9098 11032 11080 11139 11186 95 3053 6324 9120 9319 9408 11097 11202 11304 11392 207 248 354 387 6242 6293 9254 9331 9353 9386 11234 11259 498 520 3503 3517 3529 3555 6479 6503 6527 6541 6575 9442 9459 9474 9504 9530 11395 11447 11474 11484 13284 14441 301 350 3290 3391 6290 6348 6380 6414 9235 9282 9348 9378 9395 11217 11268 11330 457 558 580 3554 3580 6254 6304 6543 6603 9260 9542 9579 11244 11526 302 328 384 6355 9328 9355 9384 9411 11214 11283 11310 11337 11368 212 261 300 3236 3250 3292 3376 6262 6315 6333 6396 9366 11242 11347 326 353 433 483 578 3304 3316 3343 3372 3426 3465 3477 3578 6328 6366 6450 6492 6539 9326 9352 9460 9564 11308 11408 11449 11551 13296 473 534 6432 6577 9424 9489 11439 11500 70 3072 3110 6035 6095 9164 9197 11174 449 484 500 509 533 3478 3489 3505 3519 3540 6544 6566 9488 9516 9540 9565 11459 11476 11501 187 226 287 333 2999 3101 3215 3235 3321 3344 6264 6303 6367 6400 9242 9265 9287 9333 9343 11224 11272 11315 11326 11349 85 150 3143 3176 3323 6022 6122 6203 6245 9144 11084 11154 11250 2 121 231 252 3077 3116 3220 6056 6101 6143 6167 6356 9122 9188 9345 11039 11099 11166 11205 13128 13325 13328 214 280 346 357 378 3202 3240 3268 3339 3347 3370 6135 6231 6247 6269 6295 6316 6358 6362 6392 9257 9267 9278 9311 9356 11239 11252 11295 11338 11362 6370 9389 269 283 314 330 397 3257 3275 3302 3322 3356 3387 6279 6284 6410 9266 9273 9313 9330 9376 11248 11258 11294 11314 11363 11379 208 324 376 380 3221 3266 3317 3360 3371 6248 6291 6329 6343 6353 6382 6391 6409 9258 9276 9286 9324 9344 9380 9407 9409 11240 11262 11269 11309 11324 11335 11364 11393 11394 232 275 313 340 367 396 471 3332 3389 9245 9312 9367 9422 11227 11296 11323 11351 11381 11436 356 3199 3291 3318 3346 6230 6317 6341 6369 6398 9339 9394 413 437 510 3469 3504 3527 3566 6428 6477 6494 6553 6587 6591 9448 9529 9552 11396 11412 11475 11540 8 71 110 117 320 3089 6086 6154 6225 9212 9234 11072 11109 11191 39 57 81 93 129 152 160 163 172 194 3035 3057 3085 3124 3140 3154 3163 6073 6131 6182 6189 9060 9102 9107 9111 9153 9177 9184 9207 11048 11059 11062 11083 11093 11131 11165 11168 13335 13336 13339 487 518 544 579 3431 3518 3539 3582 6454 6506 6528 6563 6602 9436 9464 9475 9502 11423 11451 11485 11512 11527 11555 499 3490 3551 6574 6601 9432 9577 11421 11460 11523 13286 288 315 343 371 398 3226 3306 3335 3364 3390 6305 6330 6386 6411 11229 11298 11325 246 274 352 382 3263 3308 3345 3377 6252 6365 9261 9301 11235 11284 11300 11369 306 335 3247 3279 3313 3362 6273 6387 9272 9318 9382 9399 11254 11290 11353 11384 289 6233 6344 6354 9247 9288 9342 9371 9396 11230 11271 11355 11383 223 236 3210 3278 3297 6243 9253 9351 11336 13292  
	} #Delete all past 13292
	weather={
		period={
			between={ 0.0 30.0 }
			temperature={ -12.0 3.0 }
			temperature_day_night={ 7.0 -7.0 }
			no_phenomenon=0.550
			rain_light=0.100
			rain_heavy=0.050
			snow=0.400
			blizzard=0.050 
			arctic_water=0.000 
			mud=1.600
			sandstorm=0.000
			min_snow_level=0.000
		}
		period={
			between={ 0.1 27.1 }
			temperature={ -15.0 3.0 }
			temperature_day_night={ 7.0 -7.0 }
			no_phenomenon=0.600
			rain_light=0.100
			rain_heavy=0.050
			snow=0.400
			blizzard=0.050 
			arctic_water=0.000 
			mud=1.600
			sandstorm=0.000
			min_snow_level=0.000
		}
		period={
			between={ 0.2 30.2 }
			temperature={ -4.0 5.0 }
			temperature_day_night={ 7.0 -7.0 }
			no_phenomenon=0.550
			rain_light=0.150
			rain_heavy=0.050
			snow=0.300
			blizzard=0.100 
			arctic_water=0.000 
			mud=1.600
			sandstorm=0.000
			min_snow_level=0.000
		}
		period={
			between={ 0.3 29.3 }
			temperature={ 0.0 16.0 }
			temperature_day_night={ 7.0 -7.0 }
			no_phenomenon=0.600
			rain_light=0.350
			rain_heavy=0.100
			snow=0.150
			blizzard=0.000 
			arctic_water=0.000 
			mud=1.600
			sandstorm=0.000
			min_snow_level=0.000
		}
		period={
			between={ 0.4 30.4 }
			temperature={ 7.0 19.0 }
			temperature_day_night={ 6.0 -6.0 }
			no_phenomenon=0.600
			rain_light=0.400
			rain_heavy=0.100
			snow=0.000
			blizzard=0.000 
			arctic_water=0.000 
			mud=1.600
			sandstorm=0.000
			min_snow_level=0.000
		}
		period={
			between={ 0.5 29.5 }
			temperature={ 11.0 22.0 }
			temperature_day_night={ 8.0 -8.0 }
			no_phenomenon=0.600
			rain_light=0.250
			rain_heavy=0.150
			snow=0.000
			blizzard=0.000 
			arctic_water=0.000 
			mud=1.600
			sandstorm=0.000
			min_snow_level=0.000
		}
		period={
			between={ 0.6 30.6 }
			temperature={ 13.0 24.0 }
			temperature_day_night={ 8.0 -8.0 }
			no_phenomenon=0.600
			rain_light=0.250
			rain_heavy=0.150
			snow=0.000
			blizzard=0.000 
			arctic_water=0.000 
			mud=1.600
			sandstorm=0.000
			min_snow_level=0.000
		}
		period={
			between={ 0.7 30.7 }
			temperature={ 12.0 23.0 }
			temperature_day_night={ 8.0 -8.0 }
			no_phenomenon=0.600
			rain_light=0.250
			rain_heavy=0.150
			snow=0.000
			blizzard=0.000 
			arctic_water=0.000 
			mud=1.600
			sandstorm=0.000
			min_snow_level=0.000
		}
		period={
			between={ 0.8 29.8 }
			temperature={ 7.0 17.0 }
			temperature_day_night={ 8.0 -8.0 }
			no_phenomenon=0.600
			rain_light=0.250
			rain_heavy=0.150
			snow=0.000
			blizzard=0.000 
			arctic_water=0.000 
			mud=1.600
			sandstorm=0.000
			min_snow_level=0.000
		}
		period={
			between={ 0.9 30.9 }
			temperature={ 3.0 10.0 }
			temperature_day_night={ 8.0 -8.0 }
			no_phenomenon=0.550
			rain_light=0.200
			rain_heavy=0.100
			snow=0.150
			blizzard=0.000 
			arctic_water=0.000 
			mud=1.600
			sandstorm=0.000
			min_snow_level=0.000
		}
		period={
			between={ 0.10 29.10 }
			temperature={ -5.0 5.0 }
			temperature_day_night={ 8.0 -8.0 }
			no_phenomenon=0.550
			rain_light=0.100
			rain_heavy=0.150
			snow=0.300
			blizzard=0.050 
			arctic_water=0.000 
			mud=1.600
			sandstorm=0.000
			min_snow_level=0.000
		}
		period={
			between={ 0.11 30.11 }
			temperature={ -7.0 -2.0 }
			temperature_day_night={ 8.0 -8.0 }
			no_phenomenon=0.200
			rain_light=0.130
			rain_heavy=0.070
			snow=0.450
			blizzard=0.050 
			arctic_water=0.000 
			mud=1.600
			sandstorm=0.000
			min_snow_level=0.010
		}
	}
}
