﻿# Division template historical names system. Is a new method of naming the divisions based on the names-group assigned to it's template.
# If we run out of all historical names, the names will be assigned in the old way.
#
# Each group has a made up tag. Use it if you want to append more, or replace existing names with the extra txt files (modding).
#
# for_countries - lists all countries that can use it. If empty, or entire tag is missing, all countries in the world can use it.
#
# can_use - is a trigger that locks/unlocks the group under specific circumstances. The trigger is in a country scope.
#
# division_types - is a list of tokens to corresponding unit types. A player can in fact use any group of names for a div.template
#                  however this tag is a helper for an automated choice (for AI, or if the group must switch on it's own, because
#                  for example the current one is no longer available due to the can_use trigger saying so).
#                  In automated choice, the division template must have at least 1 of the following types for it to be chosen.
#
# fallback_name - Is going to be used if we run out of the scripted historical names. If you want to use the old division naming
#                 mechanics to be used for fallbacks, then just skip this option.
#
# unordered - It's a list of historical division names that did not have a number. Regardless if such names happened in history or not
#             this option is available here mainly for a mods.
#
# ordered - Is a list of all historical names. 
#           Numbers must start from 1 and up. 
#           Numbers can't repeat in one scope.
#           If you script the name for this group, at the same number (for example in a mod in another file), the name will be override.
#           All arguments between the brackets must be separated by spaces. Each argument is wrapped in "quotas".
#           1st argument = The name. It must contain either: 
#                          %d (for decimal number placement)
#                          %s (for string number placement - ROMAN numbers like XIV).
#           2nd argument is optional = A localizable text describing this historical division. The text will be visible in the tooltip
#                                      where you choose the historical division name.
#           3rd argument is optional = An URL preferably pointing to the WIKI. It's a future feature that is not currently working in
#                                      the current game version.
RAJ_INF_01 = 
{
	name = "Infantry Division"

	for_countries = { RAJ }

	can_use = { always = yes }

	division_types = { "infantry" }

	# Number reservation system will tie to another group.
	#link_numbering_with = { RAJ_INF_01 }

	fallback_name = "%d Corps"

	# Names with numbers (only one number per entry). 
	# It's okay to have gaps in numbering.
	ordered =
	{
		4 = { "IV Corps" }
		5 = { "V Corps" }
		9 = { "IX Corps" }
		11 = { "XI Corps" }
		7 = { "VII Corps" }
		8 = { "VIII Corps" }		
		10 = { "X Corps" }
		14 = { "XIV Corps" }	
		6 = { "VI Corps" }				
		17 = { "XVII Corps" }
		19 = { "XIX Corps" }
		23 = { "XXIII Corps" }				
		34 = { "XXXIV Corps" }
		20 = { "XX Corps" }
		26 = { "XXVI Corps" }
		25 = { "XXV Corps" }				
		2 = { "II Corps" }
		36 = { "XXXVI Corps" }
		12 = { "XII Corps" }
		39 = { "XXXIX Corps" }
		3 = { "III Corps" }	
		21 = { "XXI Corps" }
		1 = { "I Corps" } #inactive/fictional units
		13 = { "XIII Corps" }
		15 = { "XV Corps" }
		16 = { "XVI Corps" }
		18 = { "XVIII Corps" }
		22 = { "XXII Corps" }
		24 = { "XXIV Corps" }
		27 = { "XXVII Corps" }
		28 = { "XXVIII Corps" }
		29 = { "%dth Indian Division" }
		30 = { "XXX Corps" }
		33 = { "XXXIII Corps" }
		35 = { "XXXV Corps" }
		37 = { "XXXVII Corps" }
		38 = { "XXXVIII Corps" }
		40 = { "XXXX Corps" }
		41 = { "XXXXI Corps" }
		42 = { "XXXXII Corps" }
		45 = { "XXXXV Corps" }
		46 = { "XXXXVI Corps" }
		47 = { "XXXXVII Corps" }
		48 = { "XXXXVIII Corps" }
		49 = { "XXXXIX Corps" }
		50 = { "L Corps" }
		51 = { "LI Corps" }
		52 = { "LII Corps" }
		53 = { "LIII Corps" }
		54 = { "LIV Corps" }
		55 = { "LV Corps" }
		56 = { "LVI Corps" }
		57 = { "LVII Corps" }
		58 = { "LVIII Corps" }
		59 = { "LIX Corps" }
		60 = { "LX Corps" }
		31 = { "XXXI Corps" }
		32 = { "XXXII Corps" }
		43 = { "XXXXIII Corps" }
		44 = { "XXXXIV Corps" }
		61 = { "LXI Corps" }
		62 = { "LXII Corps" }
		63 = { "LXIII Corps" }
		64 = { "LXIV Corps" }
		65 = { "LXV Corps" }
		66 = { "LXVI Corps" }
		67 = { "LXVII Corps" }
		68 = { "LXVIII COrps" }
		69 = { "LXIX Corps" }
		70 = { "LXX Corps" }
		71 = { "LXXI Corps" }
		72 = { "LXXII Corps" }
		73 = { "LXXIII Corps" }
		74 = { "LXXIV Corps" }
		75 = { "LXXV Corps" }
		76 = { "LXXVI Corps" }
		77 = { "LXXVII Corps" }
		78 = { "LXXVIII Corps" }
		79 = { "LXXIX Corps" }
		80 = { "LXXX Corps" }
		81 = { "LXXXI Corps" }
		82 = { "LXXXII Corps" }
		83 = { "LXXXIII Corps" }
		84 = { "LXXXIV Corps" }
		85 = { "LXXXV Corps" }
		86 = { "LXXXVI Corps" }
		87 = { "LXXXVII Corps" }
		88 = { "LXXXVIII Corps" }
		89 = { "LXXXIX Corps" }
		90 = { "LXXXX Corps" }
		91 = { "LXXXXI Corps" }
		92 = { "LXXXXII Corps" }
		93 = { "LXXXXIII Corps" }
		94 = { "LXXXXIV Corps" }
		95 = { "LXXXXV Corps" }
		96 = { "LXXXXVI Corps" }
		97 = { "LXXXXVII Corps" }
		98 = { "LXXXXVIII Corps" }
		99 = { "LXXXXIX Corps" }
		100 = { "C Corps" }
	}
}

RAJ_CAV_01 = 
{
	name = "Cavalry Corps"

	for_countries = { RAJ }

	can_use = { always = yes }

	division_types = { "cavalry" }

	# Number reservation system will tie to another group.
	#link_numbering_with = { RAJ_INF_01 }

	fallback_name = "%d Cavalry Corps"

	# Names with numbers (only one number per entry). 
	# It's okay to have gaps in numbering.
	ordered =
	{
		1 = { "I Cavalry Corps" }
		2 = { "II Cavalry Corps" }
		3 = { "III Cavalry Corps" }
		4 = { "IV Cavalry Corps" }
		5 = { "V Cavalry Corps" }
		6 = { "VI Cavalry Corps" }
		7 = { "VII Cavalry Corps" }
		8 = { "VIII Cavalry Corps" }
		9 = { "IX Cavalry Corps" }
		10 = { "X Cavalry Corps" }
		11 = { "XI Cavalry Corps" }
		12 = { "XII Cavalry Corps" }
		13 = { "XIII Cavalry Corps" }
		14 = { "XIV Cavalry Corps" }
		15 = { "XV Cavalry Corps" }
		16 = { "XVI Cavalry Corps" }
		17 = { "XVII Cavalry Corps" }
		18 = { "XVIII Cavalry Corps" }
		19 = { "XIX Cavalry Corps" }
		20 = { "XX Cavalry Corps" }
		21 = { "XXI Cavalry Corps" }
		22 = { "XXII Cavalry Corps" }
		23 = { "XXIII Cavalry Corps" }
		24 = { "XXIV Cavalry Corps" }
		25 = { "XXV Cavalry Corps" }
	}
}

RAJ_MOT_01 = 
{
	name = "Motor Corps"

	for_countries = { RAJ }

	can_use = { always = yes }

	division_types = { "motorized" }

	# Number reservation system will tie to another group.
	link_numbering_with = { RAJ_INF_01 }

	fallback_name = "%d Motor Corps"

	# Names with numbers (only one number per entry). 
	# It's okay to have gaps in numbering.
	ordered =
	{
		10 = { "X Motor Corps" }
		6 = { "VI Motor Corps" }
		4 = { "IV Motor Corps" }
		5 = { "V Motor Corps" }
		8 = { "VIII Motor Corps" }
		14 = { "XIV Motor Corps" }
		23 = { "XXIII Motor Corps" }
		25 = { "XXV Motor Corps" }				
		9 = { "IX Motor Corps" }
		11 = { "XI Motor Corps" }
		7 = { "VII Motor Corps" }
		17 = { "XVII Motor Corps" }
		19 = { "XIX Motor Corps" }
		34 = { "XXXIV Motor Corps" }
		20 = { "XX Motor Corps" }
		26 = { "XXVI Motor Corps" }
		2 = { "II Motor Corps" }
		36 = { "XXXVI Motor Corps" }
		12 = { "XII Motor Corps" }
		39 = { "XXXIX Motor Corps" }
		3 = { "III Motor Corps" }
		21 = { "XXI Motor Corps" }
		1 = { "I Motor Corps" }	# inactive and fictional units
		13 = { "XIII Motor Corps" }
		15 = { "XV Motor Corps" }
		16 = { "XVI Motor Corps" }
		18 = { "XVIII Motor Corps" }
		22 = { "XXII Motor Corps" }
		24 = { "XXIV Motor Corps" }
		27 = { "XXVII Motor Corps" }
		28 = { "XXVIII Motor Corps" }
		29 = { "XXIX Motor Corps" }
		30 = { "XXX Motor Corps" }
		33 = { "XXXIII Motor Corps" }
		35 = { "XXXV Motor Corps" }
		37 = { "XXXVII Motor Corps" }
		38 = { "XXXVIII Motor Corps" }
		40 = { "XXXX Motor Corps" }
		41 = { "XXXXI Motor Corps" }
		42 = { "XXXXII Motor Corps" }
		45 = { "XXXXV Motor Corps" }
		46 = { "XXXXVI Motor Corps" }
		47 = { "XXXXVII Motor Corps" }
		48 = { "XXXXVIII Motor Corps" }
		49 = { "XXXXIX Motor Corps" }
		50 = { "L Motor Corps" }
		51 = { "LI Motor Corps" }
		52 = { "LII Motor Corps" }
		53 = { "LIII Motor Corps" }
		54 = { "LIV Motor Corps" }
		55 = { "LV Motor Corps" }
		56 = { "LVI Motor Corps" }
		57 = { "LVII Motor Corps" }
		58 = { "LVIII Motor Corps" }
		59 = { "LIX Motor Corps" }
		60 = { "LX Motor Corps" }
		31 = { "XXXI Motor Corps" }
		32 = { "XXXII Motor Corps" }
		43 = { "XXXXIII Motor Corps" }
		44 = { "XXXXIV Motor Corps" }
		61 = { "LXI Motor Corps" }
		62 = { "LXII Motor Corps" }
		63 = { "LXIII Motor Corps" }
		64 = { "LXIV Motor Corps" }
		65 = { "LXV Motor Corps" }
		66 = { "LXVI Motor Corps" }
		67 = { "LXVII Motor Corps" }
		68 = { "LXVIII Motor Corps" }
		69 = { "LXIX Motor Corps" }
		70 = { "LXX Motor Corps" }
		71 = { "LXXI Motor Corps" }
		72 = { "LXXII Motor Corps" }
		73 = { "LXXIII Motor Corps" }
		74 = { "LXXIV Motor Corps" }
		75 = { "LXXV Motor Corps" }
		76 = { "LXXVI Motor Corps" }
		77 = { "LXXVII Motor Corps" }
		78 = { "LXXVIII Motor Corps" }
		79 = { "LXXIX Motor Corps" }
		80 = { "LXXX Motor Corps" }
		81 = { "LXXXI Motor Corps" }
		82 = { "LXXXII Motor Corps" }
		83 = { "LXXXIII Motor Corps" }
		84 = { "LXXXIV Motor Corps" }
		85 = { "LXXXV Motor Corps" }
		86 = { "LXXXVI Motor Corps" }
		87 = { "LXXXVII Motor Corps" }
		88 = { "LXXXVIII Motor Corps" }
		89 = { "LXXXIX Motor Corps" }
		90 = { "LXXXX Motor Corps" }
		91 = { "LXXXXI Motor Corps" }
		92 = { "LXXXXII Motor Corps" }
		93 = { "LXXXXIII Motor Corps" }
		94 = { "LXXXXIV Motor Corps" }
		95 = { "LXXXXV Motor Corps" }
		96 = { "LXXXXVI Motor Corps" }
		97 = { "LXXXXVII Motor Corps" }
		98 = { "LXXXXVIII Motor Corps" }
		99 = { "LXXXXIX Motor Corps" }
		100 = { "C Motor Corps" }
	}
}

RAJ_MEC_01 = 
{
	name = "Mechanized Division"

	for_countries = { RAJ }

	can_use = { always = yes }

	division_types = { "mechanized" }

	# Number reservation system will tie to another group.
	link_numbering_with = { RAJ_INF_01 }

	fallback_name = "%d Indian Mechanized Div."

	# Names with numbers (only one number per entry). 
	# It's okay to have gaps in numbering.
	ordered =
	{
		10 = { "%dth Indian Mechanized Div." }
		6 = { "%dth Indian Mechanized Div." }				
		4 = { "%dth Indian 'Red Eagle' Division" }
		5 = { "%dth Indian 'Ball of Fire' Div." }
		8 = { "%dth Indian 'Clover' Division" }		
		14 = { "%dth Indian 'Quetta' Division" }	
		23 = { "%drd Indian Mechanized Div." }				
		25 = { "%dth Indian Mechanized Div." }				
		9 = { "%dth Indian Mechanized Div." }
		11 = { "%dth Indian Mechanized Div." }
		7 = { "%dth Indian 'Golden Arrow' Div." }
		17 = { "%dth Indian 'Black Cat' Division" }
		19 = { "%dth Indian 'Dagger' Division" }
		34 = { "%dth Indian Mechanized Div." }
		20 = { "%dth Indian Mechanized Div." }
		26 = { "%dth Indian 'Tiger Head' Division" }
		2 = { "%dnd Indian Mechanized Div." }
		36 = { "%dth Indian Division" }
		12 = { "%dnd Indian Mechanized Div." }
		39 = { "%dth Indian Mechanized Div." }
		3 = { "%drd Indian 'Chindits' Division" }	
		21 = { "%dnd Indian Mechanized Div." }
		1 = { "%dst Indian Mechanized Div." }	# inactive and fictional units
		13 = { "%dth Indian Mechanized Div." }
		15 = { "%dth Indian Mechanized Div." }
		16 = { "%dth Indian Mechanized Div." }
		18 = { "%dth Indian Mechanized Div." }
		22 = { "%dnd Indian Mechanized Div." }
		24 = { "%dth Indian Mechanized Div." }
		27 = { "%dth Indian Mechanized Div." }
		28 = { "%dth Indian Mechanized Div." }
		29 = { "%dth Indian Mechanized Div." }
		30 = { "%dth Indian Mechanized Div." }
		33 = { "%drd Indian Mechanized Div." }
		35 = { "%dth Indian Mechanized Div." }
		37 = { "%dth Indian Mechanized Div." }
		38 = { "%dth Indian Mechanized Div." }
		40 = { "%dth Indian Mechanized Div." }
		41 = { "%dst Indian Mechanized Div." }
		42 = { "%dnd Indian Mechanized Div." }
		45 = { "%dth Indian Mechanized Div." }
		46 = { "%dth Indian Mechanized Div." }
		47 = { "%dth Indian Mechanized Div." }
		48 = { "%dth Indian Mechanized Div." }
		49 = { "%dth Indian Mechanized Div." }
		50 = { "%dth Indian Mechanized Div." }
		51 = { "%dst Indian Mechanized Div." }
		52 = { "%dnd Indian Mechanized Div." }
		53 = { "%drd Indian Mechanized Div." }
		54 = { "%dth Indian Mechanized Div." }
		55 = { "%dth Indian Mechanized Div." }
		56 = { "%dth Indian Mechanized Div." }
		57 = { "%dth Indian Mechanized Div." }
		58 = { "%dth Indian Mechanized Div." }
		59 = { "%dth Indian Mechanized Div." }
		60 = { "%dth Indian Mechanized Div." }
		31 = { "%dst Indian Mechanized Div." }
		32 = { "%dnd Indian Mechanized Div." }
		43 = { "%drd Indian Mechanized Div." }
		44 = { "%dth Indian Mechanized Div." }
		61 = { "%dst Indian Mechanized Div." }
		62 = { "%dnd Indian Mechanized Div." }
		63 = { "%drd Indian Mechanized Div." }
		64 = { "%dth Indian Mechanized Div." }
		65 = { "%dth Indian Mechanized Div." }
		66 = { "%dth Indian Mechanized Div." }
		67 = { "%dth Indian Mechanized Div." }
		68 = { "%dth Indian Mechanized Div." }
		69 = { "%dth Indian Mechanized Div." }
		70 = { "%dth Indian Mechanized Div." }
		71 = { "%dst Indian Mechanized Div." }
		72 = { "%dnd Indian Mechanized Div." }
		73 = { "%drd Indian Mechanized Div." }
		74 = { "%dth Indian Mechanized Div." }
		75 = { "%dth Indian Mechanized Div." }
		76 = { "%dth Indian Mechanized Div." }
		77 = { "%dth Indian Mechanized Div." }
		78 = { "%dth Indian Mechanized Div." }
		79 = { "%dth Indian Mechanized Div." }
		80 = { "%dth Indian Mechanized Div." }
		81 = { "%dst Indian Mechanized Div." }
		82 = { "%dnd Indian Mechanized Div." }
		83 = { "%drd Indian Mechanized Div." }
		84 = { "%dth Indian Mechanized Div." }
		85 = { "%dth Indian Mechanized Div." }
		86 = { "%dth Indian Mechanized Div." }
		87 = { "%dth Indian Mechanized Div." }
		88 = { "%dth Indian Mechanized Div." }
		89 = { "%dth Indian Mechanized Div." }
		90 = { "%dth Indian Mechanized Div." }
		91 = { "%dst Indian Mechanized Div." }
		92 = { "%dnd Indian Mechanized Div." }
		93 = { "%drd Indian Mechanized Div." }
		94 = { "%dth Indian Mechanized Div." }
		95 = { "%dth Indian Mechanized Div." }
		96 = { "%dth Indian Mechanized Div." }
		97 = { "%dth Indian Mechanized Div." }
		98 = { "%dth Indian Mechanized Div." }
		99 = { "%dth Indian Mechanized Div." }
		100 = { "%dth Indian Mechanized Div." }
	}
}

RAJ_ARM_01 = 
{
	name = "Armoured Division"

	for_countries = { RAJ }

	can_use = { always = yes }

	division_types = { "light_armor" "medium_armor" "heavy_armor" "modern_armor" }

	# Number reservation system will tie to another group.
	link_numbering_with = { RAJ_INF_01 }

	fallback_name = "%d Indian Armoured Division"

	# Names with numbers (only one number per entry). 
	# It's okay to have gaps in numbering.
	ordered =
	{
		31 = { "%dst Indian Armoured Division" }
		32 = { "%dnd Indian Armoured Division" }
		43 = { "%drd Indian Armoured Division" }
		44 = { "%dth Indian Armoured Division" }
		1 = { "%dst Indian Armoured Division" }		# quickly renamed divisions
		2 = { "%dnd Indian Armoured Division" }
		33 = { "%dth Indian Armoured Division" }	# fictional divisions, higher numbered first
		35 = { "%dth Indian Armoured Division" }
		37 = { "%dth Indian Armoured Division" }
		38 = { "%dth Indian Armoured Division" }
		40 = { "%dth Indian Armoured Division" }
		41 = { "%dst Indian Armoured Division" }
		42 = { "%dnd Indian Armoured Division" }
		13 = { "%dth Indian Armoured Division" }
		15 = { "%dth Indian Armoured Division" }
		16 = { "%dth Indian Armoured Division" }
		18 = { "%dth Indian Armoured Division" }
		22 = { "%dnd Indian Armoured Division" }
		24 = { "%dth Indian Armoured Division" }
		27 = { "%dth Indian Armoured Division" }
		28 = { "%dth Indian Armoured Division" }
		29 = { "%dth Indian Armoured Division" }
		30 = { "%dth Indian Armoured Division" }
		4 = { "%dth Indian Armoured Division" }
		5 = { "%dth Indian Armoured Division" }
		9 = { "%dth Indian Armoured Division" }
		11 = { "%dth Indian Armoured Division" }
		6 = { "%dth Indian Armoured Division" }
		7 = { "%dth Indian Armoured Division" }
		8 = { "%dth Indian Armoured Division" }
		12 = { "%dth Indian Armoured Division" }
		14 = { "%dth Indian Armoured Division" }
		17 = { "%dth Indian Armoured Division" }
		19 = { "%dth Indian Armoured Division" }
		20 = { "%dth Indian Armoured Division" }
		21 = { "%dst Indian Armoured Division" }
		23 = { "%drd Indian Armoured Division" }
		25 = { "%dth Indian Armoured Division" }
		26 = { "%dth Indian Armoured Division" }
		34 = { "%dth Indian Armoured Division" }
		36 = { "%dth Indian Armoured Division" }
		39 = { "%dth Indian Armoured Division" }
		3 = { "%drd Indian Armoured Division" }
	}
}

RAJ_PAR_01 = 
{
	name = "Airborne Division"

	for_countries = { RAJ }

	can_use = { always = yes }

	division_types = { "air_assault" }

	# Number reservation system will tie to another group.
	link_numbering_with = { RAJ_INF_01 }

	fallback_name = "%d Indian Airborne Division"

	# Names with numbers (only one number per entry). 
	# It's okay to have gaps in numbering.
	ordered =
	{
		44 = { "%dth Indian Airborne Division" }
		9 = { "%dth Indian Airborne Division" }		
		33 = { "%drd Indian Airborne Division" }		# fictional divisions
		35 = { "%dth Indian Airborne Division" }		
		37 = { "%dth Indian Airborne Division" }
		38 = { "%dth Indian Airborne Division" }
		40 = { "%dth Indian Airborne Division" }
		41 = { "%dst Indian Airborne Division" }		
		42 = { "%dnd Indian Airborne Division" }
		13 = { "%dth Indian Airborne Division" }
		15 = { "%dth Indian Airborne Division" }
		18 = { "%dth Indian Airborne Division" }
		22 = { "%dnd Indian Airborne Division" }
		24 = { "%dth Indian Airborne Division" }
		27 = { "%dth Indian Airborne Division" }
		28 = { "%dth Indian Airborne Division" }
		29 = { "%dth Indian Airborne Division" }
		30 = { "%dth Indian Airborne Division" }
		2 = { "%dnd Indian Airborne Division" }
		4 = { "%dth Indian 'Red Eagle' Division" }
		5 = { "%dth Indian 'Ball of Fire' Div." }
		6 = { "%dth Indian Airborne Division" }				
		7 = { "%dth Indian 'Golden Arrow' Div." }
		8 = { "%dth Indian 'Clover' Division" }
		10 = { "%dth Indian Airborne Division" }
		11 = { "%dth Indian Airborne Division" }
	}
}

RAJ_MAR_01 = 
{
	name = "Marine Division"

	for_countries = { RAJ }

	can_use = { always = yes }

	division_types = { "marine" }

	# Number reservation system will tie to another group.
	#link_numbering_with = { RAJ_INF_01 }

	fallback_name = "%d Indian Marines Division"

	# Names with numbers (only one number per entry). 
	# It's okay to have gaps in numbering.
	ordered =
	{
		1 = { "%dst Indian Marines Division" }
		2 = { "%dnd Indian Marines Division" }
		3 = { "%drd Indian Marines Division" }
		4 = { "%dth Indian Marines Division" }
		5 = { "%dth Indian Marines Division" }
		6 = { "%dth Indian Marines Division" }
		7 = { "%dth Indian Marines Division" }
		8 = { "%dth Indian Marines Division" }
		9 = { "%dth Indian Marines Division" }
		10 = { "%dth Indian Marines Division" }
		11 = { "%dth Indian Marines Division" }
		12 = { "%dth Indian Marines Division" }
		13 = { "%dth Indian Marines Division" }
		14 = { "%dth Indian Marines Division" }
		15 = { "%dth Indian Marines Division" }
		16 = { "%dth Indian Marines Division" }
		17 = { "%dth Indian Marines Division" }
		18 = { "%dth Indian Marines Division" }
		19 = { "%dth Indian Marines Division" }
		20 = { "%dth Indian Marines Division" }
	}
}

RAJ_MNT_01 = 
{
	name = "Mountain Division"

	for_countries = { RAJ }

	can_use = { always = yes }

	division_types = { "mountaineers" }

	# Number reservation system will tie to another group.
	link_numbering_with = { RAJ_INF_01 }

	fallback_name = "%d Indian Division"

	# Names with numbers (only one number per entry). 
	# It's okay to have gaps in numbering.
	ordered =
	{
		8 = { "%dth Indian 'Clover' Division" }		
		14 = { "%dth Indian 'Quetta' Division" }	
		6 = { "%dth Indian Division" }				
		3 = { "%drd Indian 'Chindits' Division" }	
		23 = { "%drd Indian Division" }				
		25 = { "%dth Indian Division" }				
		7 = { "%dth Indian 'Golden Arrow' Div." }
		10 = { "%dth Indian Division" }
		4 = { "%dth Indian 'Red Eagle' Division" }
		5 = { "%dth Indian 'Ball of Fire' Div." }
		17 = { "%dth Indian 'Black Cat' Division" }
		9 = { "%dth Indian Division" }
		11 = { "%dth Indian Division" }
		19 = { "%dth Indian 'Dagger' Division" }
		34 = { "%dth Indian Division" }
		20 = { "%dth Indian Division" }
		26 = { "%dth Indian 'Tiger Head' Division" }
		2 = { "%dnd Indian Division" }
		36 = { "%dth Indian Division" }
		12 = { "%dnd Indian Division" }
		39 = { "%dth Indian Division" }
		21 = { "%dnd Indian Division" }
		1 = { "%dst Indian Division" }			# inactive and fictional units
		13 = { "%dth Indian Division" }
		15 = { "%dth Indian Division" }
		16 = { "%dth Indian Division" }
		18 = { "%dth Indian Division" }
		22 = { "%dnd Indian Division" }
		24 = { "%dth Indian Division" }
		27 = { "%dth Indian Division" }
		28 = { "%dth Indian Division" }
		29 = { "%dth Indian Division" }
		30 = { "%dth Indian Division" }
		33 = { "%drd Indian Division" }
		35 = { "%dth Indian Division" }
		37 = { "%dth Indian Division" }
		38 = { "%dth Indian Division" }
		40 = { "%dth Indian Division" }
		41 = { "%dst Indian Division" }
		42 = { "%dnd Indian Division" }
		45 = { "%dth Indian Division" }
		46 = { "%dth Indian Division" }
		47 = { "%dth Indian Division" }
		48 = { "%dth Indian Division" }
		49 = { "%dth Indian Division" }
		50 = { "%dth Indian Division" }
		51 = { "%dst Indian Division" }
		52 = { "%dnd Indian Division" }
		53 = { "%drd Indian Division" }
		54 = { "%dth Indian Division" }
		55 = { "%dth Indian Division" }
		56 = { "%dth Indian Division" }
		57 = { "%dth Indian Division" }
		58 = { "%dth Indian Division" }
		59 = { "%dth Indian Division" }
		60 = { "%dth Indian Division" }
		31 = { "%dst Indian Division" }
		32 = { "%dnd Indian Division" }
		43 = { "%drd Indian Division" }
		44 = { "%dth Indian Division" }
		61 = { "%dst Indian Division" }
		62 = { "%dnd Indian Division" }
		63 = { "%drd Indian Division" }
		64 = { "%dth Indian Division" }
		65 = { "%dth Indian Division" }
		66 = { "%dth Indian Division" }
		67 = { "%dth Indian Division" }
		68 = { "%dth Indian Division" }
		69 = { "%dth Indian Division" }
		70 = { "%dth Indian Division" }
		71 = { "%dst Indian Division" }
		72 = { "%dnd Indian Division" }
		73 = { "%drd Indian Division" }
		74 = { "%dth Indian Division" }
		75 = { "%dth Indian Division" }
		76 = { "%dth Indian Division" }
		77 = { "%dth Indian Division" }
		78 = { "%dth Indian Division" }
		79 = { "%dth Indian Division" }
		80 = { "%dth Indian Division" }
		81 = { "%dst Indian Division" }
		82 = { "%dnd Indian Division" }
		83 = { "%drd Indian Division" }
		84 = { "%dth Indian Division" }
		85 = { "%dth Indian Division" }
		86 = { "%dth Indian Division" }
		87 = { "%dth Indian Division" }
		88 = { "%dth Indian Division" }
		89 = { "%dth Indian Division" }
		90 = { "%dth Indian Division" }
		91 = { "%dst Indian Division" }
		92 = { "%dnd Indian Division" }
		93 = { "%drd Indian Division" }
		94 = { "%dth Indian Division" }
		95 = { "%dth Indian Division" }
		96 = { "%dth Indian Division" }
		97 = { "%dth Indian Division" }
		98 = { "%dth Indian Division" }
		99 = { "%dth Indian Division" }
		100 = { "%dth Indian Division" }
	}
}

RAJ_GAR_01 = 
{
	name = "Garrison Division"

	for_countries = { RAJ }

	can_use = { always = yes }

	division_types = { "infantry" }

	# Number reservation system will tie to another group.
	#link_numbering_with = { RAJ_INF_01 }

	fallback_name = "%d Garrison"

	# Names with numbers (only one number per entry). 
	# It's okay to have gaps in numbering.
	ordered =
	{
		101 = { "Peshawar Garrison" }
		102 = { "Kohat Garrison" }
		103 = { "Rawalpindi Garrison" }
		104 = { "Lahore Garrison" }
		105 = { "Waziristan Garrison" }
		106 = { "Meerut Garrison" }
		107 = { "Lucknow Garrison" }
		108 = { "Assam Garrison" }
		109 = { "Deccan Garrison" }
		110 = { "Bombay Garrison" }
		111 = { "Madras Garrison" }
		112 = { "Western Garrison" }
		113 = { "Rangoon Garrison" }
		114 = { "Mandalay Garrison" }
		115 = { "Calcutta Garrison" }
		116 = { "Dehli Garrison" }
		117 = { "Bangalore Garrison" }
		118 = { "Thal Garrison" }
		119 = { "Quetta Garrison" }
		120 = { "Zhob Garrison" }
		121 = { "Sindh Garrison" }
		122 = { "Nowshera Garrison" }
		123 = { "Landikotal Garrison" }
		124 = { "Abbottabad Garrison" }
		125 = { "Jhelum Garrison" }
		126 = { "Jammu Garrison" }
		127 = { "Kashmir Garrison" }
		128 = { "Sealkot Garrison" }
		129 = { "Ferozepore Garrison" }
		130 = { "Jullundur Garrison" }
		131 = { "Ampala Garrison" }
		132 = { "Ramzak Garrison" }
		133 = { "Bannu Garrison" }
		134 = { "Wana Garrison" }
		135 = { "Dehra Garrison" }
		136 = { "Bareilly Garrison" }
		137 = { "Jhansi Garrison" }
		138 = { "Gwalior Garrison" }
		139 = { "Allahabad Garrison" }
		140 = { "East Bengal Garrison" }
		141 = { "Jubbulpore Garrison" }
		142 = { "Poona Garrison" }
		143 = { "Mhow Garrison" }
		144 = { "Hyderabad Garrison" }
		1 = { "%dst Garrison" }
		2 = { "%dnd Garrison" }
		3 = { "%drd Garrison" }
		4 = { "%dth Garrison" }
		5 = { "%dth Garrison" }
		6 = { "%dth Garrison" }
		7 = { "%dth Garrison" }
		8 = { "%dth Garrison" }
		9 = { "%dth Garrison" }
		10 = { "%dth Garrison" }
		11 = { "%dth Garrison" }
		12 = { "%dth Garrison" }
		13 = { "%dth Garrison" }
		14 = { "%dth Garrison" }
		15 = { "%dth Garrison" }
		16 = { "%dth Garrison" }
		17 = { "%dth Garrison" }
		18 = { "%dth Garrison" }
		19 = { "%dth Garrison" }
		20 = { "%dth Garrison" }
		21 = { "%dst Garrison" }
		22 = { "%dnd Garrison" }
		23 = { "%drd Garrison" }
		24 = { "%dth Garrison" }
		25 = { "%dth Garrison" }
	}
}

