bookmarks = {


	###################################################################
	##### DON'T DELETE THIS, ALSO EDIT IN the_gathering_storm.txt #####
	##### DON'T DELETE THIS, ALSO EDIT IN the_gathering_storm.txt #####
	###################################################################

	bookmark = {
		name = "THENEWORDER_NAME"
		desc = "THENEWORDER_DESC"
		date = 1962.1.1.1
		picture = "GFX_select_date_1939"
		default_country = "GER"
		default = yes

		effect = {
			randomize_weather = 12345 # <- Obligatory in every bookmark !
			#123 = { rain_light = yes }
		}

		#### MAJORS ####
			"USA" = {
				history = "USA_THENEWORDER_DESC"
				ideology = social_liberal
				ideas = {
					USA_last_bastion_of_liberty
					USA_the_american_depression_4
					USA_jim_crow
				}
				focuses = {
					USA_the_nixon_presidency
					USA_the_civil_rights_dillema
					USA_Boxing_In_the_Sphere
				}
			}

			"GER" = {
				history = "GER_THENEWORDER_DESC"
				ideology = national_socialism
				ideas = {
					to_banish_want
					the_two_principles
					endsieg
				}
				focuses = {
					GER_a_man_on_the_moon
					GER_the_enemy_of_my_enemy
					GER_a_bridge_too_far
				}
			}

			"ZZZ" = { history = "" }
			"ZZZ" = { history = "" }

			"JAP" = {
				history = "JAP_THENEWORDER_DESC"
				ideology = fascism
				ideas = {
					JAP_showa_emperor
					JAP_nihon_ascendant
					JAP_zaibatsu_question
				}
				focuses = {
					JAP_never_been_better
					JAP_fake_economy_end
					JAP_fake_economy_end_end
				}
			}

			"ITA" = {
				history = "ITA_THENEWORDER_DESC"
				ideology = fascism
				ideas = {
					ITA_king_umberto
					ITA_fadingfascism
					ITA_navy_strengthened
				}
				focuses = {
					ita_road_to_freedom
					ita_am_icizia
					ita_road_to_order
				}
			}
		#### MAJORS ####

		#### MINORS ####
			### ROW 1 ###
				# Buffer
				"ZZZ" = { minor = yes history = "" }

				## OFN ##
					"ZZZ" = {
						minor = yes
						history = ""
					}

					"SAF" = {
						minor = yes
						history = "SAF_THENEWORDER_DESC"
						ideology = social_conservative
						ideas = {
							SAF_The_Empty_Throne
							SAF_Desperate_Neutrality
							SAF_Divided_Nation
						}
						focuses = {
							SAF_south_africas_situation
							SAF_maintain_the_status_quo
							SAF_the_african_national_congress
						}
					}

					"ZZZ" = {
						minor = yes
						history = ""
					}
				## OFN ##

				## PAKT ##
					"BRG" = {
						minor = yes
						history = "BRG_THENEWORDER_DESC"
						ideology = burgundian_system
						ideas = {
							BRG_the_shadow_state
							BRG_purge_the_rot
							BRG_the_three_realms
						}
						focuses = {
							BRG_unter_der_schwarzen_sonne
							BRG_a_wise_leader
							BRG_the_last_hope_for_germania
						}
					}
					
					"ENG" = {
						minor = yes
						history = "ENG_THENEWORDER_DESC"
						ideology = authoritarian_democrat
						ideas = {
							ENG_HMMLR
							ENG_Own_Peoples_Hate
							ENG_Across_The_Channel
						}
						focuses = {
							ENG_keeping_ahead
							ENG_the_kings_speech
							ENG_writing_on_the_walls
						}
					}

					"OST" = {
						minor = yes
						history = "OST_THENEWORDER_DESC"
						ideology = national_socialism
						ideas = {
							OST_model_colony
							OST_unusual_quiet
						}
						focuses = {
							OST_finishing_touches
							OST_invite_hitler
							OST_the_model_colony_focus
						}
					}
				## PAKT ##

				## RUSSIA ##
					"WRS" = {
						minor = yes
						history = "WRS_THENEWORDER_DESC"
						ideology = communist
						ideas = {
							RUS_terror_bombing
							WRS_veterans_of_the_long_war
							WRS_agricultural_insecurity
						}
						focuses = {
							WRS_initial_enduring
							WRS_the_red_bonaparte
							WRS_the_peoples_marshal
						}
					}

					"SAM" = {
						minor = yes
						history = "SAM_THENEWORDER_DESC"
						ideology = despotism
						ideas = {
							SAM_Turncoat_General
							SAM_german_bootlickers
							SAM_The_Smolensk_Manifesto
						}
						focuses = {
							SAM_Our_Guide
							SAM_Our_Loyalty
							SAM_Who_Shall_Stand_Beside_Vlasov
						}
					}

					"KIR" = {
						minor = yes
						history = "KIR_THENEWORDER_DESC"
						ideology = despotism
						ideas = {
							KIR_the_tsar_and_himself
							KIR_officer_infighting
							KIR_unrepentant_reaction
						}
						focuses = {
							KIR_return_of_the_tsar
							KIR_legacy_of_the_tsardom
							KIR_the_eagle_flies_once_more
						}
					}

					"NIK" = {
						minor = yes
						history = "NIK_THENEWORDER_DESC"
						ideology = social_democrat
						ideas = {
							NIK_syvtyvkartsi
							NIK_clash_of_shadows_c_1
							RUS_syktyvkar_arsenal
						}
						focuses = {
							NIK_the_last_years_of_the_voznesentsi
							NIK_something_wicked_this_way_comes
							NIK_the_affairs_of_the_legislature
						}
					}

					"ISH" = {
						minor = yes
						history = "ISH_THENEWORDER_DESC"
						ideology = communist
						ideas = {
							ISH_revisionist_remnant
							ISH_unorthodox_bolshevism
							RUS_ural_automotive_plant
						}
						focuses = {
							ISH_holding_out
							ISH_unpopular_decisions
							ISH_our_own_designs
						}
					}

					"OMS" = {
						minor = yes
						history = "OMS_THENEWORDER_DESC"
						ideology = ultranational_socialism
						ideas = {
							OMS_fueled_by_revenge
							OMS_nothing_left_to_lose
							OMS_karbyshev_figurehead
						}
						focuses = {
							OMS_initial_last_days_of_comrade_karbyshev
							OMS_initial_against_the_old_guard
							OMS_initial_the_shield_of_the_motherland
						}
					}
				## RUSSIA ##

				## CPS ##
					"CHI" = {
						minor = yes
						history = "CHI_THENEWORDER_DESC"
						ideology = fascism
						ideas = {
							CHI_japans_breadbasket_0
							CHI_small_army
							CHI_slave_of_the_samurai_0
						}
						focuses = {
							CHI_Education
							CHI_Technology
							CHI_Industrialization
						}
					}

					"INS" = {
						minor = yes
						history = "INS_THENEWORDER_DESC"
						ideology = fascism
						ideas = {
							INS_Romusha
							INS_Shinkyoutei
							INS_Pembela_Tanah_Air
						}
						focuses = {
							INS_decree_0162
							INS_Presidential_decree_321_65
							INS_A_change_of_plan
						}
					}

					"YUN" = {
						minor = yes
						history = "YUN_THENEWORDER_DESC"
						ideology = despotism
						ideas = {
							YUN_bandit_holdouts
							YUN_hidden_potential_0
							YUN_army_of_the_southwest
						}
						focuses = {
							YUN_the_two_brothers
							YUN_on_solid_ground
							YUN_the_fruits_of_our_labor
						}
					}
				## CPS ##

				## TRIUM ##
					"IBR" = {
						minor = yes
						history = "IBR_THENEWORDER_DESC"
						ideology = despotism
						ideas = {
							The_Gibraltar_Dam
							Iberian_Economic_Nightmare
							Crippled_Sovereignty
						}
						focuses = {
							IBR_Post_Bombing_Council
							IBR_eco_Iberian_economic_miracle
							IBR_antisep_mobilize_AAS
						}
					}

					"ILG" = {
						minor = yes
						history = "ILG_THENEWORDER_DESC"
						ideology = fascism
						ideas = {
							ILG_Wild_Frontier
							ILG_Unofficial_Italian_Settlement
							ILG_Saharan_Bandits_Prevalent
						}
						focuses = {
						}
					}

					"IME" = {
						minor = yes
						history = "IME_THENEWORDER_DESC"
						ideology = despotism
						ideas = {
							IME_italys_finest
							IME_haganah_fatah_negotiations
							IME_terrorism
						}
						focuses = {
							ime_yesh_matzav
							ime_hotline_jerusalem
							ime_confirm_kibbutzim_self_rule
						}
					}
				## TRIUM ##

				# Buffer
				"ZZZ" = { minor = yes history = "" }
			### ROW 1 ###

			### ROW 2 ###
				# Buffer
				"ZZZ" = { minor = yes history = "" }

				## TRIUM ##
					"ZZZ" = {
						minor = yes
						history = ""
					}

					"ZZZ" = {
						minor = yes
						history = ""
					}

					"ZZZ" = {
						minor = yes
						history = ""
					}
				## TRIUM ##

				## PAKT ##
					"ANG" = {
						minor = yes
						history = "ANG_THENEWORDER_DESC"
						ideology = national_socialism
						
						ideas={ 
							ANG_Afrikaner_Airstrip
							ANG_Away_In_The_Clouds
							ANG_Incoherent_Bookkeeping
						}
						focuses = {
							ANG_the_air_empire
							ANG_keepingourheadsdown
							ANG_pushforabettertomorrow
						}
					}

					"MZB" = {
						minor = yes
						history = "MZB_THENEWORDER_DESC"
						ideology = national_socialism
						
						ideas={ 
							MZB_Just_Another_Camp
							MZB_Aryan_Only_SS
							MZB_The_Unending_War
						}
						focuses = {
							MZB_the_guardians_of_afrika
							MZB_prepare_the_werewolves
							MZB_be_happy_or_else
						}
					}

					"COG" = {
						minor = yes
						history = "COG_THENEWORDER_DESC"
						ideology = national_socialism
						
						ideas={ 
							COG_Heart_Of_Afrika_7
							COG_Hands_Off_Administration
							COG_Soldiers_Of_Fortune
						}
						focuses = {
							COG_the_pride_of_afrika
							COG_a_corporate_empire
							COG_the_safari_beckons
						}
					}
				## PAKT ##

				## RUSSIA ##
					"TOB" = {
						minor = yes
						history = "TOB_THENEWORDER_DESC"
						ideology = authoritarian_democrat
						ideas = {
							TOB_notso_redarmy
							TOB_black_league_influence_tier_1
							TOB_revisionist_influence_tier_2
						}
						focuses = {
							TOB_a_bastion_of_freedom
							TOB_trust_the_marshal
							TOB_cast_them_down
						}
					}

					"KEM" = {
						minor = yes
						history = "KEM_THENEWORDER_DESC"
						ideology = despotism
						ideas = {
							KEM_esoteric_kingdom
							KEM_the_two_wolves
							KEM_kings_unions
						}
						focuses = {
							KEM_reign_of_the_mad_king
							KEM_prince_yuriys_ideals
							KEM_princess_lydias_pragmatism
						}
					}

					"ERS" = {
						minor = yes
						history = "ERS_THENEWORDER_DESC"
						ideology = social_conservative
						ideas = {
							ERS_formation_of_the_salons
							ERS_warlord_of_the_city
							ERS_provisional_government
						}
						focuses = {
							ERS_the_first_draft
							ERS_the_legacy_of_white_russia
							ERS_the_death_of_the_author
						}
					}

					"KHA" = {
						minor = yes
						history = "KHA_THENEWORDER_DESC"
						ideology = socialist
						ideas = {
							KHA_anarchist_refuge
							KHA_militarized_society
							KHA_black_army_administration_2
						}
						focuses = {
							KHA_intro_mother_anarchys_eldest_sons
							KHA_intro_the_third_congress_of_tulun
							KHA_intro_riding_on
						}
					}

					"IRK" = {
						minor = yes
						history = "IRK_THENEWORDER_DESC"
						ideology = communist
						ideas = {
							IRK_bitter_remnant
							IRK_yagodas_paranoia
							RUS_irkutsk_hydro_station
						}
						focuses = {
							IRK_mutiny_the_response
							IRK_mutiny_an_ironclad_union
							IRK_mutiny_the_union_forever
						}
					}

					"BRY" = {
						minor = yes
						history = "BRY_THENEWORDER_DESC"
						ideology = socialist
						ideas = {
							BRY_uncertain_revolutionaries
							BRY_ghost_of_bukharinism
						}
						focuses = {
							BRY_the_spark
							BRY_the_dreams_of_those_before
							BRY_that_burns_the_tyrant_down
						}
					}
				## RUSSIA ##

				## CPS ##
					"ZZZ" = {
						minor = yes
						history = ""
					}

					"ZZZ" = {
						minor = yes
						history = ""
					}

					"ZZZ" = {
						minor = yes
						history = ""
					}
				## CPS ##

				## OFN ##
					"ZZZ" = {
						minor = yes
						history = ""
					}

					"ZZZ" = {
						minor = yes
						history = ""
					}

					"ZZZ" = {
						minor = yes
						history = ""
					}
				## OFN ##

				# Buffer
				"ZZZ" = { minor = yes history = "" }
			### ROW 2 ###

			### ROW 3 ###
				# Buffer
				"ZZZ" = { minor = yes history = "" }

				## TRIUM ##
					"ZZZ" = {
						minor = yes
						history = ""
					}

					"ZZZ" = {
						minor = yes
						history = ""
					}

					"ZZZ" = {
						minor = yes
						history = ""
					}
				## TRIUM ##

				## PAKT ##
					"IRE" = {
						minor = yes
						history = "IRE_THENEWORDER_DESC"
						ideology = authoritarian_democrat
						ideas = {
							IRE_there_will_be_blood
							IRE_humiliation_of_a_giant
							IRE_not_much_to_gain_mr_hitler
						}
						focuses = {
							IRE_shame_of_the_giant
							IRE_erin_go_bragh
							IRE_on_the_peoples_side
						}
					}

					"BRT"={
						minor = yes
						history = "BRT_THENEWORDER_DESC"
						ideology = fascism
						ideas = {
							BRT_europes_staple_port
							BRT_breton_national_committee
							BRT_the_bezen_perrot
						}
						focuses = {
							BRT_for_freedom
							BRT_for_gain
							BRT_for_power
						}
					}


					"ZZZ" = {
						minor = yes
						history = ""
					}
				## PAKT ##

				## RUSSIA ##
					"PAV" = {
						minor = yes
						history = "PAV_THENEWORDER_DESC"
						ideology = authoritarian_democrat
						ideas = {
							PAV_Disproportionate_Population
							PAV_The_All_Siberian_Army
							RUS_novosibirsk_aircraft_plant
						}
						focuses = {
							PAV_land_of_the_strong
							PAV_the_champions_of_industry
							PAV_the_soldiers_soviet
						}
					}

					"WCH" = {
						minor = yes
						history = "WCH_THENEWORDER_DESC"
						ideology = despotism
						ideas = {
							RUS_heirs_of_harbin
							WCH_uneasy_figurhead
							WCH_sunset_of_white_chivalry
						}
						focuses = {
							WCH_the_true_heirs_of_harbin
							WCH_Military_investments
							WCH_civilian_investments
						}
					}

					"MAG" = {
						minor = yes
						history = "MAG_THENEWORDER_DESC"
						ideology = fascism
						ideas = {
							RUS_heirs_of_harbin
							MAG_fascist_splitters
							MAG_gateway_into_russia
						}
						focuses = {
							MAG_the_true_heir_of_harbin
							MAG_desperate_times
							MAG_promise_to_reform
						}
					}

					"AMR" = {
						minor = yes
						history = "AMR_THENEWORDER_DESC"
						ideology = national_socialism
						ideas = {
							RUS_heirs_of_harbin
							AMR_rusfascist_stronghold
							AMR_paranoid_vozhd_1
						}
						focuses = {
							AMR_the_true_heir_of_harbin
							AMR_god_nation_labor
							AMR_rodzaevskys_paranoia
						}
					}

					"PRM" = {
						minor = yes
						history = "PRM_THENEWORDER_DESC"
						ideology = national_socialism
						ideas = {
							PRM_aryan_cult
							PRM_aryan_control_3
						}
						focuses = {
							PRM_AB_initial_beneath_cross
							PRM_AB_initial_ubermensch
							PRM_AB_initial_brotherhood
						}
					}

					"SVO" = {
						minor = yes
						history = "SVO_THENEWORDER_DESC"
						ideology = communist
						ideas = {
							SVO_factionalism
							SVO_red_army_exile
							SVO_democratic_military
						}
						focuses = {
							SVO_The_Eastern_Conflict
							SVO_Legacy_of_the_Siberian_Red_Army
							SVO_War_with_Menjiang
						}
					}
				## RUSSIA ##

				## CPS ##
					"ZZZ" = {
						minor = yes
						history = ""
					}

					"ZZZ" = {
						minor = yes
						history = ""
					}

					"ZZZ" = {
						minor = yes
						history = ""
					}
				## CPS ##

				## OFN ##
					"ZZZ" = {
						minor = yes
						history = ""
					}

					"ZZZ" = {
						minor = yes
						history = ""
					}

					"ZZZ" = {
						minor = yes
						history = ""
					}
				## OFN ##

				# Buffer
				"ZZZ" = { minor = yes history = "" }
			### ROW 3 ###
		#### MINORS ####
	}
}