ideas = {
	country = {
		#BRY_army_soldiers - used as a placeholder instead of #picture
		WRS_veterans_of_the_long_war = {
			on_add = {log = "[GetDateText]: [Root.GetName]: add idea WRS_veterans_of_the_long_war"}
			allowed = {
				always = no
			}
			allowed_civil_war = {
				always = yes
			}
			removal_cost = -1
			picture = WRS_veterans_of_the_long_war
			
			modifier = {
				army_attack_factor = 0.1
				experience_gain_army_unit_factor = 0.2
				experience_loss_factor = -0.1
				army_org_factor = 0.15
				army_morale_factor = 0.1
				experience_gain_army = 0.05
			}
		}
		
		WRS_veterans_of_the_long_war_2 = {
			on_add = {log = "[GetDateText]: [Root.GetName]: add idea WRS_veterans_of_the_long_war_2"}
			allowed = {
				always = no
			}
			allowed_civil_war = {
				always = yes
			}
			removal_cost = -1
			picture = WRS_veterans_of_the_long_war
			
			modifier = {
				army_attack_factor = 0.15
				army_org_factor = 0.15
				army_morale_factor = 0.15
				conscription_factor = 0.1
				army_defence_factor = 0.15
			}
		}
		 
		WRS_agricultural_insecurity = {
			on_add = {log = "[GetDateText]: [Root.GetName]: add idea WRS_agricultural_insecurity"}
			allowed = {
				always = no
			}
			allowed_civil_war = {
				always = yes
			}
			removal_cost = -1
			picture = WRS_rations
			
			modifier = {
				MONTHLY_POPULATION = -0.30
				political_power_factor = -0.3
				stability_factor = -0.1
			}
		}
		
		WRS_red_army_with_a_state_1 = {
			on_add = {log = "[GetDateText]: [Root.GetName]: add idea WRS_red_army_with_a_state"}
			allowed = {
				always = no
			}
			allowed_civil_war = {
				always = yes
			}
			removal_cost = -1
			picture = SVO_Red_Army_in_Exile
			
			modifier = {
				conscription_factor = 0.10
				conscription = 0.005
				army_morale_factor = 0.2
			}
		}
		
		WRS_red_army_with_a_state_2 = {
			on_add = {log = "[GetDateText]: [Root.GetName]: add idea WRS_red_army_with_a_state"}
			allowed = {
				always = no
			}
			allowed_civil_war = {
				always = yes
			}
			removal_cost = -1
			picture = SVO_Red_Army_in_Exile
			
			modifier = {
				conscription_factor = 0.2
				conscription = 0.01
				army_defence_factor  = 0.1
			}
		}
		
		WRS_agricultural_insecurity_2 = {
			on_add = {log = "[GetDateText]: [Root.GetName]: add idea WRS_agricultural_insecurity"}
			allowed = {
				always = no
			}
			allowed_civil_war = {
				always = yes
			}
			removal_cost = -1
			picture = WRS_rations
			
			modifier = {
				MONTHLY_POPULATION = -0.20
				political_power_factor = -0.2
				stability_factor = -0.075
			}
		}
		
		WRS_agricultural_insecurity_3 = {
			on_add = {log = "[GetDateText]: [Root.GetName]: add idea WRS_agricultural_insecurity"}
			allowed = {
				always = no
			}
			allowed_civil_war = {
				always = yes
			}
			removal_cost = -1
			picture = WRS_rations
			
			modifier = {
				MONTHLY_POPULATION = -0.10
				political_power_factor = -0.1
				stability_factor = -0.05
			}
		}
		
		WRS_vologdan_wealth_seized = {
			on_add = {log = "[GetDateText]: [Root.GetName]: add idea WRS_vologdan_wealth_seized"}
			allowed = {
				always = no
			}
			allowed_civil_war = {
				always = yes
			}
			removal_cost = -1
			picture = WRS_wealth_seized
			
			modifier = {
				consumer_goods_factor = -0.20
				industrial_capacity_factory = 0.15
			}
		}
		
		WRS_tatar_cultural_exchange = {
			on_add = {log = "[GetDateText]: [Root.GetName]: add idea WRS_tatar_cultural_exchange"}
			allowed = {
				always = no
			}
			allowed_civil_war = {
				always = yes
			}
			removal_cost = -1
			picture = WRS_tatar_cultural_exchange
			
			modifier = {
				stability_factor = -0.05
				political_power_factor = -0.10
			}
		}
		
		WRS_front_victorious = {
			on_add = {log = "[GetDateText]: [Root.GetName]: add idea WRS_front_victorious"}
			allowed = {
				always = no
			}
			allowed_civil_war = {
				always = yes
			}
			removal_cost = -1
			picture = WRS_the_front_victorious
			
			modifier = {
				stability_factor = 0.2
				political_power_factor = 0.1
				army_morale_factor = 0.35
			}
		}
		
		WRS_tank_factory = {
			on_add = {log = "[GetDateText]: [Root.GetName]: add idea WRS_tank_factory"}
			allowed = {
				always = no
			}
			allowed_civil_war = {
				always = yes
			}
			removal_cost = -1
			picture = RUS_gorki_tank_factory
			
			equipment_bonus = {
				MBT_equipment = {
					build_cost_ic = -0.1
					reliability = 0.1					
					instant = yes
				}
				IFV_equipment = {
					build_cost_ic = -0.15 
					reliability = 0.1
					instant = yes
					
				}
			}
		}
		
		WRS_liquidated_romanov_relics = {
			on_add = {log = "[GetDateText]: [Root.GetName]: add idea WRS_liquidated_romanov_relics"}
			allowed = {
				always = no
			}
			allowed_civil_war = {
				always = yes
			}
			removal_cost = -1
			picture = WRS_liquidated_romanov_relics
			
			modifier = {
				consumer_goods_factor = -0.2
			}
		}
		WRS_an_ideological_struggle = {
			on_add = {log = "[GetDateText]: [Root.GetName]: add idea WRS_an_ideological_struggle"}
			allowed = {
				always = no
			}
			allowed_civil_war = {
				always = yes
			}
			removal_cost = -1
			picture = IRK_Bitter_Remnants
			modifier = {
			   army_morale_factor = 0.1
			   army_org_factor = 0.05
			   war_support_factor = 0.05
			}
		}
		WRS_hearts_of_steel = {
			on_add = {log = "[GetDateText]: [Root.GetName]: add idea WRS_hearts_of_steel"}
			allowed = {
				always = no
			}
			allowed_civil_war = {
				always = yes
			}
			removal_cost = -1
			picture = SAH_Military_Guided_Democracy
			modifier = {
			   army_morale_factor = -0.1
			   army_org_factor = 0.1
			   army_attack_factor = 0.05
			}
		}
		WRS_tank_production = {
			on_add = {log = "[GetDateText]: [Root.GetName]: add idea WRS_tank_production"}
			allowed = {
				always = no
			}
			allowed_civil_war = {
				always = yes
			}
			removal_cost = -1
			picture = CHU_Mad_Marxists
			equipment_bonus = {
				MBT_equipment = {
					build_cost_ic = -0.1 instant = yes
				}
				IFV_equipment = {
					build_cost_ic = -0.1 instant = yes
				}
				APC_equipment = {
					build_cost_ic = -0.1 instant = yes
				}
			}
		}
		WRS_a_global_union = {
			on_add = {log = "[GetDateText]: [Root.GetName]: add idea WRS_a_global_union"}
			allowed = {
				always = no
			}
			allowed_civil_war = {
				always = yes
			}
			removal_cost = -1
			picture = WRS_a_global_union
			modifier = {
				political_power_factor = 0.10
				trade_opinion_factor = 0.15
			}
		}
		WRS_project_LESHIY = {
			on_add = {log = "[GetDateText]: [Root.GetName]: add idea WRS_project_LESHIY"}
			allowed = {
				always = no
			}
			allowed_civil_war = {
				always = yes
			}
			removal_cost = -1
			picture = NIK_arsenal
			modifier = {	   
			   army_core_defence_factor = 0.3
			   army_core_attack_factor  = 0.4
			   army_morale_factor = -0.1
			   war_support_factor = -0.15
			}
		}
		WRS_quality_over_quantity = {
			on_add = {log = "[GetDateText]: [Root.GetName]: add idea WRS_quality_over_quantity"}
			allowed = {
				always = no
			}
			allowed_civil_war = {
				always = yes
			}
			removal_cost = -1
			picture = generic_weapons_production
			equipment_bonus = {
				infantry_equipment = {
					build_cost_ic = 0.1
					soft_attack = 0.1
					reliability = 0.15
					instant = yes
				}
			}
		}
		WRS_the_army_of_the_people = {
			on_add = {log = "[GetDateText]: [Root.GetName]: add idea WRS_the_army_of_the_people"}
			allowed = {
				always = no
			}
			allowed_civil_war = {
				always = yes
			}
			removal_cost = -1
			picture = BRY_army_soldiers
			modifier = {	   
				conscription_factor = 0.15
				army_morale_factor = 0.1
			}
		}

		WRS_egalitarian_values = {
			on_add = {log = "[GetDateText]: [Root.GetName]: add idea WRS_the_army_of_the_people"}
			allowed = {
				always = no
			}
			allowed_civil_war = {
				always = yes
			}
			removal_cost = -1
			picture = BRY_woman_soldier
			modifier = {	   
				MONTHLY_POPULATION = -0.05
				stability_factor = 0.025
				conscription_factor = 0.05
			}
		}

		WRS_sponsored_cultural_development = {
			on_add = {log = "[GetDateText]: [Root.GetName]: add idea WRS_the_army_of_the_people"}
			allowed = {
				always = no
			}
			allowed_civil_war = {
				always = yes
			}
			removal_cost = -1
			picture = NIK_soviet_humanism
			modifier = {	   
				political_power_factor = 0.07
				drift_defence_factor = -0.1
			}
		}

		WRS_phasing_out_war_communism = {
			on_add = {log = "[GetDateText]: [Root.GetName]: add idea WRS_phasing_out_war_communism"}
			allowed = {
				always = no
			}
			allowed_civil_war = {
				always = yes
			}
			removal_cost = -1
			picture = BRY_wheels_of_labor
			modifier = {	   
				line_change_production_efficiency_factor = 0.10
				production_factory_max_efficiency_factor = 0.05
				consumer_goods_factor = 0.10
				production_speed_buildings_factor = 0.05
			}
		}

		WRS_economic_shock = {
			on_add = {log = "[GetDateText]: [Root.GetName]: add idea WRS_economic_shock"}
			allowed = {
				always = no
			}
			allowed_civil_war = {
				always = yes
			}
			removal_cost = -1
			picture = ISH_red_storm_rising
			modifier = {	   
				industrial_capacity_factory = -0.15
				line_change_production_efficiency_factor = -0.20
				production_speed_buildings_factor = -0.10
				consumer_goods_factor = 0.15
			}
		}
	}
}
