ideas = {
	country = {
		FIN_resettlement = {
			on_add = {log = "[GetDateText]: [Root.GetName]: add idea FIN_resettlement"}
			allowed = {
				always = no
			}
			allowed_civil_war = {
				always = yes
			}
			removal_cost = -1
			#picture = 
			modifier = {
				MONTHLY_POPULATION = -0.3
				stability_factor = -0.10
				political_power_factor = -0.25
			}
		}
		FIN_VTY_resettlement = {
			on_add = {log = "[GetDateText]: [Root.GetName]: add idea FIN_VTY_resettlement"}
			allowed = {
				always = no
			}
			allowed_civil_war = {
				always = yes
			}
			removal_cost = -1
			#picture = 
			modifier = {
				MONTHLY_POPULATION = 0.3
				stability_factor = 0.10
				conscription_factor = 0.05
			}
		}
		FIN_Nation_of_Strength = {
			on_add = {log = "[GetDateText]: [Root.GetName]: add idea FIN_Nation_of_Strength"}
			allowed = {
				always = no
			}
			allowed_civil_war = {
				always = yes
			}
			removal_cost = -1
			picture = FIN_nation_of_strength
			modifier = {
		        war_support_factor = 0.10
				experience_gain_army_factor = 0.075
				conscription_factor = 0.25
			}
		}
		FIN_Uncertain_Future = {
			on_add = {log = "[GetDateText]: [Root.GetName]: add idea FIN_Uncertain_Future"}
			allowed = {
				always = no
			}
			allowed_civil_war = {
				always = yes
			}
			removal_cost = -1
			
			picture = FIN_uncertain_future
			
			modifier = {
		        political_power_cost = 0.30
				stability_weekly = -0.001
			}
		}
		FIN_Accelerated_Training = {
			on_add = {log = "[GetDateText]: [Root.GetName]: add idea FIN_Accelerated_Training"}
			allowed = {
				always = no
			}
			allowed_civil_war = {
				always = yes
			}
			removal_cost = -1
			
			picture = GER_unknown
			
			modifier = {
		        training_time_factor = -0.10
				planning_speed = -0.05
			}
		}
		
		FIN_Only_Way = {
			on_add = {log = "[GetDateText]: [Root.GetName]: add idea FIN_Only_Way"}
			allowed = {
				always = no
			}
			allowed_civil_war = {
				always = yes
			}
			removal_cost = -1
			
			picture = GER_unknown
			
			modifier = {
				army_attack_factor = 0.15
				planning_speed = -0.15
			}
		}
		
		FIN_Nyet_Vinjaya = {
			on_add = {log = "[GetDateText]: [Root.GetName]: add idea FIN_Nyet_Vinjaya"}
			allowed = {
				always = no
			}
			allowed_civil_war = {
				always = yes
			}
			removal_cost = -1
			
			picture = GER_unknown
			
			modifier = {
		        army_morale_factor = 0.3	
				army_core_defence_factor = 0.2
				conscription_factor = 0.1
			}
		}
	}
}