ideas = {
	country = {
		ZZZ_anarchy = {
			on_add = {log = "[GetDateText]: [Root.GetName]: add idea ZZZ_anarchy"}
			allowed = {
				always = no
			}
			allowed_civil_war = {
				always = yes
			}
			removal_cost = -1
			picture = ORE_anarchic_commune
			modifier = {
				Army_org = -10
				Army_morale_factor = -1
				Training_time_factor = 0.00
				Army_defence_factor = -1
				Mobilization_speed = -1
				Conscription_factor = -1
				Political_power_gain = -1
				Industrial_capacity_factory = -1
				Production_speed_buildings_factor = -1
				research_speed_factor = -10
				resistance_target = -1
			}
		}
	}
}