ideas = {

	country = {
		IBR_iberiawars_stage_one = {
			on_add = {log = "[GetDateText]: [Root.GetName]: add idea IBR_iberiawars_stage_one"}
			
			allowed = { always = no }
			
			
			allowed_civil_war = {
				always = yes
			}

			removal_cost = -1
			
			#picture = IBR_Disorderly_Federal_Army
			
			modifier = {
			}
		}
		
		IBR_iberiawars_stage_two = {
			on_add = {log = "[GetDateText]: [Root.GetName]: add idea IBR_iberiawars_stage_two"}
			
			allowed = { always = no }
			
			
			allowed_civil_war = {
				always = yes
			}

			removal_cost = -1
			
			#picture = IBR_Disorderly_Federal_Army
			
			modifier = {
			}
		}
		
		IBR_iberiawars_stage_three = {
			on_add = {log = "[GetDateText]: [Root.GetName]: add idea IBR_iberiawars_stage_three"}
			
			allowed = { always = no }
			
			
			allowed_civil_war = {
				always = yes
			}

			removal_cost = -1
			
			#picture = IBR_Disorderly_Federal_Army
			
			modifier = {
			}
		}
		
		IBR_iberiawars_stage_four = {
			on_add = {log = "[GetDateText]: [Root.GetName]: add idea IBR_iberiawars_stage_four"}
			
			allowed = { always = no }
			
			
			allowed_civil_war = {
				always = yes
			}

			removal_cost = -1
			
			#picture = IBR_Disorderly_Federal_Army
			
			modifier = {
			}
		}
		
		IBR_iberiawars_stage_five = {
			on_add = {log = "[GetDateText]: [Root.GetName]: add idea IBR_iberiawars_stage_five"}
			
			allowed = { always = no }
			
			
			allowed_civil_war = {
				always = yes
			}

			removal_cost = -1
			
			#picture = IBR_Disorderly_Federal_Army
			
			modifier = {
			}
		}
		IBR_State_Exemplary = {
			on_add = {log = "[GetDateText]: [Root.GetName]: add idea IBR_State_Exemplary"}
			allowed = { always = no }
			
			allowed_civil_war = {
				always = yes
			}

			removal_cost = -1
			
			picture = IBR_State_Of_Union_Exemplary
		}
		
		IBR_State_Strong = {
			on_add = {log = "[GetDateText]: [Root.GetName]: add idea IBR_State_Strong"}
			allowed = { always = no }
			
			allowed_civil_war = {
				always = yes
			}

			removal_cost = -1
			
			picture = IBR_State_Of_Union_Strong
		}
		
		IBR_State_MedStrong = {
			on_add = {log = "[GetDateText]: [Root.GetName]: add idea IBR_State_MedStrong"}
			allowed = { always = no }
			
			allowed_civil_war = {
				always = yes
			}

			removal_cost = -1
			
			picture = IBR_State_Of_Union_MedStrong
		}
		
		IBR_State_Med = {
			on_add = {log = "[GetDateText]: [Root.GetName]: add idea IBR_State_Med"}
			allowed = { always = no }
			
			allowed_civil_war = {
				always = yes
			}

			removal_cost = -1
			
			picture = IBR_State_Of_Union_Med
		}
		
		IBR_State_MedWeak = {
			on_add = {log = "[GetDateText]: [Root.GetName]: add idea IBR_State_MedWeak"}
			allowed = { always = no }
			
			allowed_civil_war = {
				always = yes
			}

			removal_cost = -1
			
			picture = IBR_State_Of_Union_MedWeak
		}
		
		IBR_State_Weak = {
			on_add = {log = "[GetDateText]: [Root.GetName]: add idea IBR_State_Weak"}
			allowed = { always = no }
			
			allowed_civil_war = {
				always = yes
			}

			removal_cost = -1
			
			picture = IBR_State_Of_Union_Weak
		}
		
		IBR_returning_campaign = {
			on_add = {log = "[GetDateText]: [Root.GetName]: add idea IBR_returning_campaign"}
			allowed = { always = no }
			
			allowed_civil_war = {
				always = yes
			}

			removal_cost = -1
			
			picture = URL_refugee_crisis

			modifier = {
				monthly_population = 0.2
			}
		}
		Dissolving_Iberian_Union = {
			on_add = {log = "[GetDateText]: [Root.GetName]: add idea Dissolving_Iberian_Union"}
			
			allowed = { always = no }
			
			allowed_civil_war = {
				always = yes
			}

			removal_cost = -1
			
			picture = IRK_administrative_shortcomings
			
			modifier = {
				stability_factor = -0.10
				political_power_factor = -0.10
			}
		}
		
		Severing_Economic_Ties = {
			on_add = {log = "[GetDateText]: [Root.GetName]: add idea Severing_Economic_Ties"}
			
			allowed = { always = no }
			
			allowed_civil_war = {
				always = yes
			}

			removal_cost = -1
			
			picture = FRA_economic_meltdown
			
			modifier = {
				consumer_goods_factor = 0.15
				production_factory_efficiency_gain_factor = -0.25
				production_factory_start_efficiency_factor = -0.25
			}
		}
		
		Severing_Military_Ties = {
			on_add = {log = "[GetDateText]: [Root.GetName]: add idea Severing_Military_Ties"}
			
			allowed = { always = no }
			
			allowed_civil_war = {
				always = yes
			}

			removal_cost = -1
			
			picture = BAS_army_bad
			
			modifier = {
				planning_speed = -0.25
				army_org_factor = -0.25
				offence = -0.1
				defence = -0.1
				conscription_factor = -0.75
			}
		}
		
		Dissolved_Federal_Government = {
			on_add = {log = "[GetDateText]: [Root.GetName]: add idea Dissolved_Federal_Government"}
			
			allowed = { always = no }
			
			allowed_civil_war = {
				always = yes
			}

			removal_cost = -1
			
			picture = IRK_administrative_shortcomings
			
			modifier = {
				political_power_factor = -0.90
			}
		}
		
		The_Gibraltar_Dam = {
			on_add = {log = "[GetDateText]: [Root.GetName]: add idea The_Gibraltar_Dam"}
			
			allowed = { always = no }
			
			allowed_civil_war = {
				always = yes
			}

			removal_cost = -1
			
			picture = IBR_gibraltar_dam
			
			modifier = {
			min_export = -0.15
			}
		}
		The_Gibraltar_Dam_Completed = {
			on_add = {log = "[GetDateText]: [Root.GetName]: add idea The_Gibraltar_Dam_Completed"}
			
			allowed = { always = no }
			
			allowed_civil_war = {
				always = yes
			}

			removal_cost = -1
			
			picture = IBR_gibraltar_dam
			
			modifier = {
			min_export = -0.05 
			consumer_goods_factor = -0.2
			production_speed_buildings_factor = 0.1
			}
		}
		IBR_The_Gibraltar_Dam_Abandoned = {
			on_add = {log = "[GetDateText]: [Root.GetName]: add idea IBR_The_Gibraltar_Dam_Abandoned"}
			
			allowed = { always = no }
			
			allowed_civil_war = {
				always = yes
			}

			removal_cost = -1
			
			picture = IBR_gibraltar_dam
			
			modifier = {
			min_export = -0.05
			}
		} 
		military_exercise_IBR_180 = {
			on_add = {log = "[GetDateText]: [Root.GetName]: add idea military_exercise_IBR_180"}
			
			allowed = { always = no }
			
			allowed_civil_war = {
				always = yes
			}

			removal_cost = -1
			
			picture = URL_volunteer_militia_programs
			
			modifier = {
			planning_speed = 0.2
			army_org_factor = 0.15
			}
		}
		
		Disorderly_Federal_Army = {
			on_add = {log = "[GetDateText]: [Root.GetName]: add idea Disorderly_Federal_Army"}
			
			allowed = { always = no }
			
			allowed_civil_war = {
				always = yes
			}

			removal_cost = -1
			
			picture = IBR_Disorderly_Federal_Army
			
			modifier = {
				planning_speed = -0.15
				consumer_goods_factor = 0.05
				army_org_factor = -0.1
				offence = -0.1
				defence = -0.1
				conscription_factor = -0.5			
			}

			research_bonus = {
				air_doctrine = -0.5
				land_doctrine = -0.5
				naval_doctrine = -0.5
			}

		}
		
		Disorderly_Federal_Army_2 = {
			on_add = {log = "[GetDateText]: [Root.GetName]: add idea Disorderly_Federal_Army_2"}
			
			allowed = { always = no }
			
			allowed_civil_war = {
				always = yes
			}

			removal_cost = -1
			
			picture = IBR_Disorderly_Federal_Army
			
			modifier = {
				planning_speed = -0.05
				consumer_goods_factor = 0.05
				army_org_factor = -0.1
				offence = -0.1
				defence = -0.1
				conscription_factor = -0.25
			}

			research_bonus = {
				air_doctrine = -0.4
				land_doctrine = -0.4
				naval_doctrine = -0.4
			   }
		}
		
		Disorderly_Federal_Army_3 = {
			on_add = {log = "[GetDateText]: [Root.GetName]: add idea Disorderly_Federal_Army_3"}
			
			allowed = { always = no }
			
			allowed_civil_war = {
				always = yes
			}

			removal_cost = -1
			
			picture = IBR_Disorderly_Federal_Army
			
			modifier = {
				offence = -0.1
				defence = -0.1
				conscription_factor = -0.25
			}

			research_bonus = {
				air_doctrine = -0.4
				land_doctrine = -0.4
				naval_doctrine = -0.4
			}
		}
		
		
		Disorderly_Federal_Army_Heydrich = {
			on_add = {log = "[GetDateText]: [Root.GetName]: add idea Disorderly_Federal_Army_Heydrich"}
			
			allowed = { always = no }
			
			allowed_civil_war = {
				always = yes
			}

			removal_cost = -1
			
			picture = IBR_Disorderly_Federal_Army
			
			modifier = {
				planning_speed = -0.10
				consumer_goods_factor = 0.15
				army_org_factor = -0.05
				conscription_factor = -0.35
			}

			research_bonus = {
				air_doctrine = -0.5
				land_doctrine = -0.5
				naval_doctrine = -0.5
			}
		}
		Disorderly_Federal_Army_notsomuch = {
			on_add = {log = "[GetDateText]: [Root.GetName]: add idea Disorderly_Federal_Army_notsomuch"}
			
			allowed = { always = no }
			
			allowed_civil_war = {
				always = yes
			}

			removal_cost = -1
			
			picture = IBR_Disorderly_Federal_Army
			
			modifier = {
				planning_speed = -0.10
				consumer_goods_factor = 0.15
				army_org_factor = -0.05
				conscription_factor = -0.5
			}

			research_bonus = {
				air_doctrine = -0.5
				land_doctrine = -0.5
				naval_doctrine = -0.5
			}
		}
		Expanded_Guardia_Civil = {
			on_add = {log = "[GetDateText]: [Root.GetName]: add idea Expanded_Guardia_Civil"}
			
			allowed = { always = no }
			
			allowed_civil_war = {
				always = yes
			}

			removal_cost = -1
			
			picture = IBR_Disorderly_Federal_Army
			
			modifier = {
			defence = 0.1
			conscription_factor = 0.25
			}
		}
		
		Formally_Decentralized_Army = {
			on_add = {log = "[GetDateText]: [Root.GetName]: add idea Formally_Decentralized_Army"}
			
			allowed = { always = no }
			
			allowed_civil_war = {
				always = yes
			}

			removal_cost = -1
			
			picture = IBR_Disorderly_Federal_Army
			
			modifier = {
			planning_speed = -0.15
			production_factory_efficiency_gain_factor = -0.1
			consumer_goods_factor = 0.05
			army_org_factor = -0.1
			offence = -0.1
			defence = -0.1
			conscription_factor = -0.25
			}
		}
		
		Formally_Decentralized_Army_2 = {
			on_add = {log = "[GetDateText]: [Root.GetName]: add idea Formally_Decentralized_Army_2"}
			
			allowed = { always = no }
			
			allowed_civil_war = {
				always = yes
			}

			removal_cost = -1
			
			picture = IBR_Disorderly_Federal_Army
			
			modifier = {
			planning_speed = -0.15
			production_factory_efficiency_gain_factor = -0.1
			consumer_goods_factor = 0.05
			offence = -0.1
			conscription_factor = -0.25
			}
		}
		
		Formally_Decentralized_Army_3 = {
			on_add = {log = "[GetDateText]: [Root.GetName]: add idea Formally_Decentralized_Army_3"}
			
			allowed = { always = no }
			
			allowed_civil_war = {
				always = yes
			}

			removal_cost = -1
			
			picture = IBR_Disorderly_Federal_Army
			
			modifier = {
			planning_speed = -0.15
			offence = -0.1
			conscription_factor = -0.25
			}
		}
		
		Formally_Decentralized_Army_4 = {
			on_add = {log = "[GetDateText]: [Root.GetName]: add idea Formally_Decentralized_Army_4"}
			
			allowed = { always = no }
			
			allowed_civil_war = {
				always = yes
			}

			removal_cost = -1
			
			picture = IBR_Disorderly_Federal_Army
			
			modifier = {
			planning_speed = -0.10
			offence = -0.05
			defence = 0.10
			conscription_factor = -0.10
			}
		}
		
		Betray_Old_Guard = {
			on_add = {log = "[GetDateText]: [Root.GetName]: add idea Betray_Old_Guard"}
		
			allowed = { always = no }
			removal_cost = -1

			allowed_civil_war = {
				always = yes
			}
			
			picture = IBR_Betray_Old_Guard
			
			modifier = {
			stability_factor = -0.05
			political_power_gain = -0.20
			}
		}
		
		Iberian_Economic_Nightmare = {
			on_add = {log = "[GetDateText]: [Root.GetName]: add idea Iberian_Economic_Nightmare"}
		
			allowed = { always = no }
			removal_cost = -1

			allowed_civil_war = {
				always = yes
			}
			
			picture = IBR_Iberian_Economic_Nightmare
			
			modifier = {
				annual_gdp_growth_factor = -0.2 
				misc_income_modifier = -20
				taxable_population_modifier = -0.05

			}
		}
		Iberian_Economic_Miracle = {
			on_add = {log = "[GetDateText]: [Root.GetName]: add idea Iberian_Economic_Miracle"}
		
			allowed = { always = no }
			removal_cost = -1

			allowed_civil_war = {
				always = yes
			}
			
			picture = IBR_miracle
			
			modifier = {
			annual_gdp_growth_factor = 0.1 
			misc_income_modifier = 20 
			misc_costs_modifier = 10
			income_rate_modifier = 0.1	
			}
		} 
		Separatist_Tensions = {
			on_add = {log = "[GetDateText]: [Root.GetName]: add idea Separatist_Tensions"}
		
			allowed = { always = no }
			removal_cost = -1

			allowed_civil_war = {
				always = yes
			}
			
			picture = IBR_Separatist_Tensions
			
			modifier = {
			stability_factor = -0.10
			}
		}
		
		Separatist_Tensions_Goering = {
			on_add = {log = "[GetDateText]: [Root.GetName]: add idea Separatist_Tensions_Goering"}
		
			allowed = { always = no }
			removal_cost = -1

			allowed_civil_war = {
				always = yes
			}
			
			picture = IBR_Separatist_Tensions
			
			modifier = {
			stability_factor = -0.05
			}
		}
		
		Weakened_Separatist_Tensions = {
			on_add = {log = "[GetDateText]: [Root.GetName]: add idea Weakened_Separatist_Tensions"}
		
			allowed = { always = no }
			removal_cost = -1

			allowed_civil_war = {
				always = yes
			}
			
			picture = IBR_Separatist_Tensions
			
			modifier = {
			stability_factor = -0.05
			}
		}
		
		Weakened_Separatist_Tensions_Goering = {
			on_add = {log = "[GetDateText]: [Root.GetName]: add idea Weakened_Separatist_Tensions_Goering"}
		
			allowed = { always = no }
			removal_cost = -1

			allowed_civil_war = {
				always = yes
			}
			
			picture = IBR_Separatist_Tensions
			
			modifier = {
			stability_factor = -0.025
			}
		}
		
		Unity_Against_External_Threat = {
			on_add = {log = "[GetDateText]: [Root.GetName]: add idea Unity_Against_External_Threat"}
		
			allowed = { always = no }
			removal_cost = -1

			allowed_civil_war = {
				always = yes
			}
			
			picture = IBR_Unity_Against_Heydrich
			
			modifier = {
			}
		}
		
		Crippled_Sovereignty = {
			on_add = {log = "[GetDateText]: [Root.GetName]: add idea Crippled_Sovereignty"}
		
			allowed = { always = no }
			removal_cost = -1

			allowed_civil_war = {
				always = yes
			}
			
			picture = IBR_Crippled_Sovereignty
			
			modifier = {
			stability_factor = -0.25
			political_power_factor = -0.25
			political_power_gain = -0.5
			}
		}
		Crippled_Sovereignty_notsomuch = {
			on_add = {log = "[GetDateText]: [Root.GetName]: add idea Crippled_Sovereignty_notsomuch"}
		
			allowed = { always = no }
			removal_cost = -1

			allowed_civil_war = {
				always = yes
			}
			
			picture = IBR_Crippled_Sovereignty
			
			modifier = {
			stability_factor = -0.1
			political_power_factor = -0.025
			political_power_gain = -0.25
			}
		}
		The_Dying_Triumvirate = {
			on_add = {log = "[GetDateText]: [Root.GetName]: add idea The_Dying_Triumvirate"}
		
			allowed = { always = no }
			removal_cost = -1

			allowed_civil_war = {
				always = yes
			}
			
			picture = IBR_Dying_Triumvirate
			
			modifier = {
			national_socialism_acceptance = -100
			ultranational_socialism_acceptance = -100
			national_socialism_drift = -0.05
			}
		}
		
		The_Iberian_Council_1 = {#Weak Legislative Council
			on_add = {log = "[GetDateText]: [Root.GetName]: add idea The_Iberian_Council_1"}
		
			allowed = { always = no }
			removal_cost = -1

			allowed_civil_war = {
				always = yes
			}
			
			picture = IBR_iberian_union
			
			modifier = {
			stability_factor = 0.02
			political_power_gain = 0.02
			}
		}
		
		The_Iberian_Council_2 = {#Reasonable Legislative Council
			on_add = {log = "[GetDateText]: [Root.GetName]: add idea The_Iberian_Council_2"}
		
			allowed = { always = no }
			removal_cost = -1

			allowed_civil_war = {
				always = yes
			}
			
			picture = IBR_iberian_union
			
			modifier = {
			stability_factor = 0.05
			political_power_gain = 0.05
			}
		}
		
		The_Iberian_Council_3 = {#Strong Legislative Council
			on_add = {log = "[GetDateText]: [Root.GetName]: add idea The_Iberian_Council_3"}
		
			allowed = { always = no }
			removal_cost = -1

			allowed_civil_war = {
				always = yes
			}
			
			picture = IBR_iberian_union
			
			modifier = {
			stability_factor = 0.10
			political_power_gain = 0.10
			}
		}
		
		The_Iberian_Council_4 = {#Weak Advisory Council
			on_add = {log = "[GetDateText]: [Root.GetName]: add idea The_Iberian_Council_4"}
		
			allowed = { always = no }
			removal_cost = -1

			allowed_civil_war = {
				always = yes
			}
			
			picture = IBR_iberian_union
			
			modifier = {
			stability_factor = 0.01
			political_power_gain = 0.01
			}
		}
		
		The_Iberian_Council_5 = {#Reasonable Advisory Council
			on_add = {log = "[GetDateText]: [Root.GetName]: add idea The_Iberian_Council_5"}
		
			allowed = { always = no }
			removal_cost = -1

			allowed_civil_war = {
				always = yes
			}
			
			picture = IBR_iberian_union
			
			modifier = {
			stability_factor = 0.02
			political_power_gain = 0.02
			}
		}
		
		The_Iberian_Council_6 = {#Strong Advisory Council
			on_add = {log = "[GetDateText]: [Root.GetName]: add idea The_Iberian_Council_6"}
		
			allowed = { always = no }
			removal_cost = -1

			allowed_civil_war = {
				always = yes
			}
			
			picture = IBR_iberian_union
			
			modifier = {
			stability_factor = 0.05
			political_power_gain = 0.05
			}
		}
		
		Return_to_Autarky = {
			on_add = {log = "[GetDateText]: [Root.GetName]: add idea Return_to_Autarky"}
		
            allowed = { always = no }
			removal_cost = -1

			allowed_civil_war = {
				always = yes
			}
			
			picture = Economy_Civilian_Austerity
			
			modifier = {
			stability_factor = -0.10
			political_power_gain = -0.25
			}
        }
		
		Optimised_Autarky = {
			on_add = {log = "[GetDateText]: [Root.GetName]: add idea Optimised_Autarky"}
		
            allowed = { always = no }
			removal_cost = -1

			allowed_civil_war = {
				always = yes
			}
			
			picture = Economy_Civilian_Austerity
			
			modifier = {
			consumer_goods_factor = -0.05
			stability_factor = -0.10
			political_power_gain = -0.25
			}
        }
		
		Iberian_Economic_Bubble_1 = {
			on_add = {log = "[GetDateText]: [Root.GetName]: add idea Iberian_Economic_Bubble_1"}
		
            allowed = { always = no }
			removal_cost = -1

			allowed_civil_war = {
				always = yes
			}
			
			picture = IBR_Iberian_Economic_Nightmare
			
			modifier = {
			#industrial_capacity_factory = -0.25
			#production_factory_max_efficiency_factor = -0.02
			#consumer_goods_factor = 0.38
			}
        }
		
		Iberian_Economic_Bubble_2 = {
			on_add = {log = "[GetDateText]: [Root.GetName]: add idea Iberian_Economic_Bubble_2"}
		
            allowed = { always = no }
			removal_cost = -1

			allowed_civil_war = {
				always = yes
			}
			
			picture = IBR_Iberian_Economic_Nightmare
			
			modifier = {
			industrial_capacity_factory = -0.25
			production_factory_max_efficiency_factor = -0.02
			consumer_goods_factor = 0.35
			}
        }
		
		Shaky_Equilibrium = {
			on_add = {log = "[GetDateText]: [Root.GetName]: add idea Shaky_Equilibrium"}
		
            allowed = { always = no }
			removal_cost = -1

			allowed_civil_war = {
				always = yes
			}
			
			picture = IBR_Iberian_Economic_Nightmare
			
			modifier = {
			}
        }
		
		IBR_out_with_salazar_yesmen = {
			on_add = {log = "[GetDateText]: [Root.GetName]: add idea IBR_out_with_salazar_yesmen"}
		
            allowed = { always = no }
			removal_cost = -1

			allowed_civil_war = {
				always = yes
			}
			
			picture = MDI_idea_disorganized_political_spheres
			
			modifier = {
				stability_factor = -0.05
				political_power_gain = -0.15
			}
        }
		IBR_AAS_RND_cooperation = {
			on_add = {log = "[GetDateText]: [Root.GetName]: add idea IBR_AAS_RND_cooperation"}
		
            allowed = { always = no }
			removal_cost = -1

			allowed_civil_war = {
				always = no
			}
			
			#picture = MDI_idea_disorganized_political_spheres
			
			modifier = {
				stability_factor = 0.05
				encryption_factor = 0.15
				decryption_factor = 0.15
			}
        }
		IBR_AAS_Gestapo_cooperation = {
			on_add = {log = "[GetDateText]: [Root.GetName]: add idea IBR_AAS_Gestapo_cooperation"}
		
            allowed = { always = no }
			removal_cost = -1

			allowed_civil_war = {
				always = no
			}
			
			#picture = MDI_idea_disorganized_political_spheres
			
			modifier = {
				stability_factor = 0.1
				encryption_factor = 0.1
				decryption_factor = 0.1
			}
        }
		Iberian_Wars_Major = {
			on_add = {log = "[GetDateText]: [Root.GetName]: add idea Iberian_Wars_Major"}
			allowed = { always = no }
			removal_cost = -1

			allowed_civil_war = {
				always = yes
			}
			
			picture = IBR_civil_war
			
			modifier = {
				war_support_weekly = -0.005
				offence = -0.1
				defence = 0.25
			}
		}
		
		Iberian_Wars_Minor = {
			on_add = {log = "[GetDateText]: [Root.GetName]: add idea Iberian_Wars_Minor"}
			allowed = { always = no }
			removal_cost = -1

			allowed_civil_war = {
				always = yes
			}
			
			picture = IBR_civil_war
			
			modifier = {
				war_support_weekly = -0.009
				defence = 0.6
			}
		}
		
		Iberian_Wars_Exhaustion_1 = {
			on_add = {log = "[GetDateText]: [Root.GetName]: add idea Iberian_Wars_Exhaustion_1"}
			allowed = { always = no }
			removal_cost = -1

			allowed_civil_war = {
				always = yes
			}
			
			picture = IBR_civil_war 
			
			modifier = {
				planning_speed = -0.15
				production_factory_efficiency_gain_factor = -0.1
				consumer_goods_factor = 0.05
				conscription_factor = 0.05
				MONTHLY_POPULATION = -0.1
				attrition = 0.05
				training_time_army_factor = 0.1
			}
		}
		
		Iberian_Wars_Exhaustion_2 = {
			on_add = {log = "[GetDateText]: [Root.GetName]: add idea Iberian_Wars_Exhaustion_2"}
			allowed = { always = no }
			removal_cost = -1

			allowed_civil_war = {
				always = yes
			}
			
			picture = IBR_civil_war
			
			modifier = {
				planning_speed = -0.30
				production_factory_efficiency_gain_factor = -0.2
				consumer_goods_factor = 0.10
				army_org_factor = -0.1
				offence = -0.1
				defence = -0.1
				conscription_factor = 0.10
				MONTHLY_POPULATION = -0.25
				attrition = 0.1
				training_time_army_factor = 0.2
			}
		}
		
		Iberian_Wars_Exhaustion_3 = {
			on_add = {log = "[GetDateText]: [Root.GetName]: add idea Iberian_Wars_Exhaustion_3"}
			allowed = { always = no }
			removal_cost = -1

			allowed_civil_war = {
				always = yes
			}
			
			picture = IBR_civil_war 
			
			modifier = {
				planning_speed = -0.45
				production_factory_efficiency_gain_factor = -0.3
				consumer_goods_factor = 0.20
				army_org_factor = -0.2
				offence = -0.2
				defence = -0.2
				conscription_factor = 0.2
				MONTHLY_POPULATION = -0.5
				attrition = 0.15
				training_time_army_factor = 0.3
			}
		}
		
		Iberian_Wars_Exhaustion_4 = {
			on_add = {log = "[GetDateText]: [Root.GetName]: add idea Iberian_Wars_Exhaustion_4"}
			allowed = { always = no }
			removal_cost = -1

			allowed_civil_war = {
				always = yes
			}
			
			picture = IBR_civil_war
			
			modifier = {
				planning_speed = -0.60
				production_factory_efficiency_gain_factor = -0.4
				consumer_goods_factor = 0.20
				army_org_factor = -0.3
				offence = -0.3
				defence = -0.3
				conscription_factor = 0.3
				MONTHLY_POPULATION = -1
				attrition = 0.20
				training_time_army_factor = 0.4
			}
		}
		
		Iberian_Wars_Exhaustion_5 = {
			on_add = {log = "[GetDateText]: [Root.GetName]: add idea Iberian_Wars_Exhaustion_5"}
			allowed = { always = no }
			removal_cost = -1

			allowed_civil_war = {
				always = yes
			}
			
			picture = IBR_civil_war 
			
			modifier = {
				planning_speed = -0.80
				production_factory_efficiency_gain_factor = -0.6
				consumer_goods_factor = 0.40
				army_org_factor = -0.4
				offence = -0.4
				defence = -0.4
				conscription_factor = 0.4
				MONTHLY_POPULATION = -2
				attrition = 0.25
				training_time_army_factor = 0.5
			}
		}
		
		Council_Dissolved = {
			on_add = {log = "[GetDateText]: [Root.GetName]: add idea Council_Dissolved"}
		
            allowed = { always = no }
			removal_cost = -1

			allowed_civil_war = {
				always = yes
			}
			
			picture = IRK_administrative_shortcomings
			
			modifier = {
			stability_factor = -0.05
			political_power_gain = -0.01
			}
        }
		
		New_Fundamental_Laws = {
			on_add = {log = "[GetDateText]: [Root.GetName]: add idea New_Fundamental_Laws"}
		
            allowed = { always = no }
			removal_cost = -1

			allowed_civil_war = {
				always = yes
			}
			
			picture = WAL_EnforceReg
			
			modifier = {
			stability_factor = 0.10
			political_power_gain = 0.25
			}
        }
		WAL64_trade_deal_small_subsidies_iberia = {
			on_add = {log = "[GetDateText]: [Root.GetName]: add idea WAL64_trade_deal_small_subsidies_iberia"}
            allowed = { always = no }
			removal_cost = -1

			allowed_civil_war = {
				always = yes
			}
						
			modifier = {
			local_resources_factor = 0.02
			industrial_capacity_factory = 0.03
			production_factory_max_efficiency_factor = 0.02
			}
		}
		IBR_choose_carefully_idea = {
			on_add = {log = "[GetDateText]: [Root.GetName]: add idea IBR_choose_carefully_idea"}
        	allowed = { always = no }
        	removal_cost = -1

        	allowed_civil_war = {
        		always = yes
        	}
        	picture = IRK_ministry_reorganizations

        	modifier = {
        		stability_weekly = -0.002
        		political_power_cost = 0.4
        	}
        }
		IBR_choose_carefully_2 = {
			on_add = {log = "[GetDateText]: [Root.GetName]: add idea IBR_choose_carefully_2"}
        	allowed = { always = no }
        	removal_cost = -1

        	allowed_civil_war = {
        		always = yes
        	}
        	picture = IRK_ministry_reorganizations

        	modifier = {
        		stability_weekly = -0.001
        		political_power_cost = 0.2
        	}
        }
		IBR_distribute_excess_idea = {
			on_add = {log = "[GetDateText]: [Root.GetName]: add idea IBR_distribute_excess_idea"}
        	allowed = { always = no }
        	removal_cost = -1

        	allowed_civil_war = {
        		always = yes
        	}
        	picture = IRK_bureaucracy_purged

        	modifier = {
        		consumer_goods_factor = 0.05
        		authoritarian_democrat_drift = 0.05
        	}
        }
		IBR_liberalisation = {
			on_add = {log = "[GetDateText]: [Root.GetName]: add idea IBR_liberalisation"}
        	allowed = { always = no }
        	removal_cost = -1

        	allowed_civil_war = {
        		always = yes
        	}
        	picture = MST_Social_Rights_2

        	modifier = {
        		consumer_goods_factor = 0.15
        		stability_weekly = 0.0005
        		political_power_gain = 0.2
        		authoritarian_democrat_drift = 0.01

        	}
        }
		Mediterranean_Tech_Exchange = {
			on_add = {log = "[GetDateText]: [Root.GetName]: add idea Mediterranean_Tech_Exchange"}
        	allowed = { always = no }
        	removal_cost = -1

        	allowed_civil_war = {
        		always = yes
        	}
        	picture = KHA_enhanced_infantry_production

        	modifier = {
        		research_speed_factor = 0.10 
        	}
        }
		Educated_Workforce = {
			on_add = {log = "[GetDateText]: [Root.GetName]: add idea Educated_Workforce"}
            allowed = { always = no }
			removal_cost = -1

			allowed_civil_war = {
				always = yes
			}
						
			modifier = {
			local_resources_factor = 0.05
			industrial_capacity_factory = 0.1
			production_factory_max_efficiency_factor = 0.1
			}
		}
		Mediterranean_colonial_investments = {
			on_add = {log = "[GetDateText]: [Root.GetName]: add idea Mediterranean_colonial_investments"}
        	allowed = { always = no }
        	removal_cost = -1

        	allowed_civil_war = {
        		always = yes
        	}
        	picture = USA_Subsidy_Sprees

        	modifier = {
			production_speed_buildings_factor = 0.10 
			consumer_goods_factor = 0.02	
        	}
        }
		Pan_Iberian_police_force = {
			on_add = {log = "[GetDateText]: [Root.GetName]: add idea Pan_Iberian_police_force"}
        	allowed = { always = no }
        	removal_cost = -1

        	allowed_civil_war = {
        		always = yes
        	}
        	picture = IBR_Pan_Iberian_Police_Force

        	modifier = {
			    stability_factor = 0.05
                defence = 0.05
        	}
        }
		Iberian_Constitution = {
			on_add = {log = "[GetDateText]: [Root.GetName]: add idea Pan_Iberian_police_force"}
        	allowed = { always = no }
        	removal_cost = -1

        	allowed_civil_war = {
        		always = yes
        	}
        	picture = IBR_An_Iberian_Constitution

        	modifier = {
			    political_power_gain = 0.20
        	}
		}
		ibrwar_legitimate_government = {
			on_add = {log = "[GetDateText]: [Root.GetName]: add idea ibrwar_legitimate_government"}
        	allowed = { always = no }
        	removal_cost = -1

        	allowed_civil_war = {
        		always = yes
        	}
        	picture = AST_TTA

        	modifier = {
				political_power_factor = 0.05
				stability_factor = 0.05
				war_support_factor = 0.10
        	}
		}
		ibrwar_unbroken_legion = {
			on_add = {log = "[GetDateText]: [Root.GetName]: add idea ibrwar_unbroken_legion"}
        	allowed = { always = no }
        	removal_cost = -1

        	allowed_civil_war = {
        		always = yes
        	}
        	picture = BAS_army_good

        	modifier = {
				army_core_attack_factor = 0.05
				army_core_defence_factor = 0.05
        	}
		}
	} 
	hidden_ideas = { 
		IBR_unequal_development = {
			on_add = {log = "[GetDateText]: [Root.GetName]: add idea IBR_unequal_development"}
		
			allowed = { always = no }
			removal_cost = -1

			allowed_civil_war = {
				always = yes
			}
			
			picture = ibr_iberian_union
			
			modifier = {
			stability_factor = -0.05
			political_power_cost = 0.05 
			monthly_population = -0.02 
			min_export = 0.05
			}
		}
		IBR_expanded_counterintelligence = {
			on_add = {log = "[GetDateText]: [Root.GetName]: add idea IBR_expanded_counterintelligence"}
		
			allowed = { always = no }
			removal_cost = -1

			allowed_civil_war = {
				always = yes
			}
			
			picture = ibr_iberian_union
			
			modifier = {
			encryption_factor = 0.25
			}
		}
		IBR_terrorist_attack = {
			on_add = {log = "[GetDateText]: [Root.GetName]: add idea IBR_terrorist_attack"}
			
			allowed = { always = no }
			

			removal_cost = -1
			
			picture = IBR_Disorderly_Federal_Army
			
			modifier = {
			}
		}
		
		IBR_GER_Anarchy_1 = {
			on_add = {log = "[GetDateText]: [Root.GetName]: add idea IBR_GER_Anarchy_1"}
			
			allowed = { always = no }
			

			removal_cost = -1
			
			picture = URL_refugee_crisis
			
			modifier = {
			political_power_gain = 0.1
			}
		}
		IBR_GER_Anarchy_2 = {
			on_add = {log = "[GetDateText]: [Root.GetName]: add idea IBR_GER_Anarchy_2"}
			
			allowed = { always = no }
			

			removal_cost = -1
			
			picture = URL_refugee_crisis
			
			modifier = {
			stability_factor = 0.1
			}
		}
		IBR_GER_Anarchy_3 = {
			on_add = {log = "[GetDateText]: [Root.GetName]: add idea IBR_GER_Anarchy_3"}
			
			allowed = { always = no }
			

			removal_cost = -1
			
			picture = URL_refugee_crisis
			
			modifier = {
			production_speed_buildings_factor = 0.10
			}
		}
		IBR_GER_Anarchy_4 = {
			on_add = {log = "[GetDateText]: [Root.GetName]: add idea IBR_GER_Anarchy_4"}
			
			allowed = { always = no }
			

			removal_cost = -1
			
			picture = URL_refugee_crisis
			
			modifier = {
			consumer_goods_factor = -0.20
			}
		}
		IBR_regional_faction_buff = {
			on_add = {log = "[GetDateText]: [Root.GetName]: add idea IBR_regional_faction_buff"}
			
			allowed = { always = no }
			
			
			allowed_civil_war = {
				always = yes
			}

			removal_cost = -1
			
			#picture = IBR_Disorderly_Federal_Army
			
			modifier = {
			army_core_attack_factor = 0.25	
			army_core_defence_factor = 0.25
			#partisan_effect = 0.15
			}
		}
	}
}
