ideas = {

country = {
		VOR_security_state = {
			on_add = {log = "[GetDateText]: [Root.GetName]: add idea VOR_security_state"}
			allowed = {
				always = no
			}
			allowed_civil_war = {
				always = yes
			}
			removal_cost = -1
			picture = VOR_security_state
			modifier = {
				encryption = 1
				encryption_factor = 0.25
				land_reinforce_rate = 0.15
				#enemy_#partisan_effect = -0.25
			}
		}

		VOR_inhospitable_climate = {
			on_add = {log = "[GetDateText]: [Root.GetName]: add idea VOR_inhospitable_climate"}
			allowed = {
				always = no
			}
			allowed_civil_war = {
				always = yes
			}
			removal_cost = -1
			picture = TNO_winter_soldier
			modifier = {
				attrition = -0.15
				winter_attrition_factor = -0.35
				army_core_defence_factor = 0.15
			}
		}
	}
}