ideas = {
	country = {
		ERS_formation_of_the_salons = {
			on_add = {log = "[GetDateText]: [Root.GetName]: add idea ERS_formation_of_the_salons"}
			allowed = {
				always = no
			}
			allowed_civil_war = {
				always = yes
			}
			removal_cost = -1
			picture = ERS_formation_of_the_salons
			modifier = {
				stability_factor = 0.10
				political_power_gain = 0.75
				research_speed_factor = 0.10
			}
		}

		ERS_warlord_of_the_city = {
			on_add = {log = "[GetDateText]: [Root.GetName]: add idea ERS_warlord_of_the_city"}
			allowed = {
				always = no
			}
			allowed_civil_war = {
				always = yes
			}
			removal_cost = -1
			picture = ERS_warlord_of_the_city
			modifier = {
				stability_factor = -0.1
				defence = 0.1
				army_morale_factor = 0.1
			}
		}

		ERS_provisional_government = { #Swapped out based on constitution and later ruling party
			on_add = {log = "[GetDateText]: [Root.GetName]: add idea ERS_provisional_government"}
			allowed = {
				always = no
			}
			allowed_civil_war = {
				always = yes
			}
			removal_cost = -1
			picture = ERS_the_provisional_government
			modifier = {
				war_support_factor = 0.1
				political_power_gain = -0.05
			}
		}

		ERS_idea_movement_based_warfare = {
			on_add = {log = "[GetDateText]: [Root.GetName]: add idea ERS_movement_based_warfare"}
			allowed = {
				always = no
			}
			allowed_civil_war = {
				always = yes
			}
			removal_cost = -1
			picture = BAS_army_medium
			modifier = {
				army_org_factor = 0.05
				army_speed_factor = 0.05
			}
		}

		ERS_idea_foreign_development = {
			on_add = { log = "[GetDateText]: [Root.GetName]: add idea ERS_idea_foreign_development" }
			allowed = {
				always = no
			}
			allowed_civil_war = {
				always = yes
			}
			removal_cost = -1
			picture = BRT_international_diplomacy
			modifier = {
				production_speed_buildings_factor = 0.15
				local_resources_factor = 0.05
				consumer_goods_factor = 0.10
			}
		}

		ERS_idea_Cultural_Missions = {
			on_add = {log = "[GetDateText]: [Root.GetName]: add idea ERS_idea_Cultural_Missions"}
			allowed = {
				always = no
			}
			allowed_civil_war = {
				always = yes
			}
			removal_cost = -1
			picture = BRT_international_diplomacy
			modifier = {
				research_speed_factor = 0.15
			}
		}


		ERS_idea_Bureau_Of_Military_Industrial_Development = {
			on_add = {log = "[GetDateText]: [Root.GetName]: add idea ERS_idea_Bureau_Of_Military_Industrial_Development"}
			allowed = {
				always = no
			}
			allowed_civil_war = {
				always = yes
			}
			removal_cost = -1
			picture = BAS_army_medium
			equipment_bonus = {
				MBT_equipment = {
					build_cost_ic = -0.1 instant = yes
				}
				IFV_equipment = {
					build_cost_ic = -0.1 instant = yes
				}
				APC_equipment = {
					build_cost_ic = -0.1 instant = yes
				}
				CAS_equipment = {
					build_cost_ic = -0.1 instant = yes
				}
				fighter_equipment = {
					build_cost_ic = -0.1 instant = yes
				}
				interceptor_equipment = {
					build_cost_ic = -0.1 instant = yes
				}
			}
		}

		ERS_idea_protect_the_industry = {
			on_add = {log = "[GetDateText]: [Root.GetName]: add idea ERS_idea_protect_the_industry"}
			allowed = {
				always = no
			}
			allowed_civil_war = {
				always = yes
			}
			removal_cost = -1
			picture = ARL_breakneck_industrialization
			modifier = {
				production_factory_max_efficiency_factor = 0.05
			}
		}

		ERS_idea_crush_the_regiments = {
			on_add = {log = "[GetDateText]: [Root.GetName]: add idea ERS_idea_crush_the_regiments"}
			allowed = {
				always = no
			}
			allowed_civil_war = {
				always = yes
			}
			removal_cost = -1
			picture = generic_Quality_Small_Arms
			modifier = {
				army_attack_factor = 0.05
			}
		}

		ERS_idea_steel_caravans = {
			on_add = {log = "[GetDateText]: [Root.GetName]: add idea ERS_idea_steel_caravans"}
			allowed = {
				always = no
			}
			allowed_civil_war = {
				always = yes
			}
			removal_cost = -1
			picture = generic_Preparing_The_Army
			modifier = {
				attrition = -0.1
				supply_consumption_factor = -0.20
			}
		}

		ERS_idea_basic_army = {
			on_add = {log = "[GetDateText]: [Root.GetName]: add idea ERS_idea_basic_army"}
			allowed = {
				always = no
			}
			allowed_civil_war = {
				always = yes
			}
			removal_cost = -1
			picture = generic_army_2
			modifier = {
				army_attack_factor = -0.15
				army_defence_factor = -0.15
				army_org_factor = -0.1
				army_morale_factor = -0.05
				war_support_factor = -0.15
			}
		}

		ERS_idea_standardized_army = {
			on_add = {log = "[GetDateText]: [Root.GetName]: add idea ERS_idea_standardized_army"}
			allowed = {
				always = no
			}
			allowed_civil_war = {
				always = yes
			}
			removal_cost = -1
			picture = generic_army_2
			modifier = {
				army_attack_factor = -0.05
				army_org_factor = -0.02
				war_support_factor = -0.05
			}
		}

		ERS_idea_decembrist_army = {
			on_add = {log = "[GetDateText]: [Root.GetName]: add idea ERS_idea_decembrist_army"}
			allowed = {
				always = no
			}
			allowed_civil_war = {
				always = yes
			}
			removal_cost = -1
			picture = generic_army_2
			modifier = {
				conscription_factor = -0.05
				training_time_factor = -0.1
				army_morale_factor = 0.05
				experience_gain_army = 0.05
			}
		}

		ERS_idea_modernist_army = {
			on_add = {log = "[GetDateText]: [Root.GetName]: add idea ERS_idea_modernist_army"}
			allowed = {
				always = no
			}
			allowed_civil_war = {
				always = yes
			}
			removal_cost = -1
			picture = generic_army_2
			modifier = {
				conscription_factor = 0.05
				training_time_factor = 0.1
				army_morale_factor = 0.20
				experience_gain_army = 0.15
			}
		}

		ERS_idea_humanist_army = {
			on_add = {log = "[GetDateText]: [Root.GetName]: add idea ERS_idea_humanist_army"}
			allowed = {
				always = no
			}
			allowed_civil_war = {
				always = yes
			}
			removal_cost = -1
			picture = generic_army_2
			modifier = {
				training_time_factor = -0.2
				army_morale_factor = 0.10
				experience_gain_army = 0.10
			}
		}

		ERS_idea_bastillard_army = {
			on_add = {log = "[GetDateText]: [Root.GetName]: add idea ERS_idea_bastillard_army"}
			allowed = {
				always = no
			}
			allowed_civil_war = {
				always = yes
			}
			removal_cost = -1
			picture = generic_army_2
			modifier = {
				conscription_factor = -0.05
				training_time_factor = -0.15
				army_morale_factor = 0.15
				experience_gain_army = 0.10
			}
		}

		ERS_idea_decembrist_army_modified = {
			on_add = {log = "[GetDateText]: [Root.GetName]: add idea ERS_idea_decembrist_army_modified"}
			allowed = {
				always = no
			}
			allowed_civil_war = {
				always = yes
			}
			removal_cost = -1
			picture = generic_army_2
			modifier = {
				conscription_factor = -0.10
				training_time_factor = -0.05
				army_morale_factor = 0.10
				experience_gain_army = 0.05
			}
		}

		ERS_idea_modernist_army_modified = {
			on_add = {log = "[GetDateText]: [Root.GetName]: add idea ERS_idea_modernist_army_modified"}
			allowed = {
				always = no
			}
			allowed_civil_war = {
				always = yes
			}
			removal_cost = -1
			picture = generic_army_2
			modifier = {
				conscription_factor = 0.05
				training_time_factor = -0.05
				army_morale_factor = 0.10
				experience_gain_army = 0.05
			}
		}

		ERS_idea_humanist_army_modified = {
			on_add = {log = "[GetDateText]: [Root.GetName]: add idea ERS_idea_humanist_army_modified"}
			allowed = {
				always = no
			}
			allowed_civil_war = {
				always = yes
			}
			removal_cost = -1
			picture = generic_army_2
			modifier = {
				training_time_factor = -0.15
				army_morale_factor = 0.15
				experience_gain_army = 0.20
			}
		}

		ERS_idea_bastillard_army_modified = {
			on_add = {log = "[GetDateText]: [Root.GetName]: add idea ERS_idea_bastillard_army_modified"}
			allowed = {
				always = no
			}
			allowed_civil_war = {
				always = yes
			}
			removal_cost = -1
			picture = generic_army_2
			modifier = {
				training_time_factor = -0.10
				army_morale_factor = 0.125
				experience_gain_army = 0.125
			}
		}
		

		ERS_idea_incompatible_army = {
			on_add = {log = "[GetDateText]: [Root.GetName]: add idea ERS_idea_incompatible_army"}
			allowed = {
				always = no
			}
			allowed_civil_war = {
				always = yes
			}
			removal_cost = -1
			picture = generic_disloyal_divided_army
			modifier = {
				custom_modifier_tooltip = ERS_incompatible_idea_tt
			}
		}

		ERS_idea_military_transition = {
			on_add = {log = "[GetDateText]: [Root.GetName]: add idea ERS_idea_military_transition"}
			allowed = {
				always = no
			}
			allowed_civil_war = {
				always = yes
			}
			removal_cost = -1
			picture = generic_disloyal_divided_army
			modifier = {
				training_time_factor = -0.15
				experience_gain_army = -0.15
			}
		}

		#

		ERS_idea_Disorganized_economy = {
			on_add = {log = "[GetDateText]: [Root.GetName]: add idea ERS_idea_Disorganized_economy"}
			allowed = {
				always = no
			}
			allowed_civil_war = {
				always = yes
			}
			removal_cost = -1
			picture = generic_planned_economy
			modifier = {
				production_speed_buildings_factor = -0.2
				consumer_goods_factor = 0.15
				production_factory_max_efficiency_factor = -0.15
				gdp_growth_modifier = -0.05	
			}
		}

		ERS_idea_decembrist_economy = {
			on_add = {log = "[GetDateText]: [Root.GetName]: add idea ERS_idea_decembrist_economy"}
			allowed = {
				always = no
			}
			allowed_civil_war = {
				always = yes
			}
			removal_cost = -1
			picture = generic_planned_economy
			modifier = {
				consumer_goods_factor = 0.05
				production_speed_arms_factory_factor = 0.1
				production_speed_infrastructure_factor = 0.15
			}
		}

		ERS_idea_modernist_economy = {
			on_add = {log = "[GetDateText]: [Root.GetName]: add idea ERS_idea_modernist_economy"}
			allowed = {
				always = no
			}
			allowed_civil_war = {
				always = yes
			}
			removal_cost = -1
			picture = generic_planned_economy
			modifier = {
				production_factory_efficiency_gain_factor = 0.10
				local_resources_factor = 0.10
				production_speed_industrial_complex_factor = 0.10
				production_speed_arms_factory_factor = 0.1
			}
		}

		ERS_idea_humanist_economy = {
			on_add = {log = "[GetDateText]: [Root.GetName]: add idea ERS_idea_humanist_economy"}
			allowed = {
				always = no
			}
			allowed_civil_war = {
				always = yes
			}
			removal_cost = -1
			picture = generic_planned_economy
			modifier = {
				consumer_goods_factor = 0.10
				production_factory_efficiency_gain_factor = 0.05
				industrial_capacity_factory = 0.10
			}
		}

		ERS_idea_bastillard_economy = {
			on_add = {log = "[GetDateText]: [Root.GetName]: add idea ERS_idea_bastillard_economy"}
			allowed = {
				always = no
			}
			allowed_civil_war = {
				always = yes
			}
			removal_cost = -1
			picture = generic_planned_economy
			modifier = {
				consumer_goods_factor = 0.05
				local_resources_factor = 0.15
				industrial_capacity_factory = 0.10
			}
		}

		ERS_idea_decembrist_economy_modified = {
			on_add = {log = "[GetDateText]: [Root.GetName]: add idea ERS_idea_decembrist_economy_modified"}
			allowed = {
				always = no
			}
			allowed_civil_war = {
				always = yes
			}
			removal_cost = -1
			picture = generic_planned_economy
			modifier = {
				consumer_goods_factor = 0.10
				production_speed_arms_factory_factor = 0.15
				production_speed_infrastructure_factor = 0.10
			}
		}

		ERS_idea_modernist_economy_modified = {
			on_add = {log = "[GetDateText]: [Root.GetName]: add idea ERS_idea_modernist_economy_modified"}
			allowed = {
				always = no
			}
			allowed_civil_war = {
				always = yes
			}
			removal_cost = -1
			picture = generic_planned_economy
			modifier = {
				production_factory_efficiency_gain_factor = 0.125
				local_resources_factor = 0.10
				production_speed_industrial_complex_factor = 0.15
				production_speed_arms_factory_factor = 0.05
			}
		}

		ERS_idea_humanist_economy_modified = {
			on_add = {log = "[GetDateText]: [Root.GetName]: add idea ERS_idea_humanist_economy_modified"}
			allowed = {
				always = no
			}
			allowed_civil_war = {
				always = yes
			}
			removal_cost = -1
			picture = generic_planned_economy
			modifier = {
				consumer_goods_factor = 0.05
				production_factory_efficiency_gain_factor = 0.10
				industrial_capacity_factory = 0.125
			}
		}

		ERS_idea_bastillard_economy_modified = {
			on_add = {log = "[GetDateText]: [Root.GetName]: add idea ERS_idea_bastillard_economy_modified"}
			allowed = {
				always = no
			}
			allowed_civil_war = {
				always = yes
			}
			removal_cost = -1
			picture = generic_planned_economy
			modifier = {
				consumer_goods_factor = -0.05
				local_resources_factor = 0.10
				industrial_capacity_factory = 0.12
			}
		}

		ERS_idea_incompatible_economy = {
			on_add = {log = "[GetDateText]: [Root.GetName]: add idea ERS_idea_incompatible_economy"}
			allowed = {
				always = no
			}
			allowed_civil_war = {
				always = yes
			}
			removal_cost = -1
			picture = FRA_economic_meltdown
			modifier = {
				custom_modifier_tooltip = ERS_incompatible_idea_tt
			}
		}

		ERS_idea_economic_transition = {
			on_add = {log = "[GetDateText]: [Root.GetName]: add idea ERS_idea_economic_transition"}
			allowed = {
				always = no
			}
			allowed_civil_war = {
				always = yes
			}
			removal_cost = -1
			picture = FRA_economic_meltdown
			modifier = {
				consumer_goods_factor = 0.10
			}
		}

		#

		ERS_idea_political_crisis = {
			on_add = {log = "[GetDateText]: [Root.GetName]: add idea ERS_idea_political_crisis"}
			allowed = {
				always = no
			}
			allowed_civil_war = {
				always = yes
			}
			removal_cost = -1
			picture = LIB_idea_gridlocked_politics
			modifier = {
				custom_modifier_tooltip = ERS_idea_political_crisis_tt
				political_power_gain = -0.40
				stability_factor = -0.10
			}
		}

		ERS_idea_novosibirsk_conference = {
			on_add = {log = "[GetDateText]: [Root.GetName]: add idea ERS_idea_novosibirsk_conference"}
			allowed = {
				always = no
			}
			allowed_civil_war = {
				always = yes
			}
			removal_cost = -1
			picture = ERS_the_provisional_government
			modifier = {
				custom_modifier_tooltip = ERS_idea_novosibirsk_conference_tt
				political_power_gain = 0.50
				stability_factor = 0.05
			}
		}

		ERS_idea_Bureau_of_integration = {
			on_add = {log = "[GetDateText]: [Root.GetName]: add idea ERS_idea_Bureau_of_integration"}
			allowed = {
				always = no
			}
			allowed_civil_war = {
				always = yes
			}
			removal_cost = -1
			picture = ERS_the_provisional_government
			modifier = {
				custom_modifier_tooltip = ERS_idea_Bureau_of_integration_tt
				political_power_gain = 0.25
				stability_factor = -0.05
			}
		}

		#

		ERS_idea_High_idealism = {
			on_add = { log = "[GetDateText]: [Root.GetName]: add idea ERS_idea_High_idealism" }
			allowed = {
				always = no
			}
			allowed_civil_war = {
				always = yes
			}
			removal_cost = -1
			picture = generic_idealistic_democracy
			modifier = {
				stability_factor = -0.10
				political_power_gain = 0.75
			}
		}


		ERS_idea_Moderate_idealism = {
			on_add = { log = "[GetDateText]: [Root.GetName]: add idea ERS_idea_Moderate_idealism" }
			allowed = {
				always = no
			}
			allowed_civil_war = {
				always = yes
			}
			removal_cost = -1
			picture = generic_idealistic_democracy
			modifier = {
				stability_factor = 0.05
				political_power_gain = 0.25
			}
		}

		ERS_idea_Flagging_idealism = {
			on_add = { log = "[GetDateText]: [Root.GetName]: add idea ERS_idea_Flagging_idealism" }
			allowed = {
				always = no
			}
			allowed_civil_war = {
				always = yes
			}
			removal_cost = -1
			picture = generic_idealistic_democracy
			modifier = {
				stability_factor = 0.15
				political_power_gain = -0.25
			}
		}

		#

		ERS_idea_Entirely_integrated_society = {
			on_add = { log = "[GetDateText]: [Root.GetName]: add idea ERS_idea_Entirely_integrated_society" }
			allowed = {
				always = no
			}
			allowed_civil_war = {
				always = yes
			}
			removal_cost = -1
			picture = MST_Social_Rights_1
			modifier = {
				stability_factor = 0.05
				political_power_gain = 0.50
				research_speed_factor = 0.10
			}
		}


		ERS_idea_some_political_outsiders = {
			on_add = { log = "[GetDateText]: [Root.GetName]: add idea ERS_idea_some_political_outsiders" }
			allowed = {
				always = no
			}
			allowed_civil_war = {
				always = yes
			}
			removal_cost = -1
			picture = MST_Social_Rights_2
			modifier = {
				political_power_gain = 0.25
				research_speed_factor = 0.05
			}
		}

		ERS_idea_numerous_political_outsiders = {
			on_add = { log = "[GetDateText]: [Root.GetName]: add idea ERS_idea_numerous_political_outsiders" }
			allowed = {
				always = no
			}
			allowed_civil_war = {
				always = yes
			}
			removal_cost = -1
			picture = MST_Social_Rights_3
			modifier = {
				stability_factor = -0.05
				political_power_gain = -0.25
				research_speed_factor = -0.05
			}
		}

		ERS_idea_extreme_political_outsiders = {
			on_add = { log = "[GetDateText]: [Root.GetName]: add idea ERS_idea_extreme_political_outsiders" }
			allowed = {
				always = no
			}
			allowed_civil_war = {
				always = yes
			}
			removal_cost = -1
			picture = MST_Social_Rights_3
			modifier = {
				stability_factor = -0.075
				political_power_gain = -0.25
				research_speed_factor = -0.10
			}
		}

	}
}