ideas = {
	country = {
		SLO_Chained_Minds = {
			on_add = { log = "[GetDateText]: [Root.GetName]: add idea SLO_Chained_Minds" }
			picture = SLO_Chained_Minds
			allowed = { always = no }
			removal_cost = -1
			
			modifier = {
				political_power_gain = -0.5
				research_speed_factor = -0.2
			}
		}
		
		SLO_Political_Tensions = {
			on_add = { log = "[GetDateText]: [Root.GetName]: add idea SLO_Political_Tensions" }
			picture = shadow_economy
			allowed = { always = no }
			removal_cost = -1
			
			modifier = {
				stability_factor = -0.2
				war_support_factor = -0.2
				conscription_factor = -0.15
			}
		}
		
		# SLO_Agitated_Workers = {
		# 	on_add = { log = "[GetDateText]: [Root.GetName]: add idea SLO_Agitated_Workers" }
		#	picture = rural_resistance
		# 	allowed = { always = no }
		# 	removal_cost = -1
			
		# 	modifier = {
		# 		production_factory_max_efficiency_factor = -0.2
		# 		production_speed_buildings_factor = -0.3
		# 		industrial_capacity_factory = -0.2
		# 	}
		# }

		SLO_Uncompetitive_Economy = {
			on_add = { log = "[GetDateText]: [Root.GetName]: add idea SLO_Uncompetitive_Economy" }
			picture = FRA_economic_meltdown
			allowed = { always = no }
			removal_cost = -1
			
			modifier = {
				consumer_goods_factor = 0.2
				production_factory_max_efficiency_factor = -0.2
				production_speed_buildings_factor = -0.3
				industrial_capacity_factory = -0.2
			}
		}

		SLO_tiso_dead = {
			on_add = {log = "[GetDateText]: [Root.GetName]: add idea SLO_tiso_dead"}
			picture = SLO_The_Death_of_Tiso
			allowed = { always = no }
			removal_cost = -1
			
			modifier = {
				political_power_gain = -0.5
				stability_factor = -0.2
			}
		}

		SLO_Social_Liberalization = {
			on_add = { log = "[GetDateText]: [Root.GetName]: add idea SLO_Social_Liberalization" }
			picture = URL_many_helping_hands
			allowed = { always = no }
			removal_cost = -1
			
			modifier = {
				political_power_gain = 0.1
				research_speed_factor = -0.1
			}
		}

		SLO_Political_Liberalization = {
			on_add = { log = "[GetDateText]: [Root.GetName]: add idea SLO_Political_Liberalization" }
			picture = SEM_idealistic_revolutionaries
			allowed = { always = no }
			removal_cost = -1
			
			modifier = {
				stability_factor = 0.05
				war_support_factor = -0.05
				conscription_factor = -0.1
			}
		}

		SLO_Economical_Liberalization = {
			on_add = { log = "[GetDateText]: [Root.GetName]: add idea SLO_Economical_Liberalization" }
			picture = USA_Robust_Saftey_net
			allowed = { always = no }
			removal_cost = -1
			
			modifier = {
				consumer_goods_factor = 0.1
				production_factory_max_efficiency_factor = -0.1
				production_speed_buildings_factor = 0.05
				industrial_capacity_factory = 0.05
			}
		}
	}	
}	