ideas = {
	country = {
		SPR_juan_III_idea = {
			on_add = {log = "[GetDateText]: [Root.GetName]: add idea SPR_juan_III_idea"}

			allowed = { always = no }
			allowed_civil_war = { always = yes }
			picture = GFX_idea_SPR_idea_Juan_III
			removal_cost = -1
			
			modifier = {
			stability_factor = 0.1 
			political_power_gain = -0.3
			}
		}
	}
}