ideas = {
	country = {
		GAY_warrior_order = {
			on_add = {log = "[GetDateText]: [Root.GetName]: add idea GAY_warrior_order"}
			allowed = {
				always = no
			}
			allowed_civil_war = {
				always = yes
			}
			available = {
				has_government = despotism
			}
			removal_cost = -1
			picture = GAY_Warrior_Order
			modifier = {
			    army_morale_factor = 0.3 
			    conscription_factor = 0.1
			}
		}
		GAY_armor_of_god = {
			on_add = {log = "[GetDateText]: [Root.GetName]: add idea GAY_armor_of_god"}
			allowed = {
				always = no
			}
			allowed_civil_war = {
				always = yes
			}
			available = {
				has_government = despotism
			}
			removal_cost = -1
			picture = GAY_Armour_of_God
			modifier = {
				max_planning = 0.2
			    attrition = -0.15 
			    defence = 0.15
			}
		}
		GAY_one_against_all = {
			on_add = {log = "[GetDateText]: [Root.GetName]: add idea GAY_one_against_all"}
			allowed = {
				always = no
			}
			allowed_civil_war = {
				always = yes
			}
			removal_cost = -1
			picture = GAY_One_Against_All
			modifier = {
				army_org_factor = 0.1
				army_attack_factor = 0.15
				recon_factor = 0.05
			}
		}
		GAY_trade_with_the_tsar = {
			on_add = {log = "[GetDateText]: [Root.GetName]: add idea GAY_trade_with_the_tsar"}
			allowed = {
				always = no
			}
			allowed_civil_war = {
				always = yes
			}
			removal_cost = -1
			picture = KIR_The_Tsar_and_the_Cross
			modifier = {
				consumer_goods_factor = -0.1
				industrial_capacity_factory = 0.15
				production_factory_max_efficiency_factor = 0.1
			}
		}
	}
} 