ideas = {

	country = {
		MEX_Economic_Battlefield = {
			on_add = {log = "[GetDateText]: [Root.GetName]: add idea the_zaibatsus"}

			allowed = {
				always = yes
			}

			picture = USA_gld_68_tariff_oofing

			removal_cost = -1

			modifier = {
				consumer_goods_factor = 0.1
				trade_opinion_factor = 0.1
				min_export = 0.1
			}
		}

		MEX_Fraying_Ideals = {
			on_add = {log = "[GetDateText]: [Root.GetName]: add idea the_zaibatsus"}

			allowed = {
				always = yes
			}

			picture = a_crusade_against_corruption

			removal_cost = -1

			modifier = {
				political_power_cost = -0.15
				stability_factor = -0.2

			}
		}
	}
}
