ideas = {
	country = {
		HUN_az_kormanypart = {
			on_add = { log = "[GetDateText]: [Root.GetName]: add idea HUN_az_kormanypart" }
			allowed = {
				always = no
			}
			picture = HUN_Az_Kormanypart
			removal_cost = -1 
			allowed_civil_war = {
				always = yes
			}
			modifier = {
				political_power_gain = -0.25
			}
		}
		HUN_suffocated_economy = {
			on_add = { log = "[GetDateText]: [Root.GetName]: add idea HUN_suffocated_economy" }
			allowed = {
				always = no
			}
			picture = HUN_Suffocated_Economy
			removal_cost = -1 
			allowed_civil_war = {
				always = yes
			}
			modifier = {
				consumer_goods_factor = 0.10
				production_speed_buildings_factor = -0.20
				industrial_capacity_factory = -0.15
			}
		}
		HUN_der_volksbund = {
			on_add = { log = "[GetDateText]: [Root.GetName]: add idea HUN_der_volksbund" }
			allowed = {
				always = no
			}
			picture = HUN_Der_Volksbund
			removal_cost = -1 
			allowed_civil_war = {
				always = yes
			}
			modifier = {
				stability_factor = -0.10
				political_power_gain = -0.15
			}
		}
		HUN_Very_Low_National_Unrest = {
			on_add = {log = "[GetDateText]: [Root.GetName]: add idea HUN_Very_Low_National_Unrest"}
			allowed = {
				always = no
			}
			picture = HUN_Low_Unrest
			removal_cost = -1 
			allowed_civil_war = {

				always = yes

			}
			modifier = {
				army_morale_factor = 0.10
				political_power_gain = 0.5
				stability_factor = 0.2
			}
		}
		
		HUN_Low_National_Unrest = {
			on_add = {log = "[GetDateText]: [Root.GetName]: add idea HUN_Low_National_Unrest"}
			allowed = {
				always = no
			}
			picture = HUN_Low_Unrest
			removal_cost = -1 
			allowed_civil_war = {

				always = yes

			}
			modifier = {
				army_morale_factor = 0.05
				political_power_gain = 0.25
				stability_factor = 0.1
			}
		}
		
		HUN_Medium_National_Unrest = {
			on_add = {log = "[GetDateText]: [Root.GetName]: add idea HUN_Medium_National_Unrest"}
			allowed = {
				always = no
			}
			picture = HUN_Medium_Unrest
			removal_cost = -1 
			allowed_civil_war = {

				always = yes

			}
			modifier = {
				
			}
		}
		
		HUN_High_National_Unrest = {
			on_add = {log = "[GetDateText]: [Root.GetName]: add idea HUN_High_National_Unrest"}
			allowed = {
				always = no
			}
			removal_cost = -1 
			allowed_civil_war = {

				always = yes

			}
			picture = HUN_High_Unrest
			modifier = {
				army_morale_factor = -0.05
				political_power_gain = -0.25
				stability_factor = -0.1
			}
		}
		
		HUN_Very_High_National_Unrest = {
			on_add = {log = "[GetDateText]: [Root.GetName]: add idea HUN_Very_High_National_Unrest"}
			allowed = {
				always = no
			}
			removal_cost = -1 
			allowed_civil_war = {

				always = yes

			}
			picture = HUN_High_Unrest
			modifier = {
				army_morale_factor = -0.10
				political_power_gain = -0.5
				stability_factor = -0.2
			}
		}
		HUN_Political_Instability = {
			on_add = {log = "[GetDateText]: [Root.GetName]: add idea HUN_Political_Instability"}
			allowed = {
				always = no
			}

			picture =  generic_disjointed_gov

			removal_cost = -1 
			allowed_civil_war = {

				always = yes

			}
			
			modifier = {
				political_power_gain = -0.75
				stability_factor = -0.05
				army_morale_factor = -0.05
			}
		}
		
		HUN_Recovering_Economy_2 = {
			on_add = {log = "[GetDateText]: [Root.GetName]: add idea HUN_Recovering_Economy_2"}
			allowed = {
				always = no
			}

			picture = great_depression
			
			allowed_civil_war = {
				has_country_flag = Horthy
			}
			
			removal_cost = -1 
			allowed_civil_war = {

				always = yes

			}
			
			modifier = {
				industrial_capacity_factory = -0.15
				production_speed_buildings_factor = -0.20
				consumer_goods_factor = 0.15
			}
		}
		
		HUN_Recovering_Economy_1 = {
			on_add = {log = "[GetDateText]: [Root.GetName]: add idea HUN_Recovering_Economy_1"}
			allowed = {
				always = no
			}

			picture = great_depression
			
			allowed_civil_war = {
				has_country_flag = Horthy
			}
			
			removal_cost = -1 
			allowed_civil_war = {

				always = yes

			}
			
			modifier = {
				industrial_capacity_factory = -0.25
				production_speed_buildings_factor = -0.30
				consumer_goods_factor = 0.25
			}
		}
		
		HUN_Recovering_Economy = {
			on_add = {log = "[GetDateText]: [Root.GetName]: add idea HUN_Recovering_Economy"}
			allowed = {
				always = no
			}

			picture = great_depression
			
			allowed_civil_war = {
				has_country_flag = Horthy
			}
			
			removal_cost = -1 
			allowed_civil_war = {

				always = yes

			}
			
			modifier = {
				industrial_capacity_factory = -0.35
				production_speed_buildings_factor = -0.40
				consumer_goods_factor = 0.35
			}
		}
		
		HUN_Memory_of_Tisza = {
			on_add = {log = "[GetDateText]: [Root.GetName]: add idea HUN_Memory_of_Tisza"}
			allowed = {
				always = no
			}

			picture = ENG_the_war_to_end_all_wars

			removal_cost = -1 
			allowed_civil_war = {

				always = yes

			}
			
			allowed_civil_war = {
				has_country_flag = Horthy
			}
			
			modifier = {
				surrender_limit = 0.5
				army_org_Factor = -0.30
				army_morale_factor = -0.30
				conscription_factor = -0.2
			}
		}
	}
}