ideas = {
	country = {
		KAL_general_strike_1 = {
			on_add = {log = "[GetDateText]: [Root.GetName]: add idea KAL_general_strike_1"}
			allowed = {
				always = no
			}
			allowed_civil_war = {
				always = yes
			}
			removal_cost = -1
			picture = BRY_Idealistic_Revolutionaries
			modifier = {
				production_speed_buildings_factor = -0.10
				industrial_capacity_factory = -0.20
				consumer_goods_factor = 0.05
				local_resources_factor = -0.15
			}
		}
		KAL_general_strike_2 = {
			on_add = {log = "[GetDateText]: [Root.GetName]: add idea KAL_general_strike_2"}
			allowed = {
				always = no
			}
			allowed_civil_war = {
				always = yes
			}
			removal_cost = -1
			picture = BRY_Idealistic_Revolutionaries
			modifier = {
				production_speed_buildings_factor = -0.20
				industrial_capacity_factory = -0.25
				consumer_goods_factor = 0.10
				local_resources_factor = -0.35
			}
		}
		KAL_general_strike_3 = {
			on_add = {log = "[GetDateText]: [Root.GetName]: add idea KAL_general_strike_3"}
			allowed = {
				always = no
			}
			allowed_civil_war = {
				always = yes
			}
			removal_cost = -1
			picture = BRY_Idealistic_Revolutionaries
			modifier = {
				production_speed_buildings_factor = -0.25
				industrial_capacity_factory = -0.30
				consumer_goods_factor = 0.15
				local_resources_factor = -0.5
			}
		}
		KAL_legacy_of_the_siberian_uprising = {
			on_add = {log = "[GetDateText]: [Root.GetName]: add idea KAL_legacy_of_the_siberian_uprising"}
			allowed = {
				always = no
			}
			allowed_civil_war = {
				always = yes
			}
			removal_cost = -1
			picture = BRY_Idealistic_Revolutionaries
			modifier = {
				production_speed_buildings_factor = -0.20
				industrial_capacity_factory = -0.20
				consumer_goods_factor = 0.20
				local_resources_factor = -0.35
			}
		}
		KAL_reason_in_revolt_idea = {
			on_add = {log = "[GetDateText]: [Root.GetName]: add idea KAL_reason_in_revolt_idea"}
			allowed = {
				always = no
			}
			allowed_civil_war = {
				always = yes
			}
			removal_cost = -1
			picture = BRY_Idealistic_Revolutionaries
			modifier = {
				army_org_factor = 0.05
				army_attack_factor = 0.10
				army_morale_factor = 0.10
			}
		}
		KAL_revolutionary_terror = {
			on_add = {log = "[GetDateText]: [Root.GetName]: add idea KAL_revolutionary_terror"}
			allowed = {
				always = no
			}
			allowed_civil_war = {
				always = yes
			}
			removal_cost = -1
			picture = BRY_Idealistic_Revolutionaries
			modifier = {
				army_org_factor = 0.05
				army_attack_factor = 0.15
				#enemy_#partisan_effect = -0.10
				army_morale_factor = -0.1
			}
		}
		KAL_working_for_salvation = {
			on_add = {log = "[GetDateText]: [Root.GetName]: add idea KAL_working_for_salvation"}
			allowed = {
				always = no
			}
			allowed_civil_war = {
				always = yes
			}
			removal_cost = -1
			picture = BRY_Idealistic_Revolutionaries
			modifier = {
				production_speed_buildings_factor = 0.15
				industrial_capacity_factory = 0.10
				production_factory_efficiency_gain_factor = 0.1
			}
		}
		KAL_strike_while_the_iron_is_hot_idea = {
			on_add = {log = "[GetDateText]: [Root.GetName]: add idea KAL_strike_while_the_iron_is_hot_idea"}
			allowed = {
				always = no
			}
			allowed_civil_war = {
				always = yes
			}
			removal_cost = -1
			picture = BRY_Idealistic_Revolutionaries
			modifier = {
				army_speed_factor = 0.3
				army_org_factor = -0.1
			}
		}
		KAL_the_last_fight = {
			on_add = {log = "[GetDateText]: [Root.GetName]: add idea KAL_the_last_fight"}
			allowed = {
				always = no
			}
			allowed_civil_war = {
				always = yes
			}
			removal_cost = -1
			picture = BRY_Idealistic_Revolutionaries
			modifier = {
				army_morale_factor = 0.25
				army_attack_factor = 0.15
				attrition = 0.1
			}
		}
		KAL_do_no_harm = {
			on_add = {log = "[GetDateText]: [Root.GetName]: add idea KAL_do_no_harm"}
			allowed = {
				always = no
			}
			allowed_civil_war = {
				always = yes
			}
			removal_cost = -1
			picture = BRY_peace_restraint
			modifier = {
				MONTHLY_POPULATION = 0.2
				min_export = -0.35
				army_core_defence_factor = 0.1
			}
		}
		KAL_strength_in_diversity = {
			on_add = {log = "[GetDateText]: [Root.GetName]: add idea KAL_strength_in_diversity"}
			allowed = {
				always = no
			}
			allowed_civil_war = {
				always = yes
			}
			removal_cost = -1
			picture = BRY_Idealistic_Revolutionaries
			modifier = {
				stability_factor = 0.05
				army_morale_factor = 0.075
			}
		}
		KAL_all_power_to_the_soviets = {
			on_add = {log = "[GetDateText]: [Root.GetName]: add idea KAL_all_power_to_the_soviets"}
			allowed = {
				always = no
			}
			allowed_civil_war = {
				always = yes
			}
			removal_cost = -1
			picture = BRY_Idealistic_Revolutionaries
			modifier = {
				political_power_factor = -0.25
				stability_factor = 0.1
				consumer_goods_factor = -0.15
			}
		}
		KAL_industrialist_tendencies = {
			on_add = {log = "[GetDateText]: [Root.GetName]: add idea KAL_industrialist_tendencies"}
			allowed = {
				always = no
			}
			allowed_civil_war = {
				always = yes
			}
			removal_cost = -1
			picture = BRY_Idealistic_Revolutionaries
			modifier = {
				industrial_capacity_factory = 0.15
				production_factory_efficiency_gain_factor = 0.10
			}
		}
	}
}
