ideas = {
	country = {
		JST_GGR_partisans = {
			on_add = {log = "[GetDateText]: [Root.GetName]: add idea JST_GGR_partisans"}
			
			picture = GER_unknown
			
			allowed = {
				always = no
			}
			
			allowed_civil_war = {
				always = no
			}
			
			removal_cost = -1
			
			modifier = {
				#partisan_effect = -0.3
				production_factory_max_efficiency_factor = -0.1
				industrial_capacity_factory = -0.2
			}
		}
		
			JST_GGR_partisans2 = {
				on_add = {log = "[GetDateText]: [Root.GetName]: add idea JST_GGR_partisans2"}
				
				picture = GER_unknown
				
				allowed = {
					always = no
				}
				
				allowed_civil_war = {
					always = no
				}
				
				removal_cost = -1
				
				modifier = {
					#partisan_effect = -0.3
					production_factory_max_efficiency_factor = -0.1
					industrial_capacity_factory = -0.2
					army_org_factor = -0.1
					army_morale_factor = -0.1
				}
			}
			JST_The_Northern_Crusade = {
				on_add = {log = "[GetDateText]: [Root.GetName]: add idea JST_The_Northern_Crusade"}
				
				picture = JST_Northern_Crusade
				
				allowed = {
					always = no
				}
				
				allowed_civil_war = {
					always = yes
				}
				
				removal_cost = -1
				
				modifier = {
					conscription = 0.015
					conscription_factor = 0.05
				}
			}
			JST_Anti_Partisan_Tactics = {
				on_add = {log = "[GetDateText]: [Root.GetName]: add idea JST_Anti_Partisan_Tactics"}
				
				picture = JST_Anti_Partisan_Tactics
				
				allowed = {
					always = no
				}
				
				allowed_civil_war = {
					always = yes
				}
				
				removal_cost = -1
				
				modifier = {
					attrition = 0.10
					army_attack_factor = 0.15
				}
			}
			JST_The_Speed_of_the_Totenkopf = {
				on_add = {log = "[GetDateText]: [Root.GetName]: add idea JST_The_Speed_of_the_Totenkopf"}
				
				picture = JST_The_Speed_of_the_Totenkopf
				
				allowed = {
					always = no
				}
				
				allowed_civil_war = {
					always = yes
				}
				
				removal_cost = -1
				
				modifier = {
					supply_consumption_factor = 0.15
					army_speed_factor = 0.20
				}
			}
			JST_The_Wolves_Claws = {
				on_add = {log = "[GetDateText]: [Root.GetName]: add idea JST_The_Wolves_Claws"}
				
				picture = JST_The_Wolves_Claws_Unsheathed
				
				allowed = {
					always = no
				}
				
				allowed_civil_war = {
					always = yes
				}
				
				removal_cost = -1
				
				modifier = {
					army_core_attack_factor = 0.20
					army_core_defence_factor = 0.20
					war_support_factor = -0.20
					stability_factor = -0.20
				}
			}
	}
}