ideas = {

	country = {
		GUY_national_security_act = {
			on_add = {log = "[GetDateText]: [Root.GetName]: add idea GUY_national_security_act"}
			allowed = {
				always = no
			}
			allowed_civil_war = {
				always = yes
			}
			removal_cost = -1
			picture = GUY_national_security_act
			modifier = {
			    stability_factor = 0.25
			    political_power_gain = 0.3
			    conscription_factor = 0.2
			}
		}
		
		GUY_Liberty_of_the_Few = {
			on_add = {log = "[GetDateText]: [Root.GetName]: add idea GUY_Liberty_of_the_Few"}
			allowed = {
				always = yes
			}
			allowed_civil_war = {
				always = yes
			}
			removal_cost = -1
			picture = generic_negative_public_relation
			modifier = {
			    stability_factor = -0.45
			    political_power_gain = -0.6
			}
		}
	}
} 