ideas = {
	country = {
		ZOM_Zombies = {
			on_add = {log = "[GetDateText]: [Root.GetName]: add idea ZOM_Zombies"}
		
			allowed = { always = no }
			removal_cost = -1

			allowed_civil_war = {
				always = no
			}
			
			picture = ZOM_Zombies
			
			modifier = {
				
			}
		}

		ZOM_Rodomo_Virus = {
			on_add = {log = "[GetDateText]: [Root.GetName]: add idea ZOM_Rodomo_Virus"}
		
			allowed = { always = no }
			removal_cost = -1

			allowed_civil_war = {
				always = no
			}
			
			picture = ZOM_Rodomo_Virus
			
			modifier = {
				army_defence_factor = -0.2
				army_attack_factor = -0.2
			}
		}
		
		Anti_Zombie_Weaponry_1 = {
			on_add = {log = "[GetDateText]: [Root.GetName]: add idea Anti_Zombie_Weaponry_1"}
		
			allowed = { always = no }
			removal_cost = -1

			allowed_civil_war = {
				always = no
			}
			
			picture = Anti_Zombie_Weaponry
			
			targeted_modifier = {
				tag = ZOM
				attack_bonus_against = 1.0
			}
		}
		Anti_Zombie_Weaponry_2 = {
			on_add = {log = "[GetDateText]: [Root.GetName]: add idea Anti_Zombie_Weaponry_2"}
		
			allowed = { always = no }
			removal_cost = -1

			allowed_civil_war = {
				always = no
			}
			
			picture = Anti_Zombie_Weaponry
			
			targeted_modifier = {
				tag = ZOM
				attack_bonus_against = 1.0
			}
		}
		Anti_Zombie_Weaponry_3 = {
			on_add = {log = "[GetDateText]: [Root.GetName]: add idea Anti_Zombie_Weaponry_3"}
		
			allowed = { always = no }
			removal_cost = -1

			allowed_civil_war = {
				always = no
			}
			
			picture = Anti_Zombie_Weaponry
			
			targeted_modifier = {
				tag = ZOM
				attack_bonus_against = 2.0
			}
		}
		Anti_Zombie_Weaponry_4 = {
			on_add = {log = "[GetDateText]: [Root.GetName]: add idea Anti_Zombie_Weaponry_4"}
		
			allowed = { always = no }
			removal_cost = -1

			allowed_civil_war = {
				always = no
			}
			
			picture = Anti_Zombie_Weaponry
			
			targeted_modifier = {
				tag = ZOM
				attack_bonus_against = 2.0
			}
		}
		Anti_Zombie_Weaponry_5 = {
			on_add = {log = "[GetDateText]: [Root.GetName]: add idea Anti_Zombie_Weaponry_5"}
		
			allowed = { always = no }
			removal_cost = -1

			allowed_civil_war = {
				always = no
			}
			
			picture = Anti_Zombie_Weaponry
			
			targeted_modifier = {
				tag = ZOM
				attack_bonus_against = 3.0
			}
		}
	}

	hidden_ideas = {
		ZOM_Zombies_hidden = {
			on_add = {log = "[GetDateText]: [Root.GetName]: add idea ZOM_Zombies_hidden"}
		
			allowed = { always = no }
			removal_cost = -1

			allowed_civil_war = {
				always = no
			}
			
			picture = ZOM_Zombies
			
			modifier = {
				conscription_factor = 1.0
				conscription = 1.0
				non_core_manpower  = 1.0
				army_org = 100
				army_morale_factor = 10.0
				offence = 10.0
				army_core_attack_factor = 1.0
				army_core_defence_factor = 1.0
				breakthrough_factor = 10.0
				land_reinforce_rate = 10.0
				training_time_factor = -1.0
				defence = 5.0
				out_of_supply_factor = -1.0
				supply_consumption_factor = -1.0
				attrition = -1.0
				surrender_limit = 1.0
				stability_factor = 1.0
				war_support_factor = 1.0
				political_power_factor = -1.0
			}
		}
	}
}
