ideas = {
	country = {


		SCO_The_Flag_Will_Fly_Forever = {
			on_add = {log = "[GetDateText]: [Root.GetName]: add idea SCO_special_intelligence_department"}

			allowed = {
				original_tag = SCO
				always = no
			}

			removal_cost = -1

			picture = SCO_Oppressive_State

			modifier = {
				army_defence_factor = 0.2
				army_morale_factor = 0.1
			}
		}
		SCO_Victory_in_Sight = {
			on_add = {log = "[GetDateText]: [Root.GetName]: add idea SCO_special_intelligence_department"}

			allowed = {
				original_tag = SCO
				always = no
			}

			removal_cost = -1

			picture = SCO_Oppressive_State

			modifier = {
				army_attack_factor = 0.1
				army_morale_factor = 0.1
			}
		}
		SCO_The_Light_in_the_Distance = {
			on_add = {log = "[GetDateText]: [Root.GetName]: add idea SCO_special_intelligence_department"}

			allowed = {
				original_tag = SCO
				always = no
			}

			removal_cost = -1

			picture = SCO_Oppressive_State

			modifier = {
				army_attack_factor = 0.1
			}
		}
		SCO_ENG_English_Collaborators = {
			on_add = {log = "[GetDateText]: [Root.GetName]: add idea SCO_special_intelligence_department"}

			allowed = {
				original_tag = SCO
				always = no
			}

			removal_cost = -1

			picture = SCO_Oppressive_State

			modifier = {
				war_support_weekly = -0.03
				political_power_gain = -0.1
			}
		}
		SCO_English_Collaborators = {
			on_add = {log = "[GetDateText]: [Root.GetName]: add idea SCO_special_intelligence_department"}

			allowed = {
				original_tag = SCO
				always = no
			}

			removal_cost = -1

			picture = SCO_Oppressive_State

			modifier = {
				non_core_manpower = 0.03
				resistance_target = -0.3
			}
		}
		SCO_English_Collaborators_LR = {
			on_add = {log = "[GetDateText]: [Root.GetName]: add idea SCO_special_intelligence_department"}

			allowed = {
				original_tag = SCO
				always = no
			}

			removal_cost = -1

			picture = SCO_Oppressive_State

			modifier = {
				non_core_manpower = 0.03
				compliance_gain = 0.3
			}
		}
		SCO_The_lonely_Ilse = {
			on_add = {log = "[GetDateText]: [Root.GetName]: add idea SCO_The_lonely_Ilse"}

			allowed = {
				original_tag = SCO
				always = no
			}

			removal_cost = -1

			picture = SCO_The_lonely_Ilse

			modifier = {
			stability_factor = 0.10
			}
		}
		SCO_The_lonely_Ilse1 = {
			on_add = {log = "[GetDateText]: [Root.GetName]: add idea SCO_The_lonely_Ilse"}

			allowed = {
				original_tag = SCO
				always = no
			}

			removal_cost = -1

			picture = SCO_The_lonely_Ilse

			modifier = {
				stability_factor = 0.10
				monthly_population = 0.10
			}
		}
		SCO_The_lonely_Ilse2 = {
			on_add = {log = "[GetDateText]: [Root.GetName]: add idea SCO_The_lonely_Ilse"}

			allowed = {
				original_tag = SCO
				always = no
			}

			removal_cost = -1

			picture = SCO_The_lonely_Ilse

			modifier = {
				stability_factor = 0.15
				political_power_gain = 0.50
			}
		}
		SCO_Weapons_Free = {
			on_add = {log = "[GetDateText]: [Root.GetName]: add idea SCO_Itchy_Trigger"}

			allowed = {
				original_tag = SCO
				always = no
			}

			removal_cost = -1

			picture = SCO_Weapons_Free

			modifier = {
			army_core_defence_factor = 0.30
			political_power_gain = -0.6
			surrender_limit = 0.1
			war_support_factor = -0.15
			}
		}
		
		SCO_UPECW_Volunteers = {
			on_add = {log = "[GetDateText]: [Root.GetName]: add idea SCO_UPECW_Volunteers"}

			allowed = {
				original_tag = SCO
				always = no
			}

			removal_cost = -1

			picture = ENG_deeply_unpopular_govt

			modifier = {
				send_volunteer_divisions_required = -0.5
			}
		}

		SCO_Election_loss = {
			on_add = {log = "[GetDateText]: [Root.GetName]: add idea SCO_Itchy_Trigger"}

			allowed = {
				original_tag = SCO
				always = no
			}

			removal_cost = -1

			picture = ENG_deeply_unpopular_govt

			modifier = {
			stability_factor = -0.1
			}
		}

		SCO_Election_Win = {
			on_add = {log = "[GetDateText]: [Root.GetName]: add idea SCO_Itchy_Trigger"}

			allowed = {
				original_tag = SCO
				always = no
			}

			removal_cost = -1

			picture = ENG_deeply_unpopular_govt

			modifier = {
			stability_factor = 0.15
			}
		}

		SCO_Itchy_Trigger = {
			on_add = {log = "[GetDateText]: [Root.GetName]: add idea SCO_Itchy_Trigger"}

			allowed = {
				original_tag = SCO
				always = no
			}

			removal_cost = -1

			picture = SCO_Itchy_Trigger

			modifier = {
			army_core_defence_factor = 0.15
			political_power_gain = -0.3
			surrender_limit = 0.2
			war_support_factor = -0.1
			}
			traits = {SCO_Itchy_Trigger_tt}
		}

		SCO_Hands_Off = {
			on_add = {log = "[GetDateText]: [Root.GetName]: add idea SCO_Itchy_Trigger"}

			allowed = {
				original_tag = SCO
				always = no
			}

			removal_cost = -1

			picture = SCO_Hands_Off

			modifier = {
			army_core_defence_factor = 0.05
			political_power_gain = -0.05
			surrender_limit = 0.05
			war_support_factor = -0.05
			}
		}

		SCO_English_Refugees_Revolting = {
			on_add = {log = "[GetDateText]: [Root.GetName]: add idea SCO_The_lonely_Ilse"}

			allowed = {
				original_tag = SCO
				always = no
			}

			removal_cost = -1

			picture = SCO_English_Refugees

			modifier = {
				political_power_gain = -2
				stability_factor = -0.45
				war_support_factor = -0.4
				conscription = -0.015
			}
		}

		SCO_English_Refugees_Rebellious = {
			on_add = {log = "[GetDateText]: [Root.GetName]: add idea SCO_The_lonely_Ilse"}

			allowed = {
				original_tag = SCO
				always = no
			}

			removal_cost = -1

			picture = SCO_English_Refugees

			modifier = {
				political_power_gain = -1
				stability_factor = -0.35
				war_support_factor = -0.35
				conscription = -0.01
			}
		}
		SCO_English_Refugees_Outraged = {
			on_add = {log = "[GetDateText]: [Root.GetName]: add idea SCO_The_lonely_Ilse"}

			allowed = {
				original_tag = SCO
				always = no
			}

			removal_cost = -1

			picture = SCO_English_Refugees

			modifier = {
				political_power_gain = -0.8
				stability_factor = -0.25
				war_support_factor = -0.25
				conscription = -0.008
			}
		}
		SCO_English_Refugees_Angry = {
			on_add = {log = "[GetDateText]: [Root.GetName]: add idea SCO_The_lonely_Ilse"}

			allowed = {
				original_tag = SCO
				always = no
			}

			removal_cost = -1

			picture = SCO_English_Refugees

			modifier = {
				political_power_gain = -0.6
				stability_factor = -0.2
				war_support_factor = -0.15
				conscription = -0.006
			}
		}
		SCO_English_Refugees = {
			on_add = {log = "[GetDateText]: [Root.GetName]: add idea SCO_The_lonely_Ilse"}

			allowed = {
				original_tag = SCO
				always = no
			}

			removal_cost = -1

			picture = SCO_English_Refugees

			modifier = {
			political_power_gain = -0.4
			stability_factor = -0.1
			war_support_factor = -0.1
			conscription = -0.004
			}
		}
		SCO_English_Refugees_Content = {
			on_add = {log = "[GetDateText]: [Root.GetName]: add idea SCO_The_lonely_Ilse"}

			allowed = {
				original_tag = SCO
				always = no
			}

			removal_cost = -1

			picture = SCO_English_Refugees

			modifier = {
				political_power_gain = -0.3
				stability_factor = -0.075
				war_support_factor = -0.05
				conscription = -0.002
			}
		}
		SCO_English_Refugees_Satiated = {
			on_add = {log = "[GetDateText]: [Root.GetName]: add idea SCO_The_lonely_Ilse"}

			allowed = {
				original_tag = SCO
				always = no
			}

			removal_cost = -1

			picture = SCO_English_Refugees

			modifier = {
				political_power_gain = -0.15
				stability_factor = -0.05
				war_support_factor = -0.025
				conscription = -0.001
			}
		}
		SCO_English_Refugees_Happy = {
			on_add = {log = "[GetDateText]: [Root.GetName]: add idea SCO_The_lonely_Ilse"}

			allowed = {
				original_tag = SCO
				always = no
			}

			removal_cost = -1

			picture = SCO_English_Refugees

			modifier = {
				political_power_gain = -0.1
				stability_factor = -0.025
			}
		}

		SCO_English_Refugees_OverJoyous = {
			on_add = {log = "[GetDateText]: [Root.GetName]: add idea SCO_The_lonely_Ilse"}

			allowed = {
				original_tag = SCO
				always = no
			}

			removal_cost = -1

			picture = SCO_English_Refugees

			modifier = {
				stability_factor = 0.05
				war_support_factor = 0.05
			}
		}


		SCO_Budget_OverSpending = {
			on_add = {log = "[GetDateText]: [Root.GetName]: add idea SCO_budget"}

			allowed = {
				original_tag = SCO
				always = no
			}

			removal_cost = -1

			picture = IBR_Iberian_Economic_Nightmare

			modifier = {
			political_power_gain = -0.1
			consumer_goods_factor = 0.05
			war_support_factor = -0.05
			}
		}

		SCO_special_intelligence_department = {
			on_add = {log = "[GetDateText]: [Root.GetName]: add idea SCO_special_intelligence_department"}

			allowed = {
				original_tag = SCO
				always = no
			}

			removal_cost = -1

			picture = SCO_Oppressive_State

			modifier = {
				political_power_factor = 0.1
				stability_factor = 0.1
				encryption_factor = 0.2
				decryption_factor = 0.05
			}
		}

		SCO_special_intelligence_department_2 = {
			on_add = {log = "[GetDateText]: [Root.GetName]: add idea SCO_special_intelligence_department_2"}

			allowed = {
				original_tag = SCO
				always = no
			}

			removal_cost = -1

			picture = SCO_Oppressive_State

			modifier = {
				political_power_factor = 0.15
				stability_factor = 0.15
				encryption_factor = 0.25
				decryption_factor = 0.1
			}
		}

		SCO_concessions_to_buisness = {
			on_add = {log = "[GetDateText]: [Root.GetName]: add idea SCO_concessions_to_buisness"}

			allowed = {
				original_tag = SCO
				always = no
			}

			removal_cost = -1

			picture = SCO_Oppressive_State

			modifier = {
				consumer_goods_factor = 0.1
				production_speed_buildings_factor = 0.1
				political_power_factor = 0.1
			}
		}

		SCO_militarized_economy = {
			on_add = {log = "[GetDateText]: [Root.GetName]: add idea SCO_militarized_economy"}

			allowed = {
				original_tag = SCO
				always = no
			}

			removal_cost = -1

			picture = SCO_Oppressive_State

			modifier = {
				political_power_gain = -0.2
				conversion_cost_civ_to_mil_factor = -0.2
				production_speed_arms_factory_factor = 0.05
			}
		}

		SCO_militarized_economy_liberalism = {
			on_add = {log = "[GetDateText]: [Root.GetName]: add idea SCO_militarized_economy_liberalism"}

			allowed = {
				original_tag = SCO
				always = no
			}

			removal_cost = -1

			picture = SCO_Oppressive_State

			modifier = {
				political_power_gain = -0.1
				conversion_cost_civ_to_mil_factor = -0.1
				production_speed_arms_factory_factor = 0.05
				line_change_production_efficiency_factor = -0.05
				production_factory_efficiency_gain_factor = -0.05
			}
		}

		SCO_militarized_economy_liberalism_2 = {
			on_add = {log = "[GetDateText]: [Root.GetName]: add idea SCO_militarized_economy_liberalism_2"}

			allowed = {
				original_tag = SCO
				always = no
			}

			removal_cost = -1

			picture = SCO_Oppressive_State

			modifier = {
				political_power_gain = -0.1
				conversion_cost_civ_to_mil_factor = -0.1
				production_speed_arms_factory_factor = 0.05
				line_change_production_efficiency_factor = -0.05
				production_factory_efficiency_gain_factor = -0.05
				local_resources_factor = 0.2
			}
		}

		SCO_militarized_economy_liberalism_3 = {
			on_add = {log = "[GetDateText]: [Root.GetName]: add idea SCO_militarized_economy_liberalism_3"}

			allowed = {
				original_tag = SCO
				always = no
			}

			removal_cost = -1

			picture = SCO_Oppressive_State

			modifier = {
				political_power_gain = -0.1
				conversion_cost_civ_to_mil_factor = -0.1
				production_speed_arms_factory_factor = 0.05
				line_change_production_efficiency_factor = -0.05
				production_factory_efficiency_gain_factor = -0.05
				local_resources_factor = 0.2
				industrial_capacity_factory = 0.1
			}
		}

		SCO_militarized_economy_liberalism_4 = {
			on_add = {log = "[GetDateText]: [Root.GetName]: add idea SCO_militarized_economy_liberalism_4"}

			allowed = {
				original_tag = SCO
				always = no
			}

			removal_cost = -1

			picture = SCO_Oppressive_State

			modifier = {
				political_power_gain = -0.1
				conversion_cost_civ_to_mil_factor = -0.1
				production_speed_arms_factory_factor = 0.05
				line_change_production_efficiency_factor = -0.05
				production_factory_efficiency_gain_factor = -0.05
				local_resources_factor = 0.2
				industrial_capacity_factory = 0.15
			}
		}

		SCO_militarized_economy_liberalism_4_ceic = {
			on_add = {log = "[GetDateText]: [Root.GetName]: add idea SCO_militarized_economy_liberalism_4_ceic"}

			allowed = {
				original_tag = SCO
				always = no
			}

			removal_cost = -1

			picture = SCO_Oppressive_State

			modifier = {
				political_power_gain = 0.1
				conversion_cost_civ_to_mil_factor = -0.1
				production_speed_arms_factory_factor = 0.05
				line_change_production_efficiency_factor = -0.05
				production_factory_efficiency_gain_factor = -0.05
				local_resources_factor = 0.2
				industrial_capacity_factory = 0.15
			}
		}

		sco_reduced_militarization_liberal = {
			on_add = {log = "[GetDateText]: [Root.GetName]: add idea sco_reduced_militarization_liberal"}

			allowed = {
				original_tag = SCO
				always = no
			}

			removal_cost = -1

			picture = SCO_Oppressive_State

			modifier = {
				political_power_gain = 0.1
				conversion_cost_civ_to_mil_factor = -0.05
				production_speed_arms_factory_factor = 0.05
				line_change_production_efficiency_factor = -0.05
				production_factory_efficiency_gain_factor = -0.05
				local_resources_factor = 0.1
				industrial_capacity_factory = 0.05
			}
		}

		sco_reduced_militarization_liberal_2 = {
			on_add = {log = "[GetDateText]: [Root.GetName]: add idea sco_reduced_militarization_liberal_2"}

			allowed = {
				original_tag = SCO
				always = no
			}

			removal_cost = -1

			picture = SCO_Oppressive_State

			modifier = {
				political_power_gain = 0.25
				conversion_cost_civ_to_mil_factor = -0.05
				production_speed_arms_factory_factor = 0.05
				line_change_production_efficiency_factor = -0.05
				production_factory_efficiency_gain_factor = -0.05
				local_resources_factor = 0.05
				industrial_capacity_factory = 0.03
			}
		}

		sco_reduced_militarization_liberal_3 = {
			on_add = {log = "[GetDateText]: [Root.GetName]: add idea sco_reduced_militarization_liberal_3"}

			allowed = {
				original_tag = SCO
				always = no
			}

			removal_cost = -1

			picture = SCO_Oppressive_State

			modifier = {
				political_power_gain = 0.25
				conversion_cost_civ_to_mil_factor = -0.05
				production_speed_arms_factory_factor = 0.03
				line_change_production_efficiency_factor = -0.05
				production_factory_efficiency_gain_factor = -0.05
				local_resources_factor = 0.05
				industrial_capacity_factory = 0.03
			}
		}

		sco_reduced_militarization_liberal_3_ceic = {
			on_add = {log = "[GetDateText]: [Root.GetName]: add idea sco_reduced_militarization_liberal_3_ceic"}

			allowed = {
				original_tag = SCO
				always = no
			}

			removal_cost = -1

			picture = SCO_Oppressive_State

			modifier = {
				political_power_gain = 0.4
				conversion_cost_civ_to_mil_factor = -0.05
				production_speed_arms_factory_factor = 0.03
				line_change_production_efficiency_factor = -0.05
				production_factory_efficiency_gain_factor = -0.05
				local_resources_factor = 0.05
				industrial_capacity_factory = 0.03
			}
		}

		SCO_militarized_economy_corporate = {
			on_add = {log = "[GetDateText]: [Root.GetName]: add idea SCO_militarized_economy_corporate"}

			allowed = {
				original_tag = SCO
				always = no
			}

			removal_cost = -1

			picture = SCO_Oppressive_State

			modifier = {
				political_power_gain = -0.3
				conversion_cost_civ_to_mil_factor = -0.2
				production_speed_arms_factory_factor = 0.1
				production_factory_start_efficiency_factor = 0.05
				line_change_production_efficiency_factor = 0.05
				production_factory_efficiency_gain_factor = 0.05
			}
		}

		SCO_militarized_economy_corporate_2 = {
			on_add = {log = "[GetDateText]: [Root.GetName]: add idea SCO_militarized_economy_corporate_2"}

			allowed = {
				original_tag = SCO
				always = no
			}

			removal_cost = -1

			picture = SCO_Oppressive_State

			modifier = {
				political_power_gain = -0.3
				conversion_cost_civ_to_mil_factor = -0.2
				production_speed_arms_factory_factor = 0.1
				production_factory_start_efficiency_factor = 0.05
				line_change_production_efficiency_factor = 0.05
				production_factory_efficiency_gain_factor = 0.05
				local_resources_factor = 0.2
			}
		}

		SCO_militarized_economy_corporate_3 = {
			on_add = {log = "[GetDateText]: [Root.GetName]: add idea SCO_militarized_economy_corporate_3"}

			allowed = {
				original_tag = SCO
				always = no
			}

			removal_cost = -1

			picture = SCO_Oppressive_State

			modifier = {
				political_power_gain = -0.3
				conversion_cost_civ_to_mil_factor = -0.2
				production_speed_arms_factory_factor = 0.1
				production_factory_start_efficiency_factor = 0.05
				line_change_production_efficiency_factor = 0.05
				production_factory_efficiency_gain_factor = 0.05
				local_resources_factor = 0.2
				industrial_capacity_factory = 0.1
			}
		}


		SCO_militarized_economy_corporate_4 = {
			on_add = {log = "[GetDateText]: [Root.GetName]: add idea SCO_militarized_economy_corporate_4"}

			allowed = {
				original_tag = SCO
				always = no
			}

			removal_cost = -1

			picture = SCO_Oppressive_State

			modifier = {
				political_power_gain = -0.4
				conversion_cost_civ_to_mil_factor = -0.25
				production_speed_arms_factory_factor = 0.15
				production_factory_start_efficiency_factor = 0.07
				line_change_production_efficiency_factor = 0.07
				production_factory_efficiency_gain_factor = 0.07
				local_resources_factor = 0.2
				industrial_capacity_factory = 0.15
			}
		}

		sco_reduced_militarization = {
			on_add = {log = "[GetDateText]: [Root.GetName]: add idea sco_reduced_militarization"}

			allowed = {
				original_tag = SCO
				always = no
			}

			removal_cost = -1

			picture = SCO_Oppressive_State

			modifier = {
				political_power_gain = -0.1
				conversion_cost_civ_to_mil_factor = -0.1
				production_speed_arms_factory_factor = 0.05
				production_factory_start_efficiency_factor = 0.05
				line_change_production_efficiency_factor = 0.05
				production_factory_efficiency_gain_factor = 0.05
				local_resources_factor = 0.1
				industrial_capacity_factory = 0.05
			}
		}

		sco_reduced_militarization_2 = {
			on_add = {log = "[GetDateText]: [Root.GetName]: add idea sco_reduced_militarization_2"}

			allowed = {
				original_tag = SCO
				always = no
			}

			removal_cost = -1

			picture = SCO_Oppressive_State

			modifier = {
				conversion_cost_civ_to_mil_factor = -0.05
				production_speed_arms_factory_factor = 0.05
				production_factory_start_efficiency_factor = 0.05
				line_change_production_efficiency_factor = 0.05
				production_factory_efficiency_gain_factor = 0.05
				local_resources_factor = 0.05
				industrial_capacity_factory = 0.03
			}
		}

		sco_reduced_militarization_3 = {
			on_add = {log = "[GetDateText]: [Root.GetName]: add idea sco_reduced_militarization_3"}

			allowed = {
				original_tag = SCO
				always = no
			}

			removal_cost = -1

			picture = SCO_Oppressive_State

			modifier = {
				political_power_gain = -0.1
				conversion_cost_civ_to_mil_factor = -0.15
				production_speed_arms_factory_factor = 0.07
				production_factory_start_efficiency_factor = 0.07
				line_change_production_efficiency_factor = 0.07
				production_factory_efficiency_gain_factor = 0.07
				local_resources_factor = 0.1
				industrial_capacity_factory = 0.1
			}
		}

		sco_nls = {
			on_add = {log = "[GetDateText]: [Root.GetName]: add idea sco_nls"}

			allowed = {
				original_tag = SCO
				always = no
			}

			removal_cost = -1

			picture = SCO_Oppressive_State

			modifier = {
				war_support_factor = -0.03
				conscription_factor = -0.05
				production_speed_buildings_factor = 0.05
				production_speed_bunker_factor = 0.1
				production_speed_anti_air_building_factor = 0.1
				production_speed_naval_base_factor = 0.1
				production_speed_air_base_factor = 0.1
				production_speed_infrastructure_factor = 0.1
			}
		}

		SCO_Slightly_Oppressive_State = {
			on_add = {log = "[GetDateText]: [Root.GetName]: add idea SCO_budget"}

			allowed = {
				original_tag = SCO
				always = no
			}

			removal_cost = -1

			picture = SCO_Oppressive_State

			modifier = {
				political_power_gain = -0.2
				war_support_factor = 0.1
				stability_factor = -0.15
			}
		}
		SCO_Oppressive_State = {
			on_add = {log = "[GetDateText]: [Root.GetName]: add idea SCO_budget"}

			allowed = {
				original_tag = SCO
				always = no
			}

			removal_cost = -1

			picture = SCO_Oppressive_State

			modifier = {
				political_power_gain = -0.3
				war_support_factor = 0.15
				stability_factor = -0.2
			}
		}
		SCO_Very_Oppressive_State = {
			on_add = {log = "[GetDateText]: [Root.GetName]: add idea SCO_Very_Oppressive_State"}

			allowed = {
				original_tag = SCO
				always = no
			}

			removal_cost = -1

			picture = SCO_Oppressive_State

			modifier = {
				political_power_gain = -0.4
				war_support_factor = 0.2
				stability_factor = -0.25
			}
		}

		sco_the_marshals_hold = {
			on_add = {log = "[GetDateText]: [Root.GetName]: add idea sco_the_marshals_hold"}

			allowed = {
				original_tag = SCO
				always = no
			}

			removal_cost = -1

			picture = generic_army_2

			modifier = {
				stability_factor = 0.05
				political_power_factor = 0.05
			}
		}

		sco_the_marshals_cult = {
			on_add = {log = "[GetDateText]: [Root.GetName]: add idea sco_the_marshals_cult"}

			allowed = {
				original_tag = SCO
				always = no
			}

			removal_cost = -1

			picture = generic_army_2

			modifier = {
				stability_factor = 0.05
				political_power_factor = 0.1
				army_morale_factor = 0.03
			}
		}

		sco_the_marshals_cult_eternal = {
			on_add = {log = "[GetDateText]: [Root.GetName]: add idea sco_the_marshals_cult_eternal"}

			allowed = {
				original_tag = SCO
				always = no
			}

			removal_cost = -1

			picture = generic_army_2

			modifier = {
				stability_factor = 0.05
				political_power_factor = -0.1
				army_morale_factor = 0.05
			}
		}

		sco_supreme_council = {
			on_add = {log = "[GetDateText]: [Root.GetName]: add idea sco_supreme_council"}

			allowed = {
				original_tag = SCO
				always = no
			}

			removal_cost = -1

			picture = generic_army_2

			modifier = {
				political_power_factor = -0.05
			}
		}

		sco_rationalized_bureaucracy = {
			on_add = {log = "[GetDateText]: [Root.GetName]: add idea sco_rationalized_bureaucracy"}

			allowed = {
				original_tag = SCO
				always = no
			}

			removal_cost = -1

			picture = generic_army_2

			modifier = {
				political_power_gain = 0.1
				consumer_goods_factor = -0.02
				mobilization_speed = 0.1
			}
		}

		sco_mobilize_the_masses = {
			on_add = {log = "[GetDateText]: [Root.GetName]: add idea sco_mobilize_the_masses"}

			allowed = {
				original_tag = SCO
				always = no
			}

			removal_cost = -1

			picture = generic_army_2

			modifier = {
				political_power_gain = 0.1
				industrial_capacity_factory = 0.03
				production_speed_buildings_factor = 0.03
				army_morale_factor = 0.03
				stability_factor = -0.05
			}
		}

		sco_military_youth = {
			on_add = {log = "[GetDateText]: [Root.GetName]: add idea sco_military_youth"}

			allowed = {
				original_tag = SCO
				always = no
			}

			removal_cost = -1

			picture = generic_army_2

			modifier = {
				political_power_gain = 0.1
				industrial_capacity_factory = 0.03
				production_speed_buildings_factor = 0.03
				army_morale_factor = 0.03
				stability_factor = -0.1
				conscription_factor = 0.2
			}
		}

		SCO_War_Draft = {
			on_add = {log = "[GetDateText]: [Root.GetName]: add idea SCO_War_Draft"}

			allowed = {
				original_tag = SCO
				always = no
			}

			removal_cost = -1

			picture = generic_army_2

			modifier = {
				conscription = 0.01
			}
		}
		sco_militarist_propaganda = {
			on_add = {log = "[GetDateText]: [Root.GetName]: add idea sco_militarist_propaganda"}

			allowed = {
				original_tag = SCO
				always = no
			}

			removal_cost = -1

			picture = generic_army_2

			modifier = {
				conscription = 0.01
				political_power_gain = 0.1
				army_morale_factor = 0.05
			}
		}
		SCO_Scotland_The_Brave = {
			on_add = {log = "[GetDateText]: [Root.GetName]: add idea SCO_budget"}

			allowed = {
				original_tag = SCO
				always = no
			}

			removal_cost = -1

			picture = SCO_Scotland_The_Brave

			modifier = {
				conscription = 0.01
				political_power_gain = 0.1
				army_morale_factor = 0.05
				war_support_factor = 0.1
				army_core_attack_factor = 0.2
				army_core_defence_factor = 0.2
			}
		}
		SCO_Scotland_The_Brave_2 = {
			on_add = {log = "[GetDateText]: [Root.GetName]: add idea SCO_Scotland_The_Brave_2"}

			allowed = {
				original_tag = SCO
				always = no
			}

			removal_cost = -1

			picture = SCO_Scotland_The_Brave

			modifier = {
				conscription = 0.01
				political_power_gain = 0.1
				army_morale_factor = 0.07
				war_support_factor = 0.1
				army_core_attack_factor = 0.2
				army_core_defence_factor = 0.2
			}
		}
		sco_reengeener_pol_landscape = {
			on_add = {log = "[GetDateText]: [Root.GetName]: add idea sco_reengeener_pol_landscape"}

			allowed = {
				original_tag = SCO
				always = no
			}

			removal_cost = -1

			picture = SCO_Scotland_The_Brave

			modifier = {
				stability_factor = -0.05
				political_power_factor = 0.25
			}
		}
		sco_reengeener_pol_landscape_2 = {
			on_add = {log = "[GetDateText]: [Root.GetName]: add idea sco_reengeener_pol_landscape_2"}

			allowed = {
				original_tag = SCO
				always = no
			}

			removal_cost = -1

			picture = SCO_Scotland_The_Brave

			modifier = {
				stability_factor = 0.05
				political_power_factor = 0.1
			}
		}
		SCO_light_inf = {
			on_add = {log = "[GetDateText]: [Root.GetName]: add idea SCO_light_inf"}
			allowed = {
				always = no
			}
			allowed_civil_war = {
				always = yes
			}
			removal_cost = -1
			picture = URL_volunteer_militia_programs
			modifier = {
				modifier_army_sub_unit_light_infantry_attack_factor = 0.05
				modifier_army_sub_unit_light_infantry_defence_factor = 0.05
				modifier_army_sub_unit_light_infantry_training_time_factor = -0.15
			}
		}
		SCO_rd_invest = {
			on_add = {log = "[GetDateText]: [Root.GetName]: add idea SCO_rd_invest"}

			allowed = {
				original_tag = SCO
				always = no

			}

			removal_cost = -1

			picture = SCO_Scottish_Soldiers

			modifier = {
				research_speed_factor = 0.075
			}
		}

		SCO_dockyards_invest = {
			on_add = {log = "[GetDateText]: [Root.GetName]: add idea SCO_dockyards_invest"}

			allowed = {
				original_tag = SCO
				always = no

			}

			removal_cost = -1

			picture = SCO_Scottish_Soldiers

			modifier = {
				production_speed_dockyard_factor = 0.05
				industrial_capacity_dockyard = 0.05
			}
		}

		SCO_arms_exports = {
			on_add = {log = "[GetDateText]: [Root.GetName]: add idea SCO_arms_exports"}

			allowed = {
				original_tag = SCO
				always = no

			}

			removal_cost = -1

			picture = SCO_Scottish_Soldiers

			modifier = {
				consumer_goods_factor = -0.03
				production_factory_efficiency_gain_factor = 0.08
				industrial_capacity_factory = 0.05
			}
		}

		SCO_FEN_economic_union = {
			on_add = {log = "[GetDateText]: [Root.GetName]: add idea SCO_FEN_economic_union"}

			allowed = {
				original_tag = SCO
				always = no

			}

			removal_cost = -1

			picture = SCO_Scottish_Soldiers

			modifier = {
				consumer_goods_factor = -0.05
			}
			targeted_modifier = { tag = FEN trade_opinion_factor = 0.5 }
		}

		SCO_disbanded_gov = {
			on_add = {log = "[GetDateText]: [Root.GetName]: add idea SCO_disbanded_gov"}

			allowed = {
				original_tag = SCO
				always = no

			}

			removal_cost = -1

			picture = SCO_Scottish_Soldiers

			modifier = {
				political_power_factor = -0.5
			}
		}

		SCO_FEN_army_integration = {
			on_add = {log = "[GetDateText]: [Root.GetName]: add idea SCO_FEN_army_integration"}

			allowed = {
				original_tag = SCO
				always = no

			}

			removal_cost = -1

			picture = SCO_Scottish_Soldiers

			modifier = {
				experience_gain_army_factor = -0.5
				army_org_factor = -0.25
				army_morale_factor = -0.25
				command_power_gain_mult = -0.5
			}
		}

		sco_military_preparations = {
			on_add = {log = "[GetDateText]: [Root.GetName]: add idea sco_military_preparations"}

			allowed = {
				original_tag = SCO
				always = no

			}

			removal_cost = -1

			picture = SCO_Scottish_Soldiers

			modifier = {
				army_org_factor = 0.03
				command_power_gain_mult = 0.05
			}
		}

		sco_military_preparations_1 = {
			on_add = {log = "[GetDateText]: [Root.GetName]: add idea sco_military_preparations_1"}

			allowed = {
				original_tag = SCO
				always = no

			}

			removal_cost = -1

			picture = SCO_Scottish_Soldiers

			modifier = {
				army_org_factor = 0.05
				army_morale_factor = 0.05
				command_power_gain_mult = 0.05
			}
		}

		sco_military_preparations_2 = {
			on_add = {log = "[GetDateText]: [Root.GetName]: add idea sco_military_preparations_2"}

			allowed = {
				original_tag = SCO
				always = no

			}

			removal_cost = -1

			picture = SCO_Scottish_Soldiers

			modifier = {
				army_org_factor = 0.1
				army_morale_factor = 0.1
				army_attack_factor = 0.05
				army_speed_factor = 0.05
				command_power_gain_mult = 0.05
			}
		}

		SCO_ENG_Up_Prop = {
			on_add = {log = "[GetDateText]: [Root.GetName]: add idea SCO_ENG_Up_Prop"}

			allowed = {
				original_tag = SCO
				always = no

			}

			removal_cost = -1

			picture = SCO_Scottish_Soldiers

			modifier = {
				stability_weekly = -0.005
				war_support_weekly = -0.005
			}
		}

		SCO_ENG_Up_morale_hit = {
			on_add = {log = "[GetDateText]: [Root.GetName]: add idea SCO_ENG_Up_morale_hit"}

			allowed = {
				original_tag = SCO
				always = no

			}

			removal_cost = -1

			picture = SCO_Scottish_Soldiers

			modifier = {
				army_morale_factor = -0.1
				war_support_factor = -0.05
				conscription_factor = -0.05
			}
		}

		sco_mac_autonomy = {
			on_add = {log = "[GetDateText]: [Root.GetName]: add idea sco_mac_autonomy"}

			allowed = {
				original_tag = SCO
				always = no

			}

			removal_cost = -1

			picture = SCO_Scottish_Soldiers

			modifier = {
				war_support_factor = -0.05
				conscription_factor = -0.1
				army_org_factor = -0.1
				army_morale_factor = -0.03
			}
		}

		sco_synd_autonomy = {
			on_add = {log = "[GetDateText]: [Root.GetName]: add idea sco_synd_autonomy"}

			allowed = {
				original_tag = SCO
				always = no

			}

			removal_cost = -1

			picture = SCO_Scottish_Soldiers

			modifier = {
				consumer_goods_factor = 0.07
				political_power_factor = -0.15
			}
		}

		sco_EJ_Ruthlessness = {
			on_add = {log = "[GetDateText]: [Root.GetName]: add idea sco_EJ_Ruthlessness"}

			allowed = {
				original_tag = FEN
				always = no
				has_war = yes
			}

			removal_cost = -1

			picture = SCO_Scottish_Soldiers

			modifier = {
				army_attack_factor = 0.05
				army_speed_factor = 0.05
				army_morale_factor = 0.05
				army_defence_factor = -0.05
			}
		}

		sco_woodhouse_specops = {
			on_add = {log = "[GetDateText]: [Root.GetName]: add idea sco_woodhouse_specops"}

			allowed = {
				original_tag = FEN
				always = no
				has_war = yes
			}

			removal_cost = -1

			picture = SCO_Scottish_Soldiers

			modifier = {
				recon_factor = 0.1
				army_org_factor = 0.05
				decryption_factor = 0.1
				dig_in_speed_factor = 0.1
			}
		}

		sco_efs_sas_infiltrators = {
			on_add = {log = "[GetDateText]: [Root.GetName]: add idea sco_efs_sas_infiltrators"}

			allowed = {
				original_tag = EFS
				always = no
				has_war = yes
			}

			removal_cost = -1

			picture = SCO_Scottish_Soldiers

			modifier = {
				army_defence_factor = -0.1
				army_morale_factor = -0.05
			}
		}

		sco_eng_scottish_blockade = {
			on_add = {log = "[GetDateText]: [Root.GetName]: add idea sco_eng_scottish_blockade"}

			allowed = {
				original_tag = ENG
				always = no
				has_war = yes
			}

			removal_cost = -1

			picture = SCO_Scottish_Soldiers

			modifier = {
				consumer_goods_factor = 0.05
				army_morale_factor = -0.05
				industrial_capacity_factory = -0.1
			}
		}

		sco_eng_exacerbated_divides = {
			on_add = {log = "[GetDateText]: [Root.GetName]: add idea sco_eng_exacerbated_divides"}

			allowed = {
				original_tag = ENG
				always = no
				has_war = yes
			}

			removal_cost = -1

			picture = SCO_Scottish_Soldiers

			modifier = {
				army_morale_factor = -0.05
				stability_factor = -0.05
				political_power_factor = -0.05
			}
		}

		sco_up_sas_sabotage = {
			on_add = {log = "[GetDateText]: [Root.GetName]: add idea sco_up_sas_sabotage"}

			allowed = {
				original_tag = ENG
				always = no
				has_war = yes
			}

			removal_cost = -1

			picture = SCO_Scottish_Soldiers

			modifier = {
				army_morale_factor = -0.05
				army_speed_factor = -0.05
				land_reinforce_rate = -0.01
			}
		}

		sco_fen_advisors = {
			on_add = {log = "[GetDateText]: [Root.GetName]: add idea sco_fen_advisors"}

			allowed = {
				original_tag = FEN
				always = no
				has_war = yes
			}

			removal_cost = -1

			picture = SCO_Scottish_Soldiers

			modifier = {
				army_org_factor = 0.1
				army_attack_factor = 0.05
				max_planning = 0.05
				planning_speed = 0.05
			}
		}

		sco_fen_majestic_howl = {
			on_add = {log = "[GetDateText]: [Root.GetName]: add idea sco_fen_majestic_howl"}

			allowed = {
				original_tag = FEN
				always = no
				has_war = yes
			}

			removal_cost = -1

			picture = SCO_Scottish_Soldiers

			modifier = {
				army_morale_factor = 0.1
				army_attack_factor = 0.1
				army_defence_factor = 0.1
				army_speed_factor = 0.1
				war_support_factor = 0.1
				surrender_limit = 0.1
			}
		}

		SCO_Scottish_volunteers_fen = {
			on_add = {log = "[GetDateText]: [Root.GetName]: add idea SCO_budget"}

			allowed = {
				original_tag = SCO
				always = no

			}

			removal_cost = -1

			picture = SCO_Scottish_Soldiers

			modifier = {
			weekly_manpower = -300
			stability_weekly = 0.005
			}
		}

		sco_efs_volunteers = {
			on_add = {log = "[GetDateText]: [Root.GetName]: add idea sco_efs_volunteers"}

			allowed = {
				original_tag = SCO
				always = no
				EFS = {
					has_war = yes
				}
			}

			removal_cost = -1

			picture = SCO_Scottish_Soldiers

			modifier = {
				weekly_manpower = -100
				stability_weekly = 0.005
			}
		}


		efs_sco_volunteers = {
			on_add = {log = "[GetDateText]: [Root.GetName]: add idea efs_sco_volunteers"}

			allowed = {
				original_tag = EFS
				always = no
				has_war = yes
			}

			removal_cost = -1

			picture = SCO_Scottish_Soldiers

			modifier = {
				weekly_manpower = 100
			}
		}

		SCO_Scottish_Advisors = {
			on_add = {log = "[GetDateText]: [Root.GetName]: add idea SCO_budget"}

			allowed = {
				original_tag = SCO
				always = no

			}

			removal_cost = -1

			picture = SCO_Scottish_Advisors

			modifier = {
			army_core_defence_factor = 0.1
			army_core_attack_factor = 0.1
			training_time_factor = -0.2
			}
			}
		SCO_Scottish_Army_Improvements = {
			on_add = {log = "[GetDateText]: [Root.GetName]: add idea SCO_budget"}

			allowed = {
				original_tag = SCO
				always = no

			}

			removal_cost = -1

			picture = generic_army

			modifier = {
			army_core_defence_factor = 0.1
			army_core_attack_factor = 0.1
			}
			}
		SCO_Scottish_Budget_issues = {
			on_add = {log = "[GetDateText]: [Root.GetName]: add idea SCO_budget"}

			allowed = {
				original_tag = SCO
				always = no

			}

			removal_cost = -1

			picture = IBR_Iberian_Economic_Nightmare

			modifier = {
			consumer_goods_factor = 0.1
			production_speed_buildings_factor = -0.1
			industrial_capacity_factory = -0.1
			production_factory_max_efficiency_factor = -0.1
			}
		}
		SCO_Unpopular_Armed_Force = {
			on_add = {log = "[GetDateText]: [Root.GetName]: add idea SCO_Unpopular_Armed_Force"}

			allowed = {
				original_tag = SCO
				always = no
			}

			removal_cost = -1

			picture = ENG_deeply_unpopular_govt

			modifier = {
			conscription = -0.3
			war_support_factor = -0.5
			}
		}
		SCO_scottish_recon = {
			on_add = {log = "[GetDateText]: [Root.GetName]: add idea SCO_scottish_recon"}

			allowed = {
				always = no
			}

			removal_cost = -1

			picture = BAS_Carrot_And_The_Stick

			modifier = {
			decryption_factor = 0.05
			}
		}

		SCO_Derry_Scapa_deal = {
			on_add = {log = "[GetDateText]: [Root.GetName]: add idea SCO_scottish_recon"}

			allowed = {
				always = no
			}

			removal_cost = -1

			picture = HOL_busy_ports

			modifier = {
			consumer_goods_factor = 0.1
			production_speed_buildings_factor = -0.05
			industrial_capacity_dockyard = 0.1
			}
		}

		SCO_Naval_Battle = {
			on_add = {log = "[GetDateText]: [Root.GetName]: add idea SCO_scottish_recon"}

			allowed = {
				always = no
			}

			removal_cost = -1

			picture = BAS_Carrot_And_The_Stick

			modifier = {
				#navy_carrier_air_attack_factor = 0.05
				#navy_carrier_air_targeting_factor = 0.05
				#naval_screen_defence_factor = 0.5
				#naval_screen_attack_factor = 0.5
			}
		}

		SCO_Fight_The_Fascists = {
			on_add = {log = "[GetDateText]: [Root.GetName]: add idea SCO_budget"}

			allowed = {
				original_tag = SCO
				always = no

			}

			removal_cost = -1

			picture = generic_army

			modifier = {
			army_core_defence_factor = 0.1
			army_core_attack_factor = 0.1
			}
		}

		SCO_Highland_Warriors = {
			on_add = {log = "[GetDateText]: [Root.GetName]: add idea SCO_budget"}

			allowed = {
				original_tag = SCO
				always = no

			}

			removal_cost = -1

			picture = generic_army

			modifier = {
			army_core_attack_factor = 0.15
			}
		}


		SCO_GW_Scotland_The_Brave = {
			on_add = {log = "[GetDateText]: [Root.GetName]: add idea SCO_budget"}

			allowed = {
				original_tag = SCO
				always = no

			}

			removal_cost = -1

			picture = generic_army

			modifier = {
			army_core_attack_factor = 0.15
			army_core_defence_factor = 0.1
			surrender_limit = 0.2
			army_org_factor = 0.05
			}
		}

		SCO_Partisans = {
			on_add = {log = "[GetDateText]: [Root.GetName]: add idea SCO_budget"}

			allowed = {
				original_tag = SCO
				always = no

			}

			removal_cost = -1

			picture = generic_army

			modifier = {
			#partisan_effect = 0.2

			}
		}

		SCO_Scotland_will_never_Fall = {
			on_add = {log = "[GetDateText]: [Root.GetName]: add idea SCO_budget"}

			allowed = {
				original_tag = SCO
				always = no

			}

			removal_cost = -1

			picture = generic_army

			modifier = {
			surrender_limit = 0.2

			}
		}

		SCO_Draw_Up_Plans = {
			on_add = {log = "[GetDateText]: [Root.GetName]: add idea SCO_Draw_Up_Plans"}

			allowed = {
				original_tag = SCO
				always = no

			}

			removal_cost = -1

			picture = generic_army

			modifier = {
				planning_speed = 0.25
				max_planning = 0.25
			}
		}

		SCO_Stirlings_Guidance = {
			on_add = {log = "[GetDateText]: [Root.GetName]: add idea SCO_Stirlings_Guidance"}

			allowed = {
				original_tag = SCO
				always = no

			}

			removal_cost = -1

			picture = generic_army

			modifier = {
				recon_factor = 0.15
				supply_consumption_factor = -0.25
			}
		}

		SCO_Advance_Quickly = {
			on_add = {log = "[GetDateText]: [Root.GetName]: add idea SCO_Advance_Quickly"}

			allowed = {
				original_tag = SCO
				always = no

			}

			removal_cost = -1

			picture = generic_army

			modifier = {
				army_speed_factor = 0.10
				army_morale_factor = -0.10
			}
		}

		SCO_Advance_Quickly2 = {
			on_add = {log = "[GetDateText]: [Root.GetName]: add idea SCO_Advance_Quickly2"}

			allowed = {
				original_tag = SCO
				always = no

			}

			removal_cost = -1

			picture = generic_army

			modifier = {
				army_speed_factor = 0.25
				army_morale_factor = -0.25
			}
		}

		SCO_Advance_Rashly = {
			on_add = {log = "[GetDateText]: [Root.GetName]: add idea SCO_Advance_Rashly"}

			allowed = {
				original_tag = SCO
				always = no

			}

			removal_cost = -1

			picture = generic_army

			modifier = {
				offence = 0.05
				defence = -0.05
			}
		}

		SCO_Advance_Rashly2 = {
			on_add = {log = "[GetDateText]: [Root.GetName]: add idea SCO_Advance_Rashly2"}

			allowed = {
				original_tag = SCO
				always = no

			}

			removal_cost = -1

			picture = generic_army

			modifier = {
				offence = 0.10
				defence = -0.20
			}
		}

 		SCO_Repatriation_of_english = {
			on_add = {log = "[GetDateText]: [Root.GetName]: add idea SCO_Advance_Rashly2"}

			allowed = {
				original_tag = SCO
				always = no

			}

			removal_cost = -1

			picture = generic_army

			modifier = {
				political_power_gain = -0.4
				MONTHLY_POPULATION = -5
				industrial_capacity_factory = -0.1


			}
		}
		SCO_FEN_Repatriation_of_english = {
			on_add = {log = "[GetDateText]: [Root.GetName]: add idea SCO_Advance_Rashly2"}

			allowed = {
				original_tag = SCO
				always = no

			}

			removal_cost = -1

			picture = SCO_English_Refugees

			modifier = {
				
				MONTHLY_POPULATION = 1
				stability_factor = -0.05
				

			}
		}

 		SCO_collab_Repatriation_of_english = {
			on_add = {log = "[GetDateText]: [Root.GetName]: add idea SCO_collab_Repatriation_of_english"}

			allowed = {
				original_tag = SCO
				always = no

			}

			removal_cost = -1

			picture = SCO_English_Refugees

			modifier = {
				political_power_gain = -0.25
				industrial_capacity_factory = -0.1
				MONTHLY_POPULATION = 1
			}
		}

		SCO_mobilize_people_idea = {
			on_add = {log = "[GetDateText]: [Root.GetName]: add idea SCO_mobilize_people_idea"}

			allowed = {
				original_tag = SCO
				always = no

			}

			removal_cost = -1

			picture = GBE_idea_militia_based_army

			modifier = {
				consumer_goods_factor = -0.05
				industrial_capacity_factory = 0.1
				production_speed_buildings_factor = 0.1
				conscription_factor = 0.05
			}
		}

		sco_mil_participation_in_eco = {
			on_add = {log = "[GetDateText]: [Root.GetName]: add idea sco_mil_participation_in_eco"}

			allowed = {
				original_tag = SCO
				always = no

			}

			removal_cost = -1

			picture = generic_army

			modifier = {
				consumer_goods_factor = 0.03
				industrial_capacity_factory = 0.05
				production_speed_arms_factory_factor = 0.1
				production_factory_efficiency_gain_factor = -0.05
				line_change_production_efficiency_factor = -0.05
				political_power_gain = -0.05
			}
		}

		sco_antiup_propaganda = {
			on_add = {log = "[GetDateText]: [Root.GetName]: add idea sco_antiup_propaganda"}

			allowed = {
				original_tag = SCO
				always = no

			}

			removal_cost = -1

			picture = generic_army

			modifier = {
				social_conservative_drift = -0.02
			}
		}

		sco_campaign_fortifications = {
			on_add = {log = "[GetDateText]: [Root.GetName]: add idea sco_campaign_fortifications"}

			allowed = {
				original_tag = SCO
				always = no
			}

			available = {
				has_war = yes
			}

			removal_cost = -1

			picture = generic_army

			modifier = {
				production_speed_bunker_factor = 0.15
			}
		}

		sco_offensive = {
			on_add = {log = "[GetDateText]: [Root.GetName]: add idea sco_offensive"}

			allowed = {
				original_tag = SCO
				always = no

			}

			removal_cost = -1

			picture = generic_army

			modifier = {
				army_attack_factor = 0.1
				army_morale_factor = 0.05
				army_speed_factor = 0.05
			}
		}

		sco_antienglishwar = {
			on_add = {log = "[GetDateText]: [Root.GetName]: add idea sco_antienglishwar"}

			allowed = {
				original_tag = SCO
				always = no
			}

			available = {
				has_war_with = ENG
			}

			removal_cost = -1

			picture = generic_army

			targeted_modifier = {
				tag = ENG
				attack_bonus_against = 0.05
				defense_bonus_against = 0.05
			}

			targeted_modifier = {
				tag = CRN
				attack_bonus_against = 0.05
				defense_bonus_against = 0.05
			}
		}

		SCO_Decentralised_Union = {
			on_add = {log = "[GetDateText]: [Root.GetName]: add idea sco_decentralised_union"}

			allowed = {
				original_tag = SCO
				always = no

			}

			removal_cost = -1

			picture = generic_army

			modifier = {
				political_power_gain = -0.8
				stability_factor = -0.1
			}
		}

		SCO_Scottish_Dominated_Army = {
			on_add = {log = "[GetDateText]: [Root.GetName]: add idea sco_scottish_dominated_army"}

			allowed = {
				original_tag = SCO
				always = no

			}

			removal_cost = -1

			picture = generic_army

			modifier = {
				war_support_factor = -0.2
				conscription = -0.05
				training_time_factor = -0.4
				army_attack_factor = -0.15
				army_core_defence_factor = -0.15
			}
		}

		SCO_Partially_Integrated_Armies = {
			on_add = {log = "[GetDateText]: [Root.GetName]: add idea sco_partially_integrated_armies"}

			allowed = {
				original_tag = SCO
				always = no

			}

			removal_cost = -1

			picture = generic_army

			modifier = {
				war_support_factor = -0.1
				conscription = -0.025
				training_time_factor = -0.1
				army_attack_factor = -0.1
				army_core_defence_factor = -0.1
			}
		}

		SCO_Integrated_Armies = {
			on_add = {log = "[GetDateText]: [Root.GetName]: add idea sco_integrated_armies"}

			allowed = {
				original_tag = SCO
				always = no

			}

			removal_cost = -1

			picture = generic_army

			modifier = {
				war_support_factor = -0.1
				conscription = -0.02
				army_attack_factor = -0.05
				army_core_defence_factor = -0.05
			}
		}

		SCO_Unpopular_Union = {
			on_add = {log = "[GetDateText]: [Root.GetName]: add idea sco_unpopular_union"}

			allowed = {
				original_tag = SCO
				always = no

			}

			removal_cost = -1

			picture = generic_army

			modifier = {
				war_support_factor = -0.2
				stability_factor = -0.2
			}
		}

		SCO_Modernising_Navy = {
			on_add = {log = "[GetDateText]: [Root.GetName]: add idea sco_modernising_navy"}

			allowed = {
				original_tag = SCO
				always = no

			}

			removal_cost = -1

			picture = generic_army

			modifier = {
				industrial_capacity_dockyard = 0.15
			}
		}
		SCO_SNP_Corruption = {
			on_add = {log = "[GetDateText]: [Root.GetName]: add idea sco_snp_corruption"}

			allowed = {
				original_tag = SCO
				always = no

			}

			removal_cost = -1

			picture = generic_army

			modifier = {
				political_power_gain = -0.5
				stability_factor = -0.05
			}
		}
		SCO_Joint_Training = {
			on_add = {log = "[GetDateText]: [Root.GetName]: add idea sco_joint_training"}
			
			allowed = {
				original_tag = SCO
				always = no
				
			}
			
			removal_cost = -1
			
			picture = generic_army
			
			modifier = {
				political_power_gain = -0.1
				experience_gain_army_factor = 0.2
			}
		}
		FEN_Joint_Training = {
			on_add = {log = "[GetDateText]: [Root.GetName]: add idea fen_joint_training"}
			
			allowed = {
				original_tag = FEN
				always = no
				
			}
			
			removal_cost = -1
			
			picture = generic_army
			
			modifier = {
				political_power_gain = -0.1
				experience_gain_army_factor = 0.2
			}
		}	
		SCO_Joint_Research = {
			on_add = {log = "[GetDateText]: [Root.GetName]: add idea sco_joint_research"}
			
			allowed = {
				original_tag = SCO
				always = no
				
			}
			
			removal_cost = -1
			
			picture = generic_army
			
			modifier = {
				political_power_gain = -0.1
				research_speed_factor = 0.05
			}
		}
		FEN_Joint_Research = {
			on_add = {log = "[GetDateText]: [Root.GetName]: add idea fen_joint_research"}
			
			allowed = {
				original_tag = FEN
				always = no
				
			}
			
			removal_cost = -1
			
			picture = generic_army
			
			modifier = {
				political_power_gain = -0.1
				research_speed_factor = 0.05
			}
		}
		SCO_Tourism_Industry = {
			on_add = {log = "[GetDateText]: [Root.GetName]: add idea sco_tourism_industry"}
			
			allowed = {
				original_tag = SCO
				always = no
				
			}
			
			removal_cost = -1
			
			picture = generic_army
			
			modifier = {
				political_power_gain = 0.2
				production_speed_industrial_complex_factor = 0.2
			}
		}
		SCO_German_Companies = {
			on_add = {log = "[GetDateText]: [Root.GetName]: add idea sco_german_companies"}
			
			allowed = {
				original_tag = SCO
				always = no
				
			}
			
			removal_cost = -1
			
			picture = generic_army
			
			modifier = {
				production_speed_industrial_complex_factor = 0.1
				production_speed_arms_factory_factor = 0.1
				production_factory_max_efficiency_factor = 0.1
			}
		}
			
		SCO_recruiting_army = {
			on_add = {log = "[GetDateText]: [Root.GetName]: add idea sco_recruiting_army"}
			
			allowed = {
				original_tag = SCO
				always = no
				
			}
			
			removal_cost = -1
			
			picture = generic_army
			
			modifier = {
				weekly_manpower = 100
			}
		}
		
		SCO_intel_bureau = {
			on_add = {log = "[GetDateText]: [Root.GetName]: add idea sco_intel_bureau"}
			
			allowed = {
				original_tag = SCO
				always = no
			
			}
			
			removal_cost = -1
			
			picture = generic_army
			
			modifier = {
				decryption_factor = 0.2
			}
		}
		
		SCO_intel_bureau_2 = {
			on_add = {log = "[GetDateText]: [Root.GetName]: add idea sco_intel_bureau_2"}
			
			allowed = {
				original_tag = SCO
				always = no
			
			}
			
			removal_cost = -1
			
			picture = generic_army
			
			modifier = {
				encryption_factor = 0.2
			}
		}
		#66ILP
		SCO_Opposition_Outrage = {
			on_add = {log = "[GetDateText]: [Root.GetName]: add idea sco_opposition_outrage"}
			allowed = {
				original_tag = SCO
				always = no
			}
			removal_cost = -1
			picture = LIB_idea_gridlocked_politics
			modifier = {
				stability_weekly = -0.01
			}
		}
		SCO_ILP_Damage_Control = {
			on_add = {log = "[GetDateText]: [Root.GetName]: add idea sco_ilp_damage_control"}
			allowed = {
				original_tag = SCO
				always = no
			}
			removal_cost = -1
			picture = generic_isolation
			modifier = {
				stability_weekly = 0.01
			}
		}
		SCO_ILP_Investing_Abroad = {
			on_add = {log = "[GetDateText]: [Root.GetName]: add idea sco_ilp_investing_abroad"}
			allowed = {
				original_tag = SCO
				always = no
			}
			removal_cost = -1
			picture = generic_coins
			modifier = {
				consumer_goods_factor = -0.025
				production_factory_efficiency_gain_factor = 0.05
				industrial_capacity_factory = 0.1
			}
		}
		SCO_ILP_International_Investments = {
			on_add = {log = "[GetDateText]: [Root.GetName]: add idea sco_ilp_investing_abroad"}
			allowed = {
				original_tag = SCO
				always = no
			}
			removal_cost = -1
			picture = generic_coins
			modifier = {
				intel_from_operatives_factor = 0.1
				consumer_goods_factor = -0.01
				production_factory_efficiency_gain_factor = 0.025
				industrial_capacity_factory = 0.1
			}
		}
		SCO_ILP_Boost_Infrastructure = {
			on_add = {log = "[GetDateText]: [Root.GetName]: add idea sco_ilp_boost_infrastructure"}
			allowed = {
				original_tag = SCO
				always = no
			}
			removal_cost = -1
			picture = generic_planned_economy
			modifier = {
				production_speed_infrastructure_factor = 0.5
			}
		}
		SCO_ILP_Welfare_State_ILP = {
			on_add = {log = "[GetDateText]: [Root.GetName]: add idea SCO_ILP_Welfare_State_ILP"}
			allowed = {
				original_tag = SCO
				always = no
			}
			removal_cost = -1
			picture = generic_planned_economy
			modifier = {
				consumer_goods_factor = 0.05
				MONTHLY_POPULATION = 0.1
			 	stability_factor = 0.1
				political_power_gain = 0.5
			}
		}
		SCO_ILP_Welfare_State_Compromise = {
			on_add = {log = "[GetDateText]: [Root.GetName]: add idea SCO_ILP_Welfare_State_Compromise"}
			allowed = {
				original_tag = SCO
				always = no
			}
			removal_cost = -1
			picture = generic_scales
			modifier = {
				consumer_goods_factor = 0.025
				MONTHLY_POPULATION = 0.05
			 	stability_factor = 0.05
				political_power_gain = 0.75
			}
		}
		SCO_ILP_Iron_Curtain = {
			on_add = {log = "[GetDateText]: [Root.GetName]: add idea SCO_ILP_Iron_Curtain"}
			allowed = {
				original_tag = SCO
				always = no
			}
			removal_cost = -1
			picture = generic_command_economy
			modifier = {
				dig_in_speed = 15
				supply_consumption_factor = -0.05
			}
		}
		SCO_ILP_Layered_Defense = {
			on_add = {log = "[GetDateText]: [Root.GetName]: add idea SCO_ILP_Layered_Defense"}
			allowed = {
				original_tag = SCO
				always = no
			}
			removal_cost = -1
			picture = generic_military_academy
			modifier = {
				army_infantry_defence_factor = 0.15
				army_artillery_defence_factor = 0.05
			}
		}
		SCO_ILP_Force_Reconnaissance = {
			on_add = {log = "[GetDateText]: [Root.GetName]: add idea SCO_ILP_Force_Reconnaissance"}
			allowed = {
				original_tag = SCO
				always = no
			}
			removal_cost = -1
			picture = generic_army_2
			modifier = {
				special_forces_attack_factor = 0.05
				special_forces_defence_factor = 0.05
				recon_factor = 0.1
			}
		}
		SCO_SNP_Influx_of_Investment = {
			on_add = {log = "[GetDateText]: [Root.GetName]: add idea SCO_SNP_Influx_of_Investment"}
			allowed = {
				original_tag = SCO
				always = no
			}
			removal_cost = -1
			picture = generic_army_2
			modifier = {
				consumer_goods_factor = 0.02
				production_speed_buildings_factor = 0.15
				production_factory_max_efficiency_factor = 0.05
			}
		}
		SCO_Scottish_flower = {
			on_add = {log = "[GetDateText]: [Root.GetName]: add idea SCO_Scottish_flower"}
			allowed = {
				original_tag = SCO
				always = no
			}
			removal_cost = -1
			picture = generic_army
			modifier = {
				conscription = 0.02
			}
		}
		SCO_Scottish_Rock = {
			on_add = {log = "[GetDateText]: [Root.GetName]: add idea SCO_Scottish_Rock"}
			allowed = {
				original_tag = SCO
				always = no
			}
			removal_cost = -1
			picture = generic_army
			modifier = {
				army_core_defence_factor = 0.20
			}
		}
		SCO_stand_them = {
			on_add = {log = "[GetDateText]: [Root.GetName]: add idea SCO_stand_them"}
			allowed = {
				original_tag = SCO
				always = no
			}
			removal_cost = -1
			picture = generic_army
			modifier = {
				army_core_defence_factor = 0.30
			}
		}
		SCO_Of_eng_and_world = {
			on_add = {log = "[GetDateText]: [Root.GetName]: add idea SCO_Of_eng_and_world"}
			allowed = {
				original_tag = SCO
				always = no
			}
			removal_cost = -1
			picture = generic_army
			modifier = {
				conscription = 0.02
				army_core_attack_factor = 0.2
			}
		}
		
		###Scottish Catastrophe###
		
		SCO_union_war = {
			on_add = {log = "[GetDateText]: [Root.GetName]: add idea SCO_union_war"}
			allowed = {
				original_tag = SCO
				always = no
			}
			removal_cost = -1
			picture = generic_army
			modifier = {
				army_attack_factor = 0.1
			    army_org_factor = 0.05
				army_morale_factor = 0.05
			}
		}
		
		SCO_English_catastrophe = {
			on_add = {log = "[GetDateText]: [Root.GetName]: add idea SCO_English_catastrophe"}
			allowed = {
				original_tag = SCO
				always = no
			}
			removal_cost = -1
			picture = generic_army
			modifier = {
				stability_weekly = -0.002
				war_support_weekly = 0.002
			}
		}
		
			###Mayne###
			
			FEN_a_clean_britain = {
				on_add = {log = "[GetDateText]: [Root.GetName]: add idea FEN_a_clean_britain"}
				
				allowed = {
					tag = FEN
					always = no
	
				}
	
				removal_cost = -1
	
				picture = SCO_Scottish_Advisors
				
				modifier = {
					stability_factor = -0.1
					weekly_manpower = -100
					political_power_gain = 0.2
				}	
			}
			
			FEN_mayne_collab_legacy = {
				on_add = {log = "[GetDateText]: [Root.GetName]: add idea FEN_mayne_collab_legacy"}
				
				allowed = {
					tag = FEN
					always = no
	
				}
	
				removal_cost = -1
	
				picture = SCO_Scottish_Advisors
				
				modifier = {
					stability_factor = -0.15
					political_power_factor = -0.25
					authoritarian_democrat_drift = -0.03
				}	
			}
			
			FEN_mayne_collab_legacy_1 = {
				on_add = {log = "[GetDateText]: [Root.GetName]: add idea FEN_mayne_collab_legacy_1"}
				
				allowed = {
					tag = FEN
					always = no
	
				}
	
				removal_cost = -1
	
				picture = SCO_Scottish_Advisors
				
				modifier = {
					stability_factor = -0.1
					political_power_factor = -0.2
					authoritarian_democrat_drift = -0.02
				}	
			}
			
			FEN_mayne_collab_legacy_2 = {
				on_add = {log = "[GetDateText]: [Root.GetName]: add idea FEN_mayne_collab_legacy_2"}
				
				allowed = {
					tag = FEN
					always = no
	
				}
	
				removal_cost = -1
	
				picture = SCO_Scottish_Advisors
				
				modifier = {
					stability_factor = -0.05
					political_power_factor = -0.1
					authoritarian_democrat_drift = -0.01
				}	
			}
			
			FEN_mayne_growing_discontent = {
				on_add = {log = "[GetDateText]: [Root.GetName]: add idea FEN_mayne_growing_discontent"}
				
				allowed = {
					tag = FEN
					always = no
	
				}
	
				removal_cost = -1
	
				picture = SCO_Scottish_Advisors
				
				modifier = {
					stability_weekly = -0.005
					political_power_factor = -0.25
					conscription_factor = -0.3
					army_morale_factor = -0.25
				}	
			}
			
			FEN_mayne_growing_discontent_1 = {
				on_add = {log = "[GetDateText]: [Root.GetName]: add idea FEN_mayne_growing_discontent_1"}
				
				allowed = {
					tag = FEN
					always = no
	
				}
	
				removal_cost = -1
	
				picture = SCO_Scottish_Advisors
				
				modifier = {
					stability_weekly = -0.002
					political_power_factor = -0.15
					conscription_factor = -0.2
					army_morale_factor = -0.15
				}	
			}
			
			FEN_mayne_growing_discontent_2 = {
				on_add = {log = "[GetDateText]: [Root.GetName]: add idea FEN_mayne_growing_discontent_2"}
				
				allowed = {
					tag = FEN
					always = no
	
				}
	
				removal_cost = -1
	
				picture = SCO_Scottish_Advisors
				
				modifier = {
					stability_weekly = -0.001
					political_power_factor = -0.1
					conscription_factor = -0.1
					army_morale_factor = -0.1
				}	
			}
			
			FEN_mayne_Labour_Service = {
				on_add = {log = "[GetDateText]: [Root.GetName]: add idea FEN_mayne_Labour_Service"}
				
				allowed = {
					tag = FEN
					always = no
				}
	
				removal_cost = -1
	
				picture = SCO_Scottish_Advisors
				
				modifier = {
					consumer_goods_factor = -0.03
					production_speed_buildings_factor = 0.05
					conscription_factor = -0.05
				}	
			}
			
			FEN_mayne_republican_constabulary = {
				on_add = {log = "[GetDateText]: [Root.GetName]: add idea FEN_mayne_Labour_Service"}
				
				allowed = {
					tag = FEN
					always = no
				}
	
				removal_cost = -1
	
				picture = SCO_Scottish_Advisors
				
				modifier = {
					army_core_defence_factor = 0.1
					stability_factor = 0.05
					conscription = 0.005
				}	
			}
			
			FEN_mayne_military_budget_cuts = {
				on_add = {log = "[GetDateText]: [Root.GetName]: add idea FEN_mayne_military_budget_cuts"}
				
				allowed = {
					tag = FEN
					always = no
				}
	
				removal_cost = -1
	
				picture = SCO_Scottish_Advisors
				
				modifier = {
					consumer_goods_factor = -0.05
					production_speed_buildings_factor = 0.1
					conscription_factor = -0.2
					army_org_factor = -0.1
					army_attack_factor = -0.1
					army_defence_factor = -0.1
					army_speed_factor = -0.1
				}	
			}
			
			FEN_mayne_reforming_the_constit = {
				on_add = {log = "[GetDateText]: [Root.GetName]: add idea FEN_mayne_reforming_the_constit"}
				
				allowed = {
					tag = FEN
					always = no
				}
	
				removal_cost = -1
	
				picture = SCO_Scottish_Advisors
				
				modifier = {
					stability_factor = -0.1
					political_power_factor = -0.2
				}	
			}
			
			FEN_mayne_new_constitution_authoritarian = {
				on_add = {log = "[GetDateText]: [Root.GetName]: add idea FEN_mayne_new_constitution_authoritarian"}
				
				allowed = {
					tag = FEN
					always = no
				}
	
				removal_cost = -1
	
				picture = SCO_Scottish_Advisors
				
				modifier = {
					stability_factor = -0.05
					political_power_factor = 0.1
					drift_defence_factor = 0.25
				}	
			}
			
			FEN_mayne_new_constitution_balanced = {
				on_add = {log = "[GetDateText]: [Root.GetName]: add idea FEN_mayne_new_constitution_authoritarian"}
				
				allowed = {
					tag = FEN
					always = no
				}
	
				removal_cost = -1
	
				picture = SCO_Scottish_Advisors
				
				modifier = {
					stability_factor = 0.05
					political_power_factor = 0.05
					trade_opinion_factor = 0.05
					authoritarian_democrat_drift = -0.01
				}	
			}
			
			FEN_mayne_new_constitution_liberal = {
				on_add = {log = "[GetDateText]: [Root.GetName]: add idea FEN_mayne_new_constitution_authoritarian"}
				
				allowed = {
					tag = FEN
					always = no
				}
	
				removal_cost = -1
	
				picture = SCO_Scottish_Advisors
				
				modifier = {
					stability_factor = 0.1
					political_power_factor = -0.05
					trade_opinion_factor = 0.1
					authoritarian_democrat_drift = -0.02
				}	
			}
			
			FEN_mayne_magnate_concessions = {
				on_add = {log = "[GetDateText]: [Root.GetName]: add idea FEN_mayne_new_constitution_authoritarian"}
				
				allowed = {
					tag = FEN
					always = no
				}
	
				removal_cost = -1
	
				picture = SCO_Scottish_Advisors
				
				modifier = {
					consumer_goods_factor = 0.1
					production_speed_buildings_factor = 0.1
					political_power_factor = 0.1
				}	
			}
			
			FEN_mayne_welsh_autonomy = {
				on_add = {log = "[GetDateText]: [Root.GetName]: add idea FEN_mayne_welsh_autonomy"}
				
				allowed = {
					tag = FEN
					always = no
				}
	
				removal_cost = -1
	
				picture = SCO_Scottish_Advisors
				
				modifier = {
					political_power_factor = -0.05
					conscription_factor = -0.05
				}	
			}
			
			FEN_mayne_wales_unionist_agitation = {
				on_add = {log = "[GetDateText]: [Root.GetName]: add idea FEN_mayne_wales_unionist_agitation"}
				
				allowed = {
					tag = FEN
					always = no
				}
	
				removal_cost = -1
	
				picture = SCO_Scottish_Advisors
				
				modifier = {
					political_power_factor = -0.1
					conscription_factor = -0.1
					stability_factor = -0.1
					army_org_factor = -0.1
				}	
			}
			
			FEN_mayne_prepared_navy = {
				on_add = {log = "[GetDateText]: [Root.GetName]: add idea FEN_mayne_prepared_navy"}
				
				allowed = {
					tag = FEN
					always = no
				}
	
				removal_cost = -1
	
				picture = SCO_Scottish_Advisors
				
				modifier = {
					spotting_chance = 0.1
					naval_hit_chance = 0.1
					naval_coordination = 0.1
					convoy_raiding_efficiency_factor = 0.2
				}	
			}
			
			FEN_mayne_devastated_economy = {
				on_add = {log = "[GetDateText]: [Root.GetName]: add idea FEN_mayne_devastated_economy"}
				
				allowed = {
					tag = FEN
					always = no
	
				}
	
				removal_cost = -1
	
				picture = SCO_Scottish_Advisors
				
				modifier = {
					consumer_goods_factor = 0.2
					industrial_capacity_factory = -0.25
					industrial_capacity_dockyard = -0.25
					production_speed_buildings_factor = -0.3
					production_factory_max_efficiency_factor = -0.2
					production_factory_efficiency_gain_factor = -0.25
				}	
			}
			
			FEN_mayne_devastated_economy_1 = {
				on_add = {log = "[GetDateText]: [Root.GetName]: add idea FEN_mayne_devastated_economy_1"}
				
				allowed = {
					tag = FEN
					always = no
	
				}
	
				removal_cost = -1
	
				picture = SCO_Scottish_Advisors
				
				modifier = {
					consumer_goods_factor = 0.15
					industrial_capacity_factory = -0.2
					industrial_capacity_dockyard = -0.2
					production_speed_buildings_factor = -0.25
					production_factory_max_efficiency_factor = -0.15
					production_factory_efficiency_gain_factor = -0.2
				}	
			}
			
			FEN_mayne_devastated_economy_2 = {
				on_add = {log = "[GetDateText]: [Root.GetName]: add idea FEN_mayne_devastated_economy_2"}
				
				allowed = {
					tag = FEN
					always = no
	
				}
	
				removal_cost = -1
	
				picture = SCO_Scottish_Advisors
				
				modifier = {
					consumer_goods_factor = 0.1
					industrial_capacity_factory = -0.15
					industrial_capacity_dockyard = -0.15
					production_speed_buildings_factor = -0.15
					production_factory_max_efficiency_factor = -0.1
					production_factory_efficiency_gain_factor = -0.15
				}	
			}
			
			FEN_mayne_devastated_economy_3 = {
				on_add = {log = "[GetDateText]: [Root.GetName]: add idea FEN_mayne_devastated_economy_3"}
				
				allowed = {
					tag = FEN
					always = no
	
				}
	
				removal_cost = -1
	
				picture = SCO_Scottish_Advisors
				
				modifier = {
					consumer_goods_factor = 0.05
					industrial_capacity_factory = -0.1
					industrial_capacity_dockyard = -0.1
					production_speed_buildings_factor = -0.1
					production_factory_max_efficiency_factor = -0.05
					production_factory_efficiency_gain_factor = -0.1
				}	
			}
			
			FEN_mayne_new_economy_freedom = {
				on_add = {log = "[GetDateText]: [Root.GetName]: add idea FEN_mayne_new_economy_freedom"}
				
				allowed = {
					tag = FEN
					always = no
	
				}
	
				removal_cost = -1
	
				picture = SCO_Scottish_Advisors
				
				modifier = {
					consumer_goods_factor = -0.1
					political_power_gain = 0.1
					industrial_capacity_factory = 0.05
					industrial_capacity_dockyard = 0.05
					production_speed_buildings_factor = -0.05
					production_factory_max_efficiency_factor = -0.05
					production_factory_efficiency_gain_factor = -0.1
				}	
			}
			
			FEN_mayne_new_economy_welfare = {
				on_add = {log = "[GetDateText]: [Root.GetName]: add idea FEN_mayne_new_economy_welfare"}
				
				allowed = {
					tag = FEN
					always = no
	
				}
	
				removal_cost = -1
	
				picture = SCO_Scottish_Advisors
				
				modifier = {
					consumer_goods_factor = 0.05
					stability_factor = 0.1
					production_speed_buildings_factor = 0.1
					production_factory_max_efficiency_factor = 0.05
					production_factory_efficiency_gain_factor = 0.1
				}	
			}
			
			FEN_mayne_eco_measures = {
				on_add = {log = "[GetDateText]: [Root.GetName]: add idea FEN_mayne_eco_measures"}
				
				allowed = {
					tag = FEN
					always = no
	
				}
	
				removal_cost = -1
	
				picture = SCO_Scottish_Advisors
				
				modifier = {
					consumer_goods_factor = 0.05
					industry_repair_factor = 0.5
				}	
			}
			
			FEN_mayne_eco_measures_1 = {
				on_add = {log = "[GetDateText]: [Root.GetName]: add idea FEN_mayne_eco_measures_1"}
				
				allowed = {
					tag = FEN
					always = no
	
				}
	
				removal_cost = -1
	
				picture = SCO_Scottish_Advisors
				
				modifier = {
					consumer_goods_factor = 0.05
					political_power_gain = 0.1
					stability_factor = 0.03
				}	
			}
			
			fen_mayne_reformed_churchof_england = {
				on_add = {log = "[GetDateText]: [Root.GetName]: add idea fen_mayne_reformed_churchof_england"}
				
				allowed = {
					tag = FEN
					always = no
	
				}
	
				removal_cost = -1
	
				picture = SCO_Scottish_Advisors
				
				modifier = {
					war_support_factor = 0.05
					political_power_gain = 0.1
					stability_factor = 0.05
				}	
			}
			
			FEN_mayne_reject_the_left = {
				on_add = {log = "[GetDateText]: [Root.GetName]: add idea FEN_mayne_reject_the_left"}
				
				allowed = {
					tag = FEN
					always = no
	
				}
	
				removal_cost = -1
	
				picture = SCO_Scottish_Advisors
				
				modifier = {
					industrial_capacity_factory = -0.05
					industrial_capacity_dockyard = -0.05
					drift_defence_factor = -0.25
					stability_factor = -0.05
					consumer_goods_factor = -0.03
					production_factory_efficiency_gain_factor = -0.1
					production_factory_max_efficiency_factor = 0.05
				}	
			}
			
			FEN_mayne_allow_the_left = {
				on_add = {log = "[GetDateText]: [Root.GetName]: add idea FEN_mayne_allow_the_left"}
				
				allowed = {
					tag = FEN
					always = no
	
				}
	
				removal_cost = -1
	
				picture = SCO_Scottish_Advisors
				
				modifier = {
					industrial_capacity_factory = 0.05
					industrial_capacity_dockyard = 0.05
					drift_defence_factor = 0.25
					consumer_goods_factor = 0.03
					production_factory_efficiency_gain_factor = 0.1
					production_factory_max_efficiency_factor = -0.05
				}	
			}
			
			FEN_ILP_rail_development = {
				on_add = {log = "[GetDateText]: [Root.GetName]: add idea FEN_ILP_rail_development"}
				
				allowed = {
					always = no
				}
	
				removal_cost = -1
	
				picture = SCO_Scottish_Advisors
				
				modifier = {
					production_speed_infrastructure_factor = 0.15
					consumer_goods_factor = 0.025
				}	
			}
			
			FEN_ILP_canals_and_ports_development = {
				on_add = {log = "[GetDateText]: [Root.GetName]: add idea FEN_ILP_canals_and_ports_development"}
				
				allowed = {
					always = no
				}
	
				removal_cost = -1
	
				picture = SCO_Scottish_Advisors
				
				modifier = {
					production_speed_dockyard_factor = 0.15
					production_speed_naval_base_factor = 0.15
					consumer_goods_factor = 0.025
				}	
			}
			SCO_SNP_OFN = {
				on_add = {log = "[GetDateText]: [Root.GetName]: add idea SCO_SNP_OFN"}
				
				allowed = {
					always = no
				}
	
				removal_cost = -1
	
				picture = LIB_idea_ofn_support
				
				modifier = {
					political_power_gain = 0.10
				}	
			}
			SCO_SNP_OFN2 = {
				on_add = {log = "[GetDateText]: [Root.GetName]: add idea SCO_SNP_OFN"}
				
				allowed = {
					always = no
				}
	
				removal_cost = -1
	
				picture = LIB_idea_ofn_support
				
				modifier = {
					political_power_gain = 0.10
					production_speed_buildings_factor = 0.20
				}	
			}
			SCO_SNP_OFN3 = {
				on_add = {log = "[GetDateText]: [Root.GetName]: add idea SCO_SNP_OFN"}
				
				allowed = {
					always = no
				}
	
				removal_cost = -1
	
				picture = LIB_idea_ofn_support
				
				modifier = {
					political_power_gain = 0.10
					consumer_goods_factor = -0.10
				}	
			}
			SCO_SNP_OFN4 = {
				on_add = {log = "[GetDateText]: [Root.GetName]: add idea SCO_SNP_OFN"}
				
				allowed = {
					always = no
				}
	
				removal_cost = -1
	
				picture = LIB_idea_ofn_support
				
				modifier = {
					political_power_gain = 0.10
					production_speed_buildings_factor = 0.20
					consumer_goods_factor = -0.10
				}	
			}
			SCO_SNP_OFN5 = {
				on_add = {log = "[GetDateText]: [Root.GetName]: add idea SCO_SNP_OFN"}
				
				allowed = {
					always = no
				}
	
				removal_cost = -1
	
				picture = LIB_idea_ofn_support
				
				modifier = {
					political_power_gain = 0.10
					stability_factor = 0.20
					production_speed_buildings_factor = 0.20
					consumer_goods_factor = -0.10
				}	
			}
			SCO_SNP_FEN = {
				on_add = {log = "[GetDateText]: [Root.GetName]: add idea SCO_SNP_FEN"}
				
				allowed = {
					always = no
				}
	
				removal_cost = -1
	
				picture = postwar_consensus
				
				modifier = {
					political_power_gain = 0.05
					stability_factor = 0.10
				}	
			}
			SCO_SNP_FEN2 = {
				on_add = {log = "[GetDateText]: [Root.GetName]: add idea SCO_SNP_FEN"}
				
				allowed = {
					always = no
				}
	
				removal_cost = -1
	
				picture = postwar_consensus
				
				modifier = {
					political_power_gain = 0.05
					stability_factor = 0.15
				}	
			}
			SCO_ILP_happiness = {
				on_add = {log = "[GetDateText]: [Root.GetName]: add idea SCO_ILP_FEN"}
				
				allowed = {
					always = no
				}
	
				removal_cost = -1
	
				picture = postwar_consensus
				
				modifier = {
					political_power_gain = 0.05
					stability_factor = 0.10
				}	
			}
	}
}
