ideas = {
	country = {
		SAF_The_Empty_Throne = {
			on_add = {log = "[GetDateText]: [Root.GetName]: add idea SAF_The_Empty_Throne"}

			allowed = {
				always = no
			}

			allowed_civil_war = {
				always = no
			}

			picture = SAF_idea_empty_throne

			removal_cost = -1

			modifier = {
				stability_factor = -0.1
				trade_opinion_factor = -0.1
			}
		}

		SAF_Desperate_Neutrality = {
			on_add = {log = "[GetDateText]: [Root.GetName]: add idea SAF_Desperate_Neutrality"}

			allowed = {
				always = no
			}

			allowed_civil_war = {
				always = no
			}

			picture = SAF_idea_desperate_neutrality

			removal_cost = -1

			modifier = {
				training_time_army_factor = 0.15
				mobilization_speed = -0.1
				war_support_factor = -0.2
			}
		}

		SAF_Boer_Viet_Cong = {
			on_add = {log = "[GetDateText]: [Root.GetName]: add idea SAF_Boer_Viet_Cong"}

			allowed = {
				always = no
			}

			allowed_civil_war = {
				always = no
			}

			picture = SAF_idea_desperate_neutrality

			removal_cost = -1

			modifier = {
				consumer_goods_factor = 0.5
				war_support_factor = -0.1
				army_speed_factor = -0.1
				conscription_factor = -0.05
			}
		}

		SAF_Divided_Nation = {
			on_add = {log = "[GetDateText]: [Root.GetName]: add idea SAF_Divided_Nation"}

			allowed = {
				always = no
			}

			allowed_civil_war = {
				always = no
			}

			picture = SAF_idea_divided_nation

			removal_cost = -1

			modifier = {
				political_power_gain = -0.2
				stability_factor = -0.2
				#enemy_#partisan_effect = 0.1
			}
		}

		SAF_Divided_Nation_2 = {
			on_add = {log = "[GetDateText]: [Root.GetName]: add idea SAF_Divided_Nation_2"}

			allowed = {
				always = no
			}

			allowed_civil_war = {
				always = no
			}

			picture = SAF_idea_divided_nation

			removal_cost = -1

			modifier = {
				political_power_gain = -0.1
				stability_factor = -0.1
			}
		}

		SAF_Uncle_Sam_Arrives = {
			on_add = {log = "[GetDateText]: [Root.GetName]: add idea SAF_Uncle_Sam_Arrives"}

			allowed = {
				always = no
			}

			allowed_civil_war = {
				always = no
			}

			picture = Uncle_Sam_Arrives

			removal_cost = -1

			modifier = {
				army_core_defence_factor = 0.15
				army_org_factor = 0.1
				army_morale_factor = 0.1
				offence = 0.2
				army_speed_factor = 0.10
			}
		}

		SAF_Army_Deployed = {
			on_add = {log = "[GetDateText]: [Root.GetName]: add idea SAF_Army_Deployed"}

			picture = generic_army

			allowed = {
				always = no
			}

			allowed_civil_war = {
				always = no
			}

			removal_cost = -1

			modifier = {
				stability_weekly = 0.01
			}
		}
		SAF_Cape_Town_Massacre = {
			on_add = {log = "[GetDateText]: [Root.GetName]: add idea SAF_Cape_Town_Massacre"}

			picture = generic_napalm_chemical

			allowed = {
				always = no
			}

			allowed_civil_war = {
				always = no
			}

			removal_cost = -1

			modifier = {
				stability_factor = -0.30
				war_support_factor = -0.30

			}
		}
		SAF_NP_Riots = {
			on_add = {log = "[GetDateText]: [Root.GetName]: add idea SAF_NP_Riots"}

			picture = generic_negative_public_relation

			allowed = {
				always = no
			}

			allowed_civil_war = {
				always = no
			}

			removal_cost = -1

			modifier = {
				stability_factor = -0.10
				war_support_factor = -0.10
				production_factory_max_efficiency_factor = -0.4
				production_speed_buildings_factor = -0.6
				industrial_capacity_factory = -0.4
				consumer_goods_factor = 0.20

			}
		}
		SAF_icelandic_support_staff = {
			on_add = {log = "[GetDateText]: [Root.GetName]: add idea SAF_icelandic_support_staff"}

			picture = generic_war_plan_outline

			allowed = {
				always = no
			}

			allowed_civil_war = {
				always = no
			}

			removal_cost = -1

			modifier = {
				army_org_Factor = 0.05

			}
		}

		SAF_Caribbean_support_staff = {
			on_add = {log = "[GetDateText]: [Root.GetName]: add idea SAF_Caribbean_support_staff"}

			picture = SAF_caribbean_support

			allowed = {
				always = no
			}

			allowed_civil_war = {
				always = no
			}

			removal_cost = -1

			modifier = {
				research_speed_factor  = 0.05
				production_speed_buildings_factor = 0.1
			}
		}

		SAF_our_darkest_hour = {
			on_add = {log = "[GetDateText]: [Root.GetName]: add idea SAF_our_darkest_hour"}

			picture = Our_Darkest_Hour

			allowed = {
				always = no
			}

			allowed_civil_war = {
				always = no
			}

			removal_cost = -1

			modifier = {
				army_org_Factor = 0.2
				army_attack_factor = 0.2
				army_defence_factor = 0.3
				supply_consumption_factor = -0.2
			}
		}


		SAF_American_training= {
			on_add = {log = "[GetDateText]: [Root.GetName]: add idea SAF_American_training"}

			allowed = {
				always = no
			}

			allowed_civil_war = {
				always = no
			}

			picture = generic_idealistic_democracy

			removal_cost = -1

			modifier = {
				training_time_army_factor = 0.15
				army_org_Factor = 0.1
				army_attack_factor = 0.1
				army_defence_factor = 0.1
			}
		}

		SAF_SOG_advisors = {
			on_add = {log = "[GetDateText]: [Root.GetName]: add idea SAF_SOG_advisors"}

			allowed = {
				always = no
			}

			allowed_civil_war = {
				always = no
			}

			picture = SAF_SOG_advisors

			removal_cost = -1

			modifier = {
				training_time_army_factor = 0.2
				army_org_Factor = 0.1
				army_attack_factor = 0.10
				army_defence_factor = 0.10
			}
		}




		SAF_surprise_attack = {
			on_add = {log = "[GetDateText]: [Root.GetName]: add idea SAF_surprise_attack"}

			picture = generic_Anti_Partisan_Tactics

			allowed = {
				always = no
			}

			allowed_civil_war = {
				always = no
			}

			removal_cost = -1

			modifier = {
				army_org_Factor = -0.15
				army_defence_factor = -0.20
				army_attack_factor = -0.20
				out_of_supply_factor = -0.35
				attrition = -0.25
				no_supply_grace = 192
				ai_focus_aggressive_factor = -0.5
			}
		}

		SAF_boer_insurgency = {
			on_add = {log = "[GetDateText]: [Root.GetName]: add idea SAF_boer_insurgency"}

			picture = SAF_Boer_Insurgency

			allowed = {
				always = no
			}

			allowed_civil_war = {
				always = no
			}

			removal_cost = -1

			modifier = {
				compliance_gain	= -0.1
			}
		}

		SAF_boer_insurgency2 = {
			on_add = {log = "[GetDateText]: [Root.GetName]: add idea SAF_boer_insurgency2"}

			picture = SAF_Boer_Insurgency

			allowed = {
				always = no
			}

			allowed_civil_war = {
				always = no
			}

			removal_cost = -1

			modifier = {
				compliance_gain	= -0.2
			}
		}

		SAF_CONTINUED_RESISTANCE = {
			on_add = {log = "[GetDateText]: [Root.GetName]: add idea SAF_CONTINUED_RESISTANCE"}

			picture = generic_Anti_Partisan_Tactics

			allowed = {
				always = no
			}

			allowed_civil_war = {
				always = no
			}

			removal_cost = -1

			modifier = {
				stability_factor = -0.10
			}
		}


		SAF_USLANTCOM_benefits = {
			on_add = {log = "[GetDateText]: [Root.GetName]: add idea SAF_USLANTCOM_benefits"}
			picture = generic_idealistic_democracy
			allowed = {
				always = no
			}
			allowed_civil_war = {
				always = no
			}
			removal_cost = -1
			modifier = {
				army_attack_factor = 0.05
				land_reinforce_rate = 0.02
			}
		}

		SAF_Unconventional_Tactics_RK = {
			on_add = {log = "[GetDateText]: [Root.GetName]: add idea SAF_Unconventional_Tactics_RK"}
			picture = generic_german_rifle_army
			allowed = {
				always = no
			}
			allowed_civil_war = {
				always = no
			}
			removal_cost = -1
			modifier = {
				stability_factor = -0.15
				war_support_factor = -0.15
			}
			targeted_modifier = {
				tag = SAF
				attack_bonus_against = -0.15
				defense_bonus_against = -0.15
			}
		}

		SAF_Coluna_Infernal = {
			on_add = {log = "[GetDateText]: [Root.GetName]: add idea SAF_Coluna_Infernal"}
			picture = SAF_coluna_infernal
			allowed = {
				always = no
			}
			allowed_civil_war = {
				always = no
			}
			removal_cost = -1
			targeted_modifier = {
				tag = COG
				attack_bonus_against = 0.15
				defense_bonus_against = 0.15
			}
			targeted_modifier = {
				tag = ANG
				attack_bonus_against = 0.15
				defense_bonus_against = 0.15
			}
			targeted_modifier = {
				tag = MZB
				attack_bonus_against = 0.15
				defense_bonus_against = 0.15
			}
			targeted_modifier = {
				tag = BOR
				attack_bonus_against = 0.15
				defense_bonus_against = 0.15
			}
		}

		SAF_Unconventional_Tactics_RK_2 = {
			on_add = {log = "[GetDateText]: [Root.GetName]: add idea SAF_Unconventional_Tactics_RK_2"}
			picture = generic_german_rifle_army
			allowed = {
				always = no
			}
			allowed_civil_war = {
				always = no
			}
			removal_cost = -1
			modifier = {
				stability_factor = -0.25
				war_support_factor = -0.25
			}
			targeted_modifier = {
				tag = SAF
				attack_bonus_against = -0.25
				defense_bonus_against = -0.25
			}
		}

		SAF_Unconventional_Tactics_RK_3 = {
			on_add = {log = "[GetDateText]: [Root.GetName]: add idea SAF_Unconventional_Tactics_RK_3"}
			picture = generic_german_rifle_army
			allowed = {
				always = no
			}
			allowed_civil_war = {
				always = no
			}
			removal_cost = -1
			modifier = {
				stability_factor = -0.3
				war_support_factor = -0.3
				army_speed_factor = -0.10

			}
			targeted_modifier = {
				tag = SAF
				attack_bonus_against = -0.3
				defense_bonus_against = -0.3
			}
		}

		SAF_Unconventional_Tactics = {
			on_add = {log = "[GetDateText]: [Root.GetName]: add idea SAF_Unconventional_Tactics"}
			picture = generic_german_rifle_army
			allowed = {
				always = no
			}
			allowed_civil_war = {
				always = no
			}
			removal_cost = -1
			targeted_modifier = {
				tag = COG
				attack_bonus_against = 0.15
				defense_bonus_against = 0.15
			}
			targeted_modifier = {
				tag = ANG
				attack_bonus_against = 0.15
				defense_bonus_against = 0.15
			}
			targeted_modifier = {
				tag = MZB
				attack_bonus_against = 0.15
				defense_bonus_against = 0.15
			}
			targeted_modifier = {
				tag = BOR
				attack_bonus_against = 0.15
				defense_bonus_against = 0.15
			}
		}

		SAF_chaos_behind_lines = {
			on_add = {log = "[GetDateText]: [Root.GetName]: add idea SAF_chaos_behind_lines"}
			picture = generic_occupation_intense
			allowed = {
				always = no
			}
			allowed_civil_war = {
				always = no
			}
			removal_cost = -1
			modifier = {
				stability_weekly = -0.05
				war_support_weekly = -0.05
				weekly_manpower = -1000
			}
		}

		SAF_US_Withdraw_1 = {
			on_add = {log = "[GetDateText]: [Root.GetName]: add idea SAF_US_Withdraw_1"}

			picture = generic_unrestrained_troops

			allowed = {
				always = no
			}

			allowed_civil_war = {
				always = no
			}

			removal_cost = -1

			modifier = {
				army_org_Factor = -0.15
				army_defence_factor = -0.20
				army_attack_factor = -0.20
				ai_focus_aggressive_factor = -0.5
			}
		}
		SAF_US_Withdraw_2 = {
			on_add = {log = "[GetDateText]: [Root.GetName]: add idea SAF_US_Withdraw_2"}

			picture = generic_unrestrained_troops

			allowed = {
				always = no
			}

			allowed_civil_war = {
				always = no
			}

			removal_cost = -1

			modifier = {
				army_org_Factor = -0.1
				army_defence_factor = -0.15
				army_attack_factor = -0.15
				ai_focus_aggressive_factor = -0.4
			}
		}
		SAF_US_Withdraw_3 = {
			on_add = {log = "[GetDateText]: [Root.GetName]: add idea SAF_US_Withdraw_3"}

			picture = generic_unrestrained_troops

			allowed = {
				always = no
			}

			allowed_civil_war = {
				always = no
			}

			removal_cost = -1

			modifier = {
				army_org_Factor = -0.05
				army_defence_factor = -0.10
				army_attack_factor = -0.10
				ai_focus_aggressive_factor = -0.3
			}
		}
		SAF_US_Withdraw_4 = {
			on_add = {log = "[GetDateText]: [Root.GetName]: add idea SAF_US_Withdraw_4"}

			picture = generic_unrestrained_troops

			allowed = {
				always = no
			}

			allowed_civil_war = {
				always = no
			}

			removal_cost = -1

			modifier = {

				army_defence_factor = -0.05
				army_attack_factor = -0.05
				ai_focus_aggressive_factor = -0.2
			}
		}

		SAF_sao_tome = {
			on_add = {log = "[GetDateText]: [Root.GetName]: add idea SAF_sao_tome"}
			allowed = {
				always = no
			}
			picture = generic_solid_navy_naval_force
			removal_cost = -1

			modifier = {
				supply_consumption_factor = -0.1
				out_of_supply_factor = -0.1
				decryption_factor = 0.03
			}
		}

		SAF_Guine_training = {
			on_add = {log = "[GetDateText]: [Root.GetName]: add idea SAF_sao_tome"}
			allowed = {
				always = no
			}
			picture = generic_solid_navy_naval_force
			removal_cost = -1

			modifier = {
				acclimatization_hot_climate_gain_factor = 0.15
			}
		}

		SAF_lessons_first_civil_war = {
			on_add = { log = "[GetDateText]: [Root.GetName]: add idea SAF_lessons_first_civil_war"}

			picture = GER_unknown

			allowed = {
				always = no
			}
			allowed_civil_war = {
				always = no
			}
			removal_cost = -1

			targeted_modifier = {
				tag = BOR
				attack_bonus_against = 0.05
			}

			targeted_modifier = {
				tag = BOR
				defense_bonus_against = 0.05
			}
		}

		SAF_wraak = {
			on_add = { log = "[GetDateText]: [Root.GetName]: add idea SAF_wraak"}

			picture = GER_unknown

			allowed = {
				always = no
			}
			allowed_civil_war = {
				always = no
			}
			removal_cost = -1

			modifier = {
				offence = 0.05
				ai_focus_aggressive_factor = 0.3
			}
		}

		SAF_dissident_military = {
			on_add = { log = "[GetDateText]: [Root.GetName]: add idea SAF_dissident_military"}

			picture = GER_unknown

			allowed = {
				always = no
			}
			allowed_civil_war = {
				always = no
			}
			removal_cost = -1

			modifier = {
				army_org_factor = -0.05
				command_power_gain = -0.1
			}
		}
	}

	hidden_ideas = {
		RK_AI_hardmode = {
			on_add = { log = "[GetDateText]: [Root.GetName]: add idea RK_SAF_war_AI_hardmode"}

			picture = GER_unknown

			allowed = {
				always = no
			}
			allowed_civil_war = {
				always = no
			}
			removal_cost = -1

			modifier = {
				surrender_limit = 0.1
				army_morale_factor = 0.1
				army_org_factor = 0.1
				army_core_attack_factor = 0.15
				army_core_defence_factor = 0.15
				political_power_gain = 0.30
				industry_free_repair_factor = 0.30
				line_change_production_efficiency_factor = 0.50
				production_factory_max_efficiency_factor = 0.20
				consumer_goods_factor = -0.20
			}
		}
	}
}