ideas = {
	country = {
		SAM_german_bootlickers = {
			on_add = {log = "[GetDateText]: [Root.GetName]: add idea SAM_german_bootlickers"}
			allowed = {
				always = no
			}
			allowed_civil_war = {
				always = yes
			}
			available = {
				OR = {
					has_government = authoritarian_democrat
					has_government = despotism
					has_government = fascism
				}
			}
			removal_cost = -1
			picture = SAM_german_bootlickers
			modifier = {
				army_morale_factor = -0.1
				defence = -0.1
				stability_factor = -0.2
				industrial_capacity_factory = 0.1
				conscription = -0.0125
			}
		}
		SAM_slipped_leash = {
			on_add = {log = "[GetDateText]: [Root.GetName]: add idea SAM_slipped_leash"}
			allowed = {
				always = no
			}
			allowed_civil_war = {
				always = yes
			}
			available = {
				OR = {
					has_government = authoritarian_democrat
					has_government = despotism
					has_government = fascism
				}
			}
			removal_cost = -1
			picture = SAM_Slipped_Leash
			modifier = {
				army_org_Factor = 0.1
				offence = 0.025
				army_morale_factor = 0.05
				conscription = -0.0075
			}
		}
		SAM_Village_Councils = {
			on_add = {log = "[GetDateText]: [Root.GetName]: add idea SAM_Village_Councils"}
			allowed = {
				always = no
			}
			allowed_civil_war = {
				always = yes
			}
			available = {
				OR = {
					has_government = authoritarian_democrat
					has_government = despotism
					has_government = fascism
				}
			}
			removal_cost = -1
			picture = URL_many_helping_hands
			modifier = {
				conscription_factor = 0.025
				political_power_factor = -0.05
			}
		}
		SAM_Bread_for_All = {
			on_add = {log = "[GetDateText]: [Root.GetName]: add idea SAM_Bread_for_All"}
			allowed = {
				always = no
			}
			allowed_civil_war = {
				always = yes
			}
			available = {
				OR = {
					has_government = authoritarian_democrat
					has_government = despotism
					has_government = fascism
				}
			}
			removal_cost = -1
			picture = CHI_breadbasket_of_the_sphere_2
			modifier = {
				MONTHLY_POPULATION = 0.05
			}
		}
		SAM_Soup_for_Service = {
			on_add = {log = "[GetDateText]: [Root.GetName]: add idea SAM_Soup_for_Service"}
			allowed = {
				always = no
			}
			allowed_civil_war = {
				always = yes
			}
			available = {
				OR = {
					has_government = authoritarian_democrat
					has_government = despotism
					has_government = fascism
				}
			}
			removal_cost = -1
			picture = WAL_german_controlled_economy
			modifier = {
				conscription_factor = 0.035
				consumer_goods_factor = 0.075
			}
		}
		SAM_ROA_Over_the_Airwaves = {
			on_add = {log = "[GetDateText]: [Root.GetName]: add idea SAM_ROA_Over_the_Airwaves"}
			allowed = {
				always = no
			}
			allowed_civil_war = {
				always = yes
			}
			available = {
				OR = {
					has_government = authoritarian_democrat
					has_government = despotism
					has_government = fascism
				}
			}
			removal_cost = -1
			picture = SAM_ROA_Over_the_Airwaves
			modifier = {
				conscription_factor = 0.035
				drift_defence_factor = 0.25
			}
		}
		SAM_Bureaucratic_Allies_idea = {
			on_add = {log = "[GetDateText]: [Root.GetName]: add idea SAM_Bureaucratic_Allies_ideas"}
			allowed = {
				always = no
			}
			allowed_civil_war = {
				always = yes
			}
			available = {
				OR = {
					has_government = authoritarian_democrat
					has_government = despotism
					has_government = fascism
				}
			}
			removal_cost = -1
			picture = OST_OLD_the_model_colony
			modifier = {
				political_power_gain = 0.10
			}
		}
		SAM_Renewed_Military_Trust = {
			on_add = {log = "[GetDateText]: [Root.GetName]: add idea SAM_Renewed_Military_Trust"}
			allowed = {
				always = no
			}
			allowed_civil_war = {
				always = yes
			}
			available = {
				OR = {
					has_government = authoritarian_democrat
					has_government = despotism
					has_government = fascism
				}
			}
			removal_cost = -1
			picture = CAU_native_auxillary
			modifier = {
				max_planning = 0.10
				planning_speed = 0.10
			}
		}
		SAM_Our_Founding_Member = {
			on_add = {log = "[GetDateText]: [Root.GetName]: add idea SAM_Our_Founding_Member"}
			allowed = {
				always = no
			}
			allowed_civil_war = {
				always = yes
			}
			available = {
				OR = {
					has_government = authoritarian_democrat
					has_government = despotism
					has_government = fascism
				}
			}
			removal_cost = -1
			picture = URL_familial_connections
			modifier = {
				political_power_gain = 0.15
				army_morale_factor = -0.05
				war_support_factor = -0.1
			}
		}
		SAM_Our_Eternal_Leader_idea = {
			on_add = {log = "[GetDateText]: [Root.GetName]: add idea SAM_Our_Eternal_Leader_idea"}
			allowed = {
				always = no
			}
			allowed_civil_war = {
				always = yes
			}
			available = {
				OR = {
					has_government = authoritarian_democrat
					has_government = despotism
					has_government = fascism
				}
			}
			removal_cost = -1
			picture = BAS_army_good
			modifier = {
				land_reinforce_rate = 0.10
				army_morale_factor = 0.05
			}
		}
		SAM_The_ROA_is_MINE = {
			on_add = {log = "[GetDateText]: [Root.GetName]: add idea SAM_The_ROA_is_MINE"}
			allowed = {
				always = no
			}
			allowed_civil_war = {
				always = yes
			}
			available = {
				OR = {
					has_government = authoritarian_democrat
					has_government = despotism
					has_government = fascism
				}
			}
			removal_cost = -1
			picture = CAU_legacy_occupation
			modifier = {
				conscription_factor = -0.05
				drift_defence_factor = 0.10
				war_support_factor = 0.10
			}
		}
		SAM_Russia_in_my_Sights = {
			on_add = {log = "[GetDateText]: [Root.GetName]: add idea SAM_Russia_in_my_Sights"}
			allowed = {
				always = no
			}
			allowed_civil_war = {
				always = yes
			}
			available = {
				OR = {
					has_government = authoritarian_democrat
					has_government = despotism
					has_government = fascism
				}
			}
			removal_cost = -1
			picture = AKT_death_to_russians
			modifier = {
				offence = 0.05
				army_org_factor = 0.05
				attrition = -0.1
			}
		}
		SAM_Tartar_Horsemen = {
			on_add = {log = "[GetDateText]: [Root.GetName]: add idea SAM_Tartar_Horsemen"}
			allowed = {
				always = no
			}
			allowed_civil_war = {
				always = yes
			}
			available = {
				OR = {
					has_government = authoritarian_democrat
					has_government = despotism
					has_government = fascism
				}
			}
			removal_cost = -1
			picture = AKT_Kazakh_Horsemen
			modifier = {
				recon_factor = 0.10
				modifier_army_sub_unit_cavalry_attack_factor = 0.05
				modifier_army_sub_unit_cavalry_speed_factor = 0.05
			}
		}
		SAM_The_Wealth_of_Kostroma_idea = {
			on_add = {log = "[GetDateText]: [Root.GetName]: add idea SAM_The_Wealth_of_Kostroma_idea"}
			allowed = {
				always = no
			}
			allowed_civil_war = {
				always = yes
			}
			available = {
				OR = {
					has_government = authoritarian_democrat
					has_government = despotism
					has_government = fascism
				}
			}
			removal_cost = -1
			picture = economic_control_icon
			modifier = {
				consumer_goods_factor = -0.05
				min_export = -0.05
				industrial_capacity_factory = 0.10
			}
		}
		SAM_Vologdan_Tactics = {
			on_add = {log = "[GetDateText]: [Root.GetName]: add idea SAM_Vologdan_Tactics"}
			allowed = {
				always = no
			}
			allowed_civil_war = {
				always = yes
			}
			available = {
				OR = {
					has_government = authoritarian_democrat
					has_government = despotism
					has_government = fascism
				}
			}
			removal_cost = -1
			picture = BAS_attrition_preperations_2
			modifier = {
				defence = 0.05
				army_defence_factor = 0.05
			}
		}
		SAM_The_Kirov_Distillery = {
			on_add = {log = "[GetDateText]: [Root.GetName]: add idea SAM_The_Kirov_Distillery"}
			allowed = {
				always = no
			}
			allowed_civil_war = {
				always = yes
			}
			available = {
				OR = {
					has_government = authoritarian_democrat
					has_government = despotism
					has_government = fascism
				}
			}
			removal_cost = -1
			picture = generic_planned_economy
			modifier = {
				consumer_goods_factor = -0.05
				min_export = -0.10
				army_morale_factor = 0.025
			}
		}
		SAM_Build_Defences = {
			on_add = {log = "[GetDateText]: [Root.GetName]: add idea SAM_Build_Defences"}
			allowed = {
				always = no
			}
			allowed_civil_war = {
				always = yes
			}
			available = {
				OR = {
					has_government = authoritarian_democrat
					has_government = despotism
					has_government = fascism
				}
			}
			removal_cost = -1
			picture = ARL_breakneck_industrialization
			modifier = {
				production_speed_bunker_factor = 0.25
			}
		}
		SAM_Tartar_Subsidies = {
			on_add = {log = "[GetDateText]: [Root.GetName]: add idea SAM_Tartar_Subsidies"}
			allowed = {
				always = no
			}
			allowed_civil_war = {
				always = yes
			}
			available = {
				OR = {
					has_government = authoritarian_democrat
					has_government = despotism
					has_government = fascism
				}
			}
			removal_cost = -1
			picture = generic_coins
			modifier = {
				political_power_factor = -0.25
				stability_factor = 0.10
				consumer_goods_factor = 0.10
			}
		}
		SAM_Anti_Armor_Tactics_idea = {
			on_add = {log = "[GetDateText]: [Root.GetName]: add idea SAM_Anti_Armor_Tactics_idea"}
			allowed = {
				always = no
			}
			allowed_civil_war = {
				always = yes
			}
			available = {
				OR = {
					has_government = authoritarian_democrat
					has_government = despotism
					has_government = fascism
				}
			}
			removal_cost = -1
			picture = POL_Sabotaged_Armor
			modifier = {
				army_infantry_attack_factor = 0.1
				army_infantry_defence_factor = 0.1
			}
		}
		SAM_White_Army_Training = {
			on_add = {log = "[GetDateText]: [Root.GetName]: add idea SAM_White_Army_Training"}
			allowed = {
				always = no
			}
			allowed_civil_war = {
				always = yes
			}
			available = {
				OR = {
					has_government = authoritarian_democrat
					has_government = despotism
					has_government = fascism
				}
			}
			removal_cost = -1
			picture = generic_Preparing_The_Army
			modifier = {
				army_org_factor = 0.075
				training_time_factor = -0.1
				max_planning = 0.10
			}
		}
		SAM_Infantry_Assault_Tactics_idea = {
			on_add = {log = "[GetDateText]: [Root.GetName]: add idea SAM_Infantry_Assault_Tactics_idea"}
			allowed = {
				always = no
			}
			allowed_civil_war = {
				always = yes
			}
			available = {
				OR = {
					has_government = authoritarian_democrat
					has_government = despotism
					has_government = fascism
				}
			}
			removal_cost = -1
			picture = GBE_idea_militia_based_army
			modifier = {
				army_attack_factor = 0.05
				army_speed_factor = 0.05
			}
		}
		SAM_The_Trade_of_Kostroma = {
			on_add = {log = "[GetDateText]: [Root.GetName]: add idea SAM_The_Trade_of_Kostroma"}
			allowed = {
				always = no
			}
			allowed_civil_war = {
				always = yes
			}
			available = {
				OR = {
					has_government = authoritarian_democrat
					has_government = despotism
					has_government = fascism
				}
			}
			removal_cost = -1
			picture = generic_planned_economy
			modifier = {
				consumer_goods_factor = -0.10
				min_export = -0.15
			}
		}
		SAM_Winter_Warriors = {
			on_add = {log = "[GetDateText]: [Root.GetName]: add idea SAM_Winter_Warriors"}
			allowed = {
				always = no
			}
			allowed_civil_war = {
				always = yes
			}
			available = {
				OR = {
					has_government = authoritarian_democrat
					has_government = despotism
					has_government = fascism
				}
			}
			removal_cost = -1
			picture = TNO_winter_soldier
			modifier = {
				acclimatization_cold_climate_gain_factor = 0.25
				winter_attrition_factor = -0.25
			}
		}
		SAM_Private_Enterprise = {
			on_add = {log = "[GetDateText]: [Root.GetName]: add idea SAM_Private_Enterprise"}
			allowed = {
				always = no
			}
			allowed_civil_war = {
				always = yes
			}
			available = {
				OR = {
					has_government = authoritarian_democrat
					has_government = despotism
					has_government = fascism
				}
			}
			removal_cost = -1
			picture = ARL_breakneck_industrialization
			modifier = {
				industrial_capacity_factory = 0.10
				production_factory_max_efficiency_factor = 0.10
				line_change_production_efficiency_factor = 0.05
			}
		}
		SAM_Kormchiy_Guard = {
			on_add = {log = "[GetDateText]: [Root.GetName]: add idea SAM_Kormchiy_Guard"}
			allowed = {
				always = no
			}
			allowed_civil_war = {
				always = yes
			}
			available = {
				OR = {
					has_government = authoritarian_democrat
					has_government = despotism
					has_government = fascism
				}
			}
			removal_cost = -1
			picture = BAS_army_medium
			modifier = {
				modifier_army_sub_unit_elite_infantry_attack_factor = 0.10
				modifier_army_sub_unit_elite_infantry_training_time_factor = -0.10
			}
		}
		SAM_Russian_Industry = {
			on_add = {log = "[GetDateText]: [Root.GetName]: add idea SAM_Russian_Industry"}
			allowed = {
				always = no
			}
			allowed_civil_war = {
				always = yes
			}
			available = {
				OR = {
					has_government = authoritarian_democrat
					has_government = despotism
					has_government = fascism
				}
			}
			removal_cost = -1
			picture = ARL_breakneck_industrialization
			modifier = {
				production_speed_arms_factory_factor = 0.15
				production_speed_industrial_complex_factor = 0.15
			}
		}
		SAM_Committee_Oversight = {
			on_add = {log = "[GetDateText]: [Root.GetName]: add idea SAM_Committee_Oversight"}
			allowed = {
				always = no
			}
			allowed_civil_war = {
				always = yes
			}
			available = {
				OR = {
					has_government = authoritarian_democrat
					has_government = despotism
					has_government = fascism
				}
			}
			removal_cost = -1
			picture = ARL_breakneck_industrialization
			modifier = {
				political_power_gain = -0.15
				production_speed_arms_factory_factor = 0.10
				production_speed_industrial_complex_factor = 0.10
			}
		}
		SAM_The_RMIC = {
			on_add = {log = "[GetDateText]: [Root.GetName]: add idea SAM_The_RMIC"}
			allowed = {
				always = no
			}
			allowed_civil_war = {
				always = yes
			}
			available = {
				OR = {
					has_government = authoritarian_democrat
					has_government = despotism
					has_government = fascism
				}
			}
			removal_cost = -1
			picture = generic_planned_economy
			modifier = {
				production_factory_efficiency_gain_factor = -0.075
				industrial_capacity_factory = 0.10
			}
		}
		SAM_Motorized_Contracts_idea = {
			on_add = {log = "[GetDateText]: [Root.GetName]: add idea SAM_Motorized_Contracts_idea"}
			allowed = {
				always = no
			}
			allowed_civil_war = {
				always = yes
			}
			available = {
				OR = {
					has_government = authoritarian_democrat
					has_government = despotism
					has_government = fascism
				}
			}
			removal_cost = -1
			picture = IEA_The_Great_Money_Hole
			equipment_bonus = {
				motorized_equipment = {
					build_cost_ic = -0.15
					instant = yes
				}
			}
		}
		SAM_Guns_for_Russia = {
			on_add = {log = "[GetDateText]: [Root.GetName]: add idea SAM_Guns_for_Russia"}
			allowed = {
				always = no
			}
			allowed_civil_war = {
				always = yes
			}
			available = {
				OR = {
					has_government = authoritarian_democrat
					has_government = despotism
					has_government = fascism
				}
			}
			removal_cost = -1
			picture = TOB_Quality_Small_Arms
			equipment_bonus = {
				infantry_equipment = {
					build_cost_ic = -0.15
					instant = yes
				}
			}
		}
		SAM_Bigger_Guns_for_Maltsev = {
			on_add = {log = "[GetDateText]: [Root.GetName]: add idea SAM_Bigger_Guns_for_Maltsev"}
			allowed = {
				always = no
			}
			allowed_civil_war = {
				always = yes
			}
			available = {
				OR = {
					has_government = authoritarian_democrat
					has_government = despotism
					has_government = fascism
				}
			}
			removal_cost = -1
			picture = BAS_army_medium
			equipment_bonus = {
				artillery_equipment = {
					build_cost_ic = -0.15
					instant = yes
				}
			}
		}
		SAM_The_Zykov_Plan_Complete = {
			on_add = {log = "[GetDateText]: [Root.GetName]: add idea SAM_The_Zykov_Plan_Complete"}
			allowed = {
				always = no
			}
			allowed_civil_war = {
				always = yes
			}
			available = {
				OR = {
					has_government = authoritarian_democrat
					has_government = despotism
					has_government = fascism
				}
			}
			removal_cost = -1
			picture = generic_planned_economy
			modifier = {
				political_power_gain = 0.15
				consumer_goods_factor = -0.15
			}
		}
		SAM_The_Smolensk_Manifesto = {
			on_add = {log = "[GetDateText]: [Root.GetName]: add idea SAM_The_Smolensk_Manifesto"}
			allowed = {
				always = no
			}
			allowed_civil_war = {
				always = yes
			}
			available = {
				OR = {
					has_government = authoritarian_democrat
					has_government = despotism
					has_government = fascism
				}
			}
			removal_cost = -1
			picture = SAM_The_Smolensk_Manifesto
			modifier = {
				stability_factor = 0.10
				political_power_gain = -0.15
				authoritarian_democrat_drift = 0.015
			}
		}
		SAM_German_Military_Training = {
			on_add = {log = "[GetDateText]: [Root.GetName]: add idea SAM_German_Military_Training"}
			allowed = {
				always = no
			}
			allowed_civil_war = {
				always = yes
			}
			available = {
				OR = {
					has_government = authoritarian_democrat
					has_government = despotism
					has_government = fascism
				}
			}
			removal_cost = -1
			picture = SAM_German_Military_Training
			modifier = {
				army_org_factor = 0.075
				planning_speed = 0.075
				army_morale_factor = 0.05
			}
		}
		SAM_Turncoat_General = {
			on_add = {log = "[GetDateText]: [Root.GetName]: add idea SAM_Turncoat_General"}
			allowed = {
				always = no
			}
			allowed_civil_war = {
				always = yes
			}
			available = {
				OR = {
					has_government = authoritarian_democrat
					has_government = despotism
					has_government = fascism
				}
			}
			removal_cost = -1
			picture = SAM_Turncoat_General
			modifier = {
				war_support_factor = -0.20
				conscription_factor = -0.05
				army_morale_factor = -0.35
			}
		}
		SAM_The_Committee_Plan_Completed = {
			on_add = {log = "[GetDateText]: [Root.GetName]: add idea SAM_The_Committee_Plan_Completed"}
			allowed = {
				always = no
			}
			allowed_civil_war = {
				always = yes
			}
			available = {
				OR = {
					has_government = authoritarian_democrat
					has_government = despotism
					has_government = fascism
				}
			}
			removal_cost = -1
			picture = generic_planned_economy
			modifier = {
				political_power_gain = 0.10
				industrial_capacity_factory = 0.25
			}
		}
		SAM_The_Officer_Plan_Completed = {
			on_add = {log = "[GetDateText]: [Root.GetName]: add idea SAM_The_Officer_Plan_Completed"}
			allowed = {
				always = no
			}
			allowed_civil_war = {
				always = yes
			}
			available = {
				OR = {
					has_government = authoritarian_democrat
					has_government = despotism
					has_government = fascism
				}
			}
			removal_cost = -1
			picture = shadow_economy
			modifier = {
				political_power_gain = 0.20
				production_factory_efficiency_gain_factor = 0.25
			}
		}

		SAM_The_Rape_of_Kostroma_idea = {
			on_add = {log = "[GetDateText]: [Root.GetName]: add idea SAM_The_Rape_of_Kostroma_idea"}
			allowed = {
				always = no
			}
			allowed_civil_war = {
				always = yes
			}
			available = {
				OR = {
					has_government = authoritarian_democrat
					has_government = despotism
					has_government = fascism
				}
			}
			removal_cost = -1
			picture = Roving_Raiders
			modifier = {
				consumer_goods_factor = -0.05
			}
		}
				
		SAM_gunsmithing = {
			on_add = {log = "[GetDateText]: [Root.GetName]: add idea SAM_gunsmithing"}
			allowed = {
				always = no
			}
			allowed_civil_war = {
				always = yes
			}
			available = {
				OR = {
					has_government = authoritarian_democrat
					has_government = despotism
					has_government = fascism
				}
			}
			removal_cost = -1
			picture = TOB_Quality_Small_Arms
			modifier = {
				industrial_capacity_factory = 0.10
				production_factory_efficiency_gain_factor = 0.05
			}
		}
		SAM_gunsmithing2 = {
			on_add = {log = "[GetDateText]: [Root.GetName]: add idea SAM_gunsmithing2"}
			allowed = {
				always = no
			}
			allowed_civil_war = {
				always = yes
			}
			available = {
				OR = {
					has_government = authoritarian_democrat
					has_government = despotism
					has_government = fascism
				}
			}
			removal_cost = -1
			picture = TOB_Quality_Small_Arms
			modifier = {
				industrial_capacity_factory = 0.15
				production_factory_efficiency_gain_factor = 0.1
				production_factory_max_efficiency_factor = 0.1
			}
		}
		SAM_army_of_national_liberation = {
			on_add = {log = "[GetDateText]: [Root.GetName]: add idea SAM_army_of_national_liberation"}
			allowed = {
				always = no
			}
			allowed_civil_war = {
				always = yes
			}
			available = {
				OR = {
					has_government = authoritarian_democrat
					has_government = despotism
					has_government = fascism
				}
			}
			removal_cost = -1
			picture = SAM_The_Smolensk_Manifesto
			modifier = {
				army_org_Factor = 0.1
				war_support_factor = 0.15
				offence = 0.07
				army_morale_factor = 0.1
			}
		}
		SAM_The_Samara_Manifesto = {
			on_add = {log = "[GetDateText]: [Root.GetName]: add idea SAM_The_Samara_Manifesto"}
			allowed = {
				always = no
			}
			allowed_civil_war = {
				always = yes
			}
			available = {
				OR = {
					has_government = authoritarian_democrat
					has_government = despotism
					has_government = fascism
				}
			}
			removal_cost = -1
			picture = SAM_The_Smolensk_Manifesto
			modifier = {
				stability_factor = 0.10
				political_power_gain = 0.1
			}
		}
		SAM_labor_police_idea = {
			on_add = {log = "[GetDateText]: [Root.GetName]: add idea SAM_labor_police_idea"}
			allowed = {
				always = no
			}
			allowed_civil_war = {
				always = yes
			}
			available = {
				OR = {
					has_government = authoritarian_democrat
					has_government = despotism
					has_government = fascism
				}
			}
			removal_cost = -1
			picture = IRK_forced_labor
			modifier = {
				stability_factor = -0.05
				political_power_gain = -0.2
				industrial_capacity_factory = 0.15
				consumer_goods_factor = -0.05
			}
		}
		SAM_industrialized_economy = {
			on_add = {log = "[GetDateText]: [Root.GetName]: add idea SAM_industrialized_economy"}
			allowed = {
				always = no
			}
			allowed_civil_war = {
				always = yes
			}
			available = {
				OR = {
					has_government = authoritarian_democrat
					has_government = despotism
					has_government = fascism
				}
			}
			removal_cost = -1
			picture = ARL_breakneck_industrialization
			modifier = {
				production_speed_industrial_complex_factor = 0.1
				production_speed_arms_factory_factor = 0.15
				local_resources_factor = 0.15
			}
		}
		SAM_moral_economy = {
			on_add = {log = "[GetDateText]: [Root.GetName]: add idea SAM_moral_economy"}
			allowed = {
				always = no
			}
			allowed_civil_war = {
				always = yes
			}
			available = {
				OR = {
					has_government = authoritarian_democrat
					has_government = despotism
					has_government = fascism
				}
			}
			removal_cost = -1
			picture = generic_planned_economy
			modifier = {
				research_speed_factor = 0.03
				MONTHLY_POPULATION = 0.1
				consumer_goods_factor = -0.1
				production_speed_industrial_complex_factor = 0.1
				production_speed_infrastructure_factor = 0.15
			}
		}
		SAM_back_to_work = {
			on_add = {log = "[GetDateText]: [Root.GetName]: add idea SAM_back_to_work"}
			allowed = {
				always = no
			}
			allowed_civil_war = {
				always = yes
			}
			available = {
				OR = {
					has_government = authoritarian_democrat
					has_government = despotism
					has_government = fascism
				}
			}
			removal_cost = -1
			picture = WAL_Improved_Technique
			modifier = {
				industrial_capacity_factory = 0.15
				production_speed_arms_factory_factor = 0.1
				global_building_slots_factor = 0.1
				min_export = 0.1
			}
		}
		SAM_civilian_morale_low = {
			on_add = {log = "[GetDateText]: [Root.GetName]: add idea SAM_civilian_morale_low"}
			allowed = {
				always = no
			}
			allowed_civil_war = {
				always = yes
			}
			removal_cost = -1
			picture = BAS_army_bad
			modifier = {
				stability_factor = -0.1
				political_power_factor = -0.15
				consumer_goods_factor = 0.1
			}
		}
		SAM_civilian_morale_medium = {
			on_add = {log = "[GetDateText]: [Root.GetName]: add idea SAM_civilian_morale_medium"}
			allowed = {
				always = no
			}
			allowed_civil_war = {
				always = yes
			}
			removal_cost = -1
			picture = BAS_army_bad
			modifier = {
				stability_factor = 0.05
				political_power_factor = -0.05
				consumer_goods_factor = 0.05
			}
		}
		SAM_civilian_morale_high = {
			on_add = {log = "[GetDateText]: [Root.GetName]: add idea SAM_civilian_morale_high"}
			allowed = {
				always = no
			}
			allowed_civil_war = {
				always = yes
			}
			removal_cost = -1
			picture = BAS_army_bad
			modifier = {
				stability_factor = 0.1
				political_power_factor = 0.1
			}
		}
		SAM_civilian_morale_very_high = {
			on_add = {log = "[GetDateText]: [Root.GetName]: add idea SAM_civilian_morale_very_high"}
			allowed = {
				always = no
			}
			allowed_civil_war = {
				always = yes
			}
			removal_cost = -1
			picture = BAS_army_bad
			modifier = {
				stability_factor = 0.15
				political_power_factor = 0.15
				consumer_goods_factor = -0.05
			}
		}
		SAM_military_morale_low = {
			on_add = {log = "[GetDateText]: [Root.GetName]: add idea SAM_military_morale_low"}
			allowed = {
				always = no
			}
			allowed_civil_war = {
				always = yes
			}
			removal_cost = -1
			picture = GBE_idea_militia_based_army
			modifier = {
				war_support_factor = -0.15
				army_morale_factor = -0.1
				conscription_factor = -0.05
			}
		}
		SAM_military_morale_medium = {
			on_add = {log = "[GetDateText]: [Root.GetName]: add idea SAM_military_morale_medium"}
			allowed = {
				always = no
			}
			allowed_civil_war = {
				always = yes
			}
			removal_cost = -1
			picture = GBE_idea_militia_based_army
			modifier = {
				war_support_factor = -0.05
				army_morale_factor = -0.05
			}
		}
		SAM_military_morale_high = {
			on_add = {log = "[GetDateText]: [Root.GetName]: add idea SAM_military_morale_high"}
			allowed = {
				always = no
			}
			allowed_civil_war = {
				always = yes
			}
			removal_cost = -1
			picture = GBE_idea_militia_based_army
			modifier = {
				war_support_factor = 0.1
				army_morale_factor = 0.05
				conscription_factor = 0.05
			}
		}
		SAM_military_morale_very_high = {
			on_add = {log = "[GetDateText]: [Root.GetName]: add idea SAM_civilian_morale_very_high"}
			allowed = {
				always = no
			}
			allowed_civil_war = {
				always = yes
			}
			removal_cost = -1
			picture = GBE_idea_militia_based_army
			modifier = {
				war_support_factor = 0.2
				army_morale_factor = 0.1
				conscription_factor = 0.1
			}
		}
		SAM_corruption_low = {
			on_add = {log = "[GetDateText]: [Root.GetName]: add idea SAM_corruption_low"}
			allowed = {
				always = no
			}
			allowed_civil_war = {
				always = yes
			}
			removal_cost = -1
			picture = LIB_idea_widespread_corruption
			modifier = {
				stability_factor = 0.05
				min_export = -0.05
				consumer_goods_factor = -0.05
			}
		}
		SAM_corruption_medium = {
			on_add = {log = "[GetDateText]: [Root.GetName]: add idea SAM_corruption_medium"}
			allowed = {
				always = no
			}
			allowed_civil_war = {
				always = yes
			}
			removal_cost = -1
			picture = LIB_idea_widespread_corruption
			modifier = {
				stability_factor = -0.05
				consumer_goods_factor = 0.05
			}
		}
		SAM_corruption_high = {
			on_add = {log = "[GetDateText]: [Root.GetName]: add idea SAM_corruption_high"}
			allowed = {
				always = no
			}
			allowed_civil_war = {
				always = yes
			}
			removal_cost = -1
			picture = LIB_idea_widespread_corruption
			modifier = {
				stability_factor = -0.1
				min_export = 0.1
				consumer_goods_factor = 0.1
			}
		}
		SAM_corruption_very_high = {
			on_add = {log = "[GetDateText]: [Root.GetName]: add idea SAM_corruption_very_high"}
			allowed = {
				always = no
			}
			allowed_civil_war = {
				always = yes
			}
			removal_cost = -1
			picture = LIB_idea_widespread_corruption
			modifier = {
				stability_factor = -0.15
				min_export = 0.2
				consumer_goods_factor = 0.15
			}
		}
		SAM_ROA_officers_low = {
			on_add = {log = "[GetDateText]: [Root.GetName]: add idea SAM_ROA_officers_low"}
			allowed = {
				always = no
			}
			allowed_civil_war = {
				always = yes
			}
			removal_cost = -1
			picture = RAJ_Indira_Officer_Proposal
			modifier = {
				army_org_factor = -0.2
				planning_speed = -0.25
				max_planning = -0.25
			}
		}
		SAM_ROA_officers_medium = {
			on_add = {log = "[GetDateText]: [Root.GetName]: add idea SAM_ROA_officers_medium"}
			allowed = {
				always = no
			}
			allowed_civil_war = {
				always = yes
			}
			removal_cost = -1
			picture = RAJ_Indira_Officer_Proposal
			modifier = {
				army_org_factor = -0.1
				planning_speed = -0.1
				max_planning = -0.1
			}
		}
		SAM_ROA_officers_high = {
			on_add = {log = "[GetDateText]: [Root.GetName]: add idea SAM_ROA_officers_high"}
			allowed = {
				always = no
			}
			allowed_civil_war = {
				always = yes
			}
			removal_cost = -1
			picture = RAJ_Indira_Officer_Proposal
			modifier = {
				army_org_factor = 0.05
				planning_speed = 0.05
				max_planning = 0.05
			}
		}
		SAM_ROA_officers_very_high = {
			on_add = {log = "[GetDateText]: [Root.GetName]: add idea SAM_ROA_officers_very_high"}
			allowed = {
				always = no
			}
			allowed_civil_war = {
				always = yes
			}
			removal_cost = -1
			picture = RAJ_Indira_Officer_Proposal
			modifier = {
				army_org_factor = 0.15
				planning_speed = 0.15
				max_planning = 0.15
			}
		}
		### Zykov State of the Unity Party Modifiers ###
		SAM_zykov_ROA_dominant = {
			on_add = {log = "[GetDateText]: [Root.GetName]: add idea SAM_zykov_ROA_dominant"}
			allowed = {
				always = no
			}
			allowed_civil_war = {
				always = yes
			}
			removal_cost = -1
			picture = RAJ_Indira_Officer_Proposal
			modifier = {
				army_org_factor = 0.1
				war_support_factor = 0.05
			}
		}
		SAM_zykov_business_dominant = {
			on_add = {log = "[GetDateText]: [Root.GetName]: add idea SAM_zykov_business_dominant"}
			allowed = {
				always = no
			}
			allowed_civil_war = {
				always = yes
			}
			removal_cost = -1
			picture = generic_penion_money
			modifier = {
				consumer_goods_factor = -0.05
				production_speed_buildings_factor = 0.1
			}
		}
		SAM_zykov_democrats_dominant = {
			on_add = {log = "[GetDateText]: [Root.GetName]: add idea SAM_zykov_democrats_dominant"}
			allowed = {
				always = no
			}
			allowed_civil_war = {
				always = yes
			}
			removal_cost = -1
			picture = generic_idealistic_democracy
			modifier = {
				political_power_factor = 0.1
				stability_factor = 0.05
			}
		}
		### Oktan Web of Tensions Modifiers ###
		### Inner Circle ###
		SAM_inner_circle_very_low_high = {
			on_add = {log = "[GetDateText]: [Root.GetName]: add idea SAM_inner_circle_very_low_high"}
			allowed = {
				always = no
			}
			allowed_civil_war = {
				always = yes
			}
			removal_cost = -1
			picture = NIK_fired_officials
			modifier = {
				political_power_factor = 0.15
				stability_factor = 0.15
				consumer_goods_factor = 0.05
				army_morale_factor = -0.05
			}
		}
		SAM_inner_circle_very_low_med = {
			on_add = {log = "[GetDateText]: [Root.GetName]: add idea SAM_inner_circle_very_low_med"}
			allowed = {
				always = no
			}
			allowed_civil_war = {
				always = yes
			}
			removal_cost = -1
			picture = NIK_fired_officials
			modifier = {
				political_power_factor = 0.1
				stability_factor = 0.1
			}
		}
		SAM_inner_circle_very_low_low = {
			on_add = {log = "[GetDateText]: [Root.GetName]: add idea SAM_inner_circle_very_low_low"}
			allowed = {
				always = no
			}
			allowed_civil_war = {
				always = yes
			}
			removal_cost = -1
			picture = NIK_fired_officials
			modifier = {
				political_power_factor = 0.05
				stability_factor = 0.05
			}
		}
		SAM_inner_circle_low_high = {
			on_add = {log = "[GetDateText]: [Root.GetName]: add idea SAM_inner_circle_low_high"}
			allowed = {
				always = no
			}
			allowed_civil_war = {
				always = yes
			}
			removal_cost = -1
			picture = NIK_fired_officials
			modifier = {
				political_power_factor = 0.075
				stability_factor = 0.075
				consumer_goods_factor = 0.05
				army_morale_factor = -0.05
			}
		}
		SAM_inner_circle_low_med = {
			on_add = {log = "[GetDateText]: [Root.GetName]: add idea SAM_inner_circle_low_med"}
			allowed = {
				always = no
			}
			allowed_civil_war = {
				always = yes
			}
			removal_cost = -1
			picture = NIK_fired_officials
			modifier = {
				political_power_factor = 0.05
				stability_factor = 0.05
			}
		}
		SAM_inner_circle_low_low = {
			on_add = {log = "[GetDateText]: [Root.GetName]: add idea SAM_inner_circle_low_low"}
			allowed = {
				always = no
			}
			allowed_civil_war = {
				always = yes
			}
			removal_cost = -1
			picture = NIK_fired_officials
			modifier = {
				political_power_factor = 0.025
				stability_factor = 0.025
			}
		}
		SAM_inner_circle_med_high = {
			on_add = {log = "[GetDateText]: [Root.GetName]: add idea SAM_inner_circle_med"}
			allowed = {
				always = no
			}
			allowed_civil_war = {
				always = yes
			}
			removal_cost = -1
			picture = NIK_fired_officials
			modifier = {
				consumer_goods_factor = 0.05
				army_morale_factor = -0.05
			}
		}
		SAM_inner_circle_med = {
			on_add = {log = "[GetDateText]: [Root.GetName]: add idea SAM_inner_circle_med"}
			allowed = {
				always = no
			}
			allowed_civil_war = {
				always = yes
			}
			removal_cost = -1
			picture = NIK_fired_officials
			modifier = {
				
			}
		}
		SAM_inner_circle_high_low = {
			on_add = {log = "[GetDateText]: [Root.GetName]: add idea SAM_inner_circle_high_low"}
			allowed = {
				always = no
			}
			allowed_civil_war = {
				always = yes
			}
			removal_cost = -1
			picture = NIK_fired_officials
			modifier = {
				political_power_factor = -0.025
				stability_factor = -0.075
				war_support_factor = -0.075
			}
		}
		SAM_inner_circle_high_med = {
			on_add = {log = "[GetDateText]: [Root.GetName]: add idea SAM_inner_circle_high_med"}
			allowed = {
				always = no
			}
			allowed_civil_war = {
				always = yes
			}
			removal_cost = -1
			picture = NIK_fired_officials
			modifier = {
				political_power_factor = -0.05
				stability_factor = -0.15
				war_support_factor = -0.15
			}
		}
		SAM_inner_circle_high_high = {
			on_add = {log = "[GetDateText]: [Root.GetName]: add idea SAM_inner_circle_high_high"}
			allowed = {
				always = no
			}
			allowed_civil_war = {
				always = yes
			}
			removal_cost = -1
			picture = NIK_fired_officials
			modifier = {
				political_power_factor = -0.075
				stability_factor = -0.225
				war_support_factor = -0.225
			}
		}
		SAM_inner_circle_very_high_low = {
			on_add = {log = "[GetDateText]: [Root.GetName]: add idea SAM_inner_circle_very_high_low"}
			allowed = {
				always = no
			}
			allowed_civil_war = {
				always = yes
			}
			removal_cost = -1
			picture = NIK_fired_officials
			modifier = {
				political_power_factor = -0.075
				stability_factor = -0.15
				war_support_factor = -0.15
			}
		}
		SAM_inner_circle_very_high_med = {
			on_add = {log = "[GetDateText]: [Root.GetName]: add idea SAM_inner_circle_very_high_med"}
			allowed = {
				always = no
			}
			allowed_civil_war = {
				always = yes
			}
			removal_cost = -1
			picture = NIK_fired_officials
			modifier = {
				political_power_factor = -0.1
				stability_factor = -0.30
				war_support_factor = -0.30
			}
		}
		SAM_inner_circle_very_high_high = {
			on_add = {log = "[GetDateText]: [Root.GetName]: add idea SAM_inner_circle_very_high_high"}
			allowed = {
				always = no
			}
			allowed_civil_war = {
				always = yes
			}
			removal_cost = -1
			picture = NIK_fired_officials
			modifier = {
				political_power_factor = -0.2
				stability_factor = -0.45
				war_support_factor = -0.45
			}
		}
		### Military ###
		SAM_military_very_low_high = {
			on_add = {log = "[GetDateText]: [Root.GetName]: add idea SAM_military_very_low_high"}
			allowed = {
				always = no
			}
			allowed_civil_war = {
				always = yes
			}
			removal_cost = -1
			picture = Token_Soldiers
			modifier = {
				army_morale_factor = 0.3
				army_org_factor = 0.15
				production_speed_buildings_factor = -0.1
				political_power_factor = -0.1
			}
		}
		SAM_military_very_low_med = {
			on_add = {log = "[GetDateText]: [Root.GetName]: add idea SAM_military_very_low_med"}
			allowed = {
				always = no
			}
			allowed_civil_war = {
				always = yes
			}
			removal_cost = -1
			picture = Token_Soldiers
			modifier = {
				army_morale_factor = 0.2
				army_org_factor = 0.1
			}
		}
		SAM_military_very_low_low = {
			on_add = {log = "[GetDateText]: [Root.GetName]: add idea SAM_military_very_low_low"}
			allowed = {
				always = no
			}
			allowed_civil_war = {
				always = yes
			}
			removal_cost = -1
			picture = Token_Soldiers
			modifier = {
				army_morale_factor = 0.15
				army_org_factor = 0.05
			}
		}
		SAM_military_low_high = {
			on_add = {log = "[GetDateText]: [Root.GetName]: add idea SAM_military_low_high"}
			allowed = {
				always = no
			}
			allowed_civil_war = {
				always = yes
			}
			removal_cost = -1
			picture = Token_Soldiers
			modifier = {
				army_morale_factor = 0.15
				army_org_factor = 0.075
				production_speed_buildings_factor = -0.1
				political_power_factor = -0.1
			}
		}
		SAM_military_low_med = {
			on_add = {log = "[GetDateText]: [Root.GetName]: add idea SAM_military_low_med"}
			allowed = {
				always = no
			}
			allowed_civil_war = {
				always = yes
			}
			removal_cost = -1
			picture = Token_Soldiers
			modifier = {
				army_morale_factor = 0.1
				army_org_factor = 0.05
			}
		}
		SAM_military_low_low = {
			on_add = {log = "[GetDateText]: [Root.GetName]: add idea SAM_military_low_low"}
			allowed = {
				always = no
			}
			allowed_civil_war = {
				always = yes
			}
			removal_cost = -1
			picture = Token_Soldiers
			modifier = {
				army_morale_factor = 0.05
				army_org_factor = 0.025
			}
		}
		SAM_military_med_high = {
			on_add = {log = "[GetDateText]: [Root.GetName]: add idea SAM_military_med_high"}
			allowed = {
				always = no
			}
			allowed_civil_war = {
				always = yes
			}
			removal_cost = -1
			picture = Token_Soldiers
			modifier = {
				production_speed_buildings_factor = -0.1
				political_power_factor = -0.1
			}
		}
		SAM_military_med = {
			on_add = {log = "[GetDateText]: [Root.GetName]: add idea SAM_military_med"}
			allowed = {
				always = no
			}
			allowed_civil_war = {
				always = yes
			}
			removal_cost = -1
			picture = Token_Soldiers
			modifier = {
				
			}
		}
		SAM_military_high_low = {
			on_add = {log = "[GetDateText]: [Root.GetName]: add idea SAM_military_high_low"}
			allowed = {
				always = no
			}
			allowed_civil_war = {
				always = yes
			}
			removal_cost = -1
			picture = Token_Soldiers
			modifier = {
				army_morale_factor = -0.05
				army_org_factor = -0.025
				army_attack_factor = -0.025
			}
		}
		SAM_military_high_med = {
			on_add = {log = "[GetDateText]: [Root.GetName]: add idea SAM_military_high_med"}
			allowed = {
				always = no
			}
			allowed_civil_war = {
				always = yes
			}
			removal_cost = -1
			picture = Token_Soldiers
			modifier = {
				army_morale_factor = -0.1
				army_org_factor = -0.05
				army_attack_factor = -0.05
			}
		}
		SAM_military_high_high = {
			on_add = {log = "[GetDateText]: [Root.GetName]: add idea SAM_military_high_high"}
			allowed = {
				always = no
			}
			allowed_civil_war = {
				always = yes
			}
			removal_cost = -1
			picture = Token_Soldiers
			modifier = {
				army_morale_factor = -0.15
				army_org_factor = -0.075
				army_attack_factor = -0.075
			}
		}
		SAM_military_very_high_low = {
			on_add = {log = "[GetDateText]: [Root.GetName]: add idea SAM_military_very_high_low"}
			allowed = {
				always = no
			}
			allowed_civil_war = {
				always = yes
			}
			removal_cost = -1
			picture = Token_Soldiers
			modifier = {
				army_morale_factor = -0.1
				army_org_factor = -0.05
				army_attack_factor = -0.05
			}
		}
		SAM_military_very_high_med = {
			on_add = {log = "[GetDateText]: [Root.GetName]: add idea SAM_military_very_high_med"}
			allowed = {
				always = no
			}
			allowed_civil_war = {
				always = yes
			}
			removal_cost = -1
			picture = Token_Soldiers
			modifier = {
				army_morale_factor = -0.2
				army_org_factor = -0.1
				army_attack_factor = -0.1
			}
		}
		SAM_military_very_high_high = {
			on_add = {log = "[GetDateText]: [Root.GetName]: add idea SAM_military_very_high_high"}
			allowed = {
				always = no
			}
			allowed_civil_war = {
				always = yes
			}
			removal_cost = -1
			picture = Token_Soldiers
			modifier = {
				army_morale_factor = -0.3
				army_org_factor = -0.15
				army_attack_factor = -0.15
			}
		}
		### Civilian ###
		SAM_civilian_very_low_high = {
			on_add = {log = "[GetDateText]: [Root.GetName]: add idea SAM_civilian_very_low_high"}
			allowed = {
				always = no
			}
			allowed_civil_war = {
				always = yes
			}
			removal_cost = -1
			picture = MST_Social_Rights_3
			modifier = {
				consumer_goods_factor = -0.15
				production_speed_buildings_factor = 0.3
				conscription_factor = -0.1
				political_power_factor = -0.1
			}
		}
		SAM_civilian_very_low_med = {
			on_add = {log = "[GetDateText]: [Root.GetName]: add idea SAM_civilian_very_low_med"}
			allowed = {
				always = no
			}
			allowed_civil_war = {
				always = yes
			}
			removal_cost = -1
			picture = MST_Social_Rights_3
			modifier = {
				consumer_goods_factor = -0.1
				production_speed_buildings_factor = 0.2
			}
		}
		SAM_civilian_very_low_low = {
			on_add = {log = "[GetDateText]: [Root.GetName]: add idea SAM_civilian_very_low_low"}
			allowed = {
				always = no
			}
			allowed_civil_war = {
				always = yes
			}
			removal_cost = -1
			picture = MST_Social_Rights_3
			modifier = {
				consumer_goods_factor = -0.05
				production_speed_buildings_factor = 0.1
			}
		}
		SAM_civilian_low_high = {
			on_add = {log = "[GetDateText]: [Root.GetName]: add idea SAM_civilian_low_high"}
			allowed = {
				always = no
			}
			allowed_civil_war = {
				always = yes
			}
			removal_cost = -1
			picture = MST_Social_Rights_3
			modifier = {
				consumer_goods_factor = -0.075
				production_speed_buildings_factor = 0.15
				conscription_factor = -0.1
				political_power_factor = -0.1
			}
		}
		SAM_civilian_low_med = {
			on_add = {log = "[GetDateText]: [Root.GetName]: add idea SAM_civilian_low_med"}
			allowed = {
				always = no
			}
			allowed_civil_war = {
				always = yes
			}
			removal_cost = -1
			picture = MST_Social_Rights_3
			modifier = {
				consumer_goods_factor = -0.05
				production_speed_buildings_factor = 0.1
			}
		}
		SAM_civilian_low_low = {
			on_add = {log = "[GetDateText]: [Root.GetName]: add idea SAM_civilian_low_low"}
			allowed = {
				always = no
			}
			allowed_civil_war = {
				always = yes
			}
			removal_cost = -1
			picture = MST_Social_Rights_3
			modifier = {
				consumer_goods_factor = -0.025
				production_speed_buildings_factor = 0.05
			}
		}
		SAM_civilian_med_high = {
			on_add = {log = "[GetDateText]: [Root.GetName]: add idea SAM_civilian_med_high"}
			allowed = {
				always = no
			}
			allowed_civil_war = {
				always = yes
			}
			removal_cost = -1
			picture = MST_Social_Rights_3
			modifier = {
				conscription_factor = -0.1
				political_power_factor = -0.1
			}
		}
		SAM_civilian_med = {
			on_add = {log = "[GetDateText]: [Root.GetName]: add idea SAM_civilian_med"}
			allowed = {
				always = no
			}
			allowed_civil_war = {
				always = yes
			}
			removal_cost = -1
			picture = MST_Social_Rights_3
			modifier = {
				
			}
		}
		SAM_civilian_high_low = {
			on_add = {log = "[GetDateText]: [Root.GetName]: add idea SAM_civilian_high_low"}
			allowed = {
				always = no
			}
			allowed_civil_war = {
				always = yes
			}
			removal_cost = -1
			picture = MST_Social_Rights_3
			modifier = {
				consumer_goods_factor = 0.025
				production_speed_buildings_factor = -0.05
				fascism_drift = -0.01
			}
		}
		SAM_civilian_high_med = {
			on_add = {log = "[GetDateText]: [Root.GetName]: add idea SAM_civilian_high_med"}
			allowed = {
				always = no
			}
			allowed_civil_war = {
				always = yes
			}
			removal_cost = -1
			picture = MST_Social_Rights_3
			modifier = {
				consumer_goods_factor = 0.05
				production_speed_buildings_factor = -0.1
				fascism_drift = -0.01
			}
		}
		SAM_civilian_high_high = {
			on_add = {log = "[GetDateText]: [Root.GetName]: add idea SAM_civilian_high_high"}
			allowed = {
				always = no
			}
			allowed_civil_war = {
				always = yes
			}
			removal_cost = -1
			picture = MST_Social_Rights_3
			modifier = {
				consumer_goods_factor = 0.075
				production_speed_buildings_factor = -0.15
				fascism_drift = -0.02
			}
		}
		SAM_civilian_very_high_low = {
			on_add = {log = "[GetDateText]: [Root.GetName]: add idea SAM_civilian_very_high_low"}
			allowed = {
				always = no
			}
			allowed_civil_war = {
				always = yes
			}
			removal_cost = -1
			picture = MST_Social_Rights_3
			modifier = {
				consumer_goods_factor = 0.05
				production_speed_buildings_factor = -0.1
				fascism_drift = -0.01
			}
		}
		SAM_civilian_very_high_med = {
			on_add = {log = "[GetDateText]: [Root.GetName]: add idea SAM_civilian_very_high_med"}
			allowed = {
				always = no
			}
			allowed_civil_war = {
				always = yes
			}
			removal_cost = -1
			picture = MST_Social_Rights_3
			modifier = {
				consumer_goods_factor = 0.1
				production_speed_buildings_factor = -0.2
				fascism_drift = -0.02
			}
		}
		SAM_civilian_very_high_high = {
			on_add = {log = "[GetDateText]: [Root.GetName]: add idea SAM_civilian_very_high_high"}
			allowed = {
				always = no
			}
			allowed_civil_war = {
				always = yes
			}
			removal_cost = -1
			picture = MST_Social_Rights_3
			modifier = {
				consumer_goods_factor = 0.15
				production_speed_buildings_factor = -0.3
				fascism_drift = -0.03
			}
		}
	}
}
