ideas = {
	country = {
		GER_GOR_protesters_cowed = {
			on_add = {log = "[GetDateText]: [Root.GetName]: add idea GER_GOR_protesters_cowed"}

			allowed = {
				always = no
			}

			allowed_civil_war = {
				has_government = fascism
			}

			picture = GER_student_protest

			removal_cost = -1

			modifier = {
				stability_factor = -0.1
				political_power_gain = -0.05
				line_change_production_efficiency_factor = -0.10
			}
		}

		GER_GOR_militarized_schools = {
			on_add = {log = "[GetDateText]: [Root.GetName]: add idea GER_GOR_militarized_schools"}

			allowed = {
				always = no
			}

			allowed_civil_war = {
				has_government = fascism
			}

			picture = GER_student_protest

			removal_cost = -1

			modifier = {
				stability_factor = -0.05
				line_change_production_efficiency_factor = -0.05
			}
		}

		GER_GOR_goringjugend = {
			on_add = {log = "[GetDateText]: [Root.GetName]: add idea GER_GOR_goringjugend"}

			allowed = {
				always = no
			}

			allowed_civil_war = {
				has_government = national_socialism
			}

			picture = GER_goring_youth

			removal_cost = -1

			modifier = {
				stability_factor = 0.08
				line_change_production_efficiency_factor = -0.05
				experience_gain_army_factor = 0.05
				experience_gain_navy_factor = 0.05
				experience_gain_air_factor = 0.05
			}
		}

		GER_GOR_martial_law = {
			on_add = {log = "[GetDateText]: [Root.GetName]: add idea GER_GOR_martial_law"}

			allowed = {
				always = no
			}

			allowed_civil_war = {
				has_government = fascism
			}

			picture = generic_army_2

			removal_cost = -1

			modifier = {
				stability_factor = 0.20
				political_power_gain = -0.2
			}
		}

		GER_GOR_pride_in_goering = {
			on_add = {log = "[GetDateText]: [Root.GetName]: add idea GER_GOR_pride_in_goering"}

			allowed = {
				always = no
			}

			allowed_civil_war = {
				has_government = fascism
			}

			picture = GER_pride_in_our_fuhrer

			removal_cost = -1

			modifier = {
				stability_factor = 0.05
				war_support_factor = 0.05
				political_power_gain = 0.05
			}
		}

		GER_GOR_scorched_administration = {
			on_add = {log = "[GetDateText]: [Root.GetName]: add idea GER_GOR_scorched_administration"}

			allowed = {
				always = no
			}

			allowed_civil_war = {
				has_government = fascism
			}

			picture = IRK_bureaucracy_purged

			removal_cost = -1

			modifier = {
				stability_weekly = -0.02
				political_power_gain = -0.25
			}
		}

		GER_GOR_lingering_traitors = {
			on_add = {log = "[GetDateText]: [Root.GetName]: add idea GER_GOR_lingering_traitors"}

			allowed = {
				always = no
			}

			allowed_civil_war = {
				has_government = fascism
			}

			picture = GER_GGR_anarchy

			removal_cost = -1

			modifier = {
				stability_factor = -0.20
				war_support_factor = -0.20
			}
		}
		GER_GOR_lingering_traitors_2 = {
			on_add = {log = "[GetDateText]: [Root.GetName]: add idea GER_GOR_lingering_traitors_2"}

			allowed = {
				always = no
			}

			allowed_civil_war = {
				has_government = fascism
			}

			picture = GER_GGR_anarchy

			removal_cost = -1

			modifier = {
				stability_factor = -0.10
				war_support_factor = -0.10
			}
		}

		GER_GOR_nationlized_banks = {
			on_add = {log = "[GetDateText]: [Root.GetName]: add idea GER_GOR_nationlized_banks"}

			allowed = {
				always = no
			}

			allowed_civil_war = {
				has_government = fascism
			}

			picture = GER_nationalized_banks

			removal_cost = -1

			modifier = {
			consumer_goods_factor = -0.1
			}
		}

		GER_GOR_total_economic_collapse = {
			on_add = {log = "[GetDateText]: [Root.GetName]: add idea GER_GOR_total_economic_collapse"}

			picture = chi_hyper_inflation5

			allowed = {
				always = no
			}

			allowed_civil_war = {
				always = yes
			}

			removal_cost = -1

			modifier = {
				consumer_goods_factor = 0.80
				industrial_capacity_factory = -0.90
				production_factory_max_efficiency_factor = -0.90
				production_speed_buildings_factor = -0.8
			}
		}
		GER_GOR_home_arms_factories = {
			on_add = {log = "[GetDateText]: [Root.GetName]: add idea GER_GOR_home_arms_factories"}

			picture = chi_hyper_inflation5

			allowed = {
				always = no
			}

			allowed_civil_war = {
				always = yes
			}

			removal_cost = -1

			modifier = {
				industrial_capacity_factory = 0.20
				production_factory_max_efficiency_factor = 0.20
				stability_factor = -0.20
			}
		}
		GER_GOR_cut_construction_standards = {
			on_add = {log = "[GetDateText]: [Root.GetName]: add idea GER_GOR_cut_construction_standards"}

			picture = chi_hyper_inflation5

			allowed = {
				always = no
			}

			allowed_civil_war = {
				always = yes
			}

			removal_cost = -1

			modifier = {
			 production_speed_buildings_factor = 0.4

			}
		}

#Economic Collapse

		GER_GOR_protests = {
			on_add = {log = "[GetDateText]: [Root.GetName]: add idea GER_GOR_protests"}

			picture = chi_hyper_inflation5

			allowed = {
				always = no
			}

			allowed_civil_war = {
				always = yes
			}

			removal_cost = -1

			modifier = {
			stability_factor = -0.20
			war_support_factor = -0.20

			}
		}

		GER_GOR_massive_protests = {
			on_add = {log = "[GetDateText]: [Root.GetName]: add idea GER_GOR_massive_protests"}

			picture = chi_hyper_inflation5

			allowed = {
				always = no
			}

			allowed_civil_war = {
				always = yes
			}

			removal_cost = -1

			modifier = {
			stability_factor = -0.40
			war_support_factor = -0.40

			}
		}

		GER_GOR_massive_riots = {
			on_add = {log = "[GetDateText]: [Root.GetName]: add idea GER_GOR_massive_riots"}

			picture = chi_hyper_inflation5

			allowed = {
				always = no
			}

			allowed_civil_war = {
				always = yes
			}

			removal_cost = -1

			modifier = {
			stability_factor = -0.80
			war_support_factor = -0.80

			}
		}


		GER_GOR_lingering_instability = {
			on_add = {log = "[GetDateText]: [Root.GetName]: add idea GER_GOR_lingering_instability"}

			picture = chi_hyper_inflation5

			allowed = {
				always = no
			}

			allowed_civil_war = {
				always = yes
			}

			removal_cost = -1

			modifier = {
			stability_factor = -0.30
			war_support_factor = -0.30

			}
		}

		GER_GOR_military_refuses_to_fight = {
			on_add = {log = "[GetDateText]: [Root.GetName]: add idea GER_GOR_military_refuses_to_fight"}

			picture = chi_hyper_inflation5

			allowed = {
				always = no
			}

			allowed_civil_war = {
				always = yes
			}

			removal_cost = -1

			modifier = {
			conscription = -1.0
			max_planning = -1.0
			army_org_Factor = -0.90
			army_morale_factor = -0.90
			}
		}


#MEFO SHIT


		GER_mefo_bills_1 = {
			on_add = {log = "[GetDateText]: [Root.GetName]: add idea GER_mefo_bills_1"}
			name = GER_mefo_bills
			allowed = {
				original_tag = GER
			}

			allowed_civil_war = {
				has_government = fascism
			}

			removal_cost = -1

			picture = ger_mefo_bills

			modifier = {
				consumer_goods_factor = -0.05
				production_speed_arms_factory_factor = 0.25
				production_speed_dockyard_factor = 0.25
				production_speed_naval_base_factor = 0.25
				production_speed_coastal_bunker_factor = 0.25
				production_speed_bunker_factor = 0.25
				production_speed_air_base_factor = 0.25
				production_speed_anti_air_building_factor = 0.25
				production_speed_radar_station_factor = 0.25
				production_speed_synthetic_refinery_factor = 0.25
				political_power_cost = 0.2
			}
		}

		GER_mefo_bills_2 = {
			on_add = {log = "[GetDateText]: [Root.GetName]: add idea GER_mefo_bills_2"}
			name = GER_mefo_bills
			allowed = {
				original_tag = GER
			}

			allowed_civil_war = {
				has_government = fascism
			}

			removal_cost = -1

			picture = ger_mefo_bills

			modifier = {
				consumer_goods_factor = -0.05
				production_speed_arms_factory_factor = 0.25
				production_speed_dockyard_factor = 0.25
				production_speed_naval_base_factor = 0.25
				production_speed_coastal_bunker_factor = 0.25
				production_speed_bunker_factor = 0.25
				production_speed_air_base_factor = 0.25
				production_speed_anti_air_building_factor = 0.25
				production_speed_radar_station_factor = 0.25
				production_speed_synthetic_refinery_factor = 0.25
				political_power_cost = 0.35
			}
		}

		GER_mefo_bills_3 = {
			on_add = {log = "[GetDateText]: [Root.GetName]: add idea GER_mefo_bills_3"}
			name = GER_mefo_bills
			allowed = {
				original_tag = GER
			}

			allowed_civil_war = {
				has_government = fascism
			}

			removal_cost = -1

			picture = ger_mefo_bills

			modifier = {
				consumer_goods_factor = -0.05
				production_speed_arms_factory_factor = 0.25
				production_speed_dockyard_factor = 0.25
				production_speed_naval_base_factor = 0.25
				production_speed_coastal_bunker_factor = 0.25
				production_speed_bunker_factor = 0.25
				production_speed_air_base_factor = 0.25
				production_speed_anti_air_building_factor = 0.25
				production_speed_radar_station_factor = 0.25
				production_speed_synthetic_refinery_factor = 0.25
				political_power_cost = 0.5
			}
		}

		GER_mefo_bills_4 = {
			on_add = {log = "[GetDateText]: [Root.GetName]: add idea GER_mefo_bills_4"}
			name = GER_mefo_bills
			allowed = {
				original_tag = GER
			}

			allowed_civil_war = {
				has_government = fascism
			}

			removal_cost = -1

			picture = ger_mefo_bills

			modifier = {
				consumer_goods_factor = -0.05
				production_speed_arms_factory_factor = 0.25
				production_speed_dockyard_factor = 0.25
				production_speed_naval_base_factor = 0.25
				production_speed_coastal_bunker_factor = 0.25
				production_speed_bunker_factor = 0.25
				production_speed_air_base_factor = 0.25
				production_speed_anti_air_building_factor = 0.25
				production_speed_radar_station_factor = 0.25
				production_speed_synthetic_refinery_factor = 0.25
				political_power_cost = 0.65
			}
		}

		GER_mefo_bills_5 = {
			on_add = {log = "[GetDateText]: [Root.GetName]: add idea GER_mefo_bills_5"}
			name = GER_mefo_bills
			allowed = {
				original_tag = GER
			}

			allowed_civil_war = {
				has_government = fascism
			}

			removal_cost = -1

			picture = ger_mefo_bills

			modifier = {
				consumer_goods_factor = -0.05
				production_speed_arms_factory_factor = 0.25
				production_speed_dockyard_factor = 0.25
				production_speed_naval_base_factor = 0.25
				production_speed_coastal_bunker_factor = 0.25
				production_speed_bunker_factor = 0.25
				production_speed_air_base_factor = 0.25
				production_speed_anti_air_building_factor = 0.25
				production_speed_radar_station_factor = 0.25
				production_speed_synthetic_refinery_factor = 0.25
				political_power_cost = 0.8
			}
		}

		GER_mefo_bills_6 = {
			on_add = {log = "[GetDateText]: [Root.GetName]: add idea GER_mefo_bills_6"}
			name = GER_mefo_bills
			allowed = {
				original_tag = GER
			}

			allowed_civil_war = {
				has_government = fascism
			}

			removal_cost = -1

			picture = ger_mefo_bills

			modifier = {
				consumer_goods_factor = -0.05
				production_speed_arms_factory_factor = 0.25
				production_speed_dockyard_factor = 0.25
				production_speed_naval_base_factor = 0.25
				production_speed_coastal_bunker_factor = 0.25
				production_speed_bunker_factor = 0.25
				production_speed_air_base_factor = 0.25
				production_speed_anti_air_building_factor = 0.25
				production_speed_radar_station_factor = 0.25
				production_speed_synthetic_refinery_factor = 0.25
				political_power_cost = 0.95
			}
		}

		GER_mefo_bills_7 = {
			on_add = {log = "[GetDateText]: [Root.GetName]: add idea GER_mefo_bills_7"}
			name = GER_mefo_bills
			allowed = {
				original_tag = GER
			}

			allowed_civil_war = {
				has_government = fascism
			}

			removal_cost = -1

			picture = ger_mefo_bills

			modifier = {
				consumer_goods_factor = -0.05
				production_speed_arms_factory_factor = 0.25
				production_speed_dockyard_factor = 0.25
				production_speed_naval_base_factor = 0.25
				production_speed_coastal_bunker_factor = 0.25
				production_speed_bunker_factor = 0.25
				production_speed_air_base_factor = 0.25
				production_speed_anti_air_building_factor = 0.25
				production_speed_radar_station_factor = 0.25
				production_speed_synthetic_refinery_factor = 0.25
				political_power_cost = 1.1
			}
		}

		GER_mefo_bills_8 = {
			on_add = {log = "[GetDateText]: [Root.GetName]: add idea GER_mefo_bills_8"}
			name = GER_mefo_bills
			allowed = {
				original_tag = GER
			}

			allowed_civil_war = {
				has_government = fascism
			}

			removal_cost = -1

			picture = ger_mefo_bills

			modifier = {
				consumer_goods_factor = -0.05
				production_speed_arms_factory_factor = 0.25
				production_speed_dockyard_factor = 0.25
				production_speed_naval_base_factor = 0.25
				production_speed_coastal_bunker_factor = 0.25
				production_speed_bunker_factor = 0.25
				production_speed_air_base_factor = 0.25
				production_speed_anti_air_building_factor = 0.25
				production_speed_radar_station_factor = 0.25
				production_speed_synthetic_refinery_factor = 0.25
				political_power_cost = 1.25
			}
		}

		GER_mefo_bills_9 = {
			on_add = {log = "[GetDateText]: [Root.GetName]: add idea GER_mefo_bills_9"}
			name = GER_mefo_bills
			allowed = {
				original_tag = GER
			}

			allowed_civil_war = {
				has_government = fascism
			}

			removal_cost = -1

			picture = ger_mefo_bills

			modifier = {
				consumer_goods_factor = -0.05
				production_speed_arms_factory_factor = 0.25
				production_speed_dockyard_factor = 0.25
				production_speed_naval_base_factor = 0.25
				production_speed_coastal_bunker_factor = 0.25
				production_speed_bunker_factor = 0.25
				production_speed_air_base_factor = 0.25
				production_speed_anti_air_building_factor = 0.25
				production_speed_radar_station_factor = 0.25
				production_speed_synthetic_refinery_factor = 0.25
				political_power_cost = 1.4
			}
		}

		GER_mefo_bills_10 = {
			on_add = {log = "[GetDateText]: [Root.GetName]: add idea GER_mefo_bills_10"}
			name = GER_mefo_bills
			allowed = {
				original_tag = GER
			}

			allowed_civil_war = {
				has_government = fascism
			}

			removal_cost = -1

			picture = ger_mefo_bills

			modifier = {
				consumer_goods_factor = -0.05
				production_speed_arms_factory_factor = 0.25
				production_speed_dockyard_factor = 0.25
				production_speed_naval_base_factor = 0.25
				production_speed_coastal_bunker_factor = 0.25
				production_speed_bunker_factor = 0.25
				production_speed_air_base_factor = 0.25
				production_speed_anti_air_building_factor = 0.25
				production_speed_radar_station_factor = 0.25
				production_speed_synthetic_refinery_factor = 0.25
				political_power_cost = 1.55
			}
		}

		GER_mefo_bills_11 = {
			on_add = {log = "[GetDateText]: [Root.GetName]: add idea GER_mefo_bills_11"}
			name = GER_mefo_bills
			allowed = {
				original_tag = GER
			}

			allowed_civil_war = {
				has_government = fascism
			}

			removal_cost = -1

			picture = ger_mefo_bills

			modifier = {
				consumer_goods_factor = -0.05
				production_speed_arms_factory_factor = 0.25
				production_speed_dockyard_factor = 0.25
				production_speed_naval_base_factor = 0.25
				production_speed_coastal_bunker_factor = 0.25
				production_speed_bunker_factor = 0.25
				production_speed_air_base_factor = 0.25
				production_speed_anti_air_building_factor = 0.25
				production_speed_radar_station_factor = 0.25
				production_speed_synthetic_refinery_factor = 0.25
				political_power_cost = 1.7
			}
		}

		GER_mefo_bills_12 = {
			on_add = {log = "[GetDateText]: [Root.GetName]: add idea GER_mefo_bills_12"}
			name = GER_mefo_bills
			allowed = {
				original_tag = GER
			}

			allowed_civil_war = {
				has_government = fascism
			}

			removal_cost = -1

			picture = ger_mefo_bills

			modifier = {
				consumer_goods_factor = -0.05
				production_speed_arms_factory_factor = 0.25
				production_speed_dockyard_factor = 0.25
				production_speed_naval_base_factor = 0.25
				production_speed_coastal_bunker_factor = 0.25
				production_speed_bunker_factor = 0.25
				production_speed_air_base_factor = 0.25
				production_speed_anti_air_building_factor = 0.25
				production_speed_radar_station_factor = 0.25
				production_speed_synthetic_refinery_factor = 0.25
				political_power_cost = 1.85
			}
		}

		GER_mefo_bills_13 = {
			on_add = {log = "[GetDateText]: [Root.GetName]: add idea GER_mefo_bills_13"}
			name = GER_mefo_bills
			allowed = {
				original_tag = GER
			}

			allowed_civil_war = {
				has_government = fascism
			}

			removal_cost = -1

			picture = ger_mefo_bills

			modifier = {
				consumer_goods_factor = -0.05
				production_speed_arms_factory_factor = 0.25
				production_speed_dockyard_factor = 0.25
				production_speed_naval_base_factor = 0.25
				production_speed_coastal_bunker_factor = 0.25
				production_speed_bunker_factor = 0.25
				production_speed_air_base_factor = 0.25
				production_speed_anti_air_building_factor = 0.25
				production_speed_radar_station_factor = 0.25
				production_speed_synthetic_refinery_factor = 0.25
				political_power_cost = 2
			}
		}

		GER_mefo_bills_14 = {
			on_add = {log = "[GetDateText]: [Root.GetName]: add idea GER_mefo_bills_14"}
			name = GER_mefo_bills
			allowed = {
				original_tag = GER
			}

			allowed_civil_war = {
				has_government = fascism
			}

			removal_cost = -1

			picture = ger_mefo_bills

			modifier = {
				consumer_goods_factor = -0.05
				production_speed_arms_factory_factor = 0.25
				production_speed_dockyard_factor = 0.25
				production_speed_naval_base_factor = 0.25
				production_speed_coastal_bunker_factor = 0.25
				production_speed_bunker_factor = 0.25
				production_speed_air_base_factor = 0.25
				production_speed_anti_air_building_factor = 0.25
				production_speed_radar_station_factor = 0.25
				production_speed_synthetic_refinery_factor = 0.25
				political_power_cost = 2.15
			}
		}

		GER_mefo_bills_15 = {
			on_add = {log = "[GetDateText]: [Root.GetName]: add idea GER_mefo_bills_15"}
			name = GER_mefo_bills
			allowed = {
				original_tag = GER
			}

			allowed_civil_war = {
				has_government = fascism
			}

			removal_cost = -1

			picture = ger_mefo_bills

			modifier = {
				consumer_goods_factor = -0.05
				production_speed_arms_factory_factor = 0.25
				production_speed_dockyard_factor = 0.25
				production_speed_naval_base_factor = 0.25
				production_speed_coastal_bunker_factor = 0.25
				production_speed_bunker_factor = 0.25
				production_speed_air_base_factor = 0.25
				production_speed_anti_air_building_factor = 0.25
				production_speed_radar_station_factor = 0.25
				production_speed_synthetic_refinery_factor = 0.25
				political_power_cost = 2.3
			}
		}

		GER_mefo_bills_16 = {
			on_add = {log = "[GetDateText]: [Root.GetName]: add idea GER_mefo_bills_16"}
			name = GER_mefo_bills
			allowed = {
				original_tag = GER
			}

			allowed_civil_war = {
				has_government = fascism
			}

			removal_cost = -1

			picture = ger_mefo_bills

			modifier = {
				consumer_goods_factor = -0.05
				production_speed_arms_factory_factor = 0.25
				production_speed_dockyard_factor = 0.25
				production_speed_naval_base_factor = 0.25
				production_speed_coastal_bunker_factor = 0.25
				production_speed_bunker_factor = 0.25
				production_speed_air_base_factor = 0.25
				production_speed_anti_air_building_factor = 0.25
				production_speed_radar_station_factor = 0.25
				production_speed_synthetic_refinery_factor = 0.25
				political_power_cost = 2.45
			}
		}

		GER_mefo_bills_17 = {
			on_add = {log = "[GetDateText]: [Root.GetName]: add idea GER_mefo_bills_17"}
			name = GER_mefo_bills
			allowed = {
				original_tag = GER
			}

			allowed_civil_war = {
				has_government = fascism
			}

			removal_cost = -1

			picture = ger_mefo_bills

			modifier = {
				consumer_goods_factor = -0.05
				production_speed_arms_factory_factor = 0.25
				production_speed_dockyard_factor = 0.25
				production_speed_naval_base_factor = 0.25
				production_speed_coastal_bunker_factor = 0.25
				production_speed_bunker_factor = 0.25
				production_speed_air_base_factor = 0.25
				production_speed_anti_air_building_factor = 0.25
				production_speed_radar_station_factor = 0.25
				production_speed_synthetic_refinery_factor = 0.25
				political_power_cost = 2.6
			}
		}

		GER_mefo_bills_18 = {
			on_add = {log = "[GetDateText]: [Root.GetName]: add idea GER_mefo_bills_18"}
			name = GER_mefo_bills
			allowed = {
				original_tag = GER
			}

			allowed_civil_war = {
				has_government = fascism
			}

			removal_cost = -1

			picture = ger_mefo_bills

			modifier = {
				consumer_goods_factor = -0.05
				production_speed_arms_factory_factor = 0.25
				production_speed_dockyard_factor = 0.25
				production_speed_naval_base_factor = 0.25
				production_speed_coastal_bunker_factor = 0.25
				production_speed_bunker_factor = 0.25
				production_speed_air_base_factor = 0.25
				production_speed_anti_air_building_factor = 0.25
				production_speed_radar_station_factor = 0.25
				production_speed_synthetic_refinery_factor = 0.25
				political_power_cost = 2.75
			}
		}

		GER_mefo_bills_ended = {
			on_add = {log = "[GetDateText]: [Root.GetName]: add idea GER_mefo_bills_ended"}
			allowed = {
				original_tag = GER
			}

			allowed_civil_war = {
				has_government = fascism
			}

			removal_cost = -1

			picture = ger_mefo_bills_payment

			modifier = {
				consumer_goods_factor = 0.20
			}
		}
		GGR_reformed_financial_sector = {
			on_add = {log = "[GetDateText]: [Root.GetName]: add idea GGR_reformed_financial_sector"}


			allowed = {
				always = no
			}
			removal_cost = -1
			picture = ffr_precious_metals
			modifier = {
				political_power_gain = 0.2
				consumer_goods_factor = -0.1
			}
		}
		GGR_total_flesh_exploitation_0 = {
			on_add = {log = "[GetDateText]: [Root.GetName]: add idea GGR_total_flesh_exploitation_0"}


			allowed = {
				always = no
			}
			removal_cost = -1
			picture = ffr_precious_metals
			modifier = {
				production_speed_buildings_factor = 0.07
			}
		}
		GGR_total_flesh_exploitation_1 = {
			on_add = {log = "[GetDateText]: [Root.GetName]: add idea GGR_total_flesh_exploitation_1"}


			allowed = {
				always = no
			}
			removal_cost = -1
			picture = ffr_precious_metals
			modifier = {
				production_speed_buildings_factor = 0.15
			}
		}

###################### Science

		GGR_science_purges = {#Steamlining the processus of making uniforms and camo so more
			on_add = {log = "[GetDateText]: [Root.GetName]: add idea GGR_science_purges"}
	        picture = SLO_Chained_Minds
			modifier = {
				research_speed_factor = -0.25
				political_power_gain = 0.1
			}
	 	}



		GGR_tank_research_started = {#We gotta work on the big tank that will sunk our country's gdp bro
			on_add = {log = "[GetDateText]: [Root.GetName]: add idea GGR_tank_research_started"}
			picture = BAS_Constructive_Science
			modifier = {
				research_speed_factor = 0.10
			    political_power_gain = -0.10
			}
		}

		GGR_tank_research_1a = {#Good Engine-Bad Production
			on_add = {log = "[GetDateText]: [Root.GetName]: add idea GGR_efficiant_engine"}
		    picture = BAS_Constructive_Science
			modifier = {
				army_armor_speed_factor = 0.15
				research_speed_factor = 0.1
				political_power_gain = -0.1
			}
			equipment_bonus = {
				MBT_equipment = { build_cost_ic = 0.20 instant = yes }
			}
		}
		GGR_tank_research_1b = {#Bad Engine-Good Production
			on_add = {log = "[GetDateText]: [Root.GetName]: add idea GGR_efficiant_engine"}
		    picture = BAS_Constructive_Science
		    modifier = {
			    army_armor_speed_factor = -0.20
			    research_speed_factor = 0.1
				political_power_gain = -0.1
			}
			equipment_bonus = {
				MBT_equipment = {
					build_cost_ic = -0.15 instant = yes	
				}
			}
		}
        GGR_tank_research_1a1 = {#Good Engine/ Good Armor
			on_add = {log = "[GetDateText]: [Root.GetName]: add idea GGR_efficiant_engine"}
		    picture = BAS_Constructive_Science
		    modifier = {
			    army_armor_defence_factor = 0.10
			    army_armor_speed_factor = 0.15
			    research_speed_factor = 0.1
				political_power_gain = -0.1
			}
			equipment_bonus = {
			    MBT_equipment = {
					build_cost_ic = 0.60 instant = yes	
				}
			}
		}
		GGR_tank_research_1a2 = {#Good Engine/ Bad Armor
			on_add = {log = "[GetDateText]: [Root.GetName]: add idea GGR_efficiant_engine"}
		    picture = BAS_Constructive_Science
		    modifier = {
			    army_armor_defence_factor = -0.20
			    army_armor_speed_factor = 0.15
			    research_speed_factor = 0.1
				political_power_gain = -0.1
			}
			equipment_bonus = {
			    MBT_equipment = {
			    build_cost_ic = -0.20 instant = yes	
				}
			}
		}
		GGR_tank_research_1b1 = {#Bad Engine/ Good Armor
			on_add = {log = "[GetDateText]: [Root.GetName]: add idea GGR_efficiant_engine"}
		    picture = BAS_Constructive_Science
		    modifier = {
			    army_armor_defence_factor = 0.15
			    army_armor_speed_factor = -0.20
			    research_speed_factor = 0.1
				political_power_gain = -0.1
			}
			equipment_bonus = {
				MBT_equipment = {
				build_cost_ic = 0.20 instant = yes	
				}
			}
		}
		GGR_tank_research_1b2 = {#Bad Engine/ Bad Armor
			on_add = {log = "[GetDateText]: [Root.GetName]: add idea GGR_efficiant_engine"}
		    picture = BAS_Constructive_Science
		    modifier = {
			    army_armor_defence_factor = -0.20
			    army_armor_speed_factor = -0.20
			    research_speed_factor = 0.1
				political_power_gain = -0.1
			}
			equipment_bonus = {
				MBT_equipment = {
					build_cost_ic = -0.05 instant = yes	
				}
			}
		}
		GGR_tank_research_GGG = {# + + +
			on_add = {log = "[GetDateText]: [Root.GetName]: add idea GGR_efficiant_engine"}
		    picture = CHU_Armor_Expertise
		    modifier = {
			    army_armor_attack_factor = 0.20
			    army_armor_defence_factor = 0.20
			    army_armor_speed_factor = 0.25
				political_power_gain = -0.1
			}
			equipment_bonus = {
				MBT_equipment = {
				build_cost_ic = 2.0 instant = yes	
				}
			}
		}
		GGR_tank_research_BGG = {# - + +
			on_add = {log = "[GetDateText]: [Root.GetName]: add idea GGR_efficiant_engine"}
		    picture = CHU_Armor_Expertise
		    modifier = {
			    army_armor_attack_factor = 0.20
			    army_armor_defence_factor = 0.20
			    army_armor_speed_factor = -0.35
				political_power_gain = -0.1
			}
			equipment_bonus = {
				MBT_equipment = {
				build_cost_ic = 0.50 instant = yes	
				reliability = -0.15
				}
			}
		}
		GGR_tank_research_BBG = {# - - +
			on_add = {log = "[GetDateText]: [Root.GetName]: add idea GGR_efficiant_engine"}
		    picture = CHU_Armor_Expertise
		    modifier = {
			    army_armor_attack_factor = 0.25
			    army_armor_defence_factor = -0.30
			    army_armor_speed_factor = -0.20
				political_power_gain = -0.1
			}
			equipment_bonus = {
				MBT_equipment = {
				build_cost_ic = -0.30 instant = yes	
				reliability = -0.15
				}
			}
		}
		GGR_tank_research_BBB = {# - - - 
			on_add = {log = "[GetDateText]: [Root.GetName]: add idea GGR_efficiant_engine"}
		    picture = CHU_Armor_Expertise
		    modifier = {
			    army_armor_attack_factor = -0.20
			    army_armor_defence_factor = -0.20
			    army_armor_speed_factor = -0.20
				political_power_gain = -0.1
			}
			equipment_bonus = {
				MBT_equipment = {
				build_cost_ic = -1.0 instant = yes	
				reliability = -0.30
				}
			}
		}
		
		GGR_tank_research_GBB = {# + - - 
			on_add = {log = "[GetDateText]: [Root.GetName]: add idea GGR_efficiant_engine"}
		    picture = CHU_Armor_Expertise
		    modifier = {
			    army_armor_attack_factor = -0.2
			    army_armor_defence_factor = -0.2
			    army_armor_speed_factor = 0.25
				political_power_gain = -0.1
			}
			equipment_bonus = {
				MBT_equipment = {
				build_cost_ic = -0.4 instant = yes	
			    reliability = 0.15
				}
			}
		}

		GGR_tank_research_GGB = {# + + - 
			on_add = {log = "[GetDateText]: [Root.GetName]: add idea GGR_efficiant_engine"}
		    picture = CHU_Armor_Expertise
		    modifier = {
			    army_armor_attack_factor = -0.3
			    army_armor_defence_factor = 0.2
			    army_armor_speed_factor = 0.2
				political_power_gain = -0.1
			}
			equipment_bonus = {
				MBT_equipment = {
				build_cost_ic = 0.30 instant = yes	
				reliability = 0.1
				}
			}
		}

		GGR_tank_research_BGB = {#- + - 
			on_add = {log = "[GetDateText]: [Root.GetName]: add idea GGR_efficiant_engine"}
		    picture = CHU_Armor_Expertise
		    modifier = {
			    army_armor_attack_factor = -0.25
			    army_armor_defence_factor = 0.25
			    army_armor_speed_factor = -0.25
				political_power_gain = -0.1
			}
			equipment_bonus = {
				MBT_equipment = {
				build_cost_ic = -0.1 instant = yes
				reliability = -0.1				
				}
			}
		}

		GGR_tank_research_GBG = {#+ - +
			on_add = {log = "[GetDateText]: [Root.GetName]: add idea GGR_efficiant_engine"}
		    picture = CHU_Armor_Expertise
		    modifier = {
			    army_armor_attack_factor = 0.2
			    army_armor_defence_factor = -0.25
			    army_armor_speed_factor = 0.2
				political_power_gain = -0.1
			}
			equipment_bonus = {
				MBT_equipment = {
					build_cost_ic = -0.05 instant = yes	
					reliability = 0.1
				}
			}
		}

        GGR_broken_transmittion = {#
			on_add = {log = "[GetDateText]: [Root.GetName]: add idea GGR_broken_transmittion"}
		    picture = economic_control_icon
			equipment_bonus = {
		        MBT_equipment = {
					reliability = -0.6
					instant = yes
				}
			}
        }

		GGR_GGRCSI_Von_Braun = {#Braun got picked
			on_add = {log = "[GetDateText]: [Root.GetName]: add idea GGR_GGRCSI_Von_Braun"}
			picture = generic_war_plan_outline
			research_bonus = { space = 0.05}
			research_bonus = { nuclear = 0.05}
	 	}

		GGR_Centralized_Civilian_Economy = {#Braun got picked
			on_add = {log = "[GetDateText]: [Root.GetName]: add idea GGR_Centralized_Civilian_Economy"}
			picture = heavy_industrial_zone
			research_bonus = { industry  = 0.10}
			research_bonus = { electronic_mechanical_engineering = 0.10 }
		}

		GGR_GGRCSI_Porsche = {#Porsche is picked
			on_add = {log = "[GetDateText]: [Root.GetName]: add idea GGR_GGRCSI_Porsche"}
			picture = HGR_militarist_support
			research_bonus = { armor = 0.1}
		}

		GGR_GGRCSI_Tank = {#Tank gets picked
			on_add = {log = "[GetDateText]: [Root.GetName]: add idea GGR_GGRCSI_Tank"}
			picture = TOB_air_land_battles
			research_bonus = { air_techs = 0.1 }
			research_bonus = { air_doctrine = 0.05 }
		}

		GGR_Computer_assisted_shit = {
 			on_add = {log = "[GetDateText]: [Root.GetName]: add idea GGR_GGRCSI_Tank"}
 			picture = GER_consumer_research
 			research_bonus = { nuclear = 0.05 }
			modifier = {
				production_speed_nuclear_reactor_factor = 0.2
			}
 		}
		
		GGR_nuclear_powered_nation = {
			on_add = { log = "[GetDateText]: [Root.GetName]: add idea GGR_nuclear_powered_nation"}

			picture = generic_german_rifle_army

			allowed = {
				always = no
			}
			allowed_civil_war = {
				always = no
			}
			removal_cost = -1

			modifier = {
				consumer_goods_factor = -0.1
				production_oil_factor = 0.3
				fuel_gain_factor = 0.3
				political_power_gain = 0.15
			}
		}

		GGR_Army_Dragging_Feet = {#The Army doesn't want to give us people
			on_add = {log = "[GetDateText]: [Root.GetName]: add idea GGR_Army_Dragging_Feet"}
			picture = GER_wary_wehrmacht
			modifier = {
		 		political_power_gain = -0.1
		 	}
			research_bonus = {artillery = -0.15}
			research_bonus = {infantry = -0.15}
			research_bonus = {armor = -0.10}
		}

		GGR_Navy_Dragging_Feet = {#The navy won't cooperate
			on_add = {log = "[GetDateText]: [Root.GetName]: add idea GGR_Navy_Dragging_Feet"}
			picture = GER_wary_wehrmacht
			modifier = {
				political_power_gain = -0.1
			}
			research_bonus = {naval = -0.20}
			research_bonus = {naval_doctrine = -0.1}
		}


		GGR_GMO = {#For the GMO focus
			on_add = {log = "[GetDateText]: [Root.GetName]: add idea GGR_GMO"}
			picture = MST_Land_Rights_2
			modifier = {
				consumer_goods_factor = -0.025
				MONTHLY_POPULATION = 0.025
				conscription = 0.003
			}
		}

		GGR_GMO_2 = {#For the Uberplant One
			on_add = {log = "[GetDateText]: [Root.GetName]: add idea GGR_GMO_2"}
			picture = MST_Land_Rights_3

			modifier = {
				consumer_goods_factor = -0.05
				MONTHLY_POPULATION = 0.06
				conscription = 0.006
			}
		}
		
########################## Breitspurplan stuff
		GGR_The_Breitspurplan = {#First Breitspurplan focus
			on_add = {log = "[GetDateText]: [Root.GetName]: add idea GGR_The_Breitspurplan"}
				 picture = MZB_USA_Lackluster_Infrastructures
				 modifier = {
						 production_speed_infrastructure_factor = 0.05
						        }
							}

		GGR_The_Breitspurplan_2 = {#Second Breitspurplan focus
			on_add = {log = "[GetDateText]: [Root.GetName]: add idea GGR_The_Breitspurplan_2"}
			 picture = MZB_USA_Lackluster_Infrastructures
				modifier = {
					  production_speed_infrastructure_factor = 0.1
									}
							}

		GGR_The_Breitspurplan_3 = {#Third Breitspurplan focus
			on_add = {log = "[GetDateText]: [Root.GetName]: add idea GGR_The_Breitspurplan_3"}
			picture = MZB_USA_Lackluster_Infrastructures
				modifier = {
					  production_speed_infrastructure_factor = 0.15
									 }
					}

		GGR_The_Breitspurplan_4 = {#Final Breitspurplan focus
			on_add = {log = "[GetDateText]: [Root.GetName]: add idea GGR_The_Breitspurplan_4"}
		 picture = MZB_USA_Lackluster_Infrastructures
			modifier = {
				production_speed_infrastructure_factor = 0.25
								}
				}

############################ Cause giving people Meth is alwaysa good idea

		GGR_military_steroid_use = {#Steroid shit
			on_add = {log = "[GetDateText]: [Root.GetName]: add idea GGR_military_steroid_use"}
	picture = generic_drugs_stimulant

	modifier = {
		army_core_attack_factor = 0.1
		army_core_defence_factor = 0.1
		}
	}

		GGR_military_steroid_use_side_effects = {#Steroid shit
			on_add = {log = "[GetDateText]: [Root.GetName]: add idea GGR_military_steroid_use_side_effects"}
picture = generic_drugs_stimulant

modifier = {
		army_morale_factor = -0.1
		army_core_attack_factor = -0.05
		army_core_defence_factor = -0.05
		}
	}


#################### Should've spent money on good pipes

GGR_faulty_pipes = {#Bad option for Chemicals in the Water
	on_add = {log = "[GetDateText]: [Root.GetName]: add idea GGR_faulty_pipes"}
	picture = USA_GLD68_cleanererer_watre
	modifier = {
		production_speed_infrastructure_factor = -0.05
	}
}

#################### Shouldn't event have done it at all

GGR_bad_water = {#Bad option for Chemicals in the Water
	on_add = {log = "[GetDateText]: [Root.GetName]: add idea GGR_bad_water"}
	picture = USA_GLD68_cleanererer_watre
	modifier = {
		production_speed_infrastructure_factor = -0.05
		consumer_goods_factor = 0.1
		MONTHLY_POPULATION = -0.2
	}

}


############################################################ Final Ubermensch

GGR_Das_Super_Man = {#For the Uber one
	on_add = {log = "[GetDateText]: [Root.GetName]: add idea GGR_Das_Super_Man"}
	picture = MAD_german_garrisons_3
	
	modifier = {
		political_power_gain = 0.1
		consumer_goods_factor = -0.1
		MONTHLY_POPULATION = 0.10
		conscription = 0.02
		research_speed_factor = 0.05
	}
}

############################################################ Frankfurt Meltdown

GGR_The_Frankfurt_Meltdown = {
	on_add = {log = "[GetDateText]: [Root.GetName]: add idea GGR_The_Frankfurt_Meltdown"}
	picture = generic_economic_meltdown

	modifier = {
		political_power_gain = -0.25
		stability_weekly = -0.015
		consumer_goods_factor = 0.20
		MONTHLY_POPULATION = -0.3
	}
}

GGR_The_Frankfurt_Meltdown_Lessened = {
	on_add = {log = "[GetDateText]: [Root.GetName]: add idea GGR_The_Frankfurt_Meltdown_Lessened"}
	picture = generic_economic_meltdown

	modifier = {
		political_power_gain = -0.25
		stability_weekly = -0.005
		consumer_goods_factor = 0.10
		MONTHLY_POPULATION = -0.15
	}
}



#################### Military science ideas

GGR_camouflage_steamlined = {#Steamlining the processus of making uniforms and camo so more
	on_add = {log = "[GetDateText]: [Root.GetName]: add idea GGR_camouflage_steamlined"}
       picture = KHA_enhanced_infantry_production
	modifier = {
		industrial_capacity_factory = 0.05
	}
 }

GGR_New_Outfits= {
    picture = BAS_army_good
	on_add = {log = "[GetDateText]: [Root.GetName]: add idea GGR_New_Uniforms"}
	modifier = {
		acclimatization_hot_climate_gain_factor = 0.075
		acclimatization_cold_climate_gain_factor = 0.075
		heat_attrition_factor = -0.05
		winter_attrition_factor = -0.05
	}
}

GGR_infantry_logistics_ruined = {
	on_add = { log = "[GetDateText]: [Root.GetName]: add idea GGR_infantry_logistics_ruined"}

	picture = BAS_army_bad

	allowed = {
		always = no
	}
	allowed_civil_war = {
		always = no
	}
	removal_cost = -1

	modifier = {
		supply_consumption_factor = 0.15
		army_infantry_attack_factor = -0.2
		army_infantry_defence_factor = -0.2
	}
}

GGR_The_New_Panzer_1 = {
    picture = CHU_Armor_Expertise
	on_add = {log = "[GetDateText]: [Root.GetName]: add idea GGR_The_New_Panzer_1"}
	modifier = {
		army_defence_factor = 0.05
	}
}

GGR_The_New_Panzer_2 = {
    picture = CHU_Armor_Expertise
	on_add = {log = "[GetDateText]: [Root.GetName]: add idea GGR_The_New_Panzer_2"}
	modifier = {
		army_defence_factor = 0.05
		army_attack_factor = 0.05
	}
}

GGR_The_New_Panzer_3 = {
    picture = CHU_Armor_Expertise
	on_add = {log = "[GetDateText]: [Root.GetName]: add idea GGR_The_New_Panzer_2"}
	modifier = {
		army_defence_factor = 0.1
		army_attack_factor = 0.1
	}
}

###############################################################################

# 															WAR PLAN 0

###############################################################################


		GGR_Fall_Boemus_SS_1 = {#SS Boemus plan idea
			on_add = {log = "[GetDateText]: [Root.GetName]: add idea GGR_Fall_Boemus_SS_1"}
			picture = SAM_German_Military_Training

			cancel = {
				NOT = {
					country_exists = CZE
				}
			}

			targeted_modifier = {
				tag = CZE
				attack_bonus_against = 0.1
				defense_bonus_against = 0.05
			}
		}


		GGR_Fall_Boemus_SS_2 = {#Get it from We Know the Roads
			on_add = {log = "[GetDateText]: [Root.GetName]: add idea GGR_Fall_Boemus_SS_2"}
			picture = SAM_German_Military_Training

			modifier = {
				army_speed_factor = 0.15
			}
			cancel = {
				NOT = {
					country_exists = CZE
				}
			}

			targeted_modifier = {
				tag = CZE
				attack_bonus_against = 0.1
				defense_bonus_against = 0.05
			}
		}


			GGR_Fall_Boemus_SS_stabbed_in_the_back = {#They get it from Crack the Mountains
				on_add = {log = "[GetDateText]: [Root.GetName]: add idea GGR_Fall_Boemus_SS_stabbed_in_the_back"}
				picture = SAM_German_Military_Training

				modifier = {
					army_speed_factor = -0.15
					army_org = -5
				}
			}

		GGR_Fall_Boemus_SS_final_fight = {#Increases surrender limit
			on_add = {log = "[GetDateText]: [Root.GetName]: add idea GGR_Fall_Boemus_SS_final_fight"}
			picture = SAM_German_Military_Training

			modifier = {
				surrender_limit = 1
				army_attack_factor = 0.1
				army_defence_factor = 0.1
			}
		}


		GGR_Fall_Boemus_Partisans = {#SS Freedom Fighters
			on_add = {log = "[GetDateText]: [Root.GetName]: add idea GGR_Fall_Boemus_Partisans"}
			picture = SAM_German_Military_Training

			modifier = {
				political_power_gain = -0.2
				production_factory_max_efficiency_factor = -0.025
			}
		}

		GER_GOR_invasion_preparation_vituska = {
			on_add = {log = "[GetDateText]: [Root.GetName]: add idea GER_GOR_invasion_preparation_vituska"}

			picture = GER_Operation_Ostwind

			allowed = {
				always = no
			}

			allowed_civil_war = {
				always = yes
			}
			cancel = {
				BLR = {
					exists = no
				}
			}

			removal_cost = -1

			targeted_modifier = {
				tag = BLR
				attack_bonus_against = 0.1
				defense_bonus_against = 0.1
			}
		}

		GER_GOR_invade_vituska_2 = {
			on_add = {log = "[GetDateText]: [Root.GetName]: add idea GER_GOR_invade_vituska_2"}

			picture = GER_Operation_Ostwind

			allowed = {
				always = no
			}

			allowed_civil_war = {
				always = yes
			}
			cancel = {
				BLR = {
					exists = no
				}
			}

			removal_cost = -1

			targeted_modifier = {
				tag = BLR
				attack_bonus_against = 0.2
				#enemy_#partisan_effect = -0.5
			}
		}

		GGR_DST_operation_ostwind = {
			on_add = {log = "[GetDateText]: [Root.GetName]: add idea GGR_DST_operation_ostwind"}

			picture = GER_Operation_Ostwind

			allowed = {
				always = no
			}

			allowed_civil_war = {
				always = no
			}
			cancel = {
				DST = {
					exists = no
				}
			}

			removal_cost = -1

			modifier = {
				army_org_factor = 0.1
				army_morale_factor = 0.2
			}
		}

		GGR_DST_operation_ostwind2 = {
			on_add = {log = "[GetDateText]: [Root.GetName]: add idea GGR_DST_operation_ostwind2"}

				picture = GER_Operation_Ostwind

				allowed = {
					always = no
				}

				allowed_civil_war = {
					always = no
				}
				cancel = {
					DST = {
						exists = no
					}
				}

				removal_cost = -1

				modifier = {
					army_org_factor = 0.1
					army_morale_factor = 0.2
				}
				targeted_modifier = {
					tag = DST
					attack_bonus_against = 0.1
					defense_bonus_against = 0.1
				}
			}

		GGR_invade_stahlecker = {
			on_add = {log = "[GetDateText]: [Root.GetName]: add idea GGR_invade_stahlecker"}

			picture = GER_Operation_Ostwind

			allowed = {
				always = no
			}

			allowed_civil_war = {
				always = no
			}

			cancel = {
				OST = {
					exists = no
				}
			}

			removal_cost = -1

			targeted_modifier = {
				tag = OST
				attack_bonus_against = 0.2
				defense_bonus_against = 0.1
			}
		}

			GGR_invade_stahlecker2 = {
				on_add = {log = "[GetDateText]: [Root.GetName]: add idea GGR_invade_stahlecker2"}

				picture = GER_Operation_Ostwind

				allowed = {
					always = no
				}

				allowed_civil_war = {
					always = no
				}

				cancel = {
					OST = {
						exists = no
					}
				}

				removal_cost = -1

				modifier = {
					army_speed_factor = 0.1
					land_reinforce_rate = 0.05
				}

				targeted_modifier = {
					tag = OST
					attack_bonus_against = 0.2
					defense_bonus_against = 0.1
				}
			}

		GGR_MST_operation_ostwind = {
			on_add = {log = "[GetDateText]: [Root.GetName]: add idea GGR_MST_operation_ostwind"}

			picture = GER_Operation_Ostwind

			allowed = {
				always = no
			}

			allowed_civil_war = {
				always = no
			}

			cancel = {
				MST = {
					exists = no
				}
			}

			removal_cost = -1

			targeted_modifier = {
				tag = MST
				attack_bonus_against = 0.1
				defense_bonus_against = 0.1
			}
		}

			GGR_MST_operation_ostwind2 = {
				on_add = {log = "[GetDateText]: [Root.GetName]: add idea GGR_MST_operation_ostwind2"}

				picture = GER_Operation_Ostwind

				allowed = {
					always = no
				}

				allowed_civil_war = {
					always = no
				}

				cancel = {
					MST = {
						exists = no
					}
				}

				removal_cost = -1

				targeted_modifier = {
					tag = MST
					attack_bonus_against = 0.2
					defense_bonus_against = 0.2
				}
			}

				GGR_MST_operation_ostwind3 = {
					on_add = {log = "[GetDateText]: [Root.GetName]: add idea GGR_MST_operation_ostwind3"}

					picture = GER_Operation_Ostwind

					allowed = {
						always = no
					}

					allowed_civil_war = {
						always = no
					}

					cancel = {
						MST = {
							exists = no
						}
					}

					removal_cost = -1

					modifier = {
						army_speed_factor = 0.1
						army_org_factor = 0.1
					}

					targeted_modifier = {
						tag = MST
						attack_bonus_against = 0.2
						defense_bonus_against = 0.2
					}
				}

		GGR_ostland_partisans = {
			on_add = {log = "[GetDateText]: [Root.GetName]: add idea GGR_ostland_partisans"}

			picture = GER_Ostland_Partisans

			allowed = {
				always = no
			}

			allowed_civil_war = {
				always = no
			}

			removal_cost = -1

			modifier = {
				consumer_goods_factor = 0.05
				industrial_capacity_factory = -0.1
			}
		}

			GGR_ostland_partisans2 = {
				on_add = {log = "[GetDateText]: [Root.GetName]: add idea GGR_ostland_partisans2"}

				picture = GER_Ostland_Partisans

				allowed = {
					always = no
				}

				allowed_civil_war = {
					always = no
				}

				removal_cost = -1

				modifier = {
					consumer_goods_factor = 0.02
					industrial_capacity_factory = -0.05
				}
			}

		GGR_eastern_nightmare = {
			on_add = {log = "[GetDateText]: [Root.GetName]: add idea GGR_eastern_nightmare"}

			picture = GER_Operation_Ostwind

			allowed = {
				always = no
			}

			allowed_civil_war = {
				always = no
			}

			removal_cost = 1

			cancel = {
				UPO = {
					exists = no
				}
			}

			targeted_modifier = {
				tag = UPO
				attack_bonus_against = 0.2
				defense_bonus_against = 0.2
			}
		}

		GGR_rebuilt_ostland = {
			on_add = {log = "[GetDateText]: [Root.GetName]: add idea GGR_rebuilt_ostland"}

			picture = OST_model_colony

			allowed = {
				always = no
			}

			allowed_civil_war = {
				always = no
			}

			removal_cost = -1

			modifier = {
				industry_repair_factor = 0.5
				production_speed_buildings_factor = 0.2
			}
		}

		GGR_pure_ostland = {
			on_add = {log = "[GetDateText]: [Root.GetName]: add idea GGR_pure_ostland"}

			picture = OST_OLD_the_model_colony

			allowed = {
				always = no
			}

			allowed_civil_war = {
				always = no
			}

			removal_cost = -1

			modifier = {
				political_power_cost = 0.3
				consumer_goods_factor = 0.05
			}
		}

		GGR_restoring_order = {
			on_add = {log = "[GetDateText]: [Root.GetName]: add idea GGR_restoring_order"}

			picture = GER_Operation_Ostwind

			allowed = {
				always = no
			}

			allowed_civil_war = {
				always = no
			}

			cancel = { Pakt_OST_OCW_Stahlecker_Victory = yes }
			removal_cost = -1
			modifier = {
				army_speed_factor = 0.15
				land_reinforce_rate = 0.02
			}
		}

		GGR_restoring_order2 = {
			on_add = {log = "[GetDateText]: [Root.GetName]: add idea GGR_restoring_order2"}

			picture = GER_Operation_Ostwind

			allowed = {
				always = no
			}

			allowed_civil_war = {
				always = no
			}

			cancel = { Pakt_OST_OCW_Stahlecker_Victory = yes }
			removal_cost = -1
			modifier = {
				army_speed_factor = 0.15
				land_reinforce_rate = 0.02
				air_strategic_bomber_bombing_factor = 0.3
				army_bonus_air_superiority_factor = 0.1
			}
		}

		GGR_exploit_the_madness = {
			on_add = {log = "[GetDateText]: [Root.GetName]: add idea GGR_exploit_the_madness"}

			picture = DST_OST_focus

			allowed = {
				always = no
			}

			allowed_civil_war = {
				always = no
			}
			removal_cost = -1

			modifier = {
				army_org_factor = -0.1
				army_defence_factor = -0.2
			}
		}

		GGR_occupying_moskowien = {
			on_add = {log = "[GetDateText]: [Root.GetName]: add idea GGR_occupying_moskowien"}

			picture = IRK_ministry_strengthened

			allowed = {
				always = no
			}

			allowed_civil_war = {
				always = no
			}
			removal_cost = -1

			modifier = {
				political_power_cost = 0.2
				consumer_goods_factor = 0.1
				war_support_factor = -0.2
				stability_factor = -0.1
			}
		}

		GGR_occupying_moskowien2 = {
			on_add = {log = "[GetDateText]: [Root.GetName]: add idea GGR_occupying_moskowien2"}

			picture = IRK_ministry_strengthened

			allowed = {
				always = no
			}

			allowed_civil_war = {
				always = no
			}
			removal_cost = -1

			modifier = {
				political_power_cost = 0.2
				consumer_goods_factor = 0.1
				stability_factor = -0.1
			}
		}

		GGR_bailing_drechsler = {
			on_add = {log = "[GetDateText]: [Root.GetName]: add idea GGR_bailing_drechsler"}

			picture = BLR_For_Ostland

			allowed = {
				always = no
			}

			allowed_civil_war = {
				always = no
			}
			removal_cost = -1

			modifier = {
				political_power_cost = 0.1
				consumer_goods_factor = 0.1
				war_support_factor = -0.1
				weekly_manpower = -1000
			}
		}

		GGR_attacking_donitz = {
			on_add = {log = "[GetDateText]: [Root.GetName]: add idea GGR_attacking_donitz"}

			picture = FRA_scw_intervention_republicans_focus

			allowed = {
				always = no
			}
			cancel = {
				NOT = {
					country_exists = CRI
				}
			}

			allowed_civil_war = {
				always = no
			}
			removal_cost = -1

			targeted_modifier = {
				tag = CRI
				attack_bonus_against = 0.25
			}
		}

		GGR_attacking_donitz2 = {
			on_add = {log = "[GetDateText]: [Root.GetName]: add idea GGR_attacking_donitz2"}

			picture = FRA_scw_intervention_republicans_focus

			allowed = {
				always = no
			}
			cancel = {
				NOT = {
					country_exists = CRI
				}
			}

			allowed_civil_war = {
				always = no
			}
			removal_cost = -1

			modifier = {
				army_speed_factor = 0.1
			}
			targeted_modifier = {
				tag = CRI
				attack_bonus_against = 0.25
			}
		}

		GGR_attacking_donitz3 = {
			on_add = {log = "[GetDateText]: [Root.GetName]: add idea GGR_attacking_donitz3"}

			picture = FRA_scw_intervention_republicans_focus

			allowed = {
				always = no
			}
			cancel = {
				NOT = {
					country_exists = CRI
				}
			}

			allowed_civil_war = {
				always = no
			}
			removal_cost = -1

			modifier = {
				army_speed_factor = 0.1
				max_planning = 0.5
			}
			targeted_modifier = {
				tag = CRI
				attack_bonus_against = 0.25
			}
		}

		GGR_attacking_donitz4 = {
			on_add = {log = "[GetDateText]: [Root.GetName]: add idea GGR_attacking_donitz4"}

			picture = FRA_scw_intervention_republicans_focus

			allowed = {
				always = no
			}
			cancel = {
				NOT = {
					country_exists = CRI
				}
			}

			allowed_civil_war = {
				always = no
			}
			removal_cost = -1

			modifier = {
				air_paradrop_attack_factor = 0.3
			}
			targeted_modifier = {
				tag = CRI
				attack_bonus_against = 0.25
			}
		}

		GGR_attacking_donitz5 = {
			on_add = {log = "[GetDateText]: [Root.GetName]: add idea GGR_attacking_donitz5"}

			picture = FRA_scw_intervention_republicans_focus

			allowed = {
				always = no
			}
			cancel = {
				NOT = {
					country_exists = CRI
				}
			}

			allowed_civil_war = {
				always = no
			}
			removal_cost = -1

			modifier = {
				army_bonus_air_superiority_factor = 0.15
				air_paradrop_attack_factor = 0.3
			}
			targeted_modifier = {
				tag = CRI
				attack_bonus_against = 0.25
			}
		}

		GGR_SL2_mills = {
			on_add = {log = "[GetDateText]: [Root.GetName]: add idea GGR_Production_pipeline"}

			picture = IRK_forced_labor

			allowed = {
				always = no
			}

			allowed_civil_war = {
				always = yes
			}

			removal_cost = -1

			modifier = {
				industrial_capacity_factory = 0.15
				consumer_goods_factor = -0.05
				stability_factor = -0.05
			}
		}

		GGR_go_fetch = {
			on_add = { log = "[GetDateText]: [Root.GetName]: add idea GGR_go_fetch"}

			picture = SER_Serbian_Collaborators

			allowed = {
				always = no
			}
			allowed_civil_war = {
				always = no
			}
			removal_cost = -1

			modifier = {
				army_org_factor = 0.15
				army_speed_factor = 0.15
				army_attack_factor = 0.1
				army_defence_factor = -0.3
			}
		}

		GGR_tighten_the_leash = {
			on_add = { log = "[GetDateText]: [Root.GetName]: add idea GGR_tighten_the_leash"}

			picture = SER_Reichsfestung_Belgrad

			allowed = {
				always = no
			}
			allowed_civil_war = {
				always = no
			}
			removal_cost = -1

			modifier = {
				cic_to_target_factor = 0.5
				mic_to_target_factor = 0.5
			}
		}

		GGR_swiss_resistance = {
			on_add = { log = "[GetDateText]: [Root.GetName]: add idea GGR_swiss_resistance"}

			picture = MST_Social_Rights_3

			allowed = {
				always = no
			}
			allowed_civil_war = {
				always = no
			}
			removal_cost = -1

			modifier = {
				political_power_cost = 0.25
				stability_weekly = -0.01
				war_support_factor = -0.02
				weekly_manpower = -600
			}
		}

		GGR_swiss_resistance2 = {
			on_add = { log = "[GetDateText]: [Root.GetName]: add idea GGR_swiss_resistance2"}

			picture = MST_Social_Rights_2

			allowed = {
				always = no
			}
			allowed_civil_war = {
				always = no
			}
			removal_cost = -1

			modifier = {
				political_power_cost = 0.1
				stability_weekly = -0.01
				war_support_factor = -0.01
				weekly_manpower = -600
			}
		}

		GGR_swiss_resistance3 = {
			on_add = { log = "[GetDateText]: [Root.GetName]: add idea GGR_swiss_resistance3"}

			picture = MST_Social_Rights_1

			allowed = {
				always = no
			}
			allowed_civil_war = {
				always = no
			}
			removal_cost = -1

			modifier = {
				political_power_cost = 0.1
				stability_weekly = -0.01
				war_support_factor = -0.01
				weekly_manpower = -100
			}
		}

		GGR_emergency_invasion = {
			on_add = { log = "[GetDateText]: [Root.GetName]: add idea GGR_emergency_invasion"}

			picture = GER_intensified_german_bombing

			allowed = {
				always = no
			}
			allowed_civil_war = {
				always = no
			}
			removal_cost = -1

			modifier = {
				army_attack_factor = 0.15
				army_org_factor = 0.2
				planning_speed = -0.3
				max_planning = -0.3
			}
		}

		GGR_change_of_plans = {
			on_add = { log = "[GetDateText]: [Root.GetName]: add idea GGR_change_of_plans"}

			picture = IBR_Disorderly_Federal_Army

			allowed = {
				always = no
			}
			allowed_civil_war = {
				always = no
			}
			removal_cost = -1

			modifier = {
				army_attack_factor = -0.15
				army_org_factor = -0.25
				planning_speed = -0.5
				max_planning = -0.3
			}
		}

		GGR_a_carefully_planned_invasion = {
			on_add = { log = "[GetDateText]: [Root.GetName]: add idea GGR_a_carefully_planned_invasion"}

			picture = MAD_german_garrisons_5

			allowed = {
				always = no
			}
			allowed_civil_war = {
				always = no
			}
			removal_cost = -1

			modifier = {
				max_planning = 0.4
				planning_speed = 0.1
				army_speed_factor = 0.15
			}
		}

		GGR_return_to_normalcy = {
			on_add = { log = "[GetDateText]: [Root.GetName]: add idea GGR_return_to_normalcy"}

			picture = economic_control_icon

			allowed = {
				always = no
			}
			allowed_civil_war = {
				always = no
			}
			removal_cost = -1

			modifier = {
				stability_weekly = 0.001
				production_factory_efficiency_gain_factor = 0.03
			}
		}

		GGR_the_breadbasket_reclaimed = {
			on_add = { log = "[GetDateText]: [Root.GetName]: add idea GGR_the_breadbasket_reclaimed"}

			picture = MST_Land_Rights_3

			allowed = {
				always = no
			}
			allowed_civil_war = {
				always = no
			}
			removal_cost = -1

			modifier = {
				MONTHLY_POPULATION = 0.15
				consumer_goods_factor = -0.1
			}
		}

		GGR_back_to_the_drawing_room= {
			on_add = { log = "[GetDateText]: [Root.GetName]: add idea GGR_back_to_the_drawing_room"}

			picture = GER_german_advisors

			allowed = {
				always = no
			}
			allowed_civil_war = {
				always = no
			}
			removal_cost = -1

			modifier = {
				max_planning = 0.15
			}
		}
		GGR_back_to_the_drawing_room2= {
			on_add = { log = "[GetDateText]: [Root.GetName]: add idea GGR_back_to_the_drawing_room2"}

			picture = GER_german_advisors

			allowed = {
				always = no
			}
			allowed_civil_war = {
				always = no
			}
			removal_cost = -1

			modifier = {
				max_planning = 0.3
			}
		}
		GGR_military_garbage_chute = {
			on_add = { log = "[GetDateText]: [Root.GetName]: add idea GGR_military_garbage_chute"}

			picture = GER_African_Evacuation

			allowed = {
				always = no
			}
			allowed_civil_war = {
				always = no
			}
			removal_cost = -1

			modifier = {
				research_speed_factor = -0.4
				army_org_factor = 0.1
			}
			equipment_bonus = {
				infantry_equipment = {
					build_cost_ic = -0.2 instant = yes
					reliability_factor = -0.1 instant = yes
				}
				motorized_equipment = {
					build_cost_ic = -0.2 instant = yes
					reliability_factor = -0.1 instant = yes
				}
				mechanized_equipment = {
					build_cost_ic = -0.2 instant = yes
					reliability_factor = -0.1 instant = yes
				}
			}
		}
		GGR_attack_dogs = {
			on_add = { log = "[GetDateText]: [Root.GetName]: add idea GGR_attack_dogs"}

			picture = Anti_Zombie_Weaponry

			allowed = {
				always = no
			}
			allowed_civil_war = {
				always = no
			}
			removal_cost = -1

			modifier = {
				army_org_factor = 0.1
				army_attack_factor = 0.1
				army_defence_factor = -0.1
			}
		}
		GGR_operation_hansa_encryption = {
			on_add = { log = "[GetDateText]: [Root.GetName]: add idea GGR_operation_hansa_encryption"}

			picture = generic_solid_navy_naval_force

			allowed = {
				always = no
			}
			allowed_civil_war = {
				always = no
			}
			removal_cost = -1
			cancel = {
				OR = {
					SWE = {
						exists = no
						is_puppet_of = GER
					}
				}
			}

			modifier = {
				encryption_factor = 0.25
			}
		}
		GGR_operation_hansa_marines_prepared = {
			on_add = { log = "[GetDateText]: [Root.GetName]: add idea "}

			picture = generic_solid_navy_naval_force

			allowed = {
				always = no
			}
			allowed_civil_war = {
				always = no
			}
			removal_cost = -1

			modifier = {
				special_forces_attack_factor = 0.1
				special_forces_defence_factor = 0.1
				invasion_preparation = -0.2
			}
		}
		GGR_panzer_charges = {
			on_add = { log = "[GetDateText]: [Root.GetName]: add idea GGR_panzer_charges"}

			picture = RUS_gorki_tank_factory

			allowed = {
				always = no
			}
			allowed_civil_war = {
				always = no
			}
			removal_cost = -1
			cancel = {
				OR = {
					SWE = {
						exists = no
						is_puppet_of = GER
					}
				}
			}

			modifier = {
				army_org_factor = -0.05
				army_attack_factor = -0.05
			}
		}
		GGR_confused_officers = {
			on_add = { log = "[GetDateText]: [Root.GetName]: add idea GGR_confused_officers"}

			picture = IBR_Disorderly_Federal_Army

			allowed = {
				always = no
			}
			allowed_civil_war = {
				always = no
			}
			removal_cost = -1
			cancel = {
				OR = {
					SWE = {
						exists = no
						is_puppet_of = GER
					}
				}
			}

			modifier = {
				land_reinforce_rate = -0.04
			}
		}
		GGR_confused_officers2 = {
			on_add = { log = "[GetDateText]: [Root.GetName]: add idea GGR_confused_officers2"}

			picture = IBR_Disorderly_Federal_Army

			allowed = {
				always = no
			}
			allowed_civil_war = {
				always = no
			}
			cancel = {
				OR = {
					SWE = {
						exists = no
						is_puppet_of = GER
					}
				}
			}
			removal_cost = -1

			modifier = {
				land_reinforce_rate = -0.04
				army_speed_factor = 0.07
			}
		}
		GGR_northern_slave_mines = {
			on_add = { log = "[GetDateText]: [Root.GetName]: add idea "}

			picture = IRK_forced_labor

			allowed = {
				always = no
			}
			allowed_civil_war = {
				always = no
			}
			removal_cost = -1

			modifier = {
				local_resources_factor = 0.12
				consumer_goods_factor = 0.05
				stability_weekly = -0.005
			}
		}
		GGR_HOL_revealed_plans = {
			on_add = { log = "[GetDateText]: [Root.GetName]: add idea GGR_attack_dogs"}

			picture = BRT_bezen_perrot_terror

			allowed = {
				always = no
			}
			allowed_civil_war = {
				always = no
			}
			removal_cost = -1

			modifier = {
				army_org_factor = 0.1
				army_attack_factor = 0.25
				army_defence_factor = 0.25
			}
		}

		GGR_blocker_batallions = {
			on_add = { log = "[GetDateText]: [Root.GetName]: add idea GGR_blocker_batallions"}

			picture = CAU_native_auxillary

			allowed = {
				always = no
			}
			allowed_civil_war = {
				always = no
			}
			cancel = {
				FIN = {
					OR = {
						exists = no
						is_in_faction_with = GER
					}
				}
			}
			removal_cost = -1

			modifier = {
				army_org = 8
				army_morale_factor = -0.25
			}
		}

		GGR_operation_nordlicht = {
			on_add = { log = "[GetDateText]: [Root.GetName]: add idea "}

			picture = NOR_the_overstayed_occupation

			allowed = {
				always = no
			}
			allowed_civil_war = {
				always = no
			}
			removal_cost = -1

			modifier = {
				navy_max_range_factor = 0.15
			}
		}
		GGR_reestablishing_the_party = {
			on_add = { log = "[GetDateText]: [Root.GetName]: add idea "}

			picture = generic_german_rifle_army

			allowed = {
				always = no
			}
			allowed_civil_war = {
				always = no
			}
			removal_cost = -1

			modifier = {
				weekly_manpower = 400
				stability_weekly = 0.004
				war_support_weekly = 0.004
			}
		}
		GGR_no_brakes = {
			on_add = { log = "[GetDateText]: [Root.GetName]: add idea GGR_no_brakes"}

			picture = GER_unknown

			allowed = {
				always = no
			}
			allowed_civil_war = {
				always = no
			}
			cancel = {
				BUL = {
					OR = {
						exists = no
						is_puppet_of = GER
					}
				}
			}
			removal_cost = -1

			modifier = {
				planning_speed = 0.3
			}
		}
		GGR_anti_goering_1 = {
			on_add = { log = "[GetDateText]: [Root.GetName]: add idea GGR_no_brakes"}

			picture = GER_unknown

			allowed = {
				always = no
			}
			allowed_civil_war = {
				always = no
			}
			cancel = {
				GER = { exists = no }
			}
			removal_cost = -1

			modifier = {
				army_core_attack_factor = 0.1
				army_core_defence_factor = 0.1
				conscription_factor = 0.05
			}
		}
		GGR_anti_goering_2 = {
			on_add = { log = "[GetDateText]: [Root.GetName]: add idea GGR_no_brakes"}

			picture = GER_unknown

			allowed = {
				always = no
			}
			allowed_civil_war = {
				always = no
			}
			cancel = {
				GER = { exists = no }
			}
			removal_cost = -1

			modifier = {
				army_core_attack_factor = 0.2
				army_core_defence_factor = 0.2
				conscription_factor = 0.1
			}
		}
		GGR_anti_goering_3 = {
			on_add = { log = "[GetDateText]: [Root.GetName]: add idea GGR_no_brakes"}

			picture = GER_unknown

			allowed = {
				always = no
			}
			allowed_civil_war = {
				always = no
			}
			cancel = {
				GER = { exists = no }
			}
			removal_cost = -1

			modifier = {
				army_core_attack_factor = 0.3
				army_core_defence_factor = 0.3
				conscription_factor = 0.15
			}
		}
		GGR_anti_goering_4 = {
			on_add = { log = "[GetDateText]: [Root.GetName]: add idea GGR_no_brakes"}

			picture = GER_unknown

			allowed = {
				always = no
			}
			allowed_civil_war = {
				always = no
			}
			cancel = {
				GER = { exists = no }
			}
			removal_cost = -1

			modifier = {
				army_core_attack_factor = 0.4
				army_core_defence_factor = 0.4
				conscription_factor = 0.20
			}
		}
		GGR_anti_goering_5 = {
			on_add = { log = "[GetDateText]: [Root.GetName]: add idea GGR_no_brakes"}

			picture = GER_unknown

			allowed = {
				always = no
			}
			allowed_civil_war = {
				always = no
			}
			cancel = {
				GER = { exists = no }
			}
			removal_cost = -1

			modifier = {
				army_core_attack_factor = 0.5
				army_core_defence_factor = 0.5
				conscription_factor = 0.25
			}
		}
		GGR_Gun_in_every_hand = {
			on_add = { log = "[GetDateText]: [Root.GetName]: add idea GGR_military_garbage_chute"}

			picture = generic_Preparing_The_Army

			allowed = {
				always = no
			}
			allowed_civil_war = {
				always = no
			}
			removal_cost = -1

			equipment_bonus = {
				infantry_equipment = {
					build_cost_ic = -0.25 instant = yes
				}
			}
		}
		GGR_Armour_every_grenadier = {
			on_add = { log = "[GetDateText]: [Root.GetName]: add idea GGR_military_garbage_chute"}

			picture = generic_truck_mobile_forces

			allowed = {
				always = no
			}
			allowed_civil_war = {
				always = no
			}
			removal_cost = -1

			equipment_bonus = {
				MBT_equipment = {
					build_cost_ic = -0.25 instant = yes
				}
			}
		}
		GGR_reluctant_soldiers = {
			on_add = { log = "[GetDateText]: [Root.GetName]: add idea GGR_reluctant_soldiers"}

			picture = GER_the_lost_generation

			allowed = {
				always = no
			}
			allowed_civil_war = {
				always = no
			}
			cancel = {
				has_war = no
			}
			removal_cost = -1

			targeted_modifier = {
				tag = VLG
				attack_bonus_against = -0.2
				defense_bonus_against = -0.2
			}
			targeted_modifier = {
				tag = PET
				attack_bonus_against = -0.2
				defense_bonus_against = -0.2
			}
			modifier = {
				army_org = -8
			}
		}
		GGR_reluctant_soldiers2 = {
			on_add = { log = "[GetDateText]: [Root.GetName]: add idea GGR_reluctant_soldiers2"}

			picture = GER_the_lost_generation

			allowed = {
				always = no
			}
			allowed_civil_war = {
				always = no
			}
			removal_cost = -1

			targeted_modifier = {
				tag = VLG
				attack_bonus_against = -0.1
				defense_bonus_against = -0.1
			}
			targeted_modifier = {
				tag = PET
				attack_bonus_against = -0.1
				defense_bonus_against = -0.1
			}
			modifier = {
				army_org = -8
			}
		}
		GGR_reluctant_soldiers3 = {
			on_add = { log = "[GetDateText]: [Root.GetName]: add idea GGR_reluctant_soldiers3"}

			picture = GER_the_lost_generation

			allowed = {
				always = no
			}
			allowed_civil_war = {
				always = no
			}
			removal_cost = -1

			targeted_modifier = {
				tag = VLG
				attack_bonus_against = -0.1
				defense_bonus_against = -0.1
			}
			targeted_modifier = {
				tag = PET
				attack_bonus_against = -0.1
				defense_bonus_against = -0.1
			}
			modifier = {
				weekly_manpower = -600
			}
		}
		GGR_against_the_german_giant = {
			on_add = { log = "[GetDateText]: [Root.GetName]: add idea "}

			picture = TOB_Fortified_Houses

			allowed = {
				always = no
			}
			allowed_civil_war = {
				always = no
			}
			removal_cost = -1

			modifier = {
				army_core_attack_factor = 0.1
				army_core_defence_factor = 0.1
				surrender_limit = 0.15
			}
		}
		
		GGR_against_the_german_giant_hard = {
			on_add = { log = "[GetDateText]: [Root.GetName]: add idea "}

			picture = TOB_Fortified_Houses

			allowed = {
				always = no
			}
			allowed_civil_war = {
				always = no
			}
			cancel = {
				is_in_faction_with = GER
			}
			removal_cost = -1

			modifier = {
				# fightyness
				dig_in_speed_factor = 0.25
				planning_speed = 0.25
				supply_consumption_factor = -0.25
				army_morale_factor = 0.15
				land_reinforce_rate = 0.02
			
				# defensivness
				army_core_attack_factor = 0.15
				army_core_defence_factor = 0.15
				surrender_limit = 0.25
			
				attrition = -0.075
			
				# production/research
				production_factory_max_efficiency_factor = 0.15
				production_factory_efficiency_gain_factor = 0.25
				industrial_capacity_dockyard = 0.2
				political_power_factor = 0.25
				research_speed_factor = 0.1
				production_lack_of_resource_penalty_factor = -0.3
			
				# xp gain
				army_fuel_consumption_factor = -0.40
				air_fuel_consumption_factor = -0.40
				navy_fuel_consumption_factor = -0.40
				experience_gain_air_factor = 0.25
				experience_gain_army_factor = 0.25
				experience_gain_navy_factor = 0.25
				experience_gain_army_unit_factor = 0.10
				experience_gain_navy_unit_factor = 0.10
			}
		}
		
		GGR_strengthening_the_garrison = {
			on_add = { log = "[GetDateText]: [Root.GetName]: add idea GGR_strengthening_the_garrison"}

			picture = BAS_army_good

			allowed = {
				always = no
			}
			allowed_civil_war = {
				always = no
			}
			cancel = {
				GGR_russia_conquered = yes
			}
			removal_cost = -1

			modifier = {
				war_support_factor = 0.15
				supply_consumption_factor = -0.2
			}
		}
		GGR_strengthening_the_garrison2 = {
			on_add = { log = "[GetDateText]: [Root.GetName]: add idea GGR_strengthening_the_garrison2"}

			picture = BAS_army_good

			allowed = {
				always = no
			}
			allowed_civil_war = {
				always = no
			}
			cancel = {
				GGR_russia_conquered = yes
			}
			removal_cost = -1

			modifier = {
				war_support_factor = 0.15
				supply_consumption_factor = -0.2
				weekly_manpower = 800
			}
		}
		GGR_into_russia = {
			on_add = { log = "[GetDateText]: [Root.GetName]: add idea GGR_into_russia"}

			picture = GER_unknown

			allowed = {
				always = no
			}
			allowed_civil_war = {
				always = no
			}
			removal_cost = -1

			targeted_modifier = {
				tag = VTY
				attack_bonus_against = 0.1
				defense_bonus_against = 0.12
			}
		}
		GGR_renewed_terror_bombing = {
			picture = WOL_terror_bombing
			on_add = {log = "[GetDateText]: [Root.GetName]: add idea GGR_renewed_terror_bombing"}
			allowed = {
				always = no
			}
			allowed_civil_war = {
				always = yes
			}
			cancel = {
				has_war_with = GER
			}
			removal_cost = -1
			modifier = {
			    production_speed_buildings_factor = -0.4
				production_factory_max_efficiency_factor = -0.20
				production_factory_efficiency_gain_factor = -0.15
				consumer_goods_factor = 0.15
				industry_free_repair_factor = -0.5
				experience_gain_air = 0.1
			}
		}
		GGR_renewed_terror_bombing2 = {
			picture = WOL_terror_bombing
			on_add = {log = "[GetDateText]: [Root.GetName]: add idea GGR_renewed_terror_bombing2"}
			allowed = {
				always = no
			}
			allowed_civil_war = {
				always = yes
			}
			cancel = {
				has_war_with = GER
			}
			removal_cost = -1
			modifier = {
			    production_speed_buildings_factor = -0.2
				production_factory_max_efficiency_factor = -0.1
				production_factory_efficiency_gain_factor = -0.1
				consumer_goods_factor = 0.1
				industry_free_repair_factor = -0.25
				experience_gain_air = 0.1
			}
		}
		GGR_renewed_terror_bombing3 = {
			on_add = {log = "[GetDateText]: [Root.GetName]: add idea GGR_renewed_terror_bombing3"}
			allowed = {
				always = no
			}
			allowed_civil_war = {
				always = yes
			}
			cancel = {
				has_war_with = GER
			}
			removal_cost = -1
			picture = RUS_terror_bombing
			modifier = {
			    production_speed_buildings_factor = -0.1
				consumer_goods_factor = 0.1
				industry_free_repair_factor = -0.05
				experience_gain_air = 0.1
			}
		}
		GGR_hindered_war_effort = {
			on_add = { log = "[GetDateText]: [Root.GetName]: add idea GGR_hindered_war_effort"}

			picture = tightened_union_requirements

			allowed = {
				always = no
			}
			allowed_civil_war = {
				always = no
			}
			removal_cost = -1

			modifier = {
				war_support_factor = -0.35
				stability_factor = -0.35
			}
		}
		GGR_total_collapse = {
			on_add = { log = "[GetDateText]: [Root.GetName]: add idea GGR_hindered_war_effort"}

			picture = GER_evacuating_loyalists

			allowed = {
				always = no
			}
			allowed_civil_war = {
				always = no
			}
			removal_cost = -1

			modifier = {
				war_support_factor = -0.5
				stability_factor = -0.5
				army_org_factor = -0.9
			}
		}
		GGR_weak_people = {
			on_add = { log = "[GetDateText]: [Root.GetName]: add idea GGR_weak_people"}

			picture = GER_the_lost_generation

			allowed = {
				always = no
			}
			allowed_civil_war = {
				always = no
			}
			cancel = {
				has_global_flag = RUS_all_russian_congress
			}
			removal_cost = -1

			modifier = {
				war_support_weekly = -0.01
				stability_weekly = -0.01
				weekly_manpower = -800
			}
		}
		GGR_integrating_new_lands = {
			on_add = { log = "[GetDateText]: [Root.GetName]: add idea GGR_integrating_new_lands"}

			picture = generic_occupation_intense

			allowed = {
				always = no
			}
			allowed_civil_war = {
				always = no
			}
			removal_cost = -1

			modifier = {
				army_org_factor = -0.25
				max_planning = -0.3
				planning_speed = -0.3
			}
		}
		GGR_finishing_western_russia = {
			on_add = { log = "[GetDateText]: [Root.GetName]: add idea GGR_finishing_western_russia"}

			picture = generic_Anti_Partisan_Tactics

			allowed = {
				always = no
			}
			allowed_civil_war = {
				always = no
			}
			removal_cost = -1

			targeted_modifier = {
				tag = WRS
				attack_bonus_against = 0.12
			}
		}
		GGR_finishing_western_russia2 = {
			on_add = { log = "[GetDateText]: [Root.GetName]: add idea GGR_finishing_western_russia2"}

			picture = generic_Anti_Partisan_Tactics

			allowed = {
				always = no
			}
			allowed_civil_war = {
				always = no
			}
			removal_cost = -1

			modifier = {
				army_speed_factor = 0.1
			}
		}
		GGR_total_chaos = {
			on_add = { log = "[GetDateText]: [Root.GetName]: add idea GGR_total_chaos"}

			picture = GER_evacuating_loyalists

			allowed = {
				always = no
			}
			allowed_civil_war = {
				always = no
			}
			removal_cost = -1

			modifier = {
				decryption_factor = -0.15
				encryption_factor = -0.15
				army_defence_factor = -0.1
			}
		}
		GGR_total_chaos2= {
			on_add = { log = "[GetDateText]: [Root.GetName]: add idea GGR_total_chaos2"}

			picture = GER_evacuating_loyalists

			allowed = {
				always = no
			}
			allowed_civil_war = {
				always = no
			}
			removal_cost = -1

			modifier = {
				decryption_factor = -0.15
				encryption_factor = -0.15
				army_defence_factor = -0.1
				army_speed_factor = -0.15
			}
		}
		GGR_unmet_production_quotas = {
			on_add = { log = "[GetDateText]: [Root.GetName]: add idea "}

			picture = PRM_Forced_Labor

			allowed = {
				always = no
			}
			allowed_civil_war = {
				always = no
			}
			removal_cost = -1

			modifier = {
				army_org_factor = -0.2
				army_attack_factor = -0.15
				attrition = 0.2
			}
		}
		GGR_last_legs= {
			on_add = { log = "[GetDateText]: [Root.GetName]: add idea GGR_last_legs"}

			picture = generic_negative_public_relation

			allowed = {
				always = no
			}
			allowed_civil_war = {
				always = no
			}
			removal_cost = -1

			modifier = {
				army_speed_factor = 0.2
				army_org_factor = 0.2
				army_attack_factor = 0.12
				army_defence_factor = -0.2
				stability_factor = -0.3
				stability_weekly = -0.005
			}
		}

		GGR_total_economic_collapse = {
			on_add = { log = "[GetDateText]: [Root.GetName]: add idea "}

			picture = generic_economic_meltdown

			allowed = {
				always = no
			}
			allowed_civil_war = {
				always = no
			}
			removal_cost = -1

			modifier = {
				stability_factor = -0.2
				stability_weekly = -0.01
				production_factory_max_efficiency_factor = -0.4
				production_speed_buildings_factor = -0.4
				production_factory_efficiency_gain_factor = -0.3
				consumer_goods_factor = 0.3
			}
		}
		GGR_an_easy_target_idea = {
			on_add = {log = "[GetDateText]: [Root.GetName]: add idea GGR_an_easy_target_idea"}

			picture = GGR_an_easy_target

			allowed = {
				always = no
				NOT = { has_country_flag = GGR_operation_moltke_done }
			}

			allowed_civil_war = {
				always = no
			}

			removal_cost = -1

			modifier = {
				army_org_factor = 0.1
				army_morale_factor = 0.1
			}
		}

		GGR_cut_them_off_from_the_outside_idea = {
			on_add = {log = "[GetDateText]: [Root.GetName]: add idea GGR_cut_them_off_from_the_outside_idea"}

			picture = GGR_cut_them_off_from_the_outside

			allowed = {
				always = no
				NOT = { has_country_flag = GGR_operation_moltke_done }
			}

			allowed_civil_war = {
				always = no
			}

			removal_cost = -1

			modifier = {
			convoy_raiding_efficiency_factor = 0.2
			}
		}

		GGR_the_heer_is_ready_idea = {
			on_add = {log = "[GetDateText]: [Root.GetName]: add idea GGR_the_heer_is_ready_idea"}

			picture = GGR_the_heer_is_ready

			allowed = {
				always = no
				NOT = { has_country_flag = GGR_operation_moltke_done }
			}

			allowed_civil_war = {
				always = no
			}

			removal_cost = -1

			modifier = {
				planning_speed = 0.10
			}
		}
		GGR_planning_the_invasion_idea = {
			on_add = {log = "[GetDateText]: [Root.GetName]: add idea GGR_planning_the_invasion_idea"}

			picture = GGR_planning_the_invasion

			allowed = {
				always = no
				NOT = { has_country_flag = GGR_black_state_done }
			}

			allowed_civil_war = {
				always = no
			}

			removal_cost = -1

			modifier = {
				planning_speed = 0.20
			}
		}		
		GGR_scoping_out_their_positions = {
			on_add = {log = "[GetDateText]: [Root.GetName]: add idea GGR_scoping_out_their_positions"}

			picture = GGR_scoping_out_their_positions

			allowed = {
				always = no
				NOT = { has_country_flag = GGR_black_state_done }
			}

			allowed_civil_war = {
				always = no
			}

			removal_cost = -1

			modifier = {
				decryption_factor = 0.1
			}
		}
		GGR_preparing_for_the_cold = {
			on_add = {log = "[GetDateText]: [Root.GetName]: add idea GGR_preparing_for_the_cold"}

			picture = TNO_winter_soldier

			allowed = {
				always = no
				NOT = { has_country_flag = GGR_black_state_done }
			}

			allowed_civil_war = {
				always = no
			}

			removal_cost = -1

			modifier = {
				acclimatization_cold_climate_gain_factor = 0.2
			}
		}
		GGR_race_to_the_oil_fields_idea = {
			on_add = {log = "[GetDateText]: [Root.GetName]: add idea GGR_race_to_the_oil_fields_idea"}

			picture = GGR_race_to_the_oil_fields

			allowed = {
				always = no
				NOT = { has_country_flag = GGR_black_state_done }
			}

			allowed_civil_war = {
				always = no
			}

			removal_cost = -1

			modifier = {
				army_speed_factor = 0.10
			}
		}		
		GGR_CAU_one_last_push_idea_idea = {
			on_add = {log = "[GetDateText]: [Root.GetName]: add idea GGR_CAU_one_last_push_idea"}

			picture = GGR_CAU_one_last_push_idea

			allowed = {
				always = no
				NOT = { has_country_flag = GGR_black_state_done }
			}

			allowed_civil_war = {
				always = no
			}

			removal_cost = -1

			modifier = {
				army_attack_factor = 0.20
			}
		}		
		GGR_stabilising_regime = {
			on_add = { log = "[GetDateText]: [Root.GetName]: add idea GGR_stabilising_regime"}

			picture = GFX_Pakt_Autonomous_Reichskommissariat

			allowed = {
				always = no
			}
			allowed_civil_war = {
				always = no
			}
			removal_cost = -1
			modifier = {
				conscription_factor = -0.l5
				war_support_weekly = 0.004
				stability_weekly = 0.002
			}
		}
		GGR_iberian_wars = {
			on_add = { log = "[GetDateText]: [Root.GetName]: add idea GGR_iberian_wars"}

			picture = IBR_civil_war

			allowed = {
				always = no
			}
			allowed_civil_war = {
				always = no
			}
			removal_cost = -1

			modifier = {
				#enemy_#partisan_effect = 0.3
				land_reinforce_rate = -0.05
				army_attack_factor = -0.2
				attrition = 0.3
				army_speed_factor = -0.2
				war_support_factor = -0.15
			}
		}

		GER_GOR_rally_the_kriegsmarine = {
			on_add = { log = "[GetDateText]: [Root.GetName]: add idea GER_GOR_rally_the_kriegsmarine"}

			picture = generic_solid_navy_naval_force

			allowed = {
				always = no
			}
			allowed_civil_war = {
				always = no
			}
			removal_cost = -1

			modifier = {
				ships_at_battle_start = 0.1
				naval_speed_factor = 0.05
			}
		}

		GGR_ente_und_deckel = {
			on_add = {log = "[GetDateText]: [Root.GetName]: add idea GGR_ente_und_decke"}
			picture = GER_german_bombing_runs

			allowed = {
				always = no
			}

			allowed_civil_war = {
				always = yes
			}

			removal_cost = -1

			modifier = {
				conscription_factor = 0.05
				industry_air_damage_factor = -0.1
			}
		}

		GGR_safeguard_volk = {
			on_add = {log = "[GetDateText]: [Root.GetName]: add idea GGR_safeguard_the_volk"}
			picture = BAS_fort

			allowed = {
				always = no
			}

			allowed_civil_war = {
				always = yes
			}

			removal_cost = -1

			modifier = {
				war_support_weekly = 0.01
				army_core_attack_factor = 0.1
				army_core_defence_factor = 0.1
			}
		}
		GGR_northern_unrest = {
			on_add = { log = "[GetDateText]: [Root.GetName]: add idea "}

			picture = POL_Sabotaged_Armor

			allowed = {
				always = no
			}
			allowed_civil_war = {
				always = no
			}
			removal_cost = -1

			modifier = {
				recon_factor = -0.1
				land_reinforce_rate = -0.08
			}
		}
		GGR_closed_dam = {
			on_add = { log = "[GetDateText]: [Root.GetName]: add idea GGR_closed_dam"}

			picture = gibraltar_dam

			allowed = {
				always = no
			}
			allowed_civil_war = {
				always = no
			}
			removal_cost = -1

			modifier = {
				consumer_goods_factor = 0.05
				stability_factor = -0.05
				trade_opinion_factor = -0.35
			}
		}

		
		
		GGR_a_reforged_kriegsmarine = {
			on_add = {log = "[GetDateText]: [Root.GetName]: add idea GGR_a_reforged_kriegsmarine" }
			picture = GER_european_fleet
			allowed = {
				always = no
			}

			allowed_civil_war = {
				always = no
			}

			removal_cost = -1

			research_bonus = {cv_tech = 0.1 bb_tech = -0.1}
		}	

		GGR_a_reforged_kriegsmarine2 = {
			on_add = {log = "[GetDateText]: [Root.GetName]: add idea GGR_a_reforged_kriegsmarine" }
			picture = GER_global_fleet
			allowed = {
				always = no
			}

			allowed_civil_war = {
				always = no
			}

			removal_cost = -1

			research_bonus = { cv_tech = 0.25 bb_tech = -0.25}
		}	  
		
		GGR_a_refurbished_kriegsmarine = {
			on_add = {log = "[GetDateText]: [Root.GetName]: add idea GGR_a_refurbished_kriegsmarine" }
			picture = GER_european_fleet
			allowed = {
				always = no
			}

			allowed_civil_war = {
				always = no
			}

			removal_cost = -1

			research_bonus = {cv_tech = -0.1 bb_tech = 0.1}
		}

		GGR_recycle_the_steel = {
			on_add = {log = "[GetDateText]: [Root.GetName]: add idea GGR_recycle_the_steel" }
			picture = generic_naval_trade_blockade

			allowed = {
				always = no
			}

			allowed_civil_war = {
				always = no
			}
			removal_cost = -1

			modifier = {
			refit_speed = 0.2
			
			}
		}

		GGR_atlantic_veterans = {
			on_add = {log = "[GetDateText]: [Root.GetName]: add idea GGR_atlantic_veterans" }
			picture = generic_solid_navy_naval_force

			allowed = {
				always = no
			}

			allowed_civil_war = {
				always = no
			}

			removal_cost = -1

			modifier = {
				experience_gain_navy_unit_factor = 0.1
			}
			
		}

		GGR_match_them = {
			on_add = {log = "[GetDateText]: [Root.GetName]: add idea GGR_match_them" }
			picture = GER_RfM_one

			allowed = {
				always = no
			}

			allowed_civil_war = {
				always = no
			}

			removal_cost = -1

			modifier = {
				production_speed_dockyard_factor = 0.1
			}
			
		}
	
		GGR_super_carriers = {
			on_add = {log = "[GetDateText]: [Root.GetName]: add idea GGR_super_carriers" }
			picture = generic_navy

			allowed = {
				always = no
			}

			allowed_civil_war = {
				always = no
			}

			removal_cost = -1

			modifier = {
				sortie_efficiency = 0.2
				navy_carrier_air_attack_factor = 0.05
				#carrier_size = 0.05 #doesn't work
				navy_carrier_air_targetting_factor = 0.05
			}
			
		}

		GGR_super_heavy_battleships = {
			on_add = {log = "[GetDateText]: [Root.GetName]: add idea GGR_super_heavy_battleships" }
			picture = generic_navy

			allowed = {
				always = no
			}

			allowed_civil_war = {
				always = no
			}

			removal_cost = -1

			modifier = {
				navy_capital_ship_attack_factor = 0.25
				
			}
			
		}

		GGR_their_battleships_are_our_cruisers = {
			on_add = {log = "[GetDateText]: [Root.GetName]: add idea GGR_their_battleships_are_our_cruisers" }
			picture = GER_safe_seas

			allowed = {
				always = no
			}

			allowed_civil_war = {
				always = no
			}

			removal_cost = -1

			modifier = {
				navy_max_range_factor = 0.1
				naval_hit_chance = 0.1
				navy_screen_defence_factor = 0.05
			}
			
		}
		GGR_german_leviathans = {
			on_add = {log = "[GetDateText]: [Root.GetName]: add idea GGR_their_battleships_are_our_cruisers" }
			picture = YOR_idea_benevolent_dictatorship

			allowed = {
				always = no
			}

			allowed_civil_war = {
				always = no
			}

			removal_cost = -1

			modifier = {
				ships_at_battle_start = 0.3
				navy_capital_ship_defence_factor = 0.05
				navy_screen_defence_factor = 0.05
			}
			
		}
		
		GGR_GCW2_famine = {
			on_add = { log = "[GetDateText]: [Root.GetName]: add idea GGR_GCW2_famine"}

			picture = ARL_spreading_famine

			allowed = {
				always = no
			}
			allowed_civil_war = {
				always = no
			}
			removal_cost = -1

			modifier = {
				stability_factor = -0.3
				war_support_factor = -0.15
				army_org_Factor = -0.25
				monthly_population = -2
				army_morale_factor = -0.2
				out_of_supply_factor = 0.2
				conscription_factor = -0.15
			}
		}
		
		GGR_GCW2_economic_collapse = {
			on_add = { log = "[GetDateText]: [Root.GetName]: add idea GGR_GCW2_economic_collapse"}

			picture = generic_economic_meltdown

			allowed = {
				always = no
			}
			allowed_civil_war = {
				always = no
			}
			removal_cost = -1

			modifier = {
				production_factory_max_efficiency_factor = -0.4
				production_speed_buildings_factor = -0.4
				production_factory_efficiency_gain_factor = -0.3
				consumer_goods_factor = 0.3
			}
		}
		
		GGR_GCW2 = {
			on_add = { log = "[GetDateText]: [Root.GetName]: add idea GGR_GCW2"}

			picture = GFX_GER_A_heavy_hand

			allowed = {
				always = no
			}
			allowed_civil_war = {
				always = no
			}
			removal_cost = -1

			modifier = {
				industrial_capacity_factory = 0.1
				air_close_air_support_attack_factor = 0.08
				planning_speed = -0.15
			}
		}
		RNW_GCW2 = {
			on_add = { log = "[GetDateText]: [Root.GetName]: add idea RNW_GCW2"}

			picture = GFX_GER_A_heavy_hand

			allowed = {
				always = no
			}
			allowed_civil_war = {
				always = no
			}
			removal_cost = -1

			modifier = {
				army_attack_factor = 0.15
				conscription_factor = 0.1
				experience_loss_factor = 0.3
			}
		}
		RNW_burning = {
			on_add = { log = "[GetDateText]: [Root.GetName]: add idea RNW_burning"}

			picture = GFX_GER_A_heavy_hand

			allowed = {
				always = no
			}
			allowed_civil_war = {
				always = no
			}
			removal_cost = -1

			modifier = {
				war_support_weekly = -0.01
				stability_weekly = -0.01
				weekly_manpower = -2000 
			}
		}	
		SGR_GCW2 = {
			on_add = { log = "[GetDateText]: [Root.GetName]: add idea SGR_GCW2"}

			picture = GFX_GER_A_heavy_hand

			allowed = {
				always = no
			}
			allowed_civil_war = {
				always = no
			}
			removal_cost = -1

			modifier = {
				war_support_weekly = 0.005
				stability_weekly =  0.005
				max_dig_in = 0.5
				army_attack_factor = -0.08
			}
		}
		GGR_GCW2_ukraine = {
			on_add = { log = "[GetDateText]: [Root.GetName]: add idea GGR_GCW2_ukraine"}

			picture = GFX_GER_A_heavy_hand

			allowed = {
				always = no
			}
			allowed_civil_war = {
				always = no
			}
			removal_cost = -1

			modifier = {
				industrial_capacity_factory = 0.1
				air_close_air_support_attack_factor = 0.08
				planning_speed = -0.15
				out_of_supply_factor = -0.1
				consumer_goods_factor = -0.05
			}
		}
		
		GGR_Germany_focus = {
			on_add = { log = "[GetDateText]: [Root.GetName]: add idea GGR_Germany_focus"}

			picture = GER_master_of_europe

			allowed = {
				always = no
			}
			allowed_civil_war = {
				always = no
			}
			removal_cost = -1

			targeted_modifier = {
				tag = RNW
				attack_bonus_against  = 0.1
			}
			targeted_modifier = {
				tag = SGR
				attack_bonus_against  = 0.1
			}
		}
		GGR_increased_partisan_activity = {
			on_add = { log = "[GetDateText]: [Root.GetName]: add idea GGR_increased_partisan_activity"}

			picture = SRT_Partisan_Alliance

			allowed = {
				always = no
			}
			allowed_civil_war = {
				always = no
			}
			removal_cost = -1

			modifier = {
				industrial_capacity_factory = -0.12
				surrender_limit = -0.1
				army_core_defence_factor = -0.08
			}
		}
		GGR_backs_against_the_wall = {
			on_add = { log = "[GetDateText]: [Root.GetName]: add idea GGR_backs_against_the_wall"}

			picture = GER_the_lost_generation

			allowed = {
				always = no
			}
			allowed_civil_war = {
				always = no
			}
			removal_cost = -1

			modifier = {
				army_core_attack_factor = 0.15
				army_core_defence_factor = 0.15
				surrender_limit = 0.33
			}
		}
		GGR_workers_rights = {
			on_add = { log = "[GetDateText]: [Root.GetName]: add idea GGR_workers_rights"}

			picture = BRY_wheels_of_labor

			allowed = {
				always = no
			}
			allowed_civil_war = {
				always = no
			}
			removal_cost = -1

			modifier = {
				political_power_gain = -0.1
				industrial_capacity_factory = -0.1
				war_support_factor = 0.12
			}
		}
		GGR_rk_alerted = {
			on_add = { log = "[GetDateText]: [Root.GetName]: add idea GGR_rk_alerted" }
			
			picture = GFX_GER_Rally_The_RKs
			
			allowed = {
				always = no
			}
			allowed_civil_war = {
				always = no
			}
			removal_cost = -1
			
			targeted_modifier = {
				tag = BRG
				attack_bonus_against = 0.1
				defense_bonus_against = 0.1
			}
			modifier = {
				army_org_factor = 0.08
				weekly_manpower = 5000
			}
		}
		GGR_rat_traps = {
			on_add = { log = "[GetDateText]: [Root.GetName]: add idea GGR_rat_traps" }
			
			picture = GFX_GGR_rat_traps
			
			allowed = {
				always = no
			}
			allowed_civil_war = {
				always = no
			}
			removal_cost = -1	

			modifier = {
				fortification_damage = 0.15
			}
		}
		GGR_rat_traps_2 = {
			on_add = { log = "[GetDateText]: [Root.GetName]: add idea GGR_rat_traps_2" }
			
			picture = GFX_GGR_rat_traps
			
			allowed = {
				always = no
			}
			allowed_civil_war = {
				always = no
			}
			removal_cost = -1	

			modifier = {
				fortification_damage = 0.30
			}
		}

	GGR_the_silent_war_1 = {
		on_add = { log = "[GetDateText]: [Root.GetName]: add idea GGR_the_silent_war" }

		picture = GER_the_silent_war

		allowed = {
			always = no
		}
		allowed_civil_war = {
			always = no
		}
		removal_cost = -1
	}

	GGR_the_silent_war_lost = {
		on_add = { log = "[GetDateText]: [Root.GetName]: add idea GGR_the_silent_war_lost" }
		picture = GER_the_silent_war
		allowed = {
			always = no
		}
		removal_cost = -1
		modifier = {
			decryption_factor = -0.40
			encryption_factor = -0.40
			resistance_damage_to_garrison = 0.15 
			foreign_subversive_activites = 0.15
			war_support_weekly = -0.05
			operative_slot = -1
			agency_upgrade_time = 0.15
		}
	}
	GGR_the_silent_war_won = {
		on_add = { log = "[GetDateText]: [Root.GetName]: add idea GGR_the_silent_war_won" }
		picture = GER_the_silent_war
		allowed = {
			always = no
		}
		removal_cost = -1
		modifier = {
			decryption_factor = 0.40
			encryption_factor = 0.40
			resistance_damage_to_garrison = -0.15 
			foreign_subversive_activites = -0.15
			war_support_weekly = 0.05
			operative_slot = 2
			agency_upgrade_time = -0.15
		}
	}
	GGR_the_silent_war_stalemate = {
		on_add = { log = "[GetDateText]: [Root.GetName]: add idea GGR_the_silent_war_stalemate" }
		picture = GER_the_silent_war
		allowed = {
			always = no
		}
		removal_cost = -1
		modifier = {
			decryption_factor = 0.10
			encryption_factor = 0.10
			resistance_damage_to_garrison = 0.05 
			foreign_subversive_activites = 0.05
			war_support_weekly = -0.05
			agency_upgrade_time = -0.10
		}
	}

	GGR_learn_their_secrets = {
		on_add = {log = "[GetDateText]: [Root.GetName]: add idea GGR_learn_their_secrets"}
		allowed = {
			always = no
		}
		picture = GFX_USA_Investigate_NPP_Corruption
		removal_cost = -1
		modifier = {
			decryption_factor = -0.20
		}
	}

	BRG_information_overload = {
		on_add = {log = "[GetDateText]: [Root.GetName]: add idea BRG_information_overload"}
		allowed = {
			always = no
		}
		picture = GFX_USA_Investigate_NPP_Corruption
		removal_cost = -1
		modifier = {
			war_support_factor = -0.02
			army_attack_factor = -0.04
			army_defence_factor = -0.04
		}
	}
	
	GGR_anti_japanese_fervor = {
		on_add = { log = "[GetDateText]: [Root.GetName]: add idea GGR_anti_japanese_fervor"}

		picture = GER_unknown

		allowed = {
			always = no
		}
		allowed_civil_war = {
			always = no
		}
		removal_cost = -1

		modifier = {
			army_org_factor = 0.1

		}
		targeted_modifier = {
			tag = JAP
			attack_bonus_against = 0.1
			defense_bonus_against = 0.1
		}
	}
	
	GGR_assistance_from_the_fatherland = {
		on_add = { log = "[GetDateText]: [Root.GetName]: add idea GGR_assistance_from_the_fatherland"}

		picture = PRM_Rebuilt_Industry

		allowed = {
			always = no
		}
		allowed_civil_war = {
			always = no
		}
		removal_cost = -1

		modifier = {
			compliance_gain = 0.2
			stability_factor = 0.1
		}
	}
	
	GGR_assistance_from_the_fatherland2 = {
		on_add = { log = "[GetDateText]: [Root.GetName]: add idea GGR_assistance_from_the_fatherland2"}

		picture = PRM_Rebuilt_Industry

		allowed = {
			always = no
		}
		allowed_civil_war = {
			always = no
		}
		removal_cost = -1

		modifier = {
			compliance_gain = 0.5
			stability_factor = 0.1
		}
	}

	GGR_emergency_supply_drive = {
		on_add = { log = "[GetDateText]: [Root.GetName]: add idea GGR_emergency_supply_drive"}

		picture = GER_unknown

		allowed = {
			always = no
		}
		allowed_civil_war = {
			always = no
		}
		removal_cost = -1

		modifier = {
			army_morale_factor = 10
		}
	}
	
	GGR_exhausted_supply_routes  = {
		on_add = { log = "[GetDateText]: [Root.GetName]: add idea GGR_exhausted_supply_routes"}

		picture = GER_unknown

		allowed = {
			always = no
		}
		allowed_civil_war = {
			always = no
		}
		removal_cost = -1

		modifier = {
			supply_consumption_factor = 0.2
			out_of_supply_factor = 0.2
		}
	}
	
	GGR_emergency_reparation = {
		on_add = { log = "[GetDateText]: [Root.GetName]: add idea GGR_emergency_reparation"}

		picture = GER_evacuating_loyalists

		allowed = {
			always = no
		}
		allowed_civil_war = {
			always = no
		}
		removal_cost = -1

		modifier = {
			industry_free_repair_factor = 0.5
			industry_repair_factor = 0.5
			army_speed_factor = -0.2
			army_attack_factor = -0.1
		}
	}
	
	GGR_hostile_iranian_population = {
		on_add = { log = "[GetDateText]: [Root.GetName]: add idea GGR_hostile_iranian_population"}

		picture = ita_broken_army

		allowed = {
			always = no
		}
		allowed_civil_war = {
			always = no
		}
		removal_cost = -1

		targeted_modifier = {
			tag = PER
			attack_bonus_against = -0.15
			defense_bonus_against = -0.15
		}
		targeted_modifier = {
			tag = IRL
			attack_bonus_against = -0.15
			defense_bonus_against = -0.15
		}
		targeted_modifier = {
			tag = IRC
			attack_bonus_against = -0.15
			defense_bonus_against = -0.15
		}
		targeted_modifier = {
			tag = IRB
			attack_bonus_against = -0.15
			defense_bonus_against = -0.15
		}
		targeted_modifier = {
			tag = IRA
			attack_bonus_against = -0.15
			defense_bonus_against = -0.15
		}
		targeted_modifier = {
			tag = IRI
			attack_bonus_against = -0.15
			defense_bonus_against = -0.15
		}
	}
	
	GGR_pacified_iranian_population = {
		on_add = { log = "[GetDateText]: [Root.GetName]: add idea GGR_pacified_population"}

		picture = IRK_ministry_strengthened

		allowed = {
			always = no
		}
		allowed_civil_war = {
			always = no
		}
		removal_cost = -1

		targeted_modifier = {
			tag = PER
			attack_bonus_against = 0.1
			defense_bonus_against = 0.1
		}
		targeted_modifier = {
			tag = IRL
			attack_bonus_against = 0.1
			defense_bonus_against = 0.1
		}
		targeted_modifier = {
			tag = IRC
			attack_bonus_against = 0.1
			defense_bonus_against = 0.1
		}
		targeted_modifier = {
			tag = IRB
			attack_bonus_against = 0.1
			defense_bonus_against = 0.1
		}
		targeted_modifier = {
			tag = IRA
			attack_bonus_against = 0.1
			defense_bonus_against = 0.1
		}
		targeted_modifier = {
			tag = IRI
			attack_bonus_against = 0.1
			defense_bonus_against = 0.1
		}
	}
	
	GGR_stalling_participation = {
		on_add = { log = "[GetDateText]: [Root.GetName]: add idea GGR_stalling_participation"}

		picture = GER_unknown

		allowed = {
			always = no
		}
		allowed_civil_war = {
			always = no
		}
		removal_cost = -1

		modifier = {
			ai_join_ally_desire_factor = -1000
		}
	}
	
	JAP_supply_lines_cut = {
		on_add = { log = "[GetDateText]: [Root.GetName]: add idea JAP_supply_lines_cut"}

		picture = generic_naval_trade_blockade

		allowed = {
			always = no
		}
		allowed_civil_war = {
			always = no
		}
		removal_cost = -1

		modifier = {
			consumer_goods_factor = 0.15
			production_factory_max_efficiency_factor = -0.1
			war_support_factor = -0.05
		}
	}
	
	GGR_aggressive_submarine_tactics = {
		on_add = { log = "[GetDateText]: [Root.GetName]: add idea GGR_aggressive_submarine_tactics"}

		picture = GER_unknown

		allowed = {
			always = no
		}
		allowed_civil_war = {
			always = no
		}
		removal_cost = -1

		modifier = {
			navy_submarine_attack_factor = 0.5
			#naval_torpedo_range_factor = 0.5
		}
	}

	BRG_temporary_blindness = {
		on_add = {log = "[GetDateText]: [Root.GetName]: add idea BRG_temporary_blindness"}
		allowed = {
			always = no
		}
		picture = GFX_USA_Investigate_NPP_Corruption
		removal_cost = -1
		modifier = {
			decryption_factor = -0.60
		}
	}		
	GGR_ringhorn_ports_rejected = {
		on_add = { log = "[GetDateText]: [Root.GetName]: add idea GGR_ringhorn_ports_rejected" }

		picture = GER_unknown

		allowed = {
			always = no
		}
		allowed_civil_war = {
			always = no
		}
		removal_cost = -1

		modifier = {
			navy_max_range_factor = -0.05
		}
	}

	GGR_ringhorn_ports_failed = {
		on_add = { log = "[GetDateText]: [Root.GetName]: add idea GGR_ringhorn_ports_failed" }
		picture = GER_unknown

		allowed = {
			always = no
		}
		allowed_civil_war = {
			always = no
		}
		removal_cost = -1

		modifier = {
			navy_max_range_factor = -0.10
			naval_coordination = -0.05
		}
	}

	GGR_ringhorn_ports_completed = {
		on_add = { log = "[GetDateText]: [Root.GetName]: add idea GGR_ringhorn_ports_completed" }
		picture = GER_unknown

		allowed = {
			always = no
		}
		allowed_civil_war = {
			always = no
		}
		removal_cost = -1

		modifier = {
			navy_max_range_factor = 0.05
			naval_coordination = 0.05
		}
	}
	GGR_evacuating_loyalists = {
		on_add = { log = "[GetDateText]: [Root.GetName]: add idea GGR_evacuating_loyalists" }
		picture = GER_evacuating_loyalists

		allowed = {
			always = no
		}
		allowed_civil_war = {
			always = no
		}
		removal_cost = -1

		modifier = {
			weekly_manpower = 4000
			war_support_weekly = 0.05
		}
	}
	}
}