ideas = {

	country = {
		SWE_odin_program = {
			on_add = { log = "[GetDateText]: [Root.GetName]: add idea SWE_odin_program"}

			picture = GER_unknown

			allowed = {
				always = no
			}
			allowed_civil_war = {
				always = no
			}
			removal_cost = -1
			cancel = {
				OR = {
					SWE = {
						exists = no
						is_puppet_of = GER
					}
				}
			}

			modifier = {
				army_org_factor = -0.05
				army_attack_factor = -0.05
			}
		}
		SWE_odin_program2 = {
			on_add = { log = "[GetDateText]: [Root.GetName]: add idea SWE_odin_program2"}

			picture = GER_unknown

			allowed = {
				always = no
			}
			allowed_civil_war = {
				always = no
			}
			removal_cost = -1
			cancel = {
				OR = {
					SWE = {
						exists = no
						is_puppet_of = GER
					}
				}
			}

			modifier = {
				army_org_factor = -0.05
			}
		}


		SWE_folkhemmet = {
			on_add = { log = "[GetDateText]: [Root.GetName]: add idea SWE_folkhemmet"}

			picture = GFX_idea_SWE_folkhemmet

			allowed = {
				always = no
			}
			removal_cost = -1
			cancel = {
				OR = {
					SWE = {
						exists = no
						is_puppet_of = GER
					}
				}
			}

			modifier = {
				consumer_goods_factor = 0.05
				political_power_gain = 0.3
			}
		}

		SWE_schwedenisierung = {
			on_add = { log = "[GetDateText]: [Root.GetName]: add idea SWE_schwedenisierung"}

			picture = GFX_idea_SWE_schwedenisierung

			allowed = {
				always = no
			}
			removal_cost = -1

			modifier = {
				stability_factor = 0.05
				production_factory_max_efficiency_factor = 0.05
			}
		}

		SWE_exports_to_germany = {
			on_add = { log = "[GetDateText]: [Root.GetName]: add idea SWE_exports_to_germany"}

			picture = GFX_idea_SWE_exports_to_germany

			allowed = {
				always = no
			}
			removal_cost = -1

			modifier = {
				trade_opinion_factor = 0.1
				local_resources_factor = 0.15
			}
		}
	}
}