ideas = {
	###############
	# Country ideas
	###############
	country = {
		IBG_Disobedient_Militas = {
			on_add = {log = "[GetDateText]: [Root.GetName]: add idea IBG_Disobedient_Militas"}
			allowed = {
				always = no
			}
			picture = GFX_idea_generic_army_2
			removal_cost = -1

			modifier = {
				political_power_gain = -0.75
				stability_weekly = -0.005
				war_support_weekly = -0.0025
			}
		}
		IBG_Disobedient_Populace = {
			on_add = {log = "[GetDateText]: [Root.GetName]: add idea IBG_Disobedient_Populace"}
			allowed = {
				always = no
			}
			picture = GFX_idea_generic_army_2
			removal_cost = -1

			modifier = {
				political_power_gain = -1.50
				stability_weekly = -0.05
				war_support_weekly = -0.01
			}
		}
		IBG_Disobedient_Minorities = {
			on_add = {log = "[GetDateText]: [Root.GetName]: add idea IBG_Disobedient_Minorities"}
			allowed = {
				always = no
			}
			picture = GFX_idea_generic_army_2
			removal_cost = -1

			modifier = {
				political_power_gain = -1.75
				stability_weekly = -0.08
				war_support_weekly = -0.02
			}
		}
		IBG_Revolutionary_Battalions = {
			on_add = {log = "[GetDateText]: [Root.GetName]: add idea IBG_Revolutionary_Battalions"}
			allowed = {
				always = no
			}
			picture = GFX_idea_ORE_refugee_crisis
			removal_cost = -1

			modifier = {
				army_speed_factor = 0.05
				land_reinforce_rate = 0.02
				offence = -0.1
				defence = 0.1
				political_power_gain = -0.15
			}
		}
		IBG_Revolutionary_Battalions_2 = {
			on_add = {log = "[GetDateText]: [Root.GetName]: add idea IBG_Revolutionary_Battalions_2"}
			allowed = {
				always = no
			}
			picture = GFX_idea_ORE_refugee_crisis
			removal_cost = -1

			modifier = {
				army_speed_factor = 0.1
				land_reinforce_rate = 0.02
				offence = -0.1
				defence = 0.1
				planning_speed = 0.1
				political_power_gain = -0.1
			}
		}
		IBG_Bengal_Liberation_Army = {
			on_add = {log = "[GetDateText]: [Root.GetName]: add idea IBG_Bengal_Liberation_Army"}
			allowed = {
				always = no
			}
			picture = GFX_idea_black_state_2
			removal_cost = -1

			modifier = {
				army_speed_factor = -0.05
				army_org = 2
				modifier_army_sub_unit_category_all_infantry_attack_factor = 0.05
				modifier_army_sub_unit_category_all_infantry_defence_factor = 0.05
			}
		}
		IBG_Bengal_Liberation_Army_2 = {
			on_add = {log = "[GetDateText]: [Root.GetName]: add idea IBG_Bengal_Liberation_Army_2"}
			allowed = {
				always = no
			}
			picture = GFX_idea_black_state_2
			removal_cost = -1

			modifier = {
				army_org = 2
				max_planning = 0.1
				modifier_army_sub_unit_category_all_infantry_attack_factor = 0.1
				modifier_army_sub_unit_category_all_infantry_defence_factor = 0.1
			}
		}
		IBG_Arms_Manufacturing = {
			on_add = {log = "[GetDateText]: [Root.GetName]: add idea IBG_Arms_Manufacturing"}
			allowed = {
				always = no
			}
			picture = GFX_idea_black_state_2
			removal_cost = -1

			modifier = {
				industrial_capacity_factory = 0.025
				production_factory_efficiency_gain_factor = 0.05
			}
		}
		IBG_Arms_Manufacturing_2 = {
			on_add = {log = "[GetDateText]: [Root.GetName]: add idea IBG_Arms_Manufacturing_2"}
			allowed = {
				always = no
			}
			picture = GFX_idea_black_state_2
			removal_cost = -1

			modifier = {
				industrial_capacity_factory = 0.05
				production_factory_efficiency_gain_factor = 0.075
			}
		}
	}
}