ideas = {
	
	country = {
	
		VIT_returning_germans = {
			on_add = {log = "[GetDateText]: [Root.GetName]: add idea VIT_returning_germans"}
		
			picture = GER_unkown
			modifier = 	{
				political_power_gain = -0.2
			}
			targeted_modifier = {
				tag = GER
				attack_bonus_against = -0.2
				defense_bonus_against = -0.2
			}
		}
		
		BLR_Bring_on_the_Youth = {
			on_add = {log = "[GetDateText]: [Root.GetName]: add idea BLR_Bring_on_the_Youth"}
			allowed = {
				always = no
			}
			allowed_civil_war = {
				always = yes
			}
			removal_cost = -1
			picture = BLR_Bring_on_the_Youth
			
			modifier = {
				conscription_factor = 0.20
				conscription = 0.02
			}
		}
		BLR_This_is_Our_Land = {
			on_add = {log = "[GetDateText]: [Root.GetName]: add idea BLR_This_is_Our_Land"}
			allowed = {
				always = no
			}
			allowed_civil_war = {
				always = yes
			}
			removal_cost = -1
			picture = BLR_This_is_Our_Land
			
			modifier = {
				army_core_attack_factor = 0.15
				army_core_defence_factor = 0.15
			}
		}
		BLR_For_Belarus = {
			on_add = {log = "[GetDateText]: [Root.GetName]: add idea BLR_For_Belarus"}
			allowed = {
				always = no
			}
			allowed_civil_war = {
				always = yes
			}
			removal_cost = -1
			picture = BLR_For_Belarus
			
			modifier = {
				army_morale_factor = 0.15
				army_org_factor = 0.15
			}
		}
		BLR_The_Black_Cat_Spirit = {
			on_add = {log = "[GetDateText]: [Root.GetName]: add idea BLR_The_Black_Cat_Spirit"}
			allowed = {
				always = no
			}
			allowed_civil_war = {
				always = yes
			}
			removal_cost = -1
			picture = BLR_The_Black_Cat_Spirit
			
			modifier = {
				army_speed_factor = 0.20
				recon_factor = 0.20
			}
		}
		BLR_We_Are_Like_Vipers = {
			on_add = {log = "[GetDateText]: [Root.GetName]: add idea BLR_We_Are_Like_Vipers"}
			allowed = {
				always = no
			}
			allowed_civil_war = {
				always = yes
			}
			removal_cost = -1
			picture = BLR_We_are_Like_Vipers
			
			modifier = {
				army_attack_factor = 0.20
				army_morale_factor = 0.20
			}
		}
		BLR_For_Ostland = {
			on_add = {log = "[GetDateText]: [Root.GetName]: add idea BLR_For_Ostland"}
			allowed = {
				always = no
			}
			allowed_civil_war = {
				always = yes
			}
			removal_cost = -1
			picture = BLR_For_Ostland
			
			modifier = {
				conscription = 0.03
				war_support_factor = 0.20
			}
		}
	}
}





		
			