ideas = {
	country = {
		SLG_Legion_Presence = {
			on_add = {log = "[GetDateText]: [Root.GetName]: add idea SLG_Legion_Presence"}
			allowed = {
				always = no
			}
			allowed_civil_war = {
				always = yes
			}
			removal_cost = -1
			picture = GFX_idea_SLG_Legion_Presence
			modifier = {
		        special_forces_attack_factor = 0.03
			    special_forces_defence_factor = 0.03
				training_time_army_factor = -0.05
				acclimatization_hot_climate_gain_factor = 0.25
			}
		}
		SLG_Retornados = {
			on_add = {log = "[GetDateText]: [Root.GetName]: add idea SLG_Retornados"}
			allowed = {
				always = no
			}
			allowed_civil_war = {
				always = yes
			}
			removal_cost = -1
			picture = SLG_Portuguese_Retornados
			modifier = {
		        war_support_factor = 0.05
				conscription_factor = 0.03
				stability_factor = -0.05
			}
		}
		SLG_Native_Unrest = {
			on_add = {log = "[GetDateText]: [Root.GetName]: add idea SLG_Native_Unrest"}
			allowed = {
				always = no
			}
			allowed_civil_war = {
				always = yes
			}
			removal_cost = -1
			picture = SLG_Native_Unrest
			modifier = {
		        stability_factor = -0.15
			    political_power_gain = -1.25
			}
		}
		SLG_The_Settlement_Defence_Force = {
			on_add = {log = "[GetDateText]: [Root.GetName]: add idea SLG_The_Settlement_Defence_Force"}
			allowed = {
				always = no
			}
			allowed_civil_war = {
				always = yes
			}
			removal_cost = -1
			picture = URL_volunteer_militia_programs
			modifier = {
		        army_core_defence_factor = 0.1
				army_org_factor = 0.05
				conscription = 0.02
			}
		}
		SLG_Support_Of_The_PIDE = {
			on_add = {log = "[GetDateText]: [Root.GetName]: add idea SLG_Support_Of_The_PIDE"}
			allowed = {
				always = no
			}
			allowed_civil_war = {
				always = yes
			}
			removal_cost = -1
			picture = ALG_PIDE_Support
			modifier = {
		        encryption_factor = 0.15
				decryption_factor = 0.15
				#partisan_effect = 0.1
				#enemy_#partisan_effect = -0.1
			}
		}
	}
}