ideas = {
	country = {
		ANG_air_efficiency_1 = {
			on_add = {log = "[GetDateText]: [Root.GetName]: add idea ANG_air_efficiency_1"}
			
			allowed = {
				always = no
			}

			allowed_civil_war = {

			}

			removal_cost = -1
			
			picture = generic_army_problems
			
			modifier = {
				army_bonus_air_superiority_factor = 0.05
			}
		}
		ANG_air_efficiency_2 = {
			on_add = {log = "[GetDateText]: [Root.GetName]: add idea ANG_air_efficiency_2"}
			
			allowed = {
				always = no
			}

			allowed_civil_war = {

			}

			removal_cost = -1
			
			picture = generic_army_problems
			
			modifier = {
				army_bonus_air_superiority_factor = 0.1
			}
		}
		ANG_air_efficiency_3 = {
			on_add = {log = "[GetDateText]: [Root.GetName]: add idea ANG_air_efficiency_3"}
			
			allowed = {
				always = no
			}

			allowed_civil_war = {

			}

			removal_cost = -1
			
			picture = generic_army_problems
			
			modifier = {
				army_bonus_air_superiority_factor = 0.15
			}
		}
		ANG_air_efficiency_4 = {
			on_add = {log = "[GetDateText]: [Root.GetName]: add idea ANG_air_efficiency_4"}
			
			allowed = {
				always = no
			}

			allowed_civil_war = {

			}

			removal_cost = -1
			
			picture = generic_army_problems
			
			modifier = {
				army_bonus_air_superiority_factor = 0.2
			}
		}
		ANG_air_efficiency_5 = {
			on_add = {log = "[GetDateText]: [Root.GetName]: add idea ANG_air_efficiency_5"}
			
			allowed = {
				always = no
			}

			allowed_civil_war = {

			}

			removal_cost = -1
			
			picture = generic_army_problems
			
			modifier = {
				army_bonus_air_superiority_factor = 0.25
			}
		}
		ANG_air_safety_1 = {
			on_add = {log = "[GetDateText]: [Root.GetName]: add idea ANG_air_safety_1"}
			
			allowed = {
				always = no
			}

			allowed_civil_war = {

			}

			removal_cost = -1
			
			picture = generic_army_problems
			
			modifier = {
				air_accidents_factor = -0.05
				air_night_penalty = -0.02
				air_weather_penalty = -0.02
			}
		}
		ANG_air_safety_2 = {
			on_add = {log = "[GetDateText]: [Root.GetName]: add idea ANG_air_safety_2"}
			
			allowed = {
				always = no
			}

			allowed_civil_war = {

			}

			removal_cost = -1
			
			picture = generic_army_problems
			
			modifier = {
				air_accidents_factor = -0.1
				air_night_penalty = -0.04
				air_weather_penalty = -0.04
			}
		}
		ANG_air_safety_3 = {
			on_add = {log = "[GetDateText]: [Root.GetName]: add idea ANG_air_safety_3"}
			
			allowed = {
				always = no
			}

			allowed_civil_war = {

			}

			removal_cost = -1
			
			picture = generic_army_problems
			
			modifier = {
				air_accidents_factor = -0.15
				air_night_penalty = -0.06
				air_weather_penalty = -0.06
			}
		}
		ANG_repair_1 = {
			on_add = {log = "[GetDateText]: [Root.GetName]: add idea ANG_repair_1"}
			
			allowed = {
				always = no
			}

			allowed_civil_war = {

			}

			removal_cost = -1
			
			picture = generic_army_problems
			
			modifier = {
				equipment_conversion_speed = 0.05
				license_air_purchase_cost = -0.05
				license_production_speed = -0.05
			}
		}
		ANG_repair_2 = {
			on_add = {log = "[GetDateText]: [Root.GetName]: add idea ANG_repair_2"}
			
			allowed = {
				always = no
			}

			allowed_civil_war = {

			}

			removal_cost = -1
			
			picture = generic_army_problems
			
			modifier = {
				equipment_conversion_speed = 0.1
				license_air_purchase_cost = -0.1
				license_production_speed = -0.1
			}
		}
		ANG_repair_3 = {
			on_add = {log = "[GetDateText]: [Root.GetName]: add idea ANG_repair_3"}
			
			allowed = {
				always = no
			}

			allowed_civil_war = {

			}

			removal_cost = -1
			
			picture = generic_army_problems
			
			modifier = {
				equipment_conversion_speed = 0.15
				license_air_purchase_cost = -0.15
				license_production_speed = -0.15
			}
		}
		ANG_repair_4 = {
			on_add = {log = "[GetDateText]: [Root.GetName]: add idea ANG_repair_4"}
			
			allowed = {
				always = no
			}

			allowed_civil_war = {

			}

			removal_cost = -1
			
			picture = generic_army_problems
			
			modifier = {
				equipment_conversion_speed = 0.2
				license_air_purchase_cost = -0.2
				license_production_speed = -0.2
			}
		}
		ANG_repair_5 = {
			on_add = {log = "[GetDateText]: [Root.GetName]: add idea ANG_repair_5"}
			
			allowed = {
				always = no
			}

			allowed_civil_war = {

			}

			removal_cost = -1
			
			picture = generic_army_problems
			
			modifier = {
				equipment_conversion_speed = 0.25
				license_air_purchase_cost = -0.25
				license_production_speed = -0.25
			}
		}
		ANG_off_the_top = {
			on_add = {log = "[GetDateText]: [Root.GetName]: add idea ANG_off_the_top"}
			
			allowed = {
				always = no
			}

			allowed_civil_war = {

			}

			removal_cost = -1
			
			picture = generic_army_problems
			
			modifier = {
				consumer_goods_factor = -0.03
				min_export = -0.1
			}
		}
		ANG_selling_diamonds = {
			on_add = {log = "[GetDateText]: [Root.GetName]: add idea ANG_selling_diamonds"}
			
			allowed = {
				always = no
			}

			allowed_civil_war = {

			}

			removal_cost = -1
			
			picture = generic_army_problems
			
			modifier = {
				consumer_goods_factor = -0.07
				production_speed_industrial_complex_factor = 0.2
			}
		}
		ANG_Arriaga_Bombing = { #Paradox here: I made this just to get rid of the error from the idea not existing. Now you just have to change the values! :)
			on_add = {log = "[GetDateText]: [Root.GetName]: add idea ANG_Arriaga_Bombing"}
			
			allowed = {
				always = no
			}

			allowed_civil_war = {

			}

			removal_cost = -1
			
			picture = generic_army_problems
			
			modifier = {
				consumer_goods_factor = -0.07
				production_speed_industrial_complex_factor = 0.2
			}
		}
	}
}