ideas = {
    country = {
		RMN_conquest_of_the_realms = {
			on_add = {log = "[GetDateText]: [Root.GetName]: add idea RMN_conquest_of_the_realms"}
        
            allowed = { always = no }
            removal_cost = -1

            allowed_civil_war = {
                always = yes
            }
            
            picture = GFX_idea_RMN_conquest_of_the_realms
            
            modifier = {
             conscription_factor = 1.0
                conscription = 0.8
                non_core_manpower  = 0.8
                army_org = 50
                recon_factor = 5.0
                army_morale_factor = 5.0
                defence = 5.0
                offence = 5.0
            }
        }
	}
}