ideas = {
	country = {
		ENG_the_last_battle = {
			on_add = {log = "[GetDateText]: [Root.GetName]: add idea ENG_the_last_battle"}
			
			allowed = {
				original_tag = ENG
				always = no
			}
			
			picture = SRT_Freedom_or_Death
			
			modifier = {
				army_core_defence_factor = 0.1
			}
		}
		ENG_who_dares_wins = {
			on_add = {log = "[GetDateText]: [Root.GetName]: add idea ENG_who_dares_wins"}
			
			allowed = {
				original_tag = ENG
				always = no
			}
			
			picture = TOB_air_land_battles
			
			modifier = {
				air_night_penalty = -0.25
			}
		}
		ENG_the_left_resistance = {
			on_add = {log = "[GetDateText]: [Root.GetName]: add idea ENG_the_left_resistance"}
			
			allowed = {
				original_tag = ENG
				always = no
			}
			
			picture = SVO_Red_Army_in_Exile
			
			modifier = {
				industrial_capacity_factory = 0.1
			}
		}
		ENG_the_legitimate_government = {
			on_add = {log = "[GetDateText]: [Root.GetName]: add idea ENG_the_legitimate_government"}
			
			allowed = {
				original_tag = ENG
				always = no
			}
			
			picture = ZAR_idea_warlord_state
			
			modifier = {
				political_power_gain = 0.2
				war_support_factor = 0.2
			}
		}
		ENG_promises_of_change = {
			on_add = {log = "[GetDateText]: [Root.GetName]: add idea ENG_promises_of_change"}
			
			allowed = {
				original_tag = ENG
				always = no
			}
			
			picture = SAH_Wild_Promises
			
			modifier = {
				army_core_defence_factor = 0.1
			}
		}
		ENG_a_force_of_darkness = {
			on_add = {log = "[GetDateText]: [Root.GetName]: add idea ENG_a_force_of_darkness"}

			allowed = {
				original_tag = ENG
				always = no
			}
			
			picture = KOM_self_made_men
			
			modifier = {
				weekly_manpower = 100
				army_core_attack_factor = 0.05
			}
		}

		ENG_reconstruction_of_England = {
			on_add = {log = "[GetDateText]: [Root.GetName]: add idea ENG_reconstruction_of_England"}
 
			allowed = {
				original_tag = ENG
				always = no
			}
			
			picture = NZL_Urbanization_Crisis
			
			modifier = {
				gdp_growth_modifier = -0.03
				taxable_population_modifier = -0.03
				income_rate_factor = -0.03
				poverty_monthly_rate = -1
				stability_weekly = -0.003
				MONTHLY_POPULATION = -0.30
				stability_factor = -0.1
				production_speed_buildings_factor = -0.3
			}
		}

		
		ENG_growing_hunger = {
			on_add = {log = "[GetDateText]: [Root.GetName]: add idea ENG_growing_hunger"}
			
			allowed = {
				original_tag = ENG
				always = no
			}
			
			picture = federal_food_banks
			
			modifier = {
				weekly_manpower = -500
				stability_weekly = -0.005
			}
		}
		
		ENG_promising_future = {
			on_add = {log = "[GetDateText]: [Root.GetName]: add idea ENG_promising_future"}

			allowed = {
				original_tag = ENG
				always = no
			}
			
			picture = generic_idealistic_democracy
			
		}
		ENG_Scottish_Fuckery = {
			on_add = {log = "[GetDateText]: [Root.GetName]: add idea SCO_special_intelligence_department"}

			allowed = {
				original_tag = SCO
				always = no
			}

			removal_cost = -1

			picture = SCO_Scotland_The_Brave

			modifier = {
				army_org_factor = -0.05
			}
		}
		ENG_Scottish_mountains = {
			on_add = {log = "[GetDateText]: [Root.GetName]: add idea SCO_special_intelligence_department"}

			allowed = {
				original_tag = SCO
				always = no
			}

			removal_cost = -1

			picture = SCO_The_Lonely_Ilse

			modifier = {
				army_attack_factor = 0.07
			}
		}
		ENG_Scottish_Council = {
			on_add = {log = "[GetDateText]: [Root.GetName]: add idea SCO_special_intelligence_department"}

			allowed = {
				original_tag = SCO
				always = no
			}

			removal_cost = -1

			picture = SCO_Scotland_The_Brave

			modifier = {
				political_power_factor = -0.30
				stability_factor = 0.1
				war_support_factor = 0.03
			}
		}
		
		ENG_Scottish_Autonomy = {
			on_add = {log = "[GetDateText]: [Root.GetName]: add idea SCO_special_intelligence_department"}

			allowed = {
				original_tag = SCO
				always = no
			}

			removal_cost = -1

			picture = SCO_Scotland_The_Brave

			modifier = {
				political_power_factor = -0.20
				stability_factor = 0.05
			}
		}
		ENG_Scottish_Council_1 = {
			on_add = {log = "[GetDateText]: [Root.GetName]: add idea SCO_special_intelligence_department"}

			allowed = {
				original_tag = SCO
				always = no
			}

			removal_cost = -1

			picture = SCO_Scotland_The_Brave

			modifier = {
				political_power_factor = -0.30
				stability_factor = 0.15
				war_support_factor = 0.05
			}
		}
		ENG_Scotland_The_Terror = {
			on_add = {log = "[GetDateText]: [Root.GetName]: add idea SCO_special_intelligence_department"}

			allowed = {
				original_tag = SCO
				always = no
			}

			removal_cost = -1

			picture = SCO_Oppressive_State

			modifier = {
				stability_factor = -0.05
				war_support_factor = -0.1
				conscription_factor = -0.05
			}
		}
		ENG_Scotland_Learned_Schedules = {
			on_add = {log = "[GetDateText]: [Root.GetName]: add idea SCO_special_intelligence_department"}

			allowed = {
				original_tag = SCO
				always = no
			}
			cancel = { NOT = {
						country_exists = SCO
					}

				}
			removal_cost = -1

			picture = SCO_Oppressive_State

			modifier = {
				army_attack_factor = 0.05
				army_defence_factor = 0.05
			}
		}
		ENG_Wales_Autonomy = {
			on_add = { log = "[GetDateText]: [Root.GetName]: add idea ENG_Wales_Autonomy" }
			allowed = { 
				always = no 
				original_tag = ENG
			}
			removal_cost = -1
			picture = SCO_Weapons_Free
			modifier = {
				stability_factor = 0.05
				political_power_gain = -0.3

			}
		}

		ENG_Wales_Terrorism = {
			on_add = { log = "[GetDateText]: [Root.GetName]: add idea ENG_Wales_Autonomy" }
			allowed = { 
				always = no 
				original_tag = ENG
			}
			removal_cost = -1
			picture = WAL_free_welsh_army
			modifier = {
				stability_factor = -0.2
				war_support_factor = -0.15
				resistance_damage_to_garrison = 0.15
				conscription_factor = -0.1
				
			}
		}
		ENG_Wales_Resistance = {
			on_add = { log = "[GetDateText]: [Root.GetName]: add idea ENG_Wales_Autonomy" }
			allowed = { 
				always = no 
				original_tag = ENG
			}
			removal_cost = -1
			picture = WAL_free_welsh_army
			modifier = {
				stability_factor = -0.15
				war_support_factor = -0.1
				resistance_damage_to_garrison = 0.1
				conscription_factor = -0.1
				
			}
		}
		ENG_Wales_Riots = {
			on_add = { log = "[GetDateText]: [Root.GetName]: add idea ENG_Wales_Autonomy" }
			allowed = { 
				always = no 
				original_tag = ENG
			}
			removal_cost = -1
			picture = WAL_free_welsh_army
			modifier = {
				stability_factor = -0.1
				war_support_factor = -0.05
				
			}
		}
		ENG_Wales_Protests = {
			on_add = { log = "[GetDateText]: [Root.GetName]: add idea ENG_Wales_Autonomy" }
			allowed = { 
				always = no 
				original_tag = ENG
			}
			removal_cost = -1
			picture = WAL_free_welsh_army
			modifier = {
				stability_factor = -0.05
				war_support_factor = -0.05
				
			}
		}

		ENG_Wales_Civil_Unrest = {
			on_add = { log = "[GetDateText]: [Root.GetName]: add idea ENG_Wales_Autonomy" }
			allowed = { 
				always = no 
				original_tag = ENG
			}
			removal_cost = -1
			picture = WAL_free_welsh_army
			modifier = {
				stability_factor = -0.05
				
			}
		}


		ENG_Scottish_Terrorism = {
			on_add = { log = "[GetDateText]: [Root.GetName]: add idea ENG_Wales_Autonomy" }
			allowed = { 
				always = no 
				original_tag = ENG
			}
			removal_cost = -1
			picture = SCO_Oppressive_State
			modifier = {
				stability_factor = -0.2
				war_support_factor = -0.15
				resistance_damage_to_garrison = 0.15
				conscription_factor = -0.1
				
			}
		}
		ENG_Scottish_Resistance = {
			on_add = { log = "[GetDateText]: [Root.GetName]: add idea ENG_Wales_Autonomy" }
			allowed = { 
				always = no 
				original_tag = ENG
			}
			removal_cost = -1
			picture = SCO_Oppressive_State
			modifier = {
				stability_factor = -0.15
				war_support_factor = -0.1
				resistance_damage_to_garrison = 0.1
				conscription_factor = -0.1
				
			}
		}
		ENG_Scottish_Riots = {
			on_add = { log = "[GetDateText]: [Root.GetName]: add idea ENG_Wales_Autonomy" }
			allowed = { 
				always = no 
				original_tag = ENG
			}
			removal_cost = -1
			picture = SCO_Oppressive_State
			modifier = {
				stability_factor = -0.1
				war_support_factor = -0.05
				
			}
		}
		ENG_Scottish_Protests = {
			on_add = { log = "[GetDateText]: [Root.GetName]: add idea ENG_Wales_Autonomy" }
			allowed = { 
				always = no 
				original_tag = ENG
			}
			removal_cost = -1
			picture = SCO_Oppressive_State
			modifier = {
				stability_factor = -0.05
				war_support_factor = -0.05
				
			}
		}

		ENG_Scottish_Civil_Unrest = {
			on_add = { log = "[GetDateText]: [Root.GetName]: add idea ENG_Wales_Autonomy" }
			allowed = { 
				always = no 
				original_tag = ENG
			}
			removal_cost = -1
			picture = SCO_Oppressive_State
			modifier = {
				stability_factor = -0.05
				
			}
		}
		ENG_Own_Peoples_Hate = {
			on_add = {
				log = "[GetDateText]: [Root.GetName]: add idea ENG_Own_Peoples_Hate"
			}
			allowed = { always = no }
			cancel = { has_war_with = FEN }
			removal_cost = -1
			picture = ENG_Own_Peoples_Hate
			modifier = {
				political_power_gain = -1.5
			}
		}
		ENG_Own_Peoples_Hate_2 = {
			on_add = {
				log = "[GetDateText]: [Root.GetName]: add idea ENG_Own_Peoples_Hate_2"
			}
			allowed = { always = no }
			cancel = { has_war_with = FEN }
			removal_cost = -1
			picture = ENG_Own_Peoples_Hate
			modifier = {
				political_power_gain = -1
			}
		}
		ENG_HMMLR = {
			on_add = { log = "[GetDateText]: [Root.GetName]: add idea ENG_HMMLR" }
			allowed = { always = no }
			cancel = { has_war_with = FEN }
			removal_cost = -1
			picture = ENG_HMMLR
			modifier = {
				conscription_factor = -0.20
			}
		}
		ENG_HMMLR2 = {
			on_add = { log = "[GetDateText]: [Root.GetName]: add idea ENG_HMMLR2" }
			allowed = { always = no }
			cancel = { has_war_with = FEN }
			removal_cost = -1
			picture = ENG_HMMLR
			modifier = {
				conscription_factor = -0.20
				political_power_gain = 0.15
			}
		}
		ENG_Across_The_Channel = {
			on_add = { log = "[GetDateText]: [Root.GetName]: add idea ENG_Across_The_Channel" }
			allowed = { always = no }
			cancel = { has_war_with = FEN }
			removal_cost = -1
			picture = ENG_Across_The_Channel
			modifier = {
				experience_gain_army = -1
				custom_modifier_tooltip = ENG_gone_over_tt
			}
		}
		ENG_Across_The_Channel2 = {
			on_add = { log = "[GetDateText]: [Root.GetName]: add idea ENG_Across_The_Channel2" }
			allowed = { always = no }
			cancel = { has_war_with = FEN }
			removal_cost = -1
			picture = ENG_Across_The_Channel
			modifier = {
				custom_modifier_tooltip = ENG_gone_over_tt
			}
		}
		ENG_Across_The_Channel3 = {
			on_add = { log = "[GetDateText]: [Root.GetName]: add idea ENG_Across_The_Channel3" }
			allowed = { always = no }
			cancel = { has_war_with = FEN }
			removal_cost = -1
			picture = ENG_Across_The_Channel
			modifier = {
				custom_modifier_tooltip = ENG_gone_over_tt
			}
		}
		ENG_Lying_In_Ruins = {
			on_add = { log = "[GetDateText]: [Root.GetName]: add idea ENG_Lying_In_Ruins" }
			allowed = { always = no }
			cancel = { has_war_with = FEN }
			removal_cost = -1
			picture = ENG_Lying_In_Ruins
			modifier = {
				gdp_growth_modifier = -0.05
				taxable_population_modifier = -0.1
				income_rate_factor = -0.1
				poverty_monthly_rate = -2
				production_factory_max_efficiency_factor = -0.15
			}
		}
		ENG_Brutal_War = {
			# Increases surrender limit for both ECW participants, for a longer war
			on_add = { log = "[GetDateText]: [Root.GetName]: add idea ENG_Brutal_War" }
			allowed = { always = no }
			cancel = {
				has_war = no
			}
			removal_cost = -1
			picture = ENG_A_Brutal_War
			modifier = {
				surrender_limit = 0.325
			}
		}
		ENG_Brutal_War_AI = {
			# Increases surrender limit for both AI ECW participants, for a longer war
			on_add = { log = "[GetDateText]: [Root.GetName]: add idea ENG_Brutal_War_AI" }
			allowed = { always = no }
			cancel = {
				has_war = no
			}
			removal_cost = -1
			picture = ENG_A_Brutal_War
			modifier = {
				surrender_limit = 0.225
			}
		}
		#### Macmillan Military Ideas ####
		ENG_MT_strategic_redoubts = {
			on_add = { log = "[GetDateText]: [Root.GetName]: add idea ENG_MT_Strategic_Redoubts" }
			allowed = { always = no }
			removal_cost = -1
			picture = generic_Preparing_The_Army
			modifier = {
				army_speed_factor = 0.10
				dig_in_speed_factor = 1
			}
		}
		ENG_MT_defend_every_piece_of_land = {
			on_add = { log = "[GetDateText]: [Root.GetName]: add idea ENG_MT_defend_every_piece_of__land" }
			allowed = { always = no }
			removal_cost = -1
			picture = BLR_This_is_Our_Land
			modifier = {
				army_core_defence_factor = 0.10
				max_dig_in = 2
			}
		}
		ENG_MT_lessons_from_1943 = {
			on_add = { log = "[GetDateText]: [Root.GetName]: add idea ENG_MT_lessons_from_1943" }
			allowed = { always = no }
			removal_cost = -1
			picture = CAU_native_auxillary
			modifier = {
				army_core_attack_factor = 0.05
				production_speed_coastal_bunker_factor = 0.10
			}
		}
		ENG_MT_we_know_your_every_move = {
			on_add = { log = "[GetDateText]: [Root.GetName]: add idea ENG_MT_we_know_your_every_move" }
			allowed = { always = no }
			removal_cost = -1
			picture = generic_spy_intel
			modifier = {
				intelligence_agency_defense = 1
				own_operative_detection_chance_factor = -0.25
				operative_slot = 2
			}
		}
		#### For All Them Without LaR #####
		ENG_MT_we_know_your_every_move_2 = {
			on_add = { log = "[GetDateText]: [Root.GetName]: add idea ENG_MT_we_know_your_every_move" }
			allowed = { always = no }
			removal_cost = -1
			picture = generic_spy_intel
			modifier = {
				decryption_factor = 0.4
			}
		}
		ENG_MT_a_new_way_of_warfare = {
			on_add = { log = "[GetDateText]: [Root.GetName]: add idea ENG_MT_a_new_way_of_warfare" }
			allowed = { always = no }
			removal_cost = -1
			picture = generic_war_plan_outline
			modifier = {
				max_planning = 0.2
				army_org_factor = 0.1
				no_supply_grace = 48
			}
		}
		ENG_MT_lessons_from_the_empire = {
			on_add = { log = "[GetDateText]: [Root.GetName]: add idea ENG_MT_lessons_from_the_empire" }
			allowed = { always = no }
			removal_cost = -1
			picture = eng_guided_by_britain
			modifier = {
				special_forces_min = 120
				heat_attrition_factor = -0.2
				winter_attrition_factor = -0.2
				acclimatization_cold_climate_gain_factor = 0.25
				acclimatization_hot_climate_gain_factor	= 0.25
			}
		}
		ENG_MT_spy_on_german1 = {
			on_add = { log = "[GetDateText]: [Root.GetName]: add idea ENG_MT_spy_on_german1" }
			allowed = { always = no }
			removal_cost = -1
			picture = generic_spy
			modifier = {
				operative_slot = 2
			}
		}
		##### For the LAR less####
		ENG_MT_spy_on_german2 = {
			on_add = { log = "[GetDateText]: [Root.GetName]: add idea ENG_MT_spy_on_german2" }
			allowed = { always = no }
			removal_cost = -1
			picture = generic_spy
			modifier = {
				decryption_factor = 0.2
			}
		}
		ENG_MT_british_U2 = {
			on_add = { log = "[GetDateText]: [Root.GetName]: add idea ENG_MT_british_U2" }
			allowed = { always = no }
			removal_cost = -1
			picture = generic_Intelligence_Leaks
			modifier = {
				decryption_factor = 0.1
			}
		}
		ENG_MT_rebuild_british_navy = {
			on_add = { log = "[GetDateText]: [Root.GetName]: add idea ENG_MT_rebuild_british_navy" }
			allowed = { always = no }
			removal_cost = -1
			picture = generic_solid_navy_naval_force
			modifier = {
				industrial_capacity_dockyard = 0.75
			}
		}
		ENG_MT_rebuilt_armed_forces = {
			on_add = { log = "[GetDateText]: [Root.GetName]: add idea ENG_MT_rebuilt_armed_forces" }
			allowed = { always = no }
			removal_cost = -1
			picture = GBE_idea_militia_based_army
			modifier = {
				max_command_power = 25
				army_leader_start_attack_level = 1
				army_leader_start_planning_level = 1
				army_leader_start_defense_level = 1
				army_leader_start_logistics_level = 1
				experience_gain_army_factor = 0.25
			}
		}

		############ Macmillan Political Ideas


		ENG_PT_to_protect_democracy = {
			on_add = { log = "[GetDateText]: [Root.GetName]: add idea ENG_PT_to_protect_democracy" }
			allowed = { always = no }
			removal_cost = -1
			picture = BRY_peace_restraint
			modifier = {
				political_power_factor = -0.15
				drift_defence_factor = -0.1
			}
		}

		ENG_PT_to_protect_england= {
			on_add = { log = "[GetDateText]: [Root.GetName]: add idea ENG_PT_to_protect_democracy" }
			allowed = { always = no }
			removal_cost = -1
			picture = stiff_upper_lip
			modifier = {
				stability_factor = 0.20
				drift_defence_factor = 0.2
			}
		}

		ENG_PT_macmillans_guidance= {
			on_add = { log = "[GetDateText]: [Root.GetName]: add idea ENG_PT_to_protect_democracy" }
			allowed = { always = no }
			removal_cost = -1
			picture = IRK_ministry_reorganizations
			modifier = {
				stability_factor = 0.1
				political_power_factor = 0.05
			}
		}

		ENG_PT_macmillan_our_puppet= {
			on_add = { log = "[GetDateText]: [Root.GetName]: add idea ENG_PT_to_protect_democracy" }
			allowed = { always = no }
			removal_cost = -1
			picture = IRK_ministry_strengthened
			modifier = {
				stability_factor = 0.05
				political_power_factor = 0.1
			}
		}

		ENG_PT_macmillan_anticorporatism1= {
			on_add = { log = "[GetDateText]: [Root.GetName]: add idea ENG_PT_to_protect_democracy" }
			allowed = { always = no }
			removal_cost = -1
			picture = a_crusade_against_corruption
			modifier = {
				industrial_capacity_factory = -0.2
				production_speed_buildings_factor = -0.2
				political_power_factor = 0.025
				stability_factor = 0.05
			}
		}

		ENG_PT_macmillan_anticorporatism2= {
			on_add = { log = "[GetDateText]: [Root.GetName]: add idea ENG_PT_to_protect_democracy" }
			allowed = { always = no }
			removal_cost = -1
			picture = a_crusade_against_corruption
			modifier = {
				industrial_capacity_factory = -0.15
				production_speed_buildings_factor = -0.15
				political_power_factor = 0.05
				stability_factor = 0.075
				drift_defence_factor = 0.05
			}
		}

		ENG_PT_macmillan_anticorporatism3= {
			on_add = { log = "[GetDateText]: [Root.GetName]: add idea ENG_PT_to_protect_democracy" }
			allowed = { always = no }
			removal_cost = -1
			picture = a_crusade_against_corruption
			modifier = {
				industrial_capacity_factory = -0.1
				production_speed_buildings_factor = -0.1
				political_power_factor = 0.075
				stability_factor = 0.1
				drift_defence_factor = 0.1
			}
		}

		ENG_PT_macmillan_anticorporatism4= {
			on_add = { log = "[GetDateText]: [Root.GetName]: add idea ENG_PT_to_protect_democracy" }
			allowed = { always = no }
			removal_cost = -1
			picture = a_crusade_against_corruption
			modifier = {
				political_power_factor = 0.1
				stability_factor = 0.1
				war_support_factor = 0.1
				drift_defence_factor = 0.15
			}
		}
		ENG_UE_INNER_POLITICS1= {
			on_add = { log = "[GetDateText]: [Root.GetName]: add idea ENG_UE_INNER_POLITICS1" }
			allowed = { always = no }
			removal_cost = -1
			picture = generic_idealistic_democracy
			modifier = {
				war_support_factor = 0.1
				stability_factor = -0.125
				drift_defence_factor = -0.25
				political_power_factor = -0.05
				custom_modifier_tooltip = ENG_MAC_GOVTSTAB_-12.5.tt
			}
		}
		ENG_UE_INNER_POLITICS2= {
			on_add = { log = "[GetDateText]: [Root.GetName]: add idea ENG_UE_INNER_POLITICS2" }
			allowed = { always = no }
			removal_cost = -1
			picture = generic_idealistic_democracy
			modifier = {
				war_support_factor = 0.08
				stability_factor = -0.10
				drift_defence_factor = -0.2
				political_power_factor = -0.04
				custom_modifier_tooltip = ENG_MAC_GOVTSTAB_-10.tt
			}
		}
		ENG_UE_INNER_POLITICS3= {
			on_add = { log = "[GetDateText]: [Root.GetName]: add idea ENG_UE_INNER_POLITICS3" }
			allowed = { always = no }
			removal_cost = -1
			picture = generic_idealistic_democracy
			modifier = {
				war_support_factor = 0.06
				stability_factor = -0.08
				drift_defence_factor = -0.15
				political_power_factor = -0.03
				custom_modifier_tooltip = ENG_MAC_GOVTSTAB_-8.tt
			}
		}
		ENG_UE_INNER_POLITICS4= {
			on_add = { log = "[GetDateText]: [Root.GetName]: add idea ENG_UE_INNER_POLITICS4" }
			allowed = { always = no }
			removal_cost = -1
			picture = generic_idealistic_democracy
			modifier = {
				war_support_factor = 0.04
				stability_factor = -0.06
				drift_defence_factor = -0.1
				political_power_factor = -0.025
				custom_modifier_tooltip = ENG_MAC_GOVTSTAB_-6.tt
			}
		}
		ENG_UE_INNER_POLITICS5= {
			on_add = { log = "[GetDateText]: [Root.GetName]: add idea ENG_UE_INNER_POLITICS5" }
			allowed = { always = no }
			removal_cost = -1
			picture = generic_idealistic_democracy
			modifier = {
				war_support_factor = 0.02
				stability_factor = -0.04
				drift_defence_factor = -0.06
				political_power_factor = -0.02
				custom_modifier_tooltip = ENG_MAC_GOVTSTAB_-4.tt
			}
		}
		ENG_UE_INNER_POLITICS6= {
			on_add = { log = "[GetDateText]: [Root.GetName]: add idea ENG_UE_INNER_POLITICS6" }
			allowed = { always = no }
			removal_cost = -1
			picture = generic_idealistic_democracy
			modifier = {
				war_support_factor = 0.01
				stability_factor = -0.02
				drift_defence_factor = -0.03
				political_power_factor = -0.01
				custom_modifier_tooltip = ENG_MAC_GOVTSTAB_-2.tt
			}
		}
		ENG_UE_INNER_POLITICS7= {
			on_add = { log = "[GetDateText]: [Root.GetName]: add idea ENG_UE_INNER_POLITICS7" }
			allowed = { always = no }
			removal_cost = -1
			picture = MST_Social_Rights_3
			modifier = {
				stability_factor = 0.05
			}
		}
		ENG_UE_INNER_POLITICS8= {
			on_add = { log = "[GetDateText]: [Root.GetName]: add idea ENG_UE_INNER_POLITICS8" }
			allowed = { always = no }
			removal_cost = -1
			picture = A_True_Meritocracy
			modifier = {
				stability_factor = 0.02
				drift_defence_factor = 0.03
				political_power_factor = 0.02
				custom_modifier_tooltip = ENG_MAC_GOVTSTAB_2.tt
			}
		}
		ENG_UE_INNER_POLITICS9= {
			on_add = { log = "[GetDateText]: [Root.GetName]: add idea ENG_UE_INNER_POLITICS9" }
			allowed = { always = no }
			removal_cost = -1
			picture = A_True_Meritocracy
			modifier = {
				stability_factor = 0.04
				drift_defence_factor = 0.06
				political_power_factor = 0.03
				custom_modifier_tooltip = ENG_MAC_GOVTSTAB_4.tt
			}
		}
		ENG_UE_INNER_POLITICS10= {
			on_add = { log = "[GetDateText]: [Root.GetName]: add idea ENG_UE_INNER_POLITICS10" }
			allowed = { always = no }
			removal_cost = -1
			picture = A_True_Meritocracy
			modifier = {
				stability_factor = 0.06
				drift_defence_factor = 0.1
				political_power_factor = 0.04
				custom_modifier_tooltip = ENG_MAC_GOVTSTAB_6.tt
			}
		}
		ENG_UE_INNER_POLITICS11= {
			on_add = { log = "[GetDateText]: [Root.GetName]: add idea ENG_UE_INNER_POLITICS11" }
			allowed = { always = no }
			removal_cost = -1
			picture = A_True_Meritocracy
			modifier = {
				stability_factor = 0.08
				drift_defence_factor = 0.15
				political_power_factor = 0.06
				custom_modifier_tooltip = ENG_MAC_GOVTSTAB_8.tt
			}
		}
		ENG_UE_INNER_POLITICS12= {
			on_add = { log = "[GetDateText]: [Root.GetName]: add idea ENG_UE_INNER_POLITICS12" }
			allowed = { always = no }
			removal_cost = -1
			picture = A_True_Meritocracy
			modifier = {
				stability_factor = 0.10
				drift_defence_factor = 0.2
				political_power_factor = 0.08
				custom_modifier_tooltip = ENG_MAC_GOVTSTAB_10.tt
			}
		}
		ENG_UE_INNER_POLITICS13= {
			on_add = { log = "[GetDateText]: [Root.GetName]: add idea ENG_UE_INNER_POLITICS13" }
			allowed = { always = no }
			removal_cost = -1
			picture = A_True_Meritocracy
			modifier = {
				stability_factor = 0.125
				drift_defence_factor = 0.25
				political_power_factor = 0.1
				custom_modifier_tooltip = ENG_MAC_GOVTSTAB_12.5.tt
			}
		}


		############Mac Int Ideas

		ENG_an_army_to_stand_the_waves= {
			on_add = { log = "[GetDateText]: [Root.GetName]: add idea ENG_an_army_to_stand_the_waves" }
			allowed = { always = no }
			removal_cost = -1
			picture = generic_German_Military_Training
		targeted_modifier = {
			tag = CRN
			defense_bonus_against = 0.15
		}
		targeted_modifier = {
			tag = GER
			defense_bonus_against = 0.15
		}
	}

############ Thatcher Poltical Ideas
		ENG_increased_surveilance = {
			on_add = { log = "[GetDateText]: [Root.GetName]: add idea ENG_increased_surveilance" }
			allowed = { always = no }
			removal_cost = -1
			picture = generic_spy
			modifier = {
				encryption_factor = 0.2
			}
		}

		ENG_increased_surveilance_2 = {
			on_add = { log = "[GetDateText]: [Root.GetName]: add idea ENG_increased_surveilance_2" }
			allowed = { always = no }
			removal_cost = -1
			picture = generic_spy 
			modifier = {
				encryption_factor = 0.2
				decryption_factor = 0.2
			}
		}

		ENG_thatcher_suppress_education= {
			on_add = { log = "[GetDateText]: [Root.GetName]: add idea ENG_thatcher_suppress_education" }
			allowed = { always = no }
			removal_cost = -1
			picture = SLO_Chained_Minds
			modifier = {
				research_speed_factor = -0.03
				political_power_factor = 0.1
			}
		}

		ENG_eyes_in_every_city = {
			on_add = { log = "[GetDateText]: [Root.GetName]: add idea ENG_eyes_in_every_city" }
			allowed = { always = no }
			removal_cost = -1
			picture = RAJ_Indira_Vigilant_Police
			modifier = {
				encryption_factor = 0.2
				decryption_factor = 0.2
				stability_factor = 0.1
			}
		}
		ENG_RP_POP_SPLIT1 = {
			on_add = { log = "[GetDateText]: [Root.GetName]: add idea ENG_RP_POP_SPLIT1" }
			allowed = { always = no }
			removal_cost = -1
			picture = MST_Social_Rights_1
			modifier = {
				war_support_factor = -0.125
				production_speed_buildings_factor = -0.1
			}
		}
		ENG_RP_POP_SPLIT2 = {
			on_add = { log = "[GetDateText]: [Root.GetName]: add idea ENG_RP_POP_SPLIT2" }
			allowed = { always = no }
			removal_cost = -1
			picture = MST_Social_Rights_1
			modifier = {
				war_support_factor = -0.1
				production_speed_buildings_factor = -0.08
			}
		}
		ENG_RP_POP_SPLIT3 = {
			on_add = { log = "[GetDateText]: [Root.GetName]: add idea ENG_RP_POP_SPLIT3" }
			allowed = { always = no }
			removal_cost = -1
			picture = MST_Social_Rights_1
			modifier = {
				war_support_factor = -0.075
				production_speed_buildings_factor = -0.06
			}
		}
		ENG_RP_POP_SPLIT4 = {
			on_add = { log = "[GetDateText]: [Root.GetName]: add idea ENG_RP_POP_SPLIT4" }
			allowed = { always = no }
			removal_cost = -1
			picture = MST_Social_Rights_1
			modifier = {
				war_support_factor = -0.05
				production_speed_buildings_factor = -0.04
			}
		}
		ENG_RP_POP_SPLIT5 = {
			on_add = { log = "[GetDateText]: [Root.GetName]: add idea ENG_RP_POP_SPLIT5" }
			allowed = { always = no }
			removal_cost = -1
			picture = MST_Social_Rights_2
			modifier = {
				war_support_factor = -0.025
				production_speed_buildings_factor = -0.02
			}
		}
		ENG_RP_POP_SPLIT6 = {
			on_add = { log = "[GetDateText]: [Root.GetName]: add idea ENG_RP_POP_SPLIT6" }
			allowed = { always = no }
			removal_cost = -1
			picture = MST_Social_Rights_2
			modifier = {
			}
		}
		ENG_RP_POP_SPLIT7 = {
			on_add = { log = "[GetDateText]: [Root.GetName]: add idea ENG_RP_POP_SPLIT7" }
			allowed = { always = no }
			removal_cost = -1
			picture = MST_Social_Rights_2
			modifier = {
				war_support_factor = 0.025
				political_power_factor = -0.02
				production_speed_buildings_factor = 0.02
			}
		}
		ENG_RP_POP_SPLIT8 = {
			on_add = { log = "[GetDateText]: [Root.GetName]: add idea ENG_RP_POP_SPLIT8" }
			allowed = { always = no }
			removal_cost = -1
			picture = MST_Social_Rights_2
			modifier = {
				war_support_factor = 0.05
				political_power_factor = -0.04
				production_speed_buildings_factor = 0.04
			}
		}
		ENG_RP_POP_SPLIT9 = {
			on_add = { log = "[GetDateText]: [Root.GetName]: add idea ENG_RP_POP_SPLIT9" }
			allowed = { always = no }
			removal_cost = -1
			picture = MST_Social_Rights_3
			modifier = {
				war_support_factor = 0.075
				political_power_factor = -0.06
				production_speed_buildings_factor = 0.06
			}
		}
		ENG_RP_POP_SPLIT10 = {
			on_add = { log = "[GetDateText]: [Root.GetName]: add idea ENG_RP_POP_SPLIT10" }
			allowed = { always = no }
			removal_cost = -1
			picture = MST_Social_Rights_3
			modifier = {
				war_support_factor = 0.1
				political_power_factor = -0.08
				production_speed_buildings_factor = 0.08
			}
		}
		ENG_RP_POP_SPLIT11 = {
			on_add = { log = "[GetDateText]: [Root.GetName]: add idea ENG_RP_POP_SPLIT11" }
			allowed = { always = no }
			removal_cost = -1
			picture = MST_Social_Rights_3
			modifier = {
				war_support_factor = 0.125
				political_power_factor = -0.1
				production_speed_buildings_factor = 0.1
			}
		}
		ENG_RP_ELITE_SPLIT1 = {
			on_add = { log = "[GetDateText]: [Root.GetName]: add idea ENG_RP_ELITE_SPLIT1" }
			allowed = { always = no }
			removal_cost = -1
			picture = shadow_economy
			modifier = {
				stability_factor = -0.125
				political_power_factor = -0.10
				consumer_goods_factor = 0.05
			}
		}
		ENG_RP_ELITE_SPLIT2 = {
			on_add = { log = "[GetDateText]: [Root.GetName]: add idea ENG_RP_ELITE_SPLIT2" }
			allowed = { always = no }
			removal_cost = -1
			picture = shadow_economy
			modifier = {
				stability_factor = -0.1
				political_power_factor = -0.08
				consumer_goods_factor = 0.04
			}
		}
		ENG_RP_ELITE_SPLIT3 = {
			on_add = { log = "[GetDateText]: [Root.GetName]: add idea ENG_RP_ELITE_SPLIT3" }
			allowed = { always = no }
			removal_cost = -1
			picture = shadow_economy
			modifier = {
				stability_factor = -0.075
				political_power_factor = -0.06
				consumer_goods_factor = 0.03
			}
		}
		ENG_RP_ELITE_SPLIT4 = {
			on_add = { log = "[GetDateText]: [Root.GetName]: add idea ENG_RP_ELITE_SPLIT4" }
			allowed = { always = no }
			removal_cost = -1
			picture = shadow_economy
			modifier = {
				stability_factor = -0.05
				political_power_factor = -0.04
				consumer_goods_factor = 0.02
			}
		}
		ENG_RP_ELITE_SPLIT5 = {
			on_add = { log = "[GetDateText]: [Root.GetName]: add idea ENG_RP_ELITE_SPLIT5" }
			allowed = { always = no }
			removal_cost = -1
			picture = IRK_ministry_reorganizations
			modifier = {
				stability_factor = -0.025
				political_power_factor = -0.02
				consumer_goods_factor = 0.01
			}
		}
		ENG_RP_ELITE_SPLIT6 = {
			on_add = { log = "[GetDateText]: [Root.GetName]: add idea ENG_RP_ELITE_SPLIT6" }
			allowed = { always = no }
			removal_cost = -1
			picture = IRK_ministry_reorganizations
			modifier = {
			}
		}
		ENG_RP_ELITE_SPLIT7 = {
			on_add = { log = "[GetDateText]: [Root.GetName]: add idea ENG_RP_ELITE_SPLIT7" }
			allowed = { always = no }
			removal_cost = -1
			picture = IRK_ministry_reorganizations
			modifier = {
				stability_factor = 0.025
				political_power_factor = 0.02
				consumer_goods_factor = -0.01
			}
		}
		ENG_RP_ELITE_SPLIT8 = {
			on_add = { log = "[GetDateText]: [Root.GetName]: add idea ENG_RP_ELITE_SPLIT8" }
			allowed = { always = no }
			removal_cost = -1
			picture = IRK_ministry_reorganizations
			modifier = {
				stability_factor = 0.05
				political_power_factor = 0.04
				consumer_goods_factor = -0.02
			}
		}
		ENG_RP_ELITE_SPLIT9 = {
			on_add = { log = "[GetDateText]: [Root.GetName]: add idea ENG_RP_ELITE_SPLIT9" }
			allowed = { always = no }
			removal_cost = -1
			picture = IRK_ministry_strengthened
			modifier = {
				stability_factor = 0.075
				political_power_factor = 0.06
				consumer_goods_factor = -0.03
			}
		}
		ENG_RP_ELITE_SPLIT10 = {
			on_add = { log = "[GetDateText]: [Root.GetName]: add idea ENG_RP_ELITE_SPLIT10" }
			allowed = { always = no }
			removal_cost = -1
			picture = IRK_ministry_strengthened
			modifier = {
				stability_factor = 0.1
				political_power_factor = 0.08
				consumer_goods_factor = -0.04
			}
		}
		ENG_RP_ELITE_SPLIT11 = {
			on_add = { log = "[GetDateText]: [Root.GetName]: add idea ENG_RP_ELITE_SPLIT11" }
			allowed = { always = no }
			removal_cost = -1
			picture = IRK_ministry_strengthened
			modifier = {
				stability_factor = 0.125
				political_power_factor = 0.1
				consumer_goods_factor = -0.05
			}
		}
############ Thatcher Military Ideas

		ENG_MT_armed_police = {
			on_add = { log = "[GetDateText]: [Root.GetName]: add idea ENG_MT_armed_police" }
			allowed = { always = no }
			removal_cost = -1
			picture = URL_volunteer_militia_programs
			modifier = {
				conscription_factor = 0.20
				army_core_defence_factor = 0.05
			}
		}

		ENG_MT_bsor = {
			on_add = { log = "[GetDateText]: [Root.GetName]: add idea ENG_MT_bsor" }
			allowed = { always = no }
			removal_cost = -1
			picture = BAS_army_good
			modifier = {
				special_forces_min = 80
			}
		}

		ENG_MT_thatcher_military_industry = {
			on_add = { log = "[GetDateText]: [Root.GetName]: add idea ENG_MT_thatcher_military_industry" }
			allowed = { always = no }
			removal_cost = -1
			picture = generic_enhanced_infantry_production
			modifier = {
				production_factory_max_efficiency_factor = 0.15
				industrial_capacity_factory = 0.10
			}
		}

		ENG_MT_thatcher_defensive_efforts_idea = {
			on_add = { log = "[GetDateText]: [Root.GetName]: add idea ENG_MT_thatcher_defensive_efforts" }
			allowed = { always = no }
			removal_cost = -1
			picture = YUG_federal_defense_council
			modifier = {
				army_core_defence_factor = 0.10
			}
		}

		ENG_MT_trench_training = {
			on_add = { log = "[GetDateText]: [Root.GetName]: add idea ENG_MT_trench_tactics" }
			allowed = { always = no }
			removal_cost = -1
			picture = BAS_fort
			modifier = {
				max_dig_in = 1
				dig_in_speed_factor = 1
			}
		}

		ENG_MT_thatcher_defensive_doctrines = {
			on_add = { log = "[GetDateText]: [Root.GetName]: add idea ENG_MT_thatcher_defensive_doctrines" }
			allowed = { always = no }
			removal_cost = -1
			picture = YUG_federal_defense_council
			modifier = {
				army_defence_factor = 0.15
			}
		}

		ENG_MT_supercarrier = {
			on_add = { log = "[GetDateText]: [Root.GetName]: add idea ENG_MT_thatcher_supercarrier" }
			allowed = { always = no }
			removal_cost = -1
			picture = generic_navy_carrier_bonus
			modifier = {
				sortie_efficiency = 0.2
				naval_coordination = 0.1
			}
		}

		ENG_MT_battleships = {
			on_add = { log = "[GetDateText]: [Root.GetName]: add idea ENG_MT_defensive_doctors" }
			allowed = { always = no }
			removal_cost = -1
			picture = generic_navy_bonus
			modifier = {
				navy_max_range_factor = 0.2
				navy_anti_air_attack_factor = 0.2
			}
		}

		ENG_MT_rebuild_RAF = {
			on_add = { log = "[GetDateText]: [Root.GetName]: add idea ENG_MT_rebuild_RAF" }
			allowed = { always = no }
			removal_cost = -1
			picture = RUS_novosibirsk_aircraft_plant

			equipment_bonus = {
				CAS_equipment = {
					build_cost_ic = -0.1 instant = yes
				}
				fighter_equipment = {
					build_cost_ic = -0.1 instant = yes
				}
			}
		}

		ENG_MT_VTOL_STOL = {
			on_add = { log = "[GetDateText]: [Root.GetName]: add idea ENG_MT_VTOL_STOL" }
			allowed = { always = no }
			removal_cost = -1
			picture = generic_air_research
			modifier = {
				air_agility_factor = 0.10
			}
		}

		ENG_MT_harrier_missiles = {
			on_add = { log = "[GetDateText]: [Root.GetName]: add idea ENG_MT_harrier_bombs_away" }
			allowed = { always = no }
			removal_cost = -1
			picture = TOB_air_land_battles
			modifier = {
				air_attack_factor = 0.1
				ground_attack_factor = 0.1
			}
		}

		ENG_MT_pilot_training = {
			on_add = { log = "[GetDateText]: [Root.GetName]: add idea ENG_MT_pilot_training" }
			allowed = { always = no }
			removal_cost = -1
			picture = generic_air_bonus
			modifier = {
				air_ace_generation_chance_factor = 0.1
				air_accidents_factor = -0.05
				experience_gain_air_factor = 0.2
			}
		}

		ENG_MT_building_ships = {
			on_add = { log = "[GetDateText]: [Root.GetName]: add idea ENG_MT_building_ships" }
			allowed = { always = no }
			removal_cost = -1
			picture = generic_solid_navy_naval_force
			modifier = {
				industrial_capacity_dockyard = -0.5
	}
}
############ MacMillan Economic Ideas
		ENG_ET_macmillan_increased_trade = {
			on_add = { log = "[GetDateText]: [Root.GetName]: add idea ENG_MT_building_ships" }
			allowed = { always = no }
			removal_cost = -1
			picture = GER_Opening_The_Markets
			modifier = {
				min_export = 0.1
			}
		}

		ENG_ET_mac_small_trade = {
			on_add = { log = "[GetDateText]: [Root.GetName]: add idea ENG_MT_building_ships" }
			allowed = { always = no }
			removal_cost = -1
			picture = can_wartime_prices_and_trade_board 
			modifier = {
				min_export = 0.1
				production_speed_buildings_factor = 0.05
				industrial_capacity_factory = 0.05
				consumer_goods_factor = -0.02
				}
			}	

		ENG_ET_macmillan_english_goods_on_foreign_shelfs_idea = {
			on_add = { log = "[GetDateText]: [Root.GetName]: add idea ENG_MT_building_ships" }
			allowed = { always = no }
			removal_cost = -1
			picture = USA_free_trade_focus_ofn
			modifier = {
				min_export = 0.05
				production_speed_buildings_factor = 0.15
				industrial_capacity_factory = 0.10
				consumer_goods_factor = -0.03
			}
			targeted_modifier = {
				tag = ENG
				misc_income_modifier = 250
	}
}


############ Thatcher Economic Ideas

	ENG_thatcher_monetarism = {
		on_add = { log = "[GetDateText]: [Root.GetName]: add idea ENG_thatcher_speed_monetarism1" }	
		allowed = { always = no }
		removal_cost = -1	
		picture = HUN_Suffocated_Economy
		modifier = {
			stability_factor = -0.4
			war_support_factor = -0.4
			political_power_factor = -0.35
			consumer_goods_factor = 0.15
			industrial_capacity_factory = -0.15
	}
}
	ENG_thatcher_speed_monetarism1 = {
		on_add = { log = "[GetDateText]: [Root.GetName]: add idea ENG_thatcher_speed_monetarism1" }	
		allowed = { always = no }
		removal_cost = -1	
		picture = generic_planned_economy
		modifier = {
			stability_factor = -0.3
			war_support_factor = -0.3
			political_power_factor = -0.3
			consumer_goods_factor = 0.15
			industrial_capacity_factory = -0.15
	}
}

	ENG_thatcher_speed_monetarism2 = {
		on_add = { log = "[GetDateText]: [Root.GetName]: add idea ENG_thatcher_speed_monetarism2" }	
		allowed = { always = no }
		removal_cost = -1	
		picture = generic_planned_economy
		modifier = {
			stability_factor = -0.25
			war_support_factor = -0.25
			political_power_factor = -0.25
			consumer_goods_factor = 0.10
			industrial_capacity_factory = -0.10
	}
}

	ENG_thatcher_speed_monetarism3 = {
		on_add = { log = "[GetDateText]: [Root.GetName]: add idea ENG_thatcher_speed_monetarism3" }	
		allowed = { always = no }
		removal_cost = -1	
		picture = generic_planned_economy
		modifier = {
			stability_factor = -0.15
			war_support_factor = -0.15
			political_power_factor = -0.15
			consumer_goods_factor = 0.05
			industrial_capacity_factory = -0.05
	}
}

	ENG_thatcher_speed_monetarism4 = {
		on_add = { log = "[GetDateText]: [Root.GetName]: add idea ENG_thatcher_speed_monetarism4" }	
		allowed = { always = no }
		removal_cost = -1	
		picture = generic_planned_economy
		modifier = {
			stability_factor = -0.10
			war_support_factor = -0.10
			political_power_factor = -0.10
			production_speed_buildings_factor = 0.05
	}
}

	ENG_thatcher_speed_monetarism5 = {
		on_add = { log = "[GetDateText]: [Root.GetName]: add idea ENG_thatcher_speed_monetarism5" }	
		allowed = { always = no }
		removal_cost = -1	
		picture = generic_planned_economy
		modifier = {
			production_speed_buildings_factor = 0.15
			min_export = 0.10
			local_building_slots_factor = 0.10
			consumer_goods_factor = -0.05
	}
}

	ENG_thatcher_slow_monetarism1 = {
		on_add = { log = "[GetDateText]: [Root.GetName]: add idea ENG_thatcher_slow_monetarism1" }	
		allowed = { always = no }
		removal_cost = -1	
		picture = generic_economic_control
		modifier = {
			stability_factor = -0.2
			war_support_factor = -0.2
			political_power_factor = -0.15
			consumer_goods_factor = 0.075
			industrial_capacity_factory = -0.075
	}
}

	ENG_thatcher_slow_monetarism2 = {
		on_add = { log = "[GetDateText]: [Root.GetName]: add idea ENG_thatcher_slow_monetarism2" }	
		allowed = { always = no }
		removal_cost = -1	
		picture = generic_economic_control
		modifier = {
			stability_factor = -0.15
			war_support_factor = -0.15
			political_power_factor = -0.10
			consumer_goods_factor = 0.05
			industrial_capacity_factory = -0.05
	}
}

	ENG_thatcher_slow_monetarism3 = {
		on_add = { log = "[GetDateText]: [Root.GetName]: add idea ENG_thatcher_slow_monetarism3" }	
		allowed = { always = no }
		removal_cost = -1	
		picture = generic_economic_control
		modifier = {
			stability_factor = -0.10
			war_support_factor = -0.10
			political_power_factor = -0.05
			consumer_goods_factor = 0.025
			industrial_capacity_factory = -0.025
	}
}

	ENG_thatcher_slow_monetarism4 = {
		on_add = { log = "[GetDateText]: [Root.GetName]: add idea ENG_thatcher_slow_monetarism4" }	
		allowed = { always = no }
		removal_cost = -1	
		picture = generic_economic_control
		modifier = {
			stability_factor = -0.05
			war_support_factor = -0.05
			production_speed_buildings_factor = 0.05
	}
}

	ENG_thatcher_slow_monetarism5 = {
		on_add = { log = "[GetDateText]: [Root.GetName]: add idea ENG_thatcher_slow_monetarism5" }	
		allowed = { always = no }
		removal_cost = -1	
		picture = generic_economic_control
		modifier = {
			production_speed_buildings_factor = 0.15
			min_export = 0.10
			local_building_slots_factor = 0.10
			consumer_goods_factor = -0.05
	}
}

	ENG_thatcher_every_man_works = {
		on_add = { log = "[GetDateText]: [Root.GetName]: add idea ENG_thatcher_every_man_works" }	
		allowed = { always = no }
		removal_cost = -1	
		picture = WAL_Improved_Technique
		modifier = {
			production_speed_buildings_factor = 0.10
			industrial_capacity_factory = 0.1
	}
}

	ENG_thatcher_economic_power1 = {
		on_add = { log = "[GetDateText]: [Root.GetName]: add idea ENG_thatcher_speed_monetarism1" }	
		allowed = { always = no }
		removal_cost = -1	
		picture = generic_economic_increase
		modifier = {
			local_resources_factor = 0.05
			industrial_capacity_factory = 0.05
			production_factory_max_efficiency_factor = 0.05
	}
}

	ENG_thatcher_economic_power2 = {
		on_add = { log = "[GetDateText]: [Root.GetName]: add idea ENG_thatcher_economic_power2" }	
		allowed = { always = no }
		removal_cost = -1	
		picture = generic_economic_increase
		modifier = {
			local_resources_factor = 0.10
			industrial_capacity_factory = 0.10
			production_factory_max_efficiency_factor = 0.10
	}
}

	ENG_thatcher_economic_power3 = {
		on_add = { log = "[GetDateText]: [Root.GetName]: add idea ENG_thatcher_economic_power3" }	
		allowed = { always = no }
		removal_cost = -1	
		picture = generic_economic_increase
		modifier = {
			local_resources_factor = 0.2
			industrial_capacity_factory = 0.15
			production_factory_max_efficiency_factor = 0.10
			industrial_capacity_dockyard = 0.1
	}
}

	ENG_thatcher_control_company1 = {
		on_add = { log = "[GetDateText]: [Root.GetName]: add idea ENG_thatcher_control_company1" }	
		allowed = { always = no }
		removal_cost = -1	
		picture = WRS_wealth_seized
		modifier = {
			production_speed_buildings_factor = 0.05
			consumer_goods_factor = -0.02
			min_export = -0.05
			political_power_factor = 0.05
	}
}

	ENG_thatcher_control_company2 = {
		on_add = { log = "[GetDateText]: [Root.GetName]: add idea ENG_thatcher_control_company2" }	
		allowed = { always = no }
		removal_cost = -1	
		picture = WRS_wealth_seized
		modifier = {
			production_speed_buildings_factor = 0.10
			consumer_goods_factor = -0.04
			min_export = -0.10
			political_power_factor = 0.10
	}
}

	ENG_thatcher_control_company3 = {
		on_add = { log = "[GetDateText]: [Root.GetName]: add idea ENG_thatcher_control_company3" }	
		allowed = { always = no }
		removal_cost = -1	
		picture = WRS_wealth_seized
		modifier = {
			production_speed_buildings_factor = 0.15
			consumer_goods_factor = -0.05
			min_export = -0.10
			political_power_factor = 0.10
			fuel_gain_factor = 0.15
	}
}

	############ SLP INT Ideas
		SLP_INT_the_capitalists_can_help = {
			on_add = { log = "[GetDateText]: [Root.GetName]: add idea SLP_INT_the_capitalists_can_help" }
			allowed = { always = no }
			removal_cost = -1
			picture = ENG_the_capitalists_can_help
			modifier = {
				production_factory_efficiency_gain_factor = 0.05
				production_factory_start_efficiency_factor = 0.05
			}
		}



	####### NDL Military Ideas
		
	FEN_NDL_MT_a_functioning_navy = {
		on_add = { log = "[GetDateText]: [Root.GetName]: add idea FEN_NDL_MT_a_functioning_navy"}
		allowed = { always = no }
		removal_cost = -1
		picture = generic_navy_carrier_bonus
		modifier = {
			navy_org_factor = 0.1
			sortie_efficiency = 0.1
			spotting_chance = 0.1
		}
	}

	FEN_NDL_MT_battleship_navy = {
		on_add = { log = "[GetDateText]: [Root.GetName]: add idea FEN_NDL_MT_battleship_navy"}
		allowed = { always = no }
		removal_cost = -1
		picture = generic_solid_navy_naval_force
		modifier = {
			navy_max_range_factor = 0.25
			naval_coordination = 0.1
			naval_hit_chance = 0.1
		}
	}

	FEN_NDL_MT_the_front_of_the_shield = {
		on_add = { log = "[GetDateText]: [Root.GetName]: add idea FEN_NDL_MT_the_front_of_the_shield"}
		allowed = { always = no }
		removal_cost = -1
		picture = generic_Preparing_The_Army
		modifier = {
			training_time_army_factor = -0.1
			army_morale_factor = 0.1
			dig_in_speed_factor = 0.5
			land_reinforce_rate = 0.1
		}
	}

	FEN_NDL_MT_a_defence_force = {
		on_add = { log = "[GetDateText]: [Root.GetName]: add idea FEN_NDL_MT_a_defence_force"}
		allowed = { always = no }
		removal_cost = -1
		picture = YUG_federal_defense_council
		modifier = {
			training_time_army_factor = -0.1
			army_morale_factor = 0.1
			dig_in_speed_factor = 0.5
			land_reinforce_rate = 0.1
			army_defence_factor = 0.15
			max_dig_in = 3
		}
	}

	FEN_NDL_MT_the_edge_of_the_sword = {
		on_add = { log = "[GetDateText]: [Root.GetName]: add idea FEN_NDL_MT_the_edge_of_the_sword"}
		allowed = { always = no }
		removal_cost = -1
		picture = BAS_army_good
		modifier = {
			special_forces_min = 120
			army_attack_factor = 0.1
			army_org_factor = 0.10
			supply_consumption_factor = -0.1
			conscription_factor = -0.2
		}
	}

	FEN_NDL_MT_lessons_from_the_sas = {
		on_add = { log = "[GetDateText]: [Root.GetName]: add idea FEN_NDL_MT_lessons_from_sas"}
		allowed = { always = no }
		removal_cost = -1
		picture = eng_special_air_service
		modifier = {
			special_forces_min = 120
			army_attack_factor = 0.1
			army_org_factor = 0.10
			supply_consumption_factor = -0.1
			conscription_factor = -0.2
			experience_gain_army_unit_factor = 0.2
			experience_loss_factor = -0.1
			army_speed_factor = 0.1
			terrain_penalty_reduction = 0.2
		}
	}
	FEN_NDL_a_better_engine = {
		on_add = { log = "[GetDateText]: [Root.GetName]: add idea FEN_NDL_a_better_engine" }
		allowed = { always = no }
		removal_cost = -1
		picture = generic_air_research
		modifier = {
			air_range_factor = 0.25
			air_fuel_consumption_factor = -0.1
		}
	}

	FEN_NDL_better_aero = {
		on_add = { log = "[GetDateText]: [Root.GetName]: add idea FEN_NDL_better_aero" }
		allowed = { always = no }
		removal_cost = -1
		picture = air_war_plans_division_focus
		modifier = {
			air_agility_factor = 0.15
			air_fuel_consumption_factor = -0.1
		}
	}

	FEN_NDL_better_aero2 = {
		on_add = { log = "[GetDateText]: [Root.GetName]: add idea FEN_NDL_better_aero" }
		allowed = { always = no }
		removal_cost = -1
		picture = air_war_plans_division_focus
		modifier = {
			air_agility_factor = 0.15
			air_fuel_consumption_factor = -0.2
			air_range_factor = 0.25
		}
	}

	FEN_NDL_better_engines = {
		on_add = { log = "[GetDateText]: [Root.GetName]: add idea FEN_NDL_a_better_engine" }
		allowed = { always = no }
		removal_cost = -1
		picture = combined_bomber_offensive
		modifier = {
			air_range_factor = 0.15
			air_mission_efficiency = 0.1
		}
	}

	
	FEN_NDL_better_engines2 = {
		on_add = { log = "[GetDateText]: [Root.GetName]: add idea FEN_NDL_a_better_engine" }
		allowed = { always = no }
		removal_cost = -1
		picture = combined_bomber_offensive
		modifier = {
			air_range_factor = 0.40
			air_mission_efficiency = 0.1
			air_fuel_consumption_factor = -0.1
		}
	}
	
	FEN_NDL_MT_a_british_air_force = {
		on_add = { log = "[GetDateText]: [Root.GetName]: add idea FEN_NDL_MT_a_british_air_force" }
		allowed = { always = no }
		removal_cost = -1
		picture = combined_bomber_offensive
		modifier = {
			air_ace_generation_chance_factor = 0.1
			experience_gain_air_factor = 0.2
			air_range_factor = 0.15
			air_mission_efficiency = 0.1
		}
	}

	FEN_NDL_MT_a_british_air_force2 = {
		on_add = { log = "[GetDateText]: [Root.GetName]: add idea FEN_NDL_MT_a_british_air_force" }
		allowed = { always = no }
		removal_cost = -1
		picture = combined_bomber_offensive
		modifier = {
			air_ace_generation_chance_factor = 0.1
			experience_gain_air_factor = 0.2
			air_range_factor = 0.40
			air_fuel_consumption_factor = -0.1
			air_mission_efficiency = 0.1
		}
	}

	FEN_NDL_MT_dealing_with_philby1 = {
		on_add = { log = "[GetDateText]: [Root.GetName]: add idea FEN_NDL_MT_a_british_air_force" }
		allowed = { always = no }
		removal_cost = -1
		picture = generic_Intelligence_Leaks
		modifier = {
			stability_factor = -0.1
			political_power_factor = -0.2
			operative_slot = 1
		}
	}

	FEN_NDL_MT_dealing_with_philby2 = {
		on_add = { log = "[GetDateText]: [Root.GetName]: add idea FEN_NDL_MT_a_british_air_force" }
		allowed = { always = no }
		removal_cost = -1
		picture = generic_Intelligence_Leaks
		modifier = {
			stability_factor = -0.05
			operative_slot = 1
		}
	}

	FEN_NDL_her_majestys_most_loyal_intelligence_agency = {
		on_add = { log = "[GetDateText]: [Root.GetName]: add idea FEN_NDL_her_majestys_most_loyal_intelligence_agency" }
		allowed = { always = no }
		removal_cost = -1
		picture = generic_spy_intel
		modifier = {
			agency_upgrade_time = -0.15
			operative_slot = 1
			civilian_intel_factor = 0.1
			army_intel_factor = 0.1
			political_power_factor = 0.1
		}
	}
	
	FEN_NDL_MT_dealing_with_philby1_no_lar = {
		on_add = { log = "[GetDateText]: [Root.GetName]: add idea FEN_NDL_MT_dealing_with_philby1_no_lar" }
		allowed = { always = no }
		removal_cost = -1
		picture = generic_Intelligence_Leaks
		modifier = {
			stability_factor = -0.1
			political_power_factor = -0.2
		}
	}

	FEN_NDL_MT_dealing_with_philby2_no_lar = {
		on_add = { log = "[GetDateText]: [Root.GetName]: add idea FEN_NDL_MT_dealing_with_philby2_no_lar" }
		allowed = { always = no }
		removal_cost = -1
		picture = generic_Intelligence_Leaks
		modifier = {
			stability_factor = -0.05
		}
	}

	FEN_NDL_her_majestys_most_loyal_intelligence_agency_no_lar = {
		on_add = { log = "[GetDateText]: [Root.GetName]: add idea FEN_NDL_her_majestys_most_loyal_intelligence_agency_no_lar" }
		allowed = { always = no }
		removal_cost = -1
		picture = generic_spy_intel
		modifier = {
			political_power_factor = 0.1
		}
	}
	###### SLP Military Ideas ####
	
	FEN_SLP_mines_of_the_explosive_kind1 = {
		on_add = { log = "[GetDateText]: [Root.GetName]: add idea FEN_SLP_mines_of_the_explosive_kind1" }
		allowed = { always = no }
		removal_cost = -1
		picture = generic_coastal_navy
		modifier = {
			naval_mines_damage_factor = 0.15
			mines_planting_by_fleets_factor = 0.15
		}
	}

	FEN_SLP_mines_of_the_explosive_kind2 = {
		on_add = { log = "[GetDateText]: [Root.GetName]: add idea FEN_SLP_mines_of_the_explosive_kind1" }
		allowed = { always = no }
		removal_cost = -1
		picture = generic_coastal_navy
		modifier = {
			navy_submarine_attack_factor = 0.1
		}
	}
	
	FEN_SLP_escort_convoys = {
		on_add = { log = "[GetDateText]: [Root.GetName]: add idea FEN_SLP_escort_convoys" }
		allowed = { always = no }
		removal_cost = -1
		picture = liberty_ships_focus
		modifier = {
			convoy_escort_efficiency = 0.15
		}
	}

	FEN_SLP_stronger_torpedoes = {
		on_add = { log = "[GetDateText]: [Root.GetName]: add idea FEN_SLP_escort_convoys" }
		allowed = { always = no }
		removal_cost = -1
		picture = the_long_lance
		modifier = {
			convoy_escort_efficiency = 0.15
			naval_torpedo_screen_penetration_factor = 0.10
			naval_torpedo_hit_chance_factor = 0.1
		}
	}

	FEN_SLP_stronger_armor = {
		on_add = { log = "[GetDateText]: [Root.GetName]: add idea FEN_SLP_escort_convoys" }
		allowed = { always = no }
		removal_cost = -1
		picture = generic_solid_navy_naval_force
		modifier = {
			convoy_escort_efficiency = 0.15
			naval_torpedo_screen_penetration_factor = 0.10
			naval_torpedo_hit_chance_factor = 0.1
			screening_efficiency = 0.1
			critical_receive_chance = -0.15
		}
	}

	FEN_SLP_every_worker_a_soldier = {
		on_add = { log = "[GetDateText]: [Root.GetName]: add idea FEN_SLP_escort_convoys" }
		allowed = { always = no }
		removal_cost = -1
		picture = BRY_Idealistic_Revolutionaries
		modifier = {
			recruitable_population_factor = 0.15
			army_core_defence_factor = 0.15
		}
	}

	FEN_SLP_effective_strike_forces = {
		on_add = { log = "[GetDateText]: [Root.GetName]: add idea FEN_SLP_escort_convoys" }
		allowed = { always = no }
		removal_cost = -1
		picture = URL_militias_fully_integrated
		modifier = {
			army_attack_factor = 0.1
			army_speed_factor = 0.05
		}
	}

	FEN_SLP_praise_the_aces = {
		on_add = { log = "[GetDateText]: [Root.GetName]: add idea FEN_SLP_escort_convoys" }
		allowed = { always = no }
		removal_cost = -1
		picture = air_support_focus
		modifier = {
			air_ace_generation_chance_factor = 0.15
		}
	}

	FEN_SLP_dreams_of_the_raf1 = {
		on_add = { log = "[GetDateText: [Roote.GetName]: add idea FEN_SLP_escort_convoys"}
		allowed = { always = no }
		removal_cost = -1
		picture = air_support_focus
		modifier = {
			air_bombing_targetting = 0.1
		}
	}

	FEN_SLP_dreams_of_the_raf2 = {
		on_add = { log = "[GetDateText: [Roote.GetName]: add idea FEN_SLP_escort_convoys"}
		allowed = { always = no }
		removal_cost = -1
		picture = air_support_focus
		modifier = {
			air_agility_factor = 0.10
		}
	}

	FEN_SLP_dreams_of_the_raf3 = {
		on_add = { log = "[GetDateText: [Roote.GetName]: add idea FEN_SLP_escort_convoys"}
		allowed = { always = no }
		removal_cost = -1
		picture = air_support_focus
		modifier = {
			ground_attack_factor = 0.15
		}
	}

	FEN_SLP_a_legendary_influence1 = {
		on_add = { log = "[GetDateText: [Roote.GetName]: add idea FEN_SLP_escort_convoys"}
		allowed = { always = no }
		removal_cost = -1
		picture = TOB_air_land_battles
		modifier = {
			air_bombing_targetting = 0.1
			air_agility_factor = 0.10
		}
	}

	FEN_SLP_a_legendary_influence2 = {
		on_add = { log = "[GetDateText: [Roote.GetName]: add idea FEN_SLP_escort_convoys"}
		allowed = { always = no }
		removal_cost = -1
		picture = TOB_air_land_battles
		modifier = {
			air_agility_factor = 0.10
			ground_attack_factor = 0.15
		}
	}

	FEN_SLP_a_legendary_influence3 = {
		on_add = { log = "[GetDateText: [Roote.GetName]: add idea FEN_SLP_escort_convoys"}
		allowed = { always = no }
		removal_cost = -1
		picture = TOB_air_land_battles
		modifier = {
			ground_attack_factor = 0.15
			air_bombing_targetting = 0.1
		}
	}

	FEN_SLP_an_inspired_airforce = {
		on_add = { log = "[GetDateText: [Roote.GetName]: add idea FEN_SLP_escort_convoys"}
		allowed = { always = no }
		removal_cost = -1
		picture = air_war_plans_division_focus
		modifier = {
			air_bombing_targetting = 0.1
			air_agility_factor = 0.10
			ground_attack_factor = 0.15
		}
	}

	FEN_SLP_armed_unions = {
		on_add = { log = "[GetDateText]: [Root.GetName]: add idea FEN_SLP_armed_unions" }
		allowed = { always = no }
		removal_cost = -1
		picture = BRY_looking_to_the_future
		modifier = {
			recruitable_population_factor = 0.15
			army_core_defence_factor = -0.075
		}
	}

	FEN_SLP_american_plane_designs = {
		on_add = { log = "[GetDateText]: [Root.GetName]: add idea FEN_SLP_armed_unions" }
		allowed = { always = no }
		removal_cost = -1
		picture = generic_air_research
			research_bonus = { 
				air_equipment = 0.1
			}
			modifier = {
			air_range_factor = 0.15
		}
	}

	FEN_SLP_the_best_of_the_best = {
		on_add = { log = "[GetDateText]: [Root.GetName]: add idea FEN_SLP_the_best_of_the_best" }
		allowed = { always = no }
		removal_cost = -1
		picture = generic_spy_political
		modifier = {
			intel_network_gain = 0.1
			operative_slot = 1
		}
	}

	FEN_SLP_the_best_of_the_best_2 = {
		on_add = { log = "[GetDateText]: [Root.GetName]: add idea FEN_SLP_the_best_of_the_best_2" }
		allowed = { always = no }
		removal_cost = -1
		picture = generic_spy_political
		modifier = {
			decryption_factor = 0.05
			encryption_factor = 0.05
		}
	}
	
############ SLP Political Ideas
		
		SLP_new_ambassadors = {
			on_add = { log = "[GetDateText]: [Root.GetName]: add idea SLP_new_ambassadors " }
			allowed = { always = no }
			removal_cost = -1
			picture = IRK_ministry_reorganizations
			modifier = {
				political_power_gain = 0.15
				stability_weekly = 0.002
			}
		}
		SLP_fighting_corruption = {
			on_add = { log = "[GetDateText]: [Root.GetName]: add idea SLP_fighting_corruption " }
			allowed = { always = no }
			removal_cost = -1
			picture = a_crusade_against_corruption
			modifier = {
				political_power_gain = 0.2
				socialist_drift = 0.01
			}
		}
		SLP_leashed_philby = {
			on_add = { log = "[GetDateText]: [Root.GetName]: add idea SLP_leashed_philby " }
			allowed = { always = no }
			removal_cost = -1
			picture = generic_Intelligence_Leaks
			modifier = {
				intel_network_gain_factor = -0.1
				intel_from_operatives_factor = -0.1
				intelligence_agency_defense = -0.5
			}
		}

		
############ NDL Political Ideas
		
		NDL_house_of_lords = {
			on_add = { log = "[GetDateText]: [Root.GetName]: add idea NDL_house_of_lords " }
			allowed = { always = no }
			removal_cost = -1
			picture = generic_political_support
			modifier = {
				political_power_gain = -0.1
				stability_factor = 0.075
			}
		}
		NDL_house_of_lords2 = {
			on_add = { log = "[GetDateText]: [Root.GetName]: add idea NDL_house_of_lords2 " }
			allowed = { always = no }
			removal_cost = -1
			picture = generic_political_support
			modifier = {
				political_power_gain = -0.05
				stability_factor = 0.15
			}
		}
		NDL_national_education_act = {
			on_add = { log = "[GetDateText]: [Root.GetName]: add idea NDL_national_education_act " }
			allowed = { always = no }
			removal_cost = -1
			picture = supremacy_of_technology
			modifier = {
				research_speed_factor = 0.05
			}
		}
		
		NDL_children_and_wives_act = {
			on_add = { log = "[GetDateText]: [Root.GetName]: add idea NDL_children_and_wives_act " }
			allowed = { always = no }
			removal_cost = -1
			picture = URL_familial_connections
			modifier = {
				stability_factor = 0.05
				MONTHLY_POPULATION = 0.2
			}
		}
		
		NDL_anti_communist_action = {
			on_add = { log = "[GetDateText]: [Root.GetName]: add idea NDL_anti_communist_action " }
			allowed = { always = no }
			removal_cost = -1
			picture = ISH_unorthodox_bolshevism
			modifier = {
				communist_drift = -0.02
			}
		}
		
		NDL_anti_communist_action2 = {
			on_add = { log = "[GetDateText]: [Root.GetName]: add idea NDL_anti_communist_action2 " }
			allowed = { always = no }
			removal_cost = -1
			picture = ISH_unorthodox_bolshevism
			modifier = {
				communist_drift = -0.02
				decryption = -1
				encryption = -1
			}
		}
		
		NDL_tales_of_corruption = {
			on_add = { log = "[GetDateText]: [Root.GetName]: add idea NDL_tales_of_corruption " }
			allowed = { always = no }
			removal_cost = -1
			picture = a_crusade_against_corruption
			modifier = {
				political_power_gain = -0.5
				social_conservative_drift = -0.02
			}
		}
		NDL_tales_of_corruption2 = {
			on_add = { log = "[GetDateText]: [Root.GetName]: add idea NDL_tales_of_corruption2 " }
			allowed = { always = no }
			removal_cost = -1
			picture = a_crusade_against_corruption
			modifier = {
				political_power_gain = -0.25
				social_conservative_drift = -0.01
			}
		}
		NDL_tales_of_corruption3 = {
			on_add = { log = "[GetDateText]: [Root.GetName]: add idea NDL_tales_of_corruption3 " }
			allowed = { always = no }
			removal_cost = -1
			picture = a_crusade_against_corruption
			modifier = {
				political_power_gain = -0.1
			}
		}

############ NDL INT Ideas
		
		FEN_NDL_IT_idea_they_said_they_will_return = {
			on_add = { log = "[GetDateText]: [Root.GetName]: add idea NDL_INT_they_said_they_will_return " }
			allowed = { always = no }
			removal_cost = -1
			picture = USA_free_trade_focus_ofn
			modifier = {
				planning_speed = 0.1
				max_planning = 0.1
				army_org_factor = 0.1
			}
		}

		NDL_INT_return_home_programs = {
			on_add = { log = "[GetDateText]: [Root.GetName]: add idea NDL_INT_they_said_they_will_return " }
			allowed = { always = no }
			removal_cost = -1
			picture = SCO_English_Refugees
			modifier = {
				MONTHLY_POPULATION = 0.15
			}
		}
		
############ NDL ECON Ideas

		NDL_ECON_trade_with_the_OFN = {
			on_add = { log = "[GetDateText]: [Root.GetName]: add idea NDL_ECON_trade_with_the_OFN " }
			allowed = { always = no }
			removal_cost = -1
			picture = SLP_INT_the_capitalists_can_help
			modifier = {
				trade_opinion_factor = 0.15
				production_factory_efficiency_gain_factor = 0.05
				production_factory_start_efficiency_factor = 0.05
				min_export = 0.05
			}
		}

		############ SLP ECON Ideas

		FEN_SLP_Econ_more_fuel_to_the_fire = {
			on_add = { log = "[GetDateText]: [Root.GetName]: FEN_SLP_Econ_more_fuel_to_the_fire " }
			allowed = { always = no }
			removal_cost = -1
			picture = RUS_gorki_tank_factory
			modifier = {
				production_factory_efficiency_gain_factor = 0.05
				production_factory_start_efficiency_factor = 0.05
			}
		}

		SLP_Econ_efficiency_through_socialism = {
			on_add = { log = "[GetDateText]: [Root.GetName]: SLP_Econ_efficiency_through_socialism " }
			allowed = { always = no }
			removal_cost = -1
			picture = breakneck_industrialization
			modifier = {
				production_factory_efficiency_gain_factor = 0.1
			}
		}

		FEN_SLP_Econ_the_health_and_needs_divison = {
			on_add = { log = "[GetDateText]: [Root.GetName]: add idea FEN_SLP_Econ_the_health_and_needs_divison" }
			allowed = { always = no }
			removal_cost = -1
			picture = USA_A_Great_Health_Care_System
			modifier = {
				political_power_gain = 0.05
			}
		}

		FEN_SLP_Econ_hidden_pop_growth = {
			on_add = { log = "[GetDateText]: [Root.GetName]: add idea FEN_SLP_Econ_hidden_pop_growth" }
			allowed = { always = no }
			removal_cost = -1
			#picture = 
			modifier = {
				MONTHLY_POPULATION = 0.075
			}
		}

		FEN_SLP_Econ_hidden_consumer_goods = {
			on_add = { log = "[GetDateText]: [Root.GetName]: add idea FEN_SLP_Econ_hidden_consumer_goods" }
			allowed = { always = no }
			removal_cost = -1
			#picture = 
			modifier = {
				consumer_goods_factor = -0.05
			}
		}

		####SEALION STUFF
		ENG_fight_to_the_last = {
			on_add = { log = "[GetDateText]: [Root.GetName]: add idea ENG_fight_to_the_last" }
			allowed = { always = no }
			removal_cost = -1
			picture = BLR_This_is_Our_Land
			modifier = {
				surrender_limit = 0.20
			}
		}

		ENG_counterstrike = {
			on_add = { log = "[GetDateText]: [Root.GetName]: add idea ENG_counterstrike" }
			allowed = { always = no }
			removal_cost = -1
			picture = BLR_This_is_Our_Land
			modifier = {
				surrender_limit = 0.20
				army_core_attack_factor = 0.15
			}
		}

		ENG_intercept_germans = {
			on_add = { log = "[GetDateText]: [Root.GetName]: add idea ENG_intercept_germans" }
			allowed = { always = no }
			removal_cost = -1
			picture = generic_air_bonus
			modifier = {
				air_intercept_efficiency = 0.1
			}
		}

		ENG_naval_and_air = {
			on_add = { log = "[GetDateText]: [Root.GetName]: add idea ENG_naval_and_air" }
			allowed = { always = no }
			removal_cost = -1
			picture = generic_air_bonus
			modifier = {
				air_intercept_efficiency = 0.1
				convoy_raiding_efficiency_factor = 0.1
			}
		}

		ENG_memories_of_hmmlr = {
			on_add = { log = "[GetDateText]: [Root.GetName]: add idea ENG_memories_of_hmmlr" }
			allowed = { always = no }
			removal_cost = -1
			picture = POL_Terrified_Garrison
			modifier = {
				resistance_target_on_our_occupied_states = 0.2
				resistance_growth_on_our_occupied_states = 1
				resistance_damage_to_garrison_on_our_occupied_states = 1.5
			}
		}

		ENG_stall_them_on_every_inch = {
			on_add = { log = "[GetDateText]: [Root.GetName]: add idea ENG_stall_them_on_every_inch" }
			allowed = { always = no }
			removal_cost = -1
			picture = generic_German_Military_Training
			modifier = {
				army_core_defence_factor = 0.1
			}
		}

		ENG_stall_and_strike = {
			on_add = { log = "[GetDateText]: [Root.GetName]: add idea ENG_stall_and_strike" }
			allowed = { always = no }
			removal_cost = -1
			picture = generic_German_Military_Training
			modifier = {
				army_core_defence_factor = 0.1
				army_morale_factor = 0.1
				army_core_attack_factor = 0.05
			}
		}

		ENG_retreat_and_entrench = {
			on_add = { log = "[GetDateText]: [Root.GetName]: add idea ENG_retreat_and_entrench" }
			allowed = { always = no }
			removal_cost = -1
			picture = generic_Preparing_The_Army
			modifier = {
				army_speed_factor = 0.1
				army_org_factor = 0.05
				dig_in_speed_factor	= 1
				max_dig_in = 10
			}
		}

		ENG_our_old_base = {
			on_add = { log = "[GetDateText]: [Root.GetName]: add idea ENG_our_old_base" }
			allowed = { always = no }
			removal_cost = -1
			picture = YUG_federal_defense_council
			modifier = {
				army_org_factor = 0.075
				dig_in_speed_factor	= 1.5
				max_dig_in = 10
			}
		}

		
		ENG_we_shall_fight_in_the_fields = {
			on_add = { log = "[GetDateText]: [Root.GetName]: add idea ENG_we_shall_fight_in_the_fields" }
			allowed = { always = no }
			removal_cost = -1
			picture = generic_Quality_Small_Arms
			modifier = {
				army_core_defence_factor = 0.1
			}
		}

		
		ENG_we_shall_never_surrender = {
			on_add = { log = "[GetDateText]: [Root.GetName]: add idea ENG_we_shall_never_surrender" }
			allowed = { always = no }
			removal_cost = -1
			picture = IRK_frontline_commissars_alt
			modifier = {
				army_core_defence_factor = 0.1
				army_org_factor = 0.025
				army_morale_factor = 0.075
				land_reinforce_rate = 0.1
			}
		}

		ENG_post_goring_reconstruction = {
			on_add = { log = "[GetDateText]: [Root.GetName]: add idea ENG_post_goring_reconstruction" }
			allowed = { always = no }
			removal_cost = -1
			picture = NZL_Urbanization_Crisis
			modifier = {
				consumer_goods_factor = 0.2
				industrial_capacity_factory = -0.15
				industrial_capacity_dockyard = -0.15
			}
		}
	}



##### Ministers England ######
	head_of_government = {
		ENG_Alec_Douglas_Home_hog = {
			on_add = { log = "[GetDateText]: [Root.GetName]: add idea ENG_Alec_Douglas_Home_hog" }
			picture = "ENG_Alec_Douglas_Home_hog"
			allowed = {
				original_tag = ENG
				has_government = authoritarian_democrat
			}
			traits = {
				head_of_government
				authoritarian_democrat
				hog_pragmatic_statesman
			}
			cancel_if_invalid = yes
			ledger = civilian
		}
		
	}
	foreign_minister = {
		ENG_Quintin_McGarel_Hogg_for = {
			on_add = { log = "[GetDateText]: [Root.GetName]: add idea ENG_Quintin_McGarel_Hogg_for" }
			picture = "ENG_Quintin_McGarel_Hogg_for"
			allowed = {
				original_tag = ENG
				has_government = authoritarian_democrat
			}
			traits = {
				foreign_minister
				authoritarian_democrat
				for_political_appointment
			}
			cancel_if_invalid = yes
			ledger = civilian
		}
		
	}
	economy_minister = {
		ENG_Harold_Macmillan_eco = {
			on_add = { log = "[GetDateText]: [Root.GetName]: add idea ENG_Harold_Macmillan_eco" }
			picture = "ENG_Harold_Macmillan_eco"
			allowed = {
				original_tag = ENG
				has_government = authoritarian_democrat
			}
			traits = {
				economy_minister
				authoritarian_democrat
				eco_reformer
			}
			cancel_if_invalid = yes
			ledger = civilian
		}
		
	}
	security_minister = {
		ENG_Arthur_Kenneth_Chesterton_sec = {
			on_add = { log = "[GetDateText]: [Root.GetName]: add idea ENG_Arthur_Kenneth_Chesterton_sec" }
			picture = "ENG_Arthur_Kenneth_Chesterton_sec"
			allowed = {
				original_tag = ENG
				has_government = fascism
			}
			traits = {
				security_minister
				fascism
				sec_disliked_by_the_military
			}
			cancel_if_invalid = yes
			ledger = civilian
		}
	}
head_of_government = {
	ENG_Harold_Macmillan_hog = {
		on_add = { log = "[GetDateText]: [Root.GetName]: add idea ENG_Harold_Macmillan_hog" }
		picture = "ENG_Harold_Macmillan_eco"
		allowed = {
			original_tag = ENG
			has_government = social_conservative
		}
		traits = {
			head_of_government
			social_conservative
			hog_defender_of_democracy
		}
		cancel_if_invalid = yes
		ledger = civilian
	}
}
###NDL 

head_of_government = { 
	ENG_David_Eccles_hog = {
		on_add = { log = "[GetDateText]: [Root.GetName]: add idea ENG_David_Eccles_hog" }
		picture = "Minister_David_Eccles"
		allowed = {
			original_tag = ENG
			has_government = social_conservative
		}
		traits = { 
			head_of_government 
			social_conservative
			hog_silent_workhorse
		}
		cancel_if_invalid = yes 
		ledger = civilian
	}
}
economy_minister = {
	ENG_Shirley_Williams_eco = {
		on_add = { log = "[GetDateText]: [Root.GetName]: add idea ENG_Shirley_Williams_eco" }
		picture = "Minister_Shirley_Williams"
		allowed = {
			original_tag = ENG
			has_government = social_conservative
		}
		traits = {
			economy_minister
			social_liberal
			eco_mixed_economy
		}
		cancel_if_invalid = yes
		ledger = civilian
	}
}

foreign_minister = {
	ENG_Norman_St_John_Stevas_for = {
		on_add = { log = "[GetDateText]: [Root.GetName]: add idea ENG_Norman_St_John_Stevas_for" }
		picture = "Minister_Norman_St_John_Stevas"
		allowed = {
			original_tag = ENG
			has_government = social_conservative
		}
		traits = {
			foreign_minister
			social_liberal
			for_political_appointment
		}
		cancel_if_invalid = yes
		ledger = civilian
	}
}

security_minister = {
	ENG_Enoch_Powell_sec = {
		on_add = { log = "[GetDateText]: [Root.GetName]: add idea ENG_Enoch_Powell_sec" }
		picture = "Minister_Enoch_Powell"
		allowed = {
			original_tag = ENG
			has_government = social_conservative
		}
		traits = {
			security_minister
			authoritarian_democrat
			sec_resistance_hero
		}
		cancel_if_invalid = yes
		ledger = civilian
	}
}

### SLP ###
head_of_government = { 
	ENG_Reg_Birch_hog = {
		on_add = { log = "[GetDateText]: [Root.GetName]: add idea ENG_Reg_Birch_hog" }
		picture = "Minister_Reg_Birch"
		allowed = {
			original_tag = ENG
			has_government = socialist
		}
		traits = { 
			head_of_government 
			communist
			hog_ambitious_union_boss
		}
		cancel_if_invalid = yes 
		ledger = civilian
	}
}
economy_minister = {
	ENG_Alfred_Robens_eco = {
		on_add = { log = "[GetDateText]: [Root.GetName]: add idea ENG_Alfred_Robens_eco" }
		picture = "Minister_Alfred_Robens"
		allowed = {
			original_tag = ENG
			has_government = socialist
		}
		traits = {
			economy_minister
			socialist
			eco_resource_industrialist
		}
		cancel_if_invalid = yes
		ledger = civilian
	}
}

foreign_minister = {
	ENG_Peter_Shore_for = {
		on_add = { log = "[GetDateText]: [Root.GetName]: add idea ENG_Peter_Shore_for" }
		picture = "Minister_Peter_Shore"
		allowed = {
			original_tag = ENG
			has_government = socialist
		}
		traits = {
			foreign_minister
			socialist
			for_fierce_negotiator
		}
		cancel_if_invalid = yes
		ledger = civilian
	}
}

security_minister = {
	ENG_Bill_Alexander_sec = {
		on_add = { log = "[GetDateText]: [Root.GetName]: add idea ENG_Bill_Alexander_sec" }
		picture = "Minister_Bill_Alexander"
		allowed = {
			original_tag = ENG
			has_government = socialist
		}
		traits = {
			security_minister
			communist
			sec_resistance_hero
		}
		cancel_if_invalid = yes
		ledger = civilian
	}
}

### Thatcher ###
head_of_government = { 
	ENG_Rab_Butler_hog = {
		on_add = { log = "[GetDateText]: [Root.GetName]: add idea ENG_Rab_Butler_hog" }
		picture = "Minister_Rab_Butler"
		allowed = {
			original_tag = ENG
			has_government = authoritarian_democrat
		}
		traits = { 
			head_of_government 
			authoritarian_democrat
			hog_intelligentsia
		}
		cancel_if_invalid = yes 
		ledger = civilian
	}
	ENG_Keith_Joseph_hog = {
		on_add = { log = "[GetDateText]: [Root.GetName]: add idea ENG_Keith_Joseph_hog" }
		picture = "Minister_Keith_Joseph"
		allowed = {
			original_tag = ENG
			has_government = authoritarian_democrat
		}
		traits = { 
			head_of_government 
			authoritarian_democrat
			hog_devoted_follower
		}
		cancel_if_invalid = yes 
		ledger = civilian
	}
}

economy_minister = {
	ENG_John_Biffen_eco = {
		on_add = { log = "[GetDateText]: [Root.GetName]: add idea ENG_John_Biffen_eco" }
		picture = "Minister_John_Biffen"
		allowed = {
			original_tag = ENG
			has_government = authoritarian_democrat
		}
		traits = {
			economy_minister
			authoritarian_democrat
			eco_laissez_faire_capitalist
		}
		cancel_if_invalid = yes
		ledger = civilian
	}
	ENG_Peter_Thorneycroft_eco = {
		on_add = { log = "[GetDateText]: [Root.GetName]: add idea ENG_Peter_Thorneycroft_eco" }
		picture = "Minister_Peter_Thorneycroft"
		allowed = {
			original_tag = ENG
			has_government = authoritarian_democrat
		}
		traits = {
			economy_minister
			authoritarian_democrat
			eco_balanced_budget_economy
		}
		cancel_if_invalid = yes
		ledger = civilian
	}
}

foreign_minister = {
	ENG_Francis_Pym_for = {
		on_add = { log = "[GetDateText]: [Root.GetName]: add idea ENG_Francis_Pym_for" }
		picture = "Minister_Francis_Pym"
		allowed = {
			original_tag = ENG
			has_government = authoritarian_democrat
		}
		traits = {
			foreign_minister
			authoritarian_democrat
			for_great_compromiser
		}
		cancel_if_invalid = yes
		ledger = civilian
	}
}

security_minister = {
	ENG_Anthony_Barber_sec = {
		on_add = { log = "[GetDateText]: [Root.GetName]: add idea ENG_Anthony_Barber_sec" }
		picture = "Minister_Anthony_Barber"
		allowed = {
			original_tag = ENG
			has_government = authoritarian_democrat
		}
		traits = {
			security_minister
			authoritarian_democrat
			sec_steadfast_defender
		}
		cancel_if_invalid = yes
		ledger = civilian
	}
}

### MacMillan ###
head_of_government = { 
	ENG_Reginald_Maudling_hog = {
		on_add = { log = "[GetDateText]: [Root.GetName]: add idea ENG_Reginald_Maudling_hog" }
		picture = "Minister_Reginald_Maudling"
		allowed = {
			original_tag = ENG
			has_government = social_conservative
		}
		traits = { 
			head_of_government 
			social_liberal
			hog_believer_in_democracy
		}
		cancel_if_invalid = yes 
		ledger = civilian
	}
}
economy_minister = {
	ENG_Ralph_Assheton_eco = {
		on_add = { log = "[GetDateText]: [Root.GetName]: add idea ENG_Ralph_Assheton_eco" }
		picture = "Minister_Ralph_Assheton"
		allowed = {
			original_tag = ENG
			has_government = social_conservative
		}
		traits = {
			economy_minister
			social_conservative
			eco_keynesian_economy
		}
		cancel_if_invalid = yes
		ledger = civilian
	}
}

foreign_minister = {
	ENG_Selwyn_Lloyd_for = {
		on_add = { log = "[GetDateText]: [Root.GetName]: add idea ENG_Selwyn_Lloyd_for" }
		picture = "Minister_Selwyn_Lloyd"
		allowed = {
			original_tag = ENG
			has_government = social_conservative
		}
		traits = {
			foreign_minister
			social_conservative
			for_seasoned_ambassador
		}
		cancel_if_invalid = yes
		ledger = civilian
	}
}

security_minister = {
	ENG_Anthony_Kershaw_sec = {
		on_add = { log = "[GetDateText]: [Root.GetName]: add idea ENG_Anthony_Kershaw_sec" }
		picture = "Minister_Anthony_Kershaw"
		allowed = {
			original_tag = ENG
			has_government = social_conservative
		}
		traits = {
			security_minister
			social_conservative
			sec_silent_lawyer
		}
		cancel_if_invalid = yes
		ledger = civilian
	}
}
}