focus_tree = {
	id = ofn_car
	country = {
		factor = 0
		modifier = {
			add = 10
			tag = MZB
		}
	}
	default = no
	shared_focus = OFN_CAR_ruling_a_continent
}

focus_tree = {
	id = ofn_car_disaster
	country = {
		factor = 0
		modifier = {
			add = 10
			tag = MZB
		}
	}
	default = no
	shared_focus = OFN_CAR_the_all_african_disaster
}

focus_tree = {
	id = ofn_car_african_crisis_victory
	country = {
		factor = 0
		modifier = {
			add = 10
			tag = MZB
		}
	}
	default = no
	shared_focus = OFN_CAR_a_great_victory
}