focus_tree = {
	id = ofn_congo
	country = {
		factor = 0
	}
	default = no
	focus = {
		id = OFN_COG_under_new_management
		icon = GFX_USA_Praise_The_OFN
		cost = 5
		x = 10
		y = 0

		available = {
			#hidden_trigger = {
			#	OR = {
			#		ANG = { has_country_flag = OFN_MANDATE_country_is_chosen }
			#		COG = { has_country_flag = OFN_MANDATE_country_is_chosen }
			#		MZB = { has_country_flag = OFN_MANDATE_country_is_chosen }
			#	}
			#}
		}

		completion_reward = {
			add_political_power = 50
		}

	}
	focus = {
		id = OFN_COG_the_central_african_administration
		icon = GFX_goal_OFN_COG_The_Central_African_Administration
		cost = 5
		prerequisite = {
			focus = OFN_COG_under_new_management
		}
		x = 2
		y = 1

		completion_reward = {
			add_political_power = 10
			add_popularity = {
				ideology = authoritarian_democrat
				popularity = 0.033
			}
		}

	}
	focus = {
		id = OFN_COG_invite_german_sympathisers
		icon = GFX_GER_to_all_who_fought
		cost = 5
		prerequisite = {
			focus = OFN_COG_the_central_african_administration
		}
		mutually_exclusive = {
			focus = OFN_COG_keep_it_american
		}
		x = 1
		y = 2

		completion_reward = {
			add_to_variable = { OFN_MANDATE_rebel_stability = 0.05 }
			clamp_variable = {
				var = OFN_MANDATE_rebel_stability
				max = 1
				min = 0
			}
			custom_effect_tooltip = OFN_AFRICA_MANDATE_medium_stability_increase_tt
			custom_effect_tooltip = OFN_COG_natives_mad_tt
			set_country_flag = OFN_COG_Work_With_Germans
			hidden_effect = {
				country_event = {
					id = OFN_COG.12
					days = 10
				}
			}
		}

	}
	focus = {
		id = OFN_COG_a_deal_with_steiner
		icon = GFX_goal_COG_icon_steiner_strategy
		cost = 5
		prerequisite = {
			focus = OFN_COG_invite_german_sympathisers
		}
		x = 1
		y = 3

		completion_reward = {
			add_to_variable = { OFN_MANDATE_rebel_stability = 0.05 }
			clamp_variable = {
				var = OFN_MANDATE_rebel_stability
				max = 1
				min = 0
			}
			custom_effect_tooltip = OFN_AFRICA_MANDATE_medium_stability_increase_tt

			add_to_variable = { OFN_MANDATE_administrative_hold = -0.02 }
			clamp_variable = {
				var = OFN_MANDATE_administrative_hold
				max = 1
				min = 0
			}
			custom_effect_tooltip = OFN_AFRICA_MANDATE_small_admin_decrease_tt
		}

	}
	focus = {
		id = OFN_COG_gain_from_the_german_expertise
		icon = GFX_MZB_master_the_jungle
		cost = 5
		prerequisite = {
			focus = OFN_COG_a_deal_with_steiner
		}
		x = 0
		y = 4

		completion_reward = {
			add_tech_bonus = {
				bonus = 1
				uses = 1
				category = electronics
			}
			add_to_variable = { OFN_MANDATE_rebel_stability = 0.1 }
			clamp_variable = {
				var = OFN_MANDATE_rebel_stability
				max = 1
				min = 0
			}
			custom_effect_tooltip = OFN_AFRICA_MANDATE_huge_stability_increase_tt
			add_to_variable = { money_reserves = 2}
			custom_effect_tooltip = OFN_COG_Money_2_tt
		}

	}
	focus = {
		id = OFN_COG_keep_it_american
		icon = GFX_American_Funding
		cost = 5
		prerequisite = {
			focus = OFN_COG_the_central_african_administration
		}
		mutually_exclusive = {
			focus = OFN_COG_invite_german_sympathisers
		}
		x = 3
		y = 2

		completion_reward = {
			set_country_flag = OFN_COG_Fuck_The_Germans
			set_country_flag = OFN_COG_German_Mercs
			add_to_variable = { OFN_MANDATE_rebel_stability = 0.1 }
			clamp_variable = {
				var = OFN_MANDATE_rebel_stability
				max = 1
				min = 0
			}
			custom_effect_tooltip = OFN_AFRICA_MANDATE_huge_stability_increase_tt
			custom_effect_tooltip = OFN_COG_germans_mad_tt
			hidden_effect = {
				country_event = {
					id = OFN_COG.13
					days = 30
				}
			}
		}

	}
	focus = {
		id = OFN_COG_the_central_african_consortium
		icon = GFX_goal_OFN_COG_The_Central_African_Consortium
		cost = 5
		prerequisite = {
			focus = OFN_COG_keep_it_american
		}
		x = 3
		y = 3

		completion_reward = {
			add_to_variable = { OFN_MANDATE_rebel_stability = 0.02 }
			clamp_variable = {
				var = OFN_MANDATE_rebel_stability
				max = 1
				min = 0
			}
			custom_effect_tooltip = OFN_AFRICA_MANDATE_small_stability_increase_tt
			add_to_variable = { money_reserves = 5 }
			custom_effect_tooltip = OFN_COG_Money_5_tt
		}

	}
	focus = {
		id = OFN_COG_special_status_for_the_dam
		icon = GFX_generic_diplomacy_industrial
		cost = 5
		prerequisite = {
			focus = OFN_COG_a_deal_with_steiner
			focus = OFN_COG_the_central_african_consortium
		}
		x = 2
		y = 4

		completion_reward = {
			add_to_variable = { OFN_MANDATE_rebel_stability = 0.05 }
			clamp_variable = {
				var = OFN_MANDATE_rebel_stability
				max = 1
				min = 0
			}
			custom_effect_tooltip = OFN_AFRICA_MANDATE_medium_stability_increase_tt
			add_to_variable = { money_reserves = 10 }
			custom_effect_tooltip = OFN_COG_Money_10_tt
		}

	}
	focus = {
		id = OFN_COG_for_american_interests
		icon = GFX_USA_money
		cost = 5
		prerequisite = {
			focus = OFN_COG_the_central_african_consortium
		}
		x = 4
		y = 4

		completion_reward = {
			add_tech_bonus = {
				bonus = 1
				uses = 1
				category = industry
			}
			add_to_variable = { OFN_MANDATE_rebel_stability = 0.02 }
			custom_effect_tooltip = OFN_AFRICA_MANDATE_small_stability_increase_tt
			clamp_variable = {
				var = OFN_MANDATE_rebel_stability
				max = 1
				min = 0
			}
		}

	}
	focus = {
		id = OFN_COG_assess_the_situation
		icon = GFX_Generic_Admininistration
		cost = 5
		prerequisite = {
			focus = OFN_COG_under_new_management
		}
		x = 10
		y = 1

		completion_reward = {
			add_political_power = 10
			add_command_power = 20
		}

	}
	focus = {
		id = OFN_COG_books_studying
		icon = GFX_COG_arange_the_books
		cost = 5
		prerequisite = {
			focus = OFN_COG_assess_the_situation
		}
		x = 9
		y = 2

		completion_reward = {
			add_political_power = 5
			add_offsite_building = { type = industrial_complex level = 1 }
		}

	}
	focus = {
		id = OFN_COG_archive_mining
		icon = GFX_Generic_Constitution
		cost = 5
		prerequisite = {
			focus = OFN_COG_assess_the_situation
		}
		x = 11
		y = 2

		completion_reward = {
			add_political_power = 5
			army_experience = 1
			navy_experience = 1
			air_experience = 1
		}

	}
	focus = {
		id = OFN_COG_keep_a_working_system
		icon = GFX_goal_COG_icon_mercenary_industries
		cost = 5
		prerequisite = {
			focus = OFN_COG_books_studying
		}
		prerequisite = {
			focus = OFN_COG_archive_mining
		}
		mutually_exclusive = {
			focus = OFN_COG_from_the_ground_up
		}
		x = 8
		y = 3

		completion_reward = {
			swap_ideas = {
				remove_idea = COG_OFN_Legacy_Zentralafrikaner_System_1
				add_idea = COG_OFN_Legacy_Zentralafrikaner_System_2
			}

			add_to_variable = { OFN_MANDATE_administrative_hold = -0.05 }
			clamp_variable = {
				var = OFN_MANDATE_administrative_hold
				max = 1
				min = 0
			}
			custom_effect_tooltip = OFN_AFRICA_MANDATE_medium_admin_decrease_tt
		}

	}
	focus = {
		id = OFN_COG_meet_the_belgians
		icon = GFX_goal_COG_icon_the_schramme_deal
		cost = 5
		prerequisite = {
			focus = OFN_COG_keep_a_working_system
		}
		x = 6
		y = 4

		completion_reward = {
			country_event = {
				id = OFN_COG.2
				days = 1
			}
		}

	}
	focus = {
		id = OFN_COG_the_belgian_proposal
		icon = GFX_goal_COG_icon_the_belgian_connection
		cost = 5
		prerequisite = {
			focus = OFN_COG_for_american_interests
			focus = OFN_COG_meet_the_belgians
		}
		x = 4
		y = 5

		completion_reward = {
			add_tech_bonus = {
				bonus = 1
				uses = 1
				category = industry
			}
			add_to_variable = { OFN_MANDATE_rebel_stability = 0.02 }
			clamp_variable = {
				var = OFN_MANDATE_rebel_stability
				max = 1
				min = 0
			}
			custom_effect_tooltip = OFN_AFRICA_MANDATE_small_stability_increase_tt
			add_to_variable = { money_reserves = 2 }
			custom_effect_tooltip = OFN_COG_Money_2_tt
		}

	}
	focus = {
		id = OFN_COG_from_the_ground_up
		icon = GFX_ANG_build_quickly
		cost = 5
		prerequisite = {
			focus = OFN_COG_books_studying
		}
		prerequisite = {
			focus = OFN_COG_archive_mining
		}
		mutually_exclusive = {
			focus = OFN_COG_keep_a_working_system
		}
		x = 12
		y = 3

		completion_reward = {
			swap_ideas = {
				remove_idea = COG_OFN_Legacy_Zentralafrikaner_System_1
				add_idea = COG_OFN_From_The_Ground_Up_1
			}
		}

	}
	focus = {
		id = OFN_COG_jumpstart_the_economy
		icon = GFX_generic_benefit_general
		cost = 5
		prerequisite = {
			focus = OFN_COG_keep_a_working_system
			focus = OFN_COG_from_the_ground_up
		}
		x = 10
		y = 4

		completion_reward = {
			OFN_COG_Unhappy_Investors_Leveler = yes
			add_to_variable = { money_reserves = 5 }
			custom_effect_tooltip = OFN_COG_Money_5_tt
		}

	}
	focus = {
		id = OFN_COG_the_abrams_plan
		icon = GFX_goal_OFN_COG_The_Abrams_Plan
		cost = 5
		prerequisite = {
			focus = OFN_COG_from_the_ground_up
		}
		x = 12
		y = 4

		completion_reward = {
			OFN_COG_Unhappy_Investors_Leveler = yes
			unlock_decision_category_tooltip = OFN_COG_the_abrams_plan_decisions
		}

	}
	focus = {
		id = OFN_COG_promote_african_ventures
		icon = GFX_goal_OFN_COG_Promote_African_Ventures
		cost = 5
		prerequisite = {
			focus = OFN_COG_the_abrams_plan
		}
		prerequisite = {
			focus = OFN_COG_jumpstart_the_economy
		}
		x = 12
		y = 5

		completion_reward = {
			OFN_COG_Unhappy_Investors_Leveler = yes
			if = {
				limit = {
				has_country_flag = OFN_COG_Fuck_The_Germans 
				}
				add_to_variable = { money_reserves = 8 }
				custom_effect_tooltip = OFN_COG_Money_8_tt
			}
			else = {
				add_to_variable = { money_reserves = 4 }
				custom_effect_tooltip = OFN_COG_Money_4_tt
			}
		}

	}
	focus = {
		id = OFN_COG_open_up_the_lake
		icon = GFX_Generic_Ship_Trade
		cost = 5
		prerequisite = {
			focus = OFN_COG_jumpstart_the_economy
		}
		x = 10
		y = 5

		completion_reward = {
			OFN_COG_Unhappy_Investors_Leveler = yes
			add_to_variable = { money_reserves = 8 }
			custom_effect_tooltip = OFN_COG_Money_8_tt
		}

	}
	focus = {
		id = OFN_COG_our_friends_at_standard_oil
		icon = GFX_goal_OFN_COG_Our_Friends_At_Standard_Oil
		cost = 5
		prerequisite = {
			focus = OFN_COG_open_up_the_lake
		}
		prerequisite = {
			focus = OFN_COG_promote_african_ventures
		}
		x = 12
		y = 6

		completion_reward = {
			OFN_COG_Unhappy_Investors_Leveler = yes
			add_resource = {
				type = oil
				amount = 10
				state = 1170
			}
			if = {
				limit = {
				has_country_flag = OFN_COG_Fuck_The_Germans 
				}
				add_to_variable = { money_reserves = 20 }
				custom_effect_tooltip = OFN_COG_Money_20_tt
			}
			else = {
				add_to_variable = { money_reserves = 10 }
				custom_effect_tooltip = OFN_COG_Money_10_tt
			}
		}

	}
	focus = {
		id = OFN_COG_create_administrative_divisions
		icon = GFX_Generic_Admininistration
		cost = 5
		prerequisite = {
			focus = OFN_COG_from_the_ground_up
		}
		x = 14
		y = 4

		completion_reward = {
			unlock_decision_category_tooltip = OFN_COG_create_administrative_divisions_decisions
		}

	}
	focus = {
		id = OFN_COG_stratified_administration
		icon = GFX_ORE_adapting_their_strategies
		cost = 5
		prerequisite = {
			focus = OFN_COG_create_administrative_divisions
		}
		x = 14
		y = 5

		completion_reward = {
			swap_ideas = {
				remove_idea = COG_OFN_From_The_Ground_Up_1
				add_idea = COG_OFN_From_The_Ground_Up_2
			}

			add_to_variable = { OFN_MANDATE_administrative_hold = 0.05 }
			clamp_variable = {
				var = OFN_MANDATE_administrative_hold
				max = 1
				min = 0
			}
			custom_effect_tooltip = OFN_AFRICA_MANDATE_medium_admin_increase_tt
		}
	}
	focus = {
		id = OFN_COG_reward_loyalty
		icon = GFX_SAM_Our_Loyalty
		cost = 5
		prerequisite = {
			focus = OFN_COG_stratified_administration
		}
		x = 14
		y = 6

		completion_reward = {
			swap_ideas = {
				remove_idea = COG_OFN_From_The_Ground_Up_2
				add_idea = COG_OFN_From_The_Ground_Up_3
			}
		}

	}
	focus = {
		id = OFN_COG_figure_out_the_natives
		icon = GFX_goal_OFN_COG_Figure_Out_the_Natives
		cost = 5
		prerequisite = {
			focus = OFN_COG_under_new_management
		}
		x = 18
		y = 1

		completion_reward = {
			add_political_power = 10
			add_stability = 0.025
		}

	}
	focus = {
		id = OFN_COG_meet_kasa_vubu
		icon = GFX_goal_OFN_COG_Meet_Kasa_Vubu
		cost = 5
		prerequisite = {
			focus = OFN_COG_figure_out_the_natives
		}
		x = 16
		y = 2

		completion_reward = {
			country_event = {
				id = OFN_COG.4
				days = 1
			}
		}

	}
	focus = {
		id = OFN_COG_meet_mba
		icon = GFX_goal_OFN_COG_Meet_Mba
		cost = 5
		prerequisite = {
			focus = OFN_COG_meet_kasa_vubu
		}
		x = 16
		y = 3

		completion_reward = {
			country_event = {
				id = OFN_COG.5
				days = 1
			}
		}

	}
	focus = {
		id = OFN_COG_the_cameroonian_issue
		icon = GFX_goal_OFN_COG_The_Cameroonian_Issue
		cost = 5
		prerequisite = {
			focus = OFN_COG_figure_out_the_natives
		}
		x = 18
		y = 2

		completion_reward = {
			swap_ideas = {
				remove_idea = COG_OFN_Manace_of_Cameroon_1
				add_idea = COG_OFN_Manace_of_Cameroon_2
			}
			add_to_variable = { OFN_MANDATE_rebel_stability = 0.02 }
			clamp_variable = {
				var = OFN_MANDATE_rebel_stability
				max = 1
				min = 0
			}
			custom_effect_tooltip = OFN_AFRICA_MANDATE_small_stability_increase_tt
		}

	}
	focus = {
		id = OFN_COG_call_mobutu
		icon = GFX_goal_OFN_COG_Call_Mobutu
		cost = 5
		prerequisite = {
			focus = OFN_COG_the_cameroonian_issue
		}
		x = 18
		y = 3

		completion_reward = {
			country_event = {
				id = OFN_COG.6
				days = 1
			}
		}

	}
	focus = {
		id = OFN_COG_prepare_the_ground
		icon = GFX_CHI_Conference_Time
		cost = 5
		prerequisite = {
			focus = OFN_COG_meet_mba
		}
		prerequisite = {
			focus = OFN_COG_call_mobutu
		}
		x = 17
		y = 4

		completion_reward = {
			add_political_power = 30
			add_to_variable = { OFN_MANDATE_rebel_stability = 0.02 }
			clamp_variable = {
				var = OFN_MANDATE_rebel_stability
				max = 1
				min = 0
			}
			custom_effect_tooltip = OFN_AFRICA_MANDATE_small_stability_increase_tt
		}

	}
	focus = {
		id = OFN_COG_the_leopoldville_comittee
		icon = GFX_goal_OFN_COG_The_Leopoldville_Committee
		cost = 5
		prerequisite = {
			focus = OFN_COG_prepare_the_ground
		}
		prerequisite = {
			focus = OFN_COG_the_future_of_hitlerstadt
		}
		x = 17
		y = 5

		completion_reward = {
			add_ideas = COG_OFN_Leopoldville_Committee
			add_to_variable = { OFN_MANDATE_rebel_stability = 0.10 }
			clamp_variable = {
				var = OFN_MANDATE_rebel_stability
				max = 1
				min = 0
			}
			custom_effect_tooltip = OFN_COG_leopoldville_committee_tt

			add_to_variable = { OFN_MANDATE_administrative_hold = 0.05 }
			clamp_variable = {
				var = OFN_MANDATE_administrative_hold
				max = 1
				min = 0
			}
			custom_effect_tooltip = OFN_AFRICA_MANDATE_medium_admin_increase_tt
		}

	}
	focus = {
		id = OFN_COG_crackdown_on_the_revolutionaries
		icon = GFX_goal_Generic_Anti_Socialism
		cost = 5
		prerequisite = {
			focus = OFN_COG_the_leopoldville_comittee
		}
		x = 16
		y = 6

		completion_reward = {
			add_to_variable = { OFN_MANDATE_rebel_stability = 0.05 }
			clamp_variable = {
				var = OFN_MANDATE_rebel_stability
				max = 1
				min = 0
			}
			custom_effect_tooltip = OFN_AFRICA_MANDATE_medium_stability_increase_tt
			if = {
				limit = {
				has_completed_focus = OFN_COG_blacklist_the_african_ss 
				}
				add_political_power = 20
			}
			else = {
				country_event = {
					id = OFN_COG.15
					days = 28
				}
			}
		}

	}
	focus = {
		id = OFN_COG_restore_order_in_congo
		icon = GFX_ORE_call_the_council_to_order
		cost = 5
		prerequisite = {
			focus = OFN_COG_crackdown_on_the_revolutionaries
		}
		prerequisite = {
			focus = OFN_COG_blacklist_the_african_ss
		}
		available = { has_country_flag = OFN_COG_Congo_Crisis }
		x = 17
		y = 7

		completion_reward = {
			add_political_power = 30
			add_days_mission_timeout = {
				mission = OFN_COG_Congo_Crisis_Timer
				days = 30
			}
			custom_effect_tooltip = OFN_COG_decolonization_focus_tt
		}
	}
	focus = {
		id = OFN_COG_blacklist_the_african_ss
		icon = GFX_goal_OFN_COG_Blacklist_the_African_SS
		cost = 5
		prerequisite = {
			focus = OFN_COG_the_leopoldville_comittee
		}
		x = 18
		y = 6

		completion_reward = {
			add_to_variable = { OFN_MANDATE_rebel_stability = 0.05 }
			clamp_variable = {
				var = OFN_MANDATE_rebel_stability
				max = 1
				min = 0
			}
			custom_effect_tooltip = OFN_AFRICA_MANDATE_medium_stability_increase_tt
			if = {
				limit = {
				has_completed_focus = OFN_COG_crackdown_on_the_revolutionaries 
				}
				add_political_power = 20
			}
			else = {
				country_event = {
					id = OFN_COG.14
					days = 28
				}
			}
		}

	}
	focus = {
		id = OFN_COG_meet_the_mercs
		icon = GFX_goal_COG_icon_conscript_the_mercenaries
		cost = 5
		prerequisite = {
			focus = OFN_COG_keep_a_working_system
		}
		x = 8
		y = 4

		completion_reward = {
			country_event = {
				id = OFN_COG.3
				days = 1
			}
		}

	}
	focus = {
		id = OFN_COG_call_back_the_investors
		icon = GFX_TNO_Generic_Foreign_Investment
		cost = 5
		prerequisite = {
			focus = OFN_COG_meet_the_mercs
		}
		prerequisite = {
			focus = OFN_COG_jumpstart_the_economy
		}
		x = 8
		y = 5

		completion_reward = {
			OFN_COG_Unhappy_Investors_Leveler = yes
			if = {
				limit = {
				has_country_flag = OFN_COG_Fuck_The_Germans 
				}
				add_to_variable = { money_reserves = 4 }
				custom_effect_tooltip = OFN_COG_Money_4_tt
			}
			else = {
				add_to_variable = { money_reserves = 2 }
				custom_effect_tooltip = OFN_COG_Money_2_tt
			}
		}

	}
	focus = {
		id = OFN_COG_plantations_funding
		icon = GFX_GER_plantations_beckon
		cost = 5
		prerequisite = {
			focus = OFN_COG_meet_the_belgians
		}
		x = 6
		y = 5

		completion_reward = {
			unlock_decision_category_tooltip = OFN_COG_local_development_decisions
		}

	}
	focus = {
		id = OFN_COG_the_new_smiling_man
		icon = GFX_goal_OFN_COG_The_New_Smiling_Man
		cost = 5
		prerequisite = {
			focus = OFN_COG_reassure_the_market
		}
		prerequisite = {
			focus = OFN_COG_reopen_the_mines
		}
		x = 8
		y = 7

		completion_reward = {
			remove_ideas = COG_OFN_Unhappy_Investors_6
			custom_effect_tooltip = OFN_COG_decolonization_focus_tt
		}

	}
	focus = {
		id = OFN_COG_the_american_way
		icon = GFX_Generic_America_Return_Troops
		cost = 5
		prerequisite = {
			focus = OFN_COG_our_friends_at_standard_oil
		}
		prerequisite = {
			focus = OFN_COG_reward_loyalty
		}
		x = 12
		y = 7

		completion_reward = {
			remove_ideas = COG_OFN_Unhappy_Investors_6
			custom_effect_tooltip = OFN_COG_decolonization_focus_tt
		}

	}
	focus = {
		id = OFN_COG_root_out_the_germans
		icon = GFX_goal_OFN_MZB_Degermanization
		cost = 5
		prerequisite = {
			focus = OFN_COG_figure_out_the_natives
		}
		x = 20
		y = 2

		completion_reward = {
			add_to_variable = { OFN_MANDATE_rebel_stability = 0.05 }
			clamp_variable = {
				var = OFN_MANDATE_rebel_stability
				max = 1
				min = 0
			}
			custom_effect_tooltip = OFN_AFRICA_MANDATE_medium_stability_increase_tt
			add_manpower = -1000
		}

	}
	focus = {
		id = OFN_COG_eliminate_the_resistance
		icon = GFX_UPO_burn_their_barns
		cost = 5
		prerequisite = {
			focus = OFN_COG_root_out_the_germans
		}
		x = 20
		y = 3

		completion_reward = {
			add_to_variable = { OFN_MANDATE_rebel_stability = 0.05 }
			clamp_variable = {
				var = OFN_MANDATE_rebel_stability
				max = 1
				min = 0
			}
			custom_effect_tooltip = OFN_AFRICA_MANDATE_medium_stability_increase_tt
		}

	}
	focus = {
		id = OFN_COG_the_future_of_hitlerstadt
		icon = GFX_RAJ_Question_Agriculture
		cost = 5
		prerequisite = {
			focus = OFN_COG_eliminate_the_resistance
		}
		x = 20
		y = 4

		completion_reward = {
			country_event = {
				id = OFN_COG.7
				days = 1
			}
		}

	}
	focus = {
		id = OFN_COG_make_new_from_the_old
		icon = GFX_PRM_Work_For_Your_Nation
		cost = 5
		prerequisite = {
			focus = OFN_COG_gain_from_the_german_expertise
		}
		x = 0
		y = 5

		completion_reward = {
			add_tech_bonus = {
				bonus = 1
				uses = 1
				category = electronics
			}
			add_to_variable = { OFN_MANDATE_rebel_stability = 0.05 }
			clamp_variable = {
				var = OFN_MANDATE_rebel_stability
				max = 1
				min = 0
			}
			custom_effect_tooltip = OFN_AFRICA_MANDATE_medium_stability_increase_tt
			add_to_variable = { money_reserves = 2 }
			custom_effect_tooltip = OFN_COG_Money_2_tt
		}

	}
	focus = {
		id = OFN_COG_prepare_for_the_future
		icon = GFX_GER_invest_in_the_future
		cost = 5
		prerequisite = {
			focus = OFN_COG_make_new_from_the_old
			focus = OFN_COG_the_belgian_proposal
		}
		prerequisite = {
			focus = OFN_COG_special_status_for_the_dam
		}
		available = {
			OR = {
				has_completed_focus = OFN_COG_the_new_smiling_man
				has_completed_focus = OFN_COG_the_american_way
			}
		}
		x = 2
		y = 6

		completion_reward = {
			add_to_variable = { OFN_MANDATE_rebel_stability = 0.10 }
			clamp_variable = {
				var = OFN_MANDATE_rebel_stability
				max = 1
				min = 0
			}
			custom_effect_tooltip = OFN_AFRICA_MANDATE_huge_stability_increase_tt
			custom_effect_tooltip = OFN_COG_decolonization_focus_tt
			hidden_effect = {
				country_event = {
					id = OFN_COG.12
					days = 10
				}
			}
		}

	}
	focus = {
		id = OFN_COG_reassure_the_market
		icon = GFX_goal_COG_icon_the_global_market
		cost = 5
		prerequisite = {
			focus = OFN_COG_open_up_the_lake
		}
		prerequisite = {
			focus = OFN_COG_call_back_the_investors
		}
		x = 8
		y = 6

		completion_reward = {
			OFN_COG_Unhappy_Investors_Leveler = yes
			if = {
				limit = {
				has_country_flag = OFN_COG_Work_With_Germans 
				}
				add_to_variable = { money_reserves = 6 }
				custom_effect_tooltip = OFN_COG_Money_8_tt
			}
			else = {
				add_to_variable = { money_reserves = 3 }
				custom_effect_tooltip = OFN_COG_Money_4_tt
			}
			
		}

	}
	focus = {
		id = OFN_COG_reopen_the_mines
		icon = GFX_WRS_re_open_mines
		cost = 5
		prerequisite = {
			focus = OFN_COG_plantations_funding
		}
		prerequisite = {
			focus = OFN_COG_call_back_the_investors
		}
		x = 6
		y = 6

		completion_reward = {
			OFN_COG_Unhappy_Investors_Leveler = yes
			unlock_decision_tooltip = OFN_COG_reopen_bondo_mine
			unlock_decision_tooltip = OFN_COG_reopen_kindu_mine
		}
	}
}
