#FIRST TREE 

shared_focus = {
	id = OFN_CAR_ruling_a_continent
	icon = GFX_Focus_Africa_Orthographic
	cost = 4
	x = 7
	y = 0

	available = {
		#hidden_trigger = {
		#	OR = {
		#		ANG = { has_country_flag = OFN_MANDATE_country_is_chosen }
		#		COG = { has_country_flag = OFN_MANDATE_country_is_chosen }
		#		MZB = { has_country_flag = OFN_MANDATE_country_is_chosen }
		#	}
		#}
	}

	completion_reward = {
		add_political_power = 150
		hidden_effect = {
		add_stability = -0.20
		add_popularity = {
				ideology = authoritarian_democrat
				popularity = 0.05
			}
		}
		USA_AFRICA_core_africa = yes
		custom_effect_tooltip = OFN_AFRICA_MANDATE_will_core_africa_tt
		country_event = {
			id = OFN_CAR_FOCUS.1
			days = 1
		}
		hidden_effect = {
		country_event = {
			id = OFN_CAR_FLAVOR.1
			days = 30
			}
		}
		hidden_effect = {
			country_event = {
				id = OFN_CAR_FLAVOR.18
				days = 70
			}
		}
	}

}
shared_focus = {
	id = OFN_CAR_the_central_african_government
	icon = GFX_goal_OFN_MZB_Secure_the_East_African_Government
	cost = 4
	prerequisite = {
		focus = OFN_CAR_ruling_a_continent
	}
	x = 6
	y = 1

	completion_reward = {
		add_political_power = -50
		add_stability = 0.05
		add_popularity = {
				ideology = authoritarian_democrat
				popularity = 0.02
			}
		add_to_variable = { OFN_MANDATE_administrative_hold = 0.02 }
		clamp_variable = {
			var = OFN_MANDATE_administrative_hold
			max = 1
			min = 0
		}
		custom_effect_tooltip = OFN_AFRICA_MANDATE_small_admin_increase_tt
		country_event = {
			id = OFN_CAR_FOCUS.2
			days = 1
		}
	}

}
shared_focus = {
	id = OFN_CAR_figuring_out_the_local_situation
	icon = GFX_goal_OFN_COG_Figure_Out_the_Natives
	cost = 4
	prerequisite = {
		focus = OFN_CAR_ruling_a_continent
	}
	x = 4
	y = 1

	completion_reward = {
		add_political_power = 25
		add_stability = 0.0025
		country_event = {
			id = OFN_CAR_FOCUS.3
			days = 1
		}

		add_to_variable = { OFN_MANDATE_rebel_stability = 0.05 }
		clamp_variable = {
			var = OFN_MANDATE_rebel_stability
			max = 1
			min = 0
		}
		custom_effect_tooltip = OFN_AFRICA_MANDATE_medium_stability_increase_tt

		hidden_effect = {
			country_event = {
				id = OFN_CAR_FLAVOR.12
				days = 50
			}
		}
	}
}
shared_focus = {
	id = OFN_CAR_a_government_of_compromises
	icon = GFX_generic_change_law_enforcement
	cost = 4
	prerequisite = {
		focus = OFN_CAR_the_central_african_government
	}
	prerequisite = {
		focus = OFN_CAR_figuring_out_the_local_situation
	}
	x = 3
	y = 2
	completion_reward = {
		add_political_power = -25
		add_stability = 0.0025
		add_to_variable = { OFN_MANDATE_administrative_hold = 0.05 }
		clamp_variable = {
			var = OFN_MANDATE_administrative_hold
			max = 1
			min = 0
		}
		custom_effect_tooltip = OFN_AFRICA_MANDATE_medium_admin_increase_tt
	}
}
shared_focus = {
	id = OFN_CAR_the_belgian_plea
	icon = GFX_goal_COG_icon_the_schramme_deal
	cost = 4
	prerequisite = {
		focus = OFN_CAR_a_government_of_compromises
	}
	x = 3
	y = 3

	completion_reward = {
		add_political_power = 50
		country_event = {
			id = OFN_CAR_FOCUS.4
			days = 1
		}
	}

}
shared_focus = {
	id = OFN_CAR_define_the_military_authorities
	icon = GFX_goal_OFN_MZB_make_room_for_our_generals
	cost = 4
	prerequisite = {
		focus = OFN_CAR_the_central_african_government
	}
	prerequisite = {
		focus = OFN_CAR_figuring_out_the_local_situation
	}
	x = 5
	y = 2
	completion_reward = {
		add_political_power = -25
		add_to_variable = { OFN_MANDATE_administrative_hold = 0.05 }
		clamp_variable = {
			var = OFN_MANDATE_administrative_hold
			max = 1
			min = 0
		}
		custom_effect_tooltip = OFN_AFRICA_MANDATE_medium_admin_increase_tt

		add_to_variable = { OFN_MANDATE_military_presence = 0.02 }
		clamp_variable = {
			var = OFN_MANDATE_military_presence
			max = 1
			min = 0
		}
		custom_effect_tooltip = OFN_AFRICA_MANDATE_small_military_increase_tt
	}
}
shared_focus = {
	id = OFN_CAR_the_anglo_demands
	icon = GFX_goal_OFN_MZB_Cooperate_with_the_Anglos
	cost = 4
	prerequisite = {
		focus = OFN_CAR_define_the_military_authorities
	}
	x = 5
	y = 3

	completion_reward = {
		add_political_power = 50
		country_event = {
			id = OFN_CAR_FOCUS.5
			days = 1
		}
		hidden_effect = {
			country_event = {
				id = OFN_CAR_FLAVOR.6
				days = 15
			}
		}
	}

}
shared_focus = {
	id = OFN_CAR_the_central_african_army
	icon = GFX_goal_OFN_CAR_The_Central_African_Army
	cost = 4
	prerequisite = {
		focus = OFN_CAR_ruling_a_continent
	}
	x = 8
	y = 1
	completion_reward = {
		army_experience = 10
		add_equipment_to_stockpile = {
				type = infantry_equipment
				amount = 500
				producer = MZB
			}
		add_equipment_to_stockpile = {
				type = anti_tank_equipment
				amount = 250
				producer = MZB
			}
		add_to_variable = { OFN_MANDATE_military_presence = 0.05 }
		clamp_variable = {
			var = OFN_MANDATE_military_presence
			max = 1
			min = 0
		}
		custom_effect_tooltip = OFN_AFRICA_MANDATE_medium_military_increase_tt
	}
}
shared_focus = {
	id = OFN_CAR_gauge_the_economy
	icon = GFX_generic_benefit_general
	cost = 4
	prerequisite = {
		focus = OFN_CAR_the_central_african_government
		focus = OFN_CAR_the_central_african_army
	}
	x = 7
	y = 2
	completion_reward = {
		add_political_power = 25
		add_stability = 0.02
		add_to_variable = {
			var = misc_income
			value = 5
		}
		custom_effect_tooltip = OFN_MZB_misc_income_5_tt
	}
}
shared_focus = {
	id = OFN_CAR_the_westmoreland_abrams_plan
	icon = GFX_goal_OFN_MZB_Promote_OFN_Investments
	cost = 4
	prerequisite = {
		focus = OFN_CAR_gauge_the_economy
	}
	prerequisite = {
		focus = OFN_CAR_define_the_military_authorities
	}
	x = 7
	y = 3

	completion_reward = {
		add_political_power = 50
		add_stability = 0.02
		country_event = {
			id = OFN_CAR_FOCUS.6
			days = 1
		}
		add_to_variable = {
			var = misc_income
			value = 15
		}
		custom_effect_tooltip = OFN_MZB_misc_income_15_tt
	}

}
shared_focus = {
	id = OFN_CAR_the_lessons_of_success
	icon = GFX_Generic_America_Return_Troops
	cost = 4
	prerequisite = {
		focus = OFN_CAR_ruling_a_continent
	}
	x = 10
	y = 1
	completion_reward = {
		add_political_power = 25
		every_unit_leader = {
		add_logistics = 1
		}
	}
}
shared_focus = {
	id = OFN_CAR_hunt_down_the_german_remnants
	icon = GFX_goal_OFN_MZB_Degermanization
	cost = 4
	prerequisite = {
		focus = OFN_CAR_the_central_african_army
	}
	prerequisite = {
		focus = OFN_CAR_the_lessons_of_success
	}
	x = 9
	y = 2

	completion_reward = {
		add_manpower = -3000
		add_stability = 0.05
		country_event = {
			id = OFN_CAR_FOCUS.7
			days = 1
		}
		add_to_variable = { OFN_MANDATE_military_presence = 0.1 }
		clamp_variable = {
			var = OFN_MANDATE_military_presence
			max = 1
			min = 0
		}
		custom_effect_tooltip = OFN_AFRICA_MANDATE_huge_military_increase_tt
	}

}
shared_focus = {
	id = OFN_CAR_train_native_militias
	icon = GFX_goal_OFN_CAR_Train_Native_Militias
	cost = 4
	prerequisite = {
		focus = OFN_CAR_the_lessons_of_success
	}
	x = 11
	y = 2
	completion_reward = {
		custom_effect_tooltip = OFN_AFRICA_MANDATE_MILITIA_tt
		hidden_effect = {
		division_template = {
					name = "American Native Militia"
					regiments = {
						light_infantry = { x = 0 y = 0 }
						light_infantry = { x = 0 y = 1 }
					}
				}
				random_owned_state = {
					create_unit = {
						division = "name = \" 1st Native Militia \" division_template = \"American Native Militia\" start_experience_factor = -0.5 start_equipment_factor = 0.3"
						owner = ROOT
					}
				}
				random_owned_state = {
					create_unit = {
						division = "name = \" 2nd Native Militia \" division_template = \"American Native Militia\" start_experience_factor = -0.5 start_equipment_factor = 0.3"
						owner = ROOT
					}
				}
			random_owned_state = {
					create_unit = {
						division = "name = \" 3rd Native Militia \" division_template = \"American Native Militia\" start_experience_factor = -0.5 start_equipment_factor = 0.3"
						owner = ROOT
					}
				}
			random_owned_state = {
					create_unit = {
						division = "name = \" 4th Native Militia \" division_template = \"American Native Militia\" start_experience_factor = -0.5 start_equipment_factor = 0.3"
						owner = ROOT
						}
					}
				}
		add_to_variable = { OFN_MANDATE_military_presence = 0.05 }
		clamp_variable = {
			var = OFN_MANDATE_military_presence
			max = 1
			min = 0
		}
		custom_effect_tooltip = OFN_AFRICA_MANDATE_medium_military_increase_tt
		add_to_variable = { OFN_MANDATE_rebel_stability = 0.05 }
		clamp_variable = {
			var = OFN_MANDATE_rebel_stability
			max = 1
			min = 0
		}
		custom_effect_tooltip = OFN_AFRICA_MANDATE_medium_stability_increase_tt 
	}
}
shared_focus = {
	id = OFN_CAR_stabilize_the_cameroon_border
	icon = GFX_goal_OFN_COG_The_Cameroonian_Issue
	cost = 4
	prerequisite = {
		focus = OFN_CAR_hunt_down_the_german_remnants
	}
	x = 9
	y = 3
	completion_reward = {
		add_manpower = -500
	add_equipment_to_stockpile = {
		type = infantry_equipment
				amount = -100
				producer = MZB
			}
		add_to_variable = { OFN_MANDATE_military_presence = 0.1 }
		clamp_variable = {
			var = OFN_MANDATE_military_presence
			max = 1
			min = 0
		}
		custom_effect_tooltip = OFN_AFRICA_MANDATE_huge_military_increase_tt
	}
}
shared_focus = {
	id = OFN_CAR_the_central_african_defense_forces
	icon = GFX_goal_OFN_CAR_The_Central_African_Defense_Forces
	cost = 4
	prerequisite = {
		focus = OFN_CAR_train_native_militias
	}
	x = 11
	y = 3
	completion_reward = {
		add_to_variable = { OFN_MANDATE_military_presence = 0.1 }
		clamp_variable = {
			var = OFN_MANDATE_military_presence
			max = 1
			min = 0
		}
		custom_effect_tooltip = OFN_AFRICA_MANDATE_huge_military_increase_tt
		add_to_variable = { OFN_MANDATE_administrative_hold = 0.05 }
		clamp_variable = {
			var = OFN_MANDATE_administrative_hold
			max = 1
			min = 0
		}
		custom_effect_tooltip = OFN_AFRICA_MANDATE_medium_admin_increase_tt
	}
}
shared_focus = {
	id = OFN_CAR_hold_the_all_african_summit
	icon = GFX_goal_OFN_COG_The_Leopoldville_Committee
	cost = 4
	prerequisite = {
		focus = OFN_CAR_the_westmoreland_abrams_plan
	}
	prerequisite = {
		focus = OFN_CAR_the_belgian_plea
	}
	prerequisite = {
		focus = OFN_CAR_the_anglo_demands
	}
	prerequisite = {
		focus = OFN_CAR_stabilize_the_cameroon_border
	}
	prerequisite = {
		focus = OFN_CAR_the_central_african_defense_forces
	}
	x = 7
	y = 4

	completion_reward = {
		add_political_power = 100
		country_event = {
			id = OFN_CAR.1
			days = 1
		}
		custom_effect_tooltip = OFN_CAR_focus_needs_for_good_decol_tt
	}

}


#====================================================================================
#SECOND TREE
#====================================================================================


shared_focus = {
	id = OFN_CAR_the_all_african_disaster
	icon = GFX_goal_OFN_CAR_all_african_disaster
	cost = 4
	x = 7
	y = 0
	completion_reward = {
		custom_effect_tooltip = OFN_CAR_collapse_tt
		hidden_effect = {
		add_political_power = -300
		add_stability = -1.50
		}
	}
}
shared_focus = {
	id = OFN_CAR_look_closer_at_african_politics
	icon = GFX_goal_OFN_COG_Figure_Out_the_Natives
	cost = 4
	prerequisite = {
		focus = OFN_CAR_find_another_way
		focus = OFN_CAR_stand_our_ground
	}
	x = 7
	y = 2
	completion_reward = {
		add_political_power = 50
		country_event = {
			id = OFN_CAR.110
			days = 1
		}
	}
}

#====================================================================================

shared_focus = {
	id = OFN_CAR_find_another_way
	icon = GFX_generic_change_law_minorities
	cost = 4
	ai_will_do = {
		factor = 100
	}
	prerequisite = {
		focus = OFN_CAR_the_all_african_disaster
	}
	mutually_exclusive = {
		focus = OFN_CAR_stand_our_ground
	}
	x = 3
	y = 1
	completion_reward = {
		add_political_power = -100
		add_stability = 0.20
		USA_AFRICA_CAR_transfer_administrative_hold = yes 
		custom_effect_tooltip = OFN_CAR_DIP_path_tt
		country_event = {
			id = OFN_CAR.100
			days = 1
		}
		hidden_effect = {
			country_event = {
				id = OFN_CAR_FLAVOR.4
				days = 25
			}
			country_event = {
				id = OFN_CAR_FLAVOR.7
				days = 5
			}
			country_event = {
				id = OFN_CAR_FLAVOR.11
				days = 110
			}
			country_event = {
				id = OFN_CAR_FLAVOR.15
				days = 60
			}
		}
	}
}
shared_focus = {
	id = OFN_CAR_promote_supportive_movements
	icon = GFX_goal_OFN_COG_Meet_Mba
	cost = 4
	prerequisite = {
		focus = OFN_CAR_find_another_way
	}
	x = 2
	y = 2
	completion_reward = {
		add_political_power = 50
		add_popularity = {
				ideology = authoritarian_democrat
				popularity = 0.02
			}
		country_event = {
			id = OFN_CAR.101
			days = 1
		}
	}
}
shared_focus = {
	id = OFN_CAR_equip_the_pro_americans
	icon = GFX_RAJ_rifles_guns_cannons
	cost = 4
	prerequisite = {
		focus = OFN_CAR_promote_supportive_movements
	}
	prerequisite = {
		focus = OFN_CAR_diplomatic_approach_to_occupation
	}			
	x = 2
	y = 3
	completion_reward = {
		add_political_power = 50
		add_equipment_to_stockpile = {
				type = infantry_equipment
				amount = -750
				producer = MZB
			}
		country_event = {
			id = OFN_CAR.102
			days = 1
		}
	}
}
shared_focus = {
	id = OFN_CAR_diplomatic_approach_to_occupation
	icon = GFX_MAD_the_OFNs_offer
	cost = 4
	prerequisite = {
		focus = OFN_CAR_find_another_way
	}
	x = 4
	y = 2
	completion_reward = {
		add_political_power = 50
		add_stability = 0.02
		country_event = {
			id = OFN_CAR.103
			days = 1
		}
	}
}
shared_focus = {
	id = OFN_CAR_american_foreign_legions
	icon = GFX_goal_OFN_CAR_American_Foreign_Legions
	cost = 4
	prerequisite = {
		focus = OFN_CAR_equip_the_pro_americans
	}
	x = 2
	y = 4
	completion_reward = {
		hidden_effect = {
		division_template = {
					name = "American Foreign Legion"
					regiments = {
						infantry = { x = 0 y = 0 }
						light_infantry = { x = 0 y = 1 }
						light_infantry = { x = 0 y = 2 }
					}
				}
				544 = {
					create_unit = {
						division = "name = \" 1st American Foreign Legion \" division_template = \"American Foreign Legion\" start_experience_factor = 0.3 start_equipment_factor = 0.5"
						owner = ROOT
					}
				}
				1035 = {
					create_unit = {
						division = "name = \" 2nd American Foreign Legion Two \" division_template = \"American Foreign Legion\" start_experience_factor = 0.3 start_equipment_factor = 0.5"
						owner = ROOT
					}
				}
				295 = {
					create_unit = {
						division = "name = \" 2nd American Foreign Legion Two \" division_template = \"American Foreign Legion\" start_experience_factor = 0.3 start_equipment_factor = 0.5"
						owner = ROOT
					}
				}
			544 = {
				add_manpower = -3000
			}
			1035 = {
				add_manpower = -3000
			}
			295 = {
				add_manpower = -3000
			}
		}
		add_political_power = 25
		country_event = {
			id = OFN_CAR.104
			days = 1
			}
	custom_effect_tooltip = OFN_AFRICA_MANDATE_LEGION_tt
	}
}
shared_focus = {
	id = OFN_CAR_reward_cooperative_regimes
	icon = GFX_generic_benefit_general
	cost = 4
	prerequisite = {
		focus = OFN_CAR_look_closer_at_african_politics
	}
	prerequisite = {
		focus = OFN_CAR_promote_supportive_movements
	}
	prerequisite = {
		focus = OFN_CAR_diplomatic_approach_to_occupation
	}
	x = 4
	y = 3
	completion_reward = {
		add_political_power = 50
		add_popularity = {
				ideology = despotism
				popularity = 0.03
			}
		country_event = {
			id = OFN_CAR.105
			days = 1
		}
	}
}
shared_focus = {
	id = OFN_CAR_get_some_on_our_side
	icon = GFX_goal_OFN_MZB_Co-operate_with_the_Socialists
	cost = 4
	prerequisite = {
		focus = OFN_CAR_look_closer_at_african_politics
	}
	prerequisite = {
		focus = OFN_CAR_promote_supportive_movements
	}
	prerequisite = {
		focus = OFN_CAR_diplomatic_approach_to_occupation
	}
	x = 6
	y = 3
	completion_reward = {
		add_political_power = 25
		add_popularity = {
				ideology = socialist
				popularity = 0.02
			}
		add_popularity = {
				ideology = communist
				popularity = 0.01
			}
		country_event = {
			id = OFN_CAR.106
			days = 1
		}
	}
}
shared_focus = {
	id = OFN_CAR_negotiate_with_the_locals
	icon = GFX_goal_OFN_COG_Meet_Mba
	cost = 4
	prerequisite = {
		focus = OFN_CAR_get_some_on_our_side
	}
	x = 6
	y = 4
	completion_reward = {
		add_political_power = 25
		country_event = {
			id = OFN_CAR.107
			days = 1
		}
	}
}
shared_focus = {
	id = OFN_CAR_masterting_nation_building
	icon = GFX_goal_OFN_CAR_Mastering_Nation_Building
	cost = 4
	prerequisite = {
		focus = OFN_CAR_reward_cooperative_regimes
	}
	x = 4
	y = 4
	completion_reward = {
		add_political_power = 50
		add_stability = 0.05
		country_event = {
			id = OFN_CAR.108
			days = 1
		}
	}
}
shared_focus = {
	id = OFN_CAR_give_it_to_our_allies
	icon = GFX_SCO_Scotland_In_The_OFN
	cost = 4
	prerequisite = {
		focus = OFN_CAR_negotiate_with_the_locals
	}
	prerequisite = {
		focus = OFN_CAR_masterting_nation_building
	}
	prerequisite = {
		focus = OFN_CAR_american_foreign_legions
	}
	available = {
		custom_trigger_tooltip = {
		    tooltip = OFN_CAR_all_africa_ready_for_negotiations_tt		
		    check_variable = { OFN_CAR_DIP_cent_negotiation > 0.7 }
			check_variable = { OFN_CAR_DIP_east_negotiation > 0.7 }
			check_variable = { OFN_CAR_DIP_ango_negotiation > 0.7 }
		}
	}
	x = 4
	y = 5
	completion_reward = {
		country_event = {
			id = OFN_CAR.109
			days = 1
		}
	}
}

#====================================================================================

shared_focus = {
	id = OFN_CAR_stand_our_ground
	icon = GFX_YUN_A_Great_Wall_Of_Flesh_And_Blood
	cost = 4
	ai_will_do = {
		factor = 0
	}
	prerequisite = {
		focus = OFN_CAR_the_all_african_disaster
	}
	mutually_exclusive = {
		focus = OFN_CAR_find_another_way
	}
	x = 11
	y = 1
	completion_reward = {
		USA_AFRICA_CAR_transfer_military_hold = yes
		add_political_power = 200
		add_war_support = 0.20
		custom_effect_tooltip = OFN_CAR_WAR_path_tt
		country_event = {
			id = OFN_CAR.200
			days = 1
		}
		hidden_effect = {
			country_event = {
				id = OFN_CAR_FLAVOR.3
				days = 15
			}
			country_event = {
				id = OFN_CAR_FLAVOR.5
				days = 100
			}
			country_event = {
				id = OFN_CAR_FLAVOR.13
				days = 60
			}
		}
	}
}
shared_focus = {
	id = OFN_CAR_rebuild_military_infrastructure
	icon = GFX_CHI_Modern_Construction_Equipment_New
	cost = 4
	prerequisite = {
		focus = OFN_CAR_stand_our_ground
	}
	x = 10
	y = 2
	completion_reward = {
		544 = {
				add_building_construction = {
				   type = infrastructure
				   level = 1
				   instant_build = yes
			   }
			}
		1066 = {
				add_building_construction = {
				   type = infrastructure
				   level = 1
				   instant_build = yes
			   }
			}
		1082 = {
			add_building_construction = {
				   type = infrastructure
				   level = 1
				   instant_build = yes
			   }
			}
		1035 = {
			add_building_construction = {
				   type = infrastructure
				   level = 1
				   instant_build = yes
			   }
			}
		295 = {
				add_building_construction = {
				   type = infrastructure
				   level = 1
				   instant_build = yes
			   }
			}
		539 = {
				add_building_construction = {
				   type = infrastructure
				   level = 1
				   instant_build = yes
			   }
			}
		country_event = {
			id = OFN_CAR.201
			days = 1
		}
	}
}
shared_focus = {
	id = OFN_CAR_emergency_command_center
	icon = GFX_ANG_the_yankee_connection
	cost = 4
	prerequisite = {
		focus = OFN_CAR_look_closer_at_african_politics
	}
	prerequisite = {
		focus = OFN_CAR_rebuild_military_infrastructure
	}
	prerequisite = {
		focus = OFN_CAR_call_the_boys_back
	}
	x = 8
	y = 3
	completion_reward = {
		add_political_power = 50
		add_command_power = 25
		country_event = {
			id = OFN_CAR.202
			days = 1
		}
	}
}
shared_focus = {
	id = OFN_CAR_fighting_fire_with_fire
	icon = GFX_goal_OFN_MZB_Finishing_the_Job
	cost = 4
	prerequisite = {
		focus = OFN_CAR_find_the_loyalists
	}
	x = 10
	y = 4
	completion_reward = {
		add_political_power = -25
		add_stability = 0.02
		add_manpower = 5000
		add_popularity = {
				ideology = despotism
				popularity = 0.02
			}
		add_popularity = {
				ideology = socialist
				popularity = 0.02
			}
		add_popularity = {
				ideology = communist
				popularity = 0.02
			}
		country_event = {
			id = OFN_CAR.206
			days = 1
		}
	}
}
shared_focus = {
	id = OFN_CAR_call_the_boys_back
	icon = GFX_goal_TNO_generic_OFN_light
	cost = 4
	prerequisite = {
		focus = OFN_CAR_stand_our_ground
	}
	x = 12
	y = 2
	completion_reward = {
		add_manpower = 20000
		hidden_effect = {
		USA = { add_manpower = -20000 }
		}
		add_political_power = -50
		country_event = {
			id = OFN_CAR.203
			days = 1
		}
	}
}
shared_focus = {
	id = OFN_CAR_establish_military_camps
	icon = GFX_goal_OFN_CAR_Establish_Military_Camps
	cost = 4
	prerequisite = {
		focus = OFN_CAR_look_closer_at_african_politics
	}
	prerequisite = {
		focus = OFN_CAR_rebuild_military_infrastructure
	}
	prerequisite = {
		focus = OFN_CAR_call_the_boys_back
	}
	x = 12
	y = 3
	completion_reward = {
		add_political_power = 25

		544 = {
			add_building_construction = {
			    type = bunker
			    level = 1
			    instant_build = yes
			    province = 13729
			}
		}
		295 = {
			add_building_construction = {
			    type = bunker
			    level = 1
			    instant_build = yes
			    province = 5117
			}
		}
		1035 = {
			add_building_construction = {
			    type = bunker
			    level = 1
			    instant_build = yes
			    province = 8248
			}
		}


		295 = {
			add_building_construction = {
				type = infrastructure
				level = 1
				instant_build = yes
			}
		}
		295 = {
			add_building_construction = {
				type = air_base
				level = 1
				instant_build = yes
			}
		}
		1035 = {
			add_building_construction = {
				type = infrastructure
				level = 1
				instant_build = yes
			}
		}
		1035 = {
			add_building_construction = {
				type = air_base
				level = 1
				instant_build = yes
			}
		}
		544 = {
			add_building_construction = {
				type = infrastructure
				level = 1
				instant_build = yes
			}
		}
		544 = {
			add_building_construction = {
				type = air_base
				level = 1
				instant_build = yes
			}
		}

		country_event = {
			id = OFN_CAR.207
			days = 1
		}
	}
}
shared_focus = {
	id = OFN_CAR_prepare_the_plans
	icon = GFX_COG_Send_Mercenaries_Away
	cost = 4
	prerequisite = {
		focus = OFN_CAR_emergency_command_center
	}
	x = 8
	y = 4
	completion_reward = {
		add_command_power = 50
		add_ideas = CAR_african_counterinsurgency_plan
		country_event = {
			id = OFN_CAR.204
			days = 1
		}
	}
}
shared_focus = {
	id = OFN_CAR_prepare_for_the_second_african_war
	icon = GFX_YUN_The_War_Machine
	cost = 4
	prerequisite = {
		focus = OFN_CAR_establish_military_camps
	}
	x = 12
	y = 4
	completion_reward = {
		add_manpower = 5000
		add_equipment_to_stockpile = {
				type = infantry_equipment
				amount = 1000
				producer = MZB
			}
		add_equipment_to_stockpile = {
				type = anti_tank_equipment
				amount = 500
				producer = MZB
			}
		swap_ideas = {
					remove_idea = CAR_overextended_army
					add_idea = CAR_adapting_army
				}
		country_event = {
			id = OFN_CAR.208
			days = 1
		}
	}
}
shared_focus = {
	id = OFN_CAR_find_the_loyalists
	icon = GFX_goal_OFN_CAR_Find_the_Loyalists
	cost = 4
	prerequisite = {
		focus = OFN_CAR_look_closer_at_african_politics
	}
	prerequisite = {
		focus = OFN_CAR_rebuild_military_infrastructure
	}
	prerequisite = {
		focus = OFN_CAR_call_the_boys_back
	}
	x = 10
	y = 3
	completion_reward = {
		add_political_power = -25
		add_manpower = 10000
		country_event = {
			id = OFN_CAR.205
			days = 1
		}
	}
}
shared_focus = {
	id = OFN_CAR_one_final_blow
	icon = GFX_goal_OFN_MZB_A_Troubled_Land
	cost = 4
	prerequisite = {
		focus = OFN_CAR_fighting_fire_with_fire
	}
	prerequisite = {
		focus = OFN_CAR_prepare_the_plans
	}
	prerequisite = {
		focus = OFN_CAR_prepare_for_the_second_african_war
	}
	x = 10
	y = 5
	completion_reward = {
		add_political_power = 150
		add_manpower = 30000
		MZB = { 
	add_equipment_to_stockpile = {
				type = infantry_equipment
				amount = 2000
				producer = MZB
			}
		add_equipment_to_stockpile = {
				type = anti_tank_equipment
				amount = 1000
				producer = MZB
			}
		add_equipment_to_stockpile = {
				type = support_equipment
				amount = 750
				producer = MZB
			}
		add_equipment_to_stockpile = {
				type = artillery_equipment
				amount = 500
				producer = MZB
			}
		add_equipment_to_stockpile = {
				type = motorized_equipment
				amount = 200
				producer = MZB
			}
		add_equipment_to_stockpile = {
				type = MBT_equipment
				amount = 100
				producer = MZB
			}
		}
		country_event = {
			id = OFN_CAR.209
			days = 1
		}
		custom_effect_tooltip = OFN_AFRICA_MANDATE_FINAL_BLOW_tt
	}
}

#====================================================================================
# CAR WAR VICTORY TREE
#====================================================================================

shared_focus = {
	id = OFN_CAR_a_great_victory
	icon = GFX_CAN_praise_the_ofn
	cost = 1
	x = 2
	y = 0
	completion_reward = {
		country_event = {
			id = OFN_CAR_FOCUS.10
			days = 1
		}
	}
}
shared_focus = {
	id = OFN_CAR_but_for_what_glory
	icon = GFX_goal_TNO_generic_OFN_light
	cost = 1
	prerequisite = {
		focus = OFN_the_anomaly_on_the_continent
	}
	prerequisite = {
		focus = OFN_CAR_a_great_victory
	}
	prerequisite = {
		focus = OFN_CAR_prepare_for_our_departure
	}
	x = 2
	y = 2
	completion_reward = {
		country_event = {
			id = OFN_CAR_FOCUS.13
			days = 1
		}
	}
}
shared_focus = {
	id = OFN_the_anomaly_on_the_continent
	icon = GFX_goal_OFN_CAR_Find_the_Loyalists
	cost = 1
	prerequisite = {
		focus = OFN_CAR_a_great_victory
	}
	x = 0
	y = 1
	completion_reward = {
		country_event = {
			id = OFN_CAR_FOCUS.11
			days = 1
		}
	}
}
shared_focus = {
	id = OFN_CAR_prepare_for_our_departure
	icon = GFX_goal_OFN_MZB_push_out_the_settlers
	cost = 1
	prerequisite = {
		focus = OFN_CAR_a_great_victory
	}
	x = 4
	y = 1
	completion_reward = {
		country_event = {
			id = OFN_CAR_FOCUS.12
			days = 1
		}
	}
}
shared_focus = {
	id = OFN_CAR_farewell_africa
	icon = GFX_ENG_ofn_airfields
	cost = 1
	prerequisite = {
		focus = OFN_CAR_but_for_what_glory
	}
	x = 2
	y = 3
	completion_reward = {
		country_event = {
			id = OFN_CAR_FOCUS.14
			days = 1
		}
	}
}