#OLD TREE SYSTEM - DO NOT USE#
#focus_tree = {
	##id = japan_takagi_5_years
	#country = {
		#factor = 0
		#modifier = {
			#add = 10
			#tag = JAP
		#}
	#}

	#default = no

	#shared_focus = JAP_takagi_prime_minister_takagi
#}

#focus_tree = {
	#id = JAP_takagi_reconstruction
	#country = {
		#factor = 0
		#modifier = {
			#add = 10
			#tag = JAP
		#}
	#}
	#default = no
	#shared_focus = JAP_TakagiRecon_Fruits_Of_the_Reforms
#}