focus_tree = {
	id = GER_blankfocus
	country = {
		factor = 0
		modifier = {
			add = 10
			tag = GER
		}
	}
	default = no
	shared_focus = GER_blankfocus
}

focus_tree = {
	id = GER_game_start_tree
	country = {
		factor = 0
		modifier = {
			add = 10
			tag = GER
		}
	}
	default = no
	shared_focus = GER_a_man_on_the_moon
}

focus_tree = {
	id = GER_bormann_successor
	country = {
		factor = 0
		modifier = {
			add = 10
			tag = GER
		}
	}
	default = no
	shared_focus = GER_bormann
}

focus_tree = {
	id = GER_goring_successor
	country = {
		factor = 0
		modifier = {
			add = 90
			tag = GER
		}
	}
	default = no
	shared_focus = GER_goring
}

focus_tree = {
	id = GER_speer_successor
	country = {
		factor = 0
		modifier = {
			add = 10
			tag = GER
		}
	}
	default = no
	shared_focus = GER_speer
}

focus_tree = {
	id = GER_heydrich_successor
	country = {
		factor = 0
		modifier = {
			add = 10
			tag = GER
		}
	}
	default = no
	shared_focus = GER_heydrich
}


focus_tree = {
	id = GER_sealion_speer_bormann
	country = {
		factor = 0
		modifier = {
			add = 10
			tag = GER
		}
	}
	default = no
	shared_focus = GER_the_sealion_shall_roar_again

}

focus_tree = {
	id = GER_WW3_speer_bormann
	country = { factor = 0 }
	default = no
	shared_focus = GER_WW3_gotterdamerung
}