focus_tree = {
	id = VTY_theredmenace
	country = {
		factor = 0
		modifier = {
			add = 10
			tag = VTY
		}
	}
	default = no
	shared_focus = VTY_theredmenace


}

focus_tree = {
	id = VTY_thevictory
	country = {
		factor = 0
		modifier = {
			add = 10
			tag = VTY
		}
	}
	default = no
	shared_focus = VTY_theredmenace


}
