#Agnus Dei, qui tollis peccata mundi, miserere nobis.

#idk what that means but im gonna make the tree now

focus_tree = {
	id = moskowien_blank
	country = {
		factor = 0
		modifier = {
			add = 10
			tag = MCW
		}
	}
	default = no
	shared_focus = mcw_blankfocus
}

#focus_tree = {
#	id = MCW_russias_hell
#	country = {
#		factor = 0
#		modifier = {
#			add = 10
#			tag = MCW
#		}
#	}
#	default = no
#	shared_focus = MCW_Russian_Hell
#}

#focus_tree = {
#	id = MCW_its_legit_2_focuses_what_the_fuck
#	country = {
#		factor = 0
#		modifier = {
#			add = 10
#			tag = MCW
#		}
#	}
#	default = no
#	shared_focus = MCW_worries_about_the_fatherland
#}