#######################################################################

######################### Designed by Nuclear, finished by DocOverbuild3 and Tex
#######################################################################




# PART 1
shared_focus = {
	id = USA_rfk_64_kennedy_presidency
	icon = GFX_USA_RFK
	cost = 3.00
	available = {
		custom_trigger_tooltip = {
			tooltip = USA_not_in_crisis_tooltip
			NOT = {
				has_country_flag = USA_in_crisis
			}
		}
	}
	cancel = {
		custom_trigger_tooltip = {
			tooltip = USA_in_crisis_tooltip
			has_country_flag = USA_in_crisis
		}
	}
	ai_will_do = {
		factor = 100
		modifier = {
			factor = 1
			#trigger
		}
	}
	completion_reward = {
		log = "[GetDateText]: [Root.GetName]: Focus USA_rfk_64_kennedy_presidency"
		set_variable = { RFK_Assassination_Level = 0 } #How much it's gonna take for RFK to be RFK'd
		set_variable = { RFK_Liberalism = 10 } #How Liberal RFK is, less liberal, more CNPP goes to the republicans. More Liberal, more RFK'd
		set_variable = { RFK_Union_Satisfaction = 10 } #The support unions give RFK, lower support will radicalize RFKs voterbase
		country_event = {
			id = bobby.1
			days = 2
		}
	}
	x = 10
	y = 0
}

shared_focus = {
	id = USA_rfk_64_figure_it_out
	icon = GFX_USA_Tape_Together_the_Seams
	cost = 2.00
	available = {
		custom_trigger_tooltip = {
			tooltip = USA_not_in_crisis_tooltip
			NOT = {
				has_country_flag = USA_in_crisis
			}
		}
	}
	cancel = {
		custom_trigger_tooltip = {
			tooltip = USA_in_crisis_tooltip
			has_country_flag = USA_in_crisis
		}
	}
	prerequisite = {
		focus = USA_rfk_64_kennedy_presidency
	}
	ai_will_do = {
		factor = 100
		modifier = {
			factor = 1
			#trigger
		}
	}
	completion_reward = {
		log = "[GetDateText]: [Root.GetName]: Focus USA_rfk_64_figure_it_out"
		add_stability = 0.01
		add_popularity = {
			ideology = social_democrat
			popularity = 0.01
		}
		hidden_effect = {
			every_owned_state = {
				limit = {
					can_have_elections_in_state = yes
					OR = {
						check_variable = { nationality = 82 } #Yankee
						check_variable = { nationality = 85 } #Steel belt
					}
				}
				add_to_variable = { NPP_C_bonus_popularity = 0.01 }
				add_to_variable = { NPP_popularity = 0.01 }
			}
		}
	}
	x = 9
	y = 1
}

shared_focus = {
	id = USA_rfk_64_one_foot_in_front
	icon = GFX_USA_One_foot_in_front_of_another
	cost = 1.00
	available = {
		custom_trigger_tooltip = {
			tooltip = USA_not_in_crisis_tooltip
			NOT = {
				has_country_flag = USA_in_crisis
			}
		}
	}
	cancel = {
		custom_trigger_tooltip = {
			tooltip = USA_in_crisis_tooltip
			has_country_flag = USA_in_crisis
		}
	}
	prerequisite = {
		focus = USA_rfk_64_kennedy_presidency
	}
	ai_will_do = {
		factor = 100
		modifier = {
			factor = 1
			#trigger
		}
	}
	completion_reward = {
		log = "[GetDateText]: [Root.GetName]: Focus USA_rfk_64_one_foot_in_front"
		country_event = {
			id = bobby.2
			days = 2
		}
		# select cabinet
	}
	x = 11
	y = 1
}

shared_focus = {
	id = USA_rfk_64_moral_shadow
	icon = GFX_USA_Our_Moral_Shadow
	cost = 3.00
	available = {
		custom_trigger_tooltip = {
			tooltip = USA_not_in_crisis_tooltip
			NOT = {
				has_country_flag = USA_in_crisis
			}
		}
	}
	cancel = {
		custom_trigger_tooltip = {
			tooltip = USA_in_crisis_tooltip
			has_country_flag = USA_in_crisis
		}
	}
	prerequisite = {
		focus = USA_rfk_64_one_foot_in_front
	}
	prerequisite = {
		focus = USA_rfk_64_figure_it_out
	}
	ai_will_do = {
		factor = 100
		modifier = {
			factor = 1
			#trigger
		}
	}
	completion_reward = {
		log = "[GetDateText]: [Root.GetName]: Focus USA_rfk_64_moral_shadow"
		country_event = {
			id = bobby.14
			days = 2
		}
		# our moral shadow
	}
	x = 10
	y = 2
}


######################################################################### Begin Republican or NPP Decision Foci
shared_focus = {
	id = USA_rfk_64_across_the_aisle
	icon = GFX_USA_Across_the_Aisle
	cost = 3.00
	ai_will_do = {
		factor = 20
	}
	available = {
		custom_trigger_tooltip = {
			tooltip = USA_not_in_crisis_tooltip
			NOT = {
				has_country_flag = USA_in_crisis
			}
		}
	}
	cancel = {
		custom_trigger_tooltip = {
			tooltip = USA_in_crisis_tooltip
			has_country_flag = USA_in_crisis
		}
	}
	prerequisite = {
		focus = USA_rfk_64_moral_shadow
	}
	mutually_exclusive = {
		focus = USA_rfk_64_go_it_alone
	}
	ai_will_do = {
		factor = 1000
		modifier = {
			factor = 1
			#trigger
		}
	}
	completion_reward = {
		log = "[GetDateText]: [Root.GetName]: Focus USA_rfk_64_across_the_aisle"

		set_country_flag = USA_RFK_coop_with_rep
		set_country_flag = USA_RFK_party_above_all_flag
		add_to_variable = { RFK_Liberalism = 2 }
		custom_effect_tooltip = RFK_Add_Liberalism
		custom_effect_tooltip = USA_work_with_repubs_tt

		add_to_variable = { USA_NPP_Unity = -2 }

		set_variable = { rfk_party_above_all_var = 4 }

		country_event = {
			id = bobby.10
			days = 2
		}

		# Meet with LBJ

		add_political_power = 50
	}
	x = 8
	y = 3
}


shared_focus = {
	id = USA_rfk_64_necessary_sacrifice
	icon = GFX_USA_Empower_the_Democrats
	cost = 3.00
	available = {
		custom_trigger_tooltip = {
			tooltip = USA_not_in_crisis_tooltip
			NOT = {
				has_country_flag = USA_in_crisis
			}
		}
	}
	cancel = {
		custom_trigger_tooltip = {
			tooltip = USA_in_crisis_tooltip
			has_country_flag = USA_in_crisis
		}
	}
	prerequisite = {
		focus = USA_rfk_64_across_the_aisle
	}
	ai_will_do = {
		factor = 100
		modifier = {
			factor = 1
			#trigger
		}
	}
	completion_reward = {
		log = "[GetDateText]: [Root.GetName]: Focus USA_rfk_64_necessary_sacrifice"
		country_event = {
			id = bobby.12
			days = 2
		}
	}
	x = 8
	y = 4
}

########################################################### End of Working With Republicans
########################################################### Working With NPP Foci

shared_focus = {
	# the party above all
	id = USA_rfk_64_go_it_alone
	icon = GFX_USA_The_Party_Above_All
	cost = 3.00
	ai_will_do = {
		factor = 10
		modifier = {
			factor = 2
			has_country_flag = USA_rfk_c_boss
		}
	}
	available = {
		custom_trigger_tooltip = {
			tooltip = USA_not_in_crisis_tooltip
			NOT = {
				has_country_flag = USA_in_crisis
			}
		}
	}
	cancel = {
		custom_trigger_tooltip = {
			tooltip = USA_in_crisis_tooltip
			has_country_flag = USA_in_crisis
		}
	}
	prerequisite = {
		focus = USA_rfk_64_moral_shadow
	}
	mutually_exclusive = {
		focus = USA_rfk_64_across_the_aisle
	}
	ai_will_do = {
		factor = 500
		modifier = {
			factor = 1
			#trigger
		}
	}
	completion_reward = {
		log = "[GetDateText]: [Root.GetName]: Focus USA_rfk_64_go_it_alone"

		set_country_flag = USA_RFK_party_above_all_flag

		country_event = {
			id = bobby.11
			days = 2
		}

		# Party above all
		set_variable = { rfk_party_above_all_var = 7 }

		custom_effect_tooltip = USA_party_above_all_tt

		add_popularity = {
			ideology = social_democrat
			popularity = 0.01
		}
		custom_effect_tooltip = RFK_Subtract_Liberalism
		subtract_from_variable = { RFK_Liberalism = 2 }
	}
	x = 12
	y = 3
}

shared_focus = {
	id = USA_rfk_64_majority_by_any_means
	icon = GFX_USA_Keep_a_Majority_by_Any_Means
	cost = 3.00
	available = {
		custom_trigger_tooltip = {
			tooltip = USA_not_in_crisis_tooltip
			NOT = {
				has_country_flag = USA_in_crisis
			}
		}
	}
	cancel = {
		custom_trigger_tooltip = {
			tooltip = USA_in_crisis_tooltip
			has_country_flag = USA_in_crisis
		}
	}
	prerequisite = {
		focus = USA_rfk_64_go_it_alone
	}
	ai_will_do = {
		factor = 100
		modifier = {
			factor = 1
			#trigger
		}
	}
	completion_reward = {
		log = "[GetDateText]: [Root.GetName]: Focus USA_rfk_64_majority_by_any_means"
		country_event = {
			id = bobby.13
			days = 2
		}
		# RFK stands for the PARTY
	}
	x = 12
	y = 4
}
############################################################################################ End Republican or NPP Decision Foci

shared_focus = {
	id = USA_rfk_64_rally_progressives
	icon = GFX_USA_Calm_Progressives_Lady_Liberty
	cost = 1.00
	available = {
		custom_trigger_tooltip = {
			tooltip = USA_not_in_crisis_tooltip
			NOT = {
				has_country_flag = USA_in_crisis
			}
		}
	}
	cancel = {
		custom_trigger_tooltip = {
			tooltip = USA_in_crisis_tooltip
			has_country_flag = USA_in_crisis
		}
	}
	prerequisite = {
		focus = USA_rfk_64_across_the_aisle
		focus = USA_rfk_64_go_it_alone
	}
	ai_will_do = {
		factor = 100
		modifier = {
			factor = 1
			#trigger
		}
	}
	completion_reward = {
		log = "[GetDateText]: [Root.GetName]: Focus USA_rfk_64_rally_progressives"
		add_popularity = {
			ideology = social_democrat
			popularity = 0.01
		}
		add_popularity = {
			ideology = social_liberal
			popularity = -0.005
		}
		add_popularity = {
			ideology = social_conservative
			popularity = -0.005
		}
		hidden_effect = {
			every_owned_state = {
				subtract_from_variable = { RD_popularity = 0.02 }
				add_to_variable = { NPP_C_bonus_popularity = 0.02 }
			}
		}
		add_political_power = 100
	}
	x = 10
	y = 4
}


shared_focus = {
	id = USA_rfk_64_in_memoriam
	icon = GFX_USA_In_memoriam
	cost = 4.00
	available = {
		custom_trigger_tooltip = {
			tooltip = USA_not_in_crisis_tooltip
			NOT = {
				has_country_flag = USA_in_crisis
			}
		}
	}
	cancel = {
		custom_trigger_tooltip = {
			tooltip = USA_in_crisis_tooltip
			has_country_flag = USA_in_crisis
		}
	}
	prerequisite = {
		focus = USA_rfk_64_necessary_sacrifice
		focus = USA_rfk_64_majority_by_any_means
	}
	prerequisite = {
		focus = USA_rfk_64_rally_progressives
	}
	ai_will_do = {
		factor = 100
		modifier = {
			factor = 1
			#trigger
		}
	}
	completion_reward = {
		log = "[GetDateText]: [Root.GetName]: Focus USA_rfk_64_in_memoriam"
		country_event = {
			id = bobby.9
			days = 2
		}
		hidden_effect = { USA_RFK_Liberalism_Check = yes }
		add_stability = 0.03
	}
	x = 10
	y = 5
}



##################################################### Begin Civil Rights Act Foci
shared_focus = {
	id = USA_rfk_64_malice_towards_none
	icon = GFX_USA_Outlaw_Literacy_Tests
	cost = 4
	available = {
		custom_trigger_tooltip = {
			tooltip = USA_not_in_crisis_tooltip
			NOT = {
				has_country_flag = USA_in_crisis
			}
		}
	}
	cancel = {
		custom_trigger_tooltip = {
			tooltip = USA_in_crisis_tooltip
			has_country_flag = USA_in_crisis
		}
	}
	prerequisite = {
		focus = USA_rfk_64_in_memoriam
	}
	ai_will_do = {
		factor = 100
		modifier = {
			factor = 1
			#trigger
		}
	}
	completion_reward = {
		log = "[GetDateText]: [Root.GetName]: Focus USA_rfk_64_malice_towards_none"
		add_political_power = 50
		add_stability = 0.01
		set_country_flag = USA_RFK_working_on_CRA
		set_variable = { RFK_CRA_Power_Var = 0 }
		set_variable = { RFK_CRA_Filibuster_Chance = 0 }	
		USA_get_total_congress_votes = yes
	}
	x = 4
	y = 6
}


################################################################ Foot In The Door (Work With Republicans) Path
shared_focus = { #### Working With The Republicans
	id = USA_rfk_64_foot_in_door
	icon = GFX_USA_Foot_in_Door
	cost = 4.00
	available = {
		custom_trigger_tooltip = {
			tooltip = USA_not_in_crisis_tooltip
			NOT = {
				has_country_flag = USA_in_crisis
			}
		}
	}
	cancel = {
		custom_trigger_tooltip = {
			tooltip = USA_in_crisis_tooltip
			has_country_flag = USA_in_crisis
		}
	}
	prerequisite = {
		focus = USA_rfk_64_malice_towards_none
	}
	mutually_exclusive = {
		focus = USA_rfk_64_door_in_face
	}
	mutually_exclusive = {
		focus = USA_rfk_64_march_straight_forward
	}
	ai_will_do = {
		factor = 1000
	}
	completion_reward = {
		log = "[GetDateText]: [Root.GetName]: Focus USA_rfk_64_foot_in_door"
		set_country_flag = USA_rfk_foot
		USA_RFK_paa_effect = yes
		country_event = {
			id = bobby.cra.1
			days = 1
		}
	}
	x = 3
	y = 7
}


shared_focus = { # In The Name of Bipartisanship
	id = USA_rfk_64_firmness_in_right
	icon = GFX_USA_Reestablish_Party
	cost = 5.00
	available = {
		custom_trigger_tooltip = {
			tooltip = USA_not_in_crisis_tooltip
			NOT = {
				has_country_flag = USA_in_crisis
			}
		}
	}
	cancel = {
		custom_trigger_tooltip = {
			tooltip = USA_in_crisis_tooltip
			has_country_flag = USA_in_crisis
		}
	}
	prerequisite = {
		focus = USA_rfk_64_foot_in_door
	}
	ai_will_do = {
		factor = 10
		modifier = {
			factor = 1
			#trigger
		}
	}
	completion_reward = {
		log = "[GetDateText]: [Root.GetName]: Focus USA_rfk_64_firmness_in_right"
		custom_effect_tooltip = USA_RFK_Biparitsanship_Focus
		country_event = {
			id = bobby.bipartisan.1
			days = 1
		}
	}
	x = 2
	y = 8
}

shared_focus = {
	id = USA_rfk_64_most_pressing_issue
	icon = GFX_Generic_Social_Liberal
	cost = 5.00
	available = {
		has_country_flag = RFK_CRA_Is_Now_Open
		custom_trigger_tooltip = {
			tooltip = USA_not_in_crisis_tooltip
			NOT = {
				has_country_flag = USA_in_crisis
			}
		}
	}
	cancel = {
		custom_trigger_tooltip = {
			tooltip = USA_in_crisis_tooltip
			has_country_flag = USA_in_crisis
		}
	}
	prerequisite = {
		focus = USA_rfk_64_door_in_face
		focus = USA_rfk_64_foot_in_door
	}
	ai_will_do = {
		factor = 10
		modifier = {
			factor = 1
			#trigger
		}
	}
	completion_reward = {
		log = "[GetDateText]: [Root.GetName]: Focus USA_rfk_64_most_pressing_issue"
		custom_effect_tooltip = USA_RFK_Keep_The_Important_Thing_The_Important_Thing
		country_event = {
			id = bobby.cra.3
			days = 3
		}
	}
	x = 4
	y = 8
}

shared_focus = {
	id = USA_rfk_64_hand_in_hand
	icon = GFX_Generic_Bill_of_Rights
	cost = 5.00
	available = {
		has_country_flag = RFK_CRA_GO_GO_GO
		custom_trigger_tooltip = {
			tooltip = USA_not_in_crisis_tooltip
			NOT = {
				has_country_flag = USA_in_crisis
			}
		}
	}
	cancel = {
		custom_trigger_tooltip = {
			tooltip = USA_in_crisis_tooltip
			has_country_flag = USA_in_crisis
		}
	}
	prerequisite = {
		focus = USA_rfk_64_most_pressing_issue
	}
	prerequisite = {
		focus = USA_rfk_64_firmness_in_right
	}
	ai_will_do = {
		factor = 10
		modifier = {
			factor = 1
			#trigger
		}
	}
	completion_reward = {
		log = "[GetDateText]: [Root.GetName]: Focus USA_rfk_64_hand_in_hand"
		custom_effect_tooltip = USA_RFK_Hand_In_Hand
		USA_RFK_paa_effect = yes
		hidden_effect = {
		USA_RFK_CRA_Filibuster = yes
		}
	}
	x = 3
	y = 9
}


################################################################ End Of Foot In Door Path

################################################################ Start Of Door In Face (Compromise) Path

shared_focus = {
	id = USA_rfk_64_door_in_face
	icon = GFX_USA_Door_in_Face
	cost = 4.00
	available = {
		custom_trigger_tooltip = {
			tooltip = USA_not_in_crisis_tooltip
			NOT = {
				has_country_flag = USA_in_crisis
			}
		}
	}
	cancel = {
		custom_trigger_tooltip = {
			tooltip = USA_in_crisis_tooltip
			has_country_flag = USA_in_crisis
		}
	}
	prerequisite = {
		focus = USA_rfk_64_malice_towards_none
	}
	mutually_exclusive = {
		focus = USA_rfk_64_march_straight_forward
	}
	mutually_exclusive = {
		focus = USA_rfk_64_foot_in_door
	}
	ai_will_do = {
		factor = 30
		modifier = {
			factor = 3
			has_country_flag = USA_RFK_party_above_all_flag
		}
	}
	completion_reward = {
		log = "[GetDateText]: [Root.GetName]: Focus USA_rfk_64_door_in_face"
		if = {
			limit = { has_variable = rfk_party_above_all_var }
			custom_effect_tooltip = USA_party_a_all_var_tt
		}
			country_event = {
				id = bobby.cra.2
				days = 1
			}
			add_to_variable = { rfk_party_above_all_var = -2}
			USA_RFK_paa_effect = yes
	}
	x = 5
	y = 7
}

shared_focus = {
	id = USA_rfk_64_march_straight_forward
	icon = GFX_USA_March_Straight_Forwards
	cost = 2.00

	available = {
		custom_trigger_tooltip = {
			tooltip = USA_has_congress_majority_vote_tt
			USA_has_congress_majority_vote = yes
		}
		custom_trigger_tooltip = {
			tooltip = USA_not_in_crisis_tooltip
			NOT = {
				has_country_flag = USA_in_crisis
			}
		}
	}
	cancel = {
		custom_trigger_tooltip = {
			tooltip = USA_in_crisis_tooltip
			has_country_flag = USA_in_crisis
		}
	}
	prerequisite = {
		focus = USA_rfk_64_malice_towards_none
	}
	mutually_exclusive = {
		focus = USA_rfk_64_foot_in_door
	}
	mutually_exclusive = {
		focus = USA_rfk_64_door_in_face
	}
	ai_will_do = {
		factor = 100
		modifier = {
			factor = 1
			#trigger
		}
	}
	completion_reward = {
		log = "[GetDateText]: [Root.GetName]: Focus USA_rfk_64_march_straight_forward"
		add_stability = 0.01
		add_political_power = 100
		hidden_effect = {
		USA_RFK_paa_effect = yes
		}
	}
	x = 1
	y = 7
}

shared_focus = {
	# refining the bill
	id = USA_rfk_64_constituent_pressure
	icon = GFX_BRT_The_Breton_Standard
	cost = 5.00
	available = {
		custom_trigger_tooltip = {
			tooltip = USA_not_in_crisis_tooltip
			NOT = {
				has_country_flag = USA_in_crisis
			}
		}
	}
	cancel = {
		custom_trigger_tooltip = {
			tooltip = USA_in_crisis_tooltip
			has_country_flag = USA_in_crisis
		}
	}
	prerequisite = {
		focus = USA_rfk_64_door_in_face
	}
	ai_will_do = {
		factor = 10
		modifier = {
			factor = 1
			#trigger
		}
	}
	completion_reward = {
		log = "[GetDateText]: [Root.GetName]: Focus USA_rfk_64_constituent_pressure"
		country_event = {
			id = bobby.cra.21
			days = 2
		}
		USA_RFK_paa_effect = yes
	}
	x = 6
	y = 8
}

shared_focus = {
	id = USA_rfk_64_one_last_push
	icon = GFX_USA_Wrangle_the_Senate
	cost = 5.00
	available = {
		custom_trigger_tooltip = {
			tooltip = USA_not_in_crisis_tooltip
			NOT = {
				has_country_flag = USA_in_crisis
			}
		}
	}
	cancel = {
		custom_trigger_tooltip = {
			tooltip = USA_in_crisis_tooltip
			has_country_flag = USA_in_crisis
		}
	}
	prerequisite = {
		focus = USA_rfk_64_most_pressing_issue
	}
	prerequisite = {
		focus = USA_rfk_64_constituent_pressure
	}
	ai_will_do = {
		factor = 10
		modifier = {
			factor = 1
			#trigger
		}
	}
	completion_reward = {
		log = "[GetDateText]: [Root.GetName]: Focus USA_rfk_64_one_last_push"
		custom_effect_tooltip = USA_rfk_push_tooltip
		USA_RFK_paa_effect = yes
		hidden_effect = {
		USA_RFK_CRA_Filibuster = yes
		}
	}
	x = 5
	y = 9
}
############################################################################### End of Slam The Door Path
shared_focus = {
	id = USA_rfk_64_the_glorious_bill
	icon = GFX_BRT_A_New_Life
	cost = 2.00
	available = {
		custom_trigger_tooltip = {
			tooltip = USA_not_in_crisis_tooltip
			NOT = {
				has_country_flag = USA_in_crisis
			}
		}
	}
	cancel = {
		custom_trigger_tooltip = {
			tooltip = USA_in_crisis_tooltip
			has_country_flag = USA_in_crisis
		}
	}
	prerequisite = {
		focus = USA_rfk_64_march_straight_forward
	}
	ai_will_do = {
		factor = 100
		modifier = {
			factor = 1
			#trigger
		}
	}
	completion_reward = {
		log = "[GetDateText]: [Root.GetName]: Focus USA_rfk_64_the_glorious_bill"
		country_event = {
			id = bobby.75
			days = 7
		}
	}
	x = 1
	y = 9
}

shared_focus = {
	id = USA_rfk_64_sideline_dixiecrats
	icon = GFX_USA_Southern_Riots
	cost = 5.00
	available = {
		NOT = {
			has_country_flag = RFK_CRA_Passed
		}
		custom_trigger_tooltip = {
			tooltip = USA_not_in_crisis_tooltip
			NOT = {
				has_country_flag = USA_in_crisis
			}
		}
	}
	cancel = {
		custom_trigger_tooltip = {
			tooltip = USA_in_crisis_tooltip
			has_country_flag = USA_in_crisis
		}
	}
	prerequisite = {
		focus = USA_rfk_64_door_in_face
		focus = USA_rfk_64_foot_in_door
	}
	ai_will_do = {
		factor = 10
		modifier = {
			factor = 1
			#trigger
		}
	}
	completion_reward = {
		log = "[GetDateText]: [Root.GetName]: Focus USA_rfk_64_sideline_dixiecrats"
		custom_effect_tooltip = USA_RFK_CRA_Civil_Rights_Leaders_Strenghen_CR_And_Get_Votes
		if = {
			limit = { has_variable = rfk_party_above_all_var }
			custom_effect_tooltip = USA_party_a_all_var_tt
		}
		if = {
			limit = {
				has_idea = USA_Arleigh_Burke_mil
			}
			country_event = {
				id = bobby.41
				days = 5
			}
		}
		add_to_variable = { rfk_party_above_all_var = -4}
		USA_RFK_paa_effect = yes
		country_event = {
			id = bobby.81
			days = 10
		}
	}
	x = 8
	y = 8
}

shared_focus = {
	# WOOOO
	id = USA_rfk_64_civil_rights_act
	icon = GFX_USA_Civil_Rights_Act_Deluxe
	cost = 1.00
	available = {
		has_country_flag = RFK_CRA_No_Filibuster
		custom_trigger_tooltip = {
			tooltip = USA_not_in_crisis_tooltip
			NOT = {
				has_country_flag = USA_in_crisis
			}
		}
	}
	cancel = {
		custom_trigger_tooltip = {
			tooltip = USA_in_crisis_tooltip
			has_country_flag = USA_in_crisis
		}
	}
	prerequisite = {
		focus = USA_rfk_64_hand_in_hand
		focus = USA_rfk_64_the_glorious_bill
		focus = USA_rfk_64_one_last_push
	}
	ai_will_do = {
		factor = 100
		modifier = {
			factor = 1
			#trigger
		}
	}
	completion_reward = {
		log = "[GetDateText]: [Root.GetName]: Focus USA_rfk_64_civil_rights_act"
		custom_effect_tooltip = USA_RFK_Pass_The_CRA_Tooltip
		add_political_power = 100
		country_event = {
			id = bobby.cra.12
			days = 1
		}
		hidden_effect = { USA_RFK_Liberalism_Check = yes }
		set_country_flag = USA_RFK_finished_CRA
		clr_country_flag = USA_RFK_working_on_CRA
		set_variable = {RFK_Poverty_Timer_Amount = 0 }
	}
	x = 3
	y = 10
}

shared_focus = {
	id = USA_rfk_64_work_with_cr_leaders
	icon = GFX_USA_Meet_with_Civil_Rights_Leaders
	cost = 1.00
	available = {
		custom_trigger_tooltip = {
			tooltip = USA_not_in_crisis_tooltip
			NOT = {
				has_country_flag = USA_in_crisis
			}
		}
	}
	cancel = {
		custom_trigger_tooltip = {
			tooltip = USA_in_crisis_tooltip
			has_country_flag = USA_in_crisis
		}
	}
	prerequisite = {
		focus = USA_rfk_64_sideline_dixiecrats
	}
	completion_reward = {
		log = "[GetDateText]: [Root.GetName]: Focus USA_rfk_64_work_with_cr_leaders"
		country_event = { id = bobby.cra.19 days = 4 }
	}
	x = 8
	y = 9
}

shared_focus = {
	id = USA_rfk_64_malcom_x
	icon = GFX_USA_Meet_with_Malcom_X
	cost = 2.00
	available = {
		custom_trigger_tooltip = {
			tooltip = USA_not_in_crisis_tooltip
			NOT = {
				has_country_flag = USA_in_crisis
			}
		}
	}
	cancel = {
		custom_trigger_tooltip = {
			tooltip = USA_in_crisis_tooltip
			has_country_flag = USA_in_crisis
		}
	}
	prerequisite = {
		focus = USA_rfk_64_work_with_cr_leaders
	}
	completion_reward = {
		log = "[GetDateText]: [Root.GetName]: Focus USA_rfk_64_malcom_x"
		country_event = {
			id = bobby.51
			days = 5
		}
		custom_effect_tooltip = RFK_Add_Liberalism
		add_to_variable = { RFK_Liberalism = 1 }
	}
	x = 7
	y = 10
}

shared_focus = {
	id = USA_rfk_64_consult_mlk
	icon = GFX_USA_Meet_with_Martin_Luther_King
	cost = 2.00
	available = {
		custom_trigger_tooltip = {
			tooltip = USA_not_in_crisis_tooltip
			NOT = {
				has_country_flag = USA_in_crisis
			}
		}
	}
	cancel = {
		custom_trigger_tooltip = {
			tooltip = USA_in_crisis_tooltip
			has_country_flag = USA_in_crisis
		}
	}
	prerequisite = {
		focus = USA_rfk_64_work_with_cr_leaders
	}
	completion_reward = {
		log = "[GetDateText]: [Root.GetName]: Focus USA_rfk_64_consult_mlk"
		if = {
			limit = { NOT = { has_country_flag = DEAD_MLK } }
			country_event = { id = bobby.50 days = 5 }
		}
		else = {
			country_event = { id = USA.129 days = 1 }
		}
		custom_effect_tooltip = RFK_Add_Liberalism
		add_to_variable = { RFK_Liberalism = 1 }
	}
	x = 9
	y = 10
}

shared_focus = {
	id = USA_rfk_64_who_knows_best
	icon = GFX_USA_Those_who_know_best
	cost = 3.00
	available = {
		custom_trigger_tooltip = {
			tooltip = USA_not_in_crisis_tooltip
			NOT = {
				has_country_flag = USA_in_crisis
			}
		}
	}
	cancel = {
		custom_trigger_tooltip = {
			tooltip = USA_in_crisis_tooltip
			has_country_flag = USA_in_crisis
		}
	}
	prerequisite = {
		focus = USA_rfk_64_malcom_x
	}
	prerequisite = {
		focus = USA_rfk_64_consult_mlk
	}
	completion_reward = {
		log = "[GetDateText]: [Root.GetName]: Focus USA_rfk_64_who_knows_best"
		set_country_flag = USA_RFK_coop_crm
		custom_effect_tooltip = USA_RFK_CRA_Level_Up
		add_to_variable = { RFK_Liberalism = 1 }
		add_to_variable = { rfk_party_above_all_var = -3 }
		add_to_variable = {temporary_congress_votes = 5 }
		set_variable = { RFK_CRA_Power_Var = 4 }
		add_popularity = {
			ideology = social_democrat
			popularity = 0.01
		}
		hidden_effect = {
			USA_RFK_Liberalism_Check = yes
			every_owned_state = { #Yankees
				limit = {
					check_variable = { nationality = 82 }
				}
				add_to_variable = { NPP_popularity = 0.05}
				add_to_variable = { NPP_C_bonus_popularity = 0.05}
				subtract_from_variable = { NPP_L_bonus_popularity = 0.02 }
				US_underdog_NPP_2_2 = yes
			}
			every_owned_state = {
				limit = {
					can_have_elections_in_state = yes
						OR = {
							check_variable = { nationality = 84 } #African American
							check_variable = { nationality = 83 } #Dixie
						}
					}
				subtract_from_variable = { NPP_FR_bonus_popularity = 0.05 }
				subtract_from_variable = { NPP_popularity = 0.05 }
				add_to_variable = { RD_D_bonus_popularity = 0.05 }
				US_underdog_NPP_2_2 = yes
			}
		}
	}
	x = 8
	y = 11
}

shared_focus = {
	id = USA_rfk_64_root_of_the_issue
	icon = GFX_OST_Fight_for_Freedom
	cost = 2
	available = {
		custom_trigger_tooltip = {
			tooltip = USA_not_in_crisis_tooltip
			NOT = {
				has_country_flag = USA_in_crisis
			}
		}
	}
	cancel = {
		custom_trigger_tooltip = {
			tooltip = USA_in_crisis_tooltip
			has_country_flag = USA_in_crisis
		}
	}
	prerequisite = {
		focus = USA_rfk_64_civil_rights_act
	}
	completion_reward = {
		log = "[GetDateText]: [Root.GetName]: Focus USA_rfk_64_root_of_the_issue"
		if = {
			limit = { has_variable = rfk_party_above_all_var }
			custom_effect_tooltip = USA_party_a_all_var_tt
		}
		country_event = { id = bobby.44	days = 5 }
		# Going to the root of racial issues
		subtract_from_variable = { rfk_party_above_all_var = 1}
	}
	x = 4
	y = 11
}

# PART 2
############################################################
############################################################
# PART 3
shared_focus = {
	id = USA_rfk_64_charity_for_all
	icon = GFX_BRT_A_New_Life
	cost = 4.00
	available = {
		has_country_flag = USA_RFK_finished_CRA
		custom_trigger_tooltip = {
			tooltip = USA_not_in_crisis_tooltip
			NOT = {
				has_country_flag = USA_in_crisis
			}
		}
	}
	cancel = {
		custom_trigger_tooltip = {
			tooltip = USA_in_crisis_tooltip
			has_country_flag = USA_in_crisis
		}
	}
	prerequisite = {
		focus = USA_rfk_64_in_memoriam
	}
	completion_reward = {
		log = "[GetDateText]: [Root.GetName]: Focus USA_rfk_64_charity_for_all"
		add_stability = 0.01
	}
	x = 16
	y = 6
}

shared_focus = {
	id = USA_rfk_64_tour_the_nation
	icon = GFX_USA_make_speeches
	cost = 5.00
	available = {
		custom_trigger_tooltip = {
			tooltip = USA_not_in_crisis_tooltip
			NOT = {
				has_country_flag = USA_in_crisis
			}
		}
	}
	cancel = {
		custom_trigger_tooltip = {
			tooltip = USA_in_crisis_tooltip
			has_country_flag = USA_in_crisis
		}
	}
	prerequisite = {
		focus = USA_rfk_64_charity_for_all
	}
	completion_reward = {
		log = "[GetDateText]: [Root.GetName]: Focus USA_rfk_64_tour_the_nation"
		country_event = { id = bobby.52 }		# RFK goes out flying
	}
	x = 16
	y = 7
}

shared_focus = {
	id = USA_rfk_64_safety_net
	icon = GFX_USA_Build_A_Saftey_Net
	cost = 5.00
	available = {
		custom_trigger_tooltip = {
			tooltip = USA_not_in_crisis_tooltip
			NOT = {
				has_country_flag = USA_in_crisis
			}
		}
		custom_trigger_tooltip = {
		tooltip = RFK_is_done_tour
		has_country_flag = RFK_done_tour
		}
	}
	cancel = {
		custom_trigger_tooltip = {
			tooltip = USA_in_crisis_tooltip
			has_country_flag = USA_in_crisis
		}
	}
	prerequisite = {
		focus = USA_rfk_64_tour_the_nation
	}
	completion_reward = {
		log = "[GetDateText]: [Root.GetName]: Focus USA_rfk_64_safety_net"
		add_popularity = {
			ideology = social_democrat
			popularity = 0.01
		}
		custom_effect_tooltip = USA_rfk_safety_tooltip

		tno_unemployment_improve = yes
		set_country_flag = USA_RFK_unemployment_laws
	}
	x = 13
	y = 8
}

shared_focus = {
	id = USA_rfk_64_testimony_from_people
	icon = GFX_USA_Testimoney_from_the_people
	cost = 4.00
	available = {
		custom_trigger_tooltip = {
			tooltip = USA_not_in_crisis_tooltip
			NOT = {
				has_country_flag = USA_in_crisis
			}
		}
		custom_trigger_tooltip = {
		tooltip = RFK_is_done_tour
		has_country_flag = RFK_done_tour
		}
	}
	cancel = {
		custom_trigger_tooltip = {
			tooltip = USA_in_crisis_tooltip
			has_country_flag = USA_in_crisis
		}
	}
	prerequisite = {
		focus = USA_rfk_64_tour_the_nation
	}
	completion_reward = {
		log = "[GetDateText]: [Root.GetName]: Focus USA_rfk_64_testimony_from_people"
		add_political_power = 50
		add_popularity = {
			ideology = social_democrat
			popularity = 0.01
		}
		country_event = {
			id = bobby.82
			days = 4
		}
	}
	x = 16
	y = 8
}

shared_focus = {
	id = USA_rfk_64_power_of_handshake
	icon = GFX_RAJ_rich_help_others
	cost = 5.00
	available = {
		custom_trigger_tooltip = {
			tooltip = USA_not_in_crisis_tooltip
			NOT = {
				has_country_flag = USA_in_crisis
			}
		}
	}
	cancel = {
		custom_trigger_tooltip = {
			tooltip = USA_in_crisis_tooltip
			has_country_flag = USA_in_crisis
		}
	}
	prerequisite = {
		focus = USA_rfk_64_testimony_from_people
	}
	completion_reward = {
		add_political_power = 50
		country_event = { id = bobby.252 }
		hidden_effect = {
			USA_RFK_Liberalism_Check = yes
		}
	}
	x = 15
	y = 9
}

shared_focus = {
	id = USA_rfk_64_bitterest_of_bitter
	icon = GFX_TNO_generic_public_houses
	cost = 5.00
	available = {
		custom_trigger_tooltip = {
			tooltip = USA_not_in_crisis_tooltip
			NOT = {
				has_country_flag = USA_in_crisis
			}
		}
	}
	cancel = {
		custom_trigger_tooltip = {
			tooltip = USA_in_crisis_tooltip
			has_country_flag = USA_in_crisis
		}
	}
	prerequisite = {
		focus = USA_rfk_64_power_of_handshake
	}
	prerequisite = {
		focus = USA_rfk_64_safety_net
	}
	completion_reward = {
		log = "[GetDateText]: [Root.GetName]: Focus USA_rfk_64_bitterest_of_bitter"
		country_event = {
			id = bobby.165
			days = 4
		}
	}
	x = 15
	y = 10
}

shared_focus = {
	id = USA_rfk_64_poorest_of_poor
	icon = GFX_Generic_Refugees
	cost = 5.00
	available = {
		custom_trigger_tooltip = {
			tooltip = USA_not_in_crisis_tooltip
			NOT = {
				has_country_flag = USA_in_crisis
			}
		}
	}
	cancel = {
		custom_trigger_tooltip = {
			tooltip = USA_in_crisis_tooltip
			has_country_flag = USA_in_crisis
		}
	}
	prerequisite = {
		focus = USA_rfk_64_testimony_from_people
	}
	completion_reward = {
		country_event = { id = bobby.153 days = 4 }
	}
	x = 17
	y = 9
}

shared_focus = {
	id = USA_rfk_64_specter_of_hunger
	icon = GFX_RAJ_India_Risk_of_Famine
	cost = 5.00
	available = {
		custom_trigger_tooltip = {
			tooltip = USA_not_in_crisis_tooltip
			NOT = {
				has_country_flag = USA_in_crisis
			}
		}
	}
	cancel = {
		custom_trigger_tooltip = {
			tooltip = USA_in_crisis_tooltip
			has_country_flag = USA_in_crisis
		}
	}
	prerequisite = {
		focus = USA_rfk_64_poorest_of_poor
	}
	prerequisite = {
		focus = USA_rfk_64_food_banks
	}
	completion_reward = {
		log = "[GetDateText]: [Root.GetName]: Focus USA_rfk_64_specter_of_hunger"
		TNO_improve_poverty_med = yes #coded with a script
		add_political_power = 15
		custom_effect_tooltip = econ_misc_expenses_add_medium_increase
		add_to_variable = { misc_costs = 200 }
		custom_effect_tooltip = rfk_destroys_poverty_tt
		if = {
			limit = {	
				check_variable = { RFK_Liberalism > RFK_Union_Satisfaction }	
			}
			custom_effect_tooltip = RFK_Add_Union
			add_to_variable = { RFK_Union_Satisfaction = 1 }
			}
		else = {
			custom_effect_tooltip = RFK_Add_Liberalism
			add_to_variable = { RFK_Liberalism = 1 }
		}
	}
	x = 17
	y = 10
}

shared_focus = {
	id = USA_rfk_64_rose_by_any_name
	icon = GFX_SCO_labour
	cost = 5.00
	available = {
		custom_trigger_tooltip = {
			tooltip = USA_not_in_crisis_tooltip
			NOT = {
				has_country_flag = USA_in_crisis
			}
		}
	}
	cancel = {
		custom_trigger_tooltip = {
			tooltip = USA_in_crisis_tooltip
			has_country_flag = USA_in_crisis
		}
	}
	prerequisite = {
		focus = USA_rfk_64_bitterest_of_bitter
	}
	prerequisite = {
		focus = USA_rfk_64_specter_of_hunger
	}
	completion_reward = {
		log = "[GetDateText]: [Root.GetName]: Focus USA_rfk_64_rose_by_any_name"
		add_popularity = {
			ideology = social_democrat
			popularity = 0.01
		}
		country_event = { id = bobby.155 days = 7 }
		hidden_effect = { USA_RFK_Union_Happiness_Check = yes }
	}
	x = 16
	y = 11
}

##############################################################################################################
shared_focus = {
	id = USA_rfk_64_injustice_anywhere
	icon = GFX_USA_get_in_loser_were_saving_america
	cost = 5
	available = {
		has_country_flag = RFK_CRA_Passed
		
		custom_trigger_tooltip = {
			tooltip = USA_not_in_crisis_tooltip
			NOT = {
				has_country_flag = USA_RFK_fails_civil_rights_flag
				has_country_flag = USA_in_crisis
			}
		}
	}
	cancel = {
		custom_trigger_tooltip = {
			tooltip = USA_in_crisis_tooltip
			has_country_flag = USA_in_crisis
		}
	}
	prerequisite = {
		focus = USA_rfk_64_root_of_the_issue
	}
	ai_will_do = {
		factor = 100
		modifier = {
			factor = 1
			#trigger
		}
	}
	x = 5
	y = 12
	completion_reward = {
		unlock_decision_category_tooltip = USA_RFK_No_Die
		custom_effect_tooltip = USA_injustice_tt
		custom_effect_tooltip = USA_add_OFN_unity
		add_to_variable = { OFN_unity = 1 }
		set_country_flag = USA_RFK_Can_Get_Shot_Now
		hidden_effect = {
			country_event = { id = bobby.justice.3 days = 3 }
		}
	}
}
##############################################################################################################
####Social
shared_focus = {
	id = USA_rfk_64_american_unculture
	icon = GFX_USA_American_Unculture
	cost = 5.00
	available = {
		custom_trigger_tooltip = {
			tooltip = USA_not_in_crisis_tooltip
			NOT = {
				has_country_flag = USA_in_crisis
			}
		}
	}
	cancel = {
		custom_trigger_tooltip = {
			tooltip = USA_in_crisis_tooltip
			has_country_flag = USA_in_crisis
		}
	}
	prerequisite = {
		focus = USA_rfk_64_injustice_anywhere
	}
	ai_will_do = {
		factor = 10
		modifier = {
			factor = 2
			has_country_flag = BRG_disinfomation_abound_flag
		}
	}
	x = -4
	y = 1
	relative_position_id = USA_rfk_64_injustice_anywhere
	completion_reward = {
			country_event = { id = bobby.justice.15 days = 3} #There is a deep cultural problem about how USA thinks about race
	}
}
shared_focus = {
	id = USA_rfk_64_redlining
	icon = GFX_USA_Stop_the_Redlining
	cost = 4.00
	available = {
		custom_trigger_tooltip = {
			tooltip = USA_not_in_crisis_tooltip
			NOT = {
				has_country_flag = USA_in_crisis
			}
		}
	}
	cancel = {
		custom_trigger_tooltip = {
			tooltip = USA_in_crisis_tooltip
			has_country_flag = USA_in_crisis
		}
	}
	ai_will_do = {
		factor = 100
		modifier = {
			factor = 1
			#trigger
		}
	}
	prerequisite = {
		focus = USA_rfk_64_american_unculture
	}
	x = -1
	y = 1
	relative_position_id = USA_rfk_64_american_unculture
	completion_reward = {
			#Cities, banks, etc are drawing lines over city maps denying service to poor areas, simply racist, buuuut also more profitable
			country_event = { id = bobby.justice.16 days = 3 }
	}
}


shared_focus = {
	id = USA_rfk_64_integration_good_life
	icon = GFX_USA_Begin_Integration
	cost = 5.00
	available = {
		custom_trigger_tooltip = {
			tooltip = USA_not_in_crisis_tooltip
			NOT = {
				has_country_flag = USA_in_crisis
			}
		}
	}
	ai_will_do = {
		factor = 100
		modifier = {
			factor = 1
			#trigger
		}
	}
	cancel = {
		custom_trigger_tooltip = {
			tooltip = USA_in_crisis_tooltip
			has_country_flag = USA_in_crisis
		}
	}
	prerequisite = {
		focus = USA_rfk_64_american_unculture
	}
	x = 1
	y = 1
	relative_position_id = USA_rfk_64_american_unculture
	completion_reward = {
			country_event = { id = bobby.justice.22 days = 4} #The american dream is that every man can climb for himself, defending a system that holds one group down is simply unamerican
	}
}
shared_focus = {
	id = USA_rfk_64_redraw_school_districts
	icon = GFX_USA_Primary_Education_Act
	cost = 5.00
	available = {
		custom_trigger_tooltip = {
			tooltip = USA_not_in_crisis_tooltip
			NOT = {
				has_country_flag = USA_in_crisis
			}
		}
	}
	cancel = {
		custom_trigger_tooltip = {
			tooltip = USA_in_crisis_tooltip
			has_country_flag = USA_in_crisis
		}
	}
	ai_will_do = {
		factor = 100
		modifier = {
			factor = 1
			#trigger
		}
	}
	prerequisite = {
		focus = USA_rfk_64_redlining
	}
	prerequisite = {
		focus = USA_rfk_64_integration_good_life
	}
	ai_will_do = {
		factor = 10
		modifier = {
			factor = 2
			has_country_flag = BRG_disinfomation_abound_flag
		}
	}
	x = 0
	y = 2
	relative_position_id = USA_rfk_64_american_unculture
	completion_reward = {
			country_event = { id = bobby.justice.24 days = 1 }
	}
}
shared_focus = {
	id = USA_rfk_64_national_ethics_commision
	icon = GFX_OST_Friends_in_the_Council
	cost = 5.00
	available = {
		has_country_flag = RFK_integration_complete
		custom_trigger_tooltip = {
			tooltip = USA_not_in_crisis_tooltip
			NOT = {
				has_country_flag = USA_in_crisis
			}
		}
	}
	cancel = {
		custom_trigger_tooltip = {
			tooltip = USA_in_crisis_tooltip
			has_country_flag = USA_in_crisis
		}
	}
	prerequisite = {
		focus = USA_rfk_64_redraw_school_districts
	}
	x = -1
	y = 1
	relative_position_id = USA_rfk_64_redraw_school_districts
	completion_reward = {
		add_to_variable = { RFK_Assassination_Level = 1 }
		#A committee must be set down to figure out, something
		add_ideas = USA_Nat_Ethics_Commit
	}
}
shared_focus = {
	id = USA_rfk_64_planned_suburbs
	icon = GFX_USA_The_Fair_Housing_Administration
	cost = 5.00
	available = {
		has_country_flag = RFK_integration_complete
		custom_trigger_tooltip = {
			tooltip = USA_not_in_crisis_tooltip
			NOT = {
				has_country_flag = USA_in_crisis
			}
		}
	}
	cancel = {
		custom_trigger_tooltip = {
			tooltip = USA_in_crisis_tooltip
			has_country_flag = USA_in_crisis
		}
	}
	prerequisite = {
		focus = USA_rfk_64_redraw_school_districts
	}
	x = 1
	y = 1
	relative_position_id = USA_rfk_64_redraw_school_districts
	completion_reward = {
			country_event = { id = bobby.justice.32 days = 3 }
	}
}
shared_focus = {
	id = USA_rfk_64_really_in_a_society
	icon = GFX_fatherland_lies_silent
	cost = 2.00
	available = {
		custom_trigger_tooltip = {
			tooltip = USA_not_in_crisis_tooltip
			NOT = {
				has_country_flag = USA_in_crisis
			}
		}
	}
	cancel = {
		custom_trigger_tooltip = {
			tooltip = USA_in_crisis_tooltip
			has_country_flag = USA_in_crisis
		}
	}
	prerequisite = {
		focus = USA_rfk_64_planned_suburbs
	}
	prerequisite = {
		focus = USA_rfk_64_national_ethics_commision
	}
	x = 0
	y = 2
	relative_position_id = USA_rfk_64_redraw_school_districts
	completion_reward = {
			country_event = { id = bobby.justice.34 days = 3 }
	}
}
shared_focus = {
	id = USA_rfk_64_into_the_lights
	icon = GFX_USA_Into_the_light
	cost = 5.00
	available = {
		custom_trigger_tooltip = {
			tooltip = USA_not_in_crisis_tooltip
			NOT = {
				has_country_flag = USA_in_crisis
			}
		}
	}
	cancel = {
		custom_trigger_tooltip = {
			tooltip = USA_in_crisis_tooltip
			has_country_flag = USA_in_crisis
		}
	}
	prerequisite = {
		focus = USA_rfk_64_really_in_a_society
	}
	ai_will_do = {
		factor = 10
		modifier = {
			factor = 2
			has_country_flag = BRG_disinfomation_abound_flag
		}
	}
	x = 0
	y = 3
	relative_position_id = USA_rfk_64_redraw_school_districts
	completion_reward = {
		country_event = { id = bobby.justice.39 days = 3 }
		hidden_effect = { USA_RFK_Liberalism_Check = yes }
	}
}
#############################################################################################################################
####Political
shared_focus = {
	id = USA_rfk_64_unamerican_institutions
	icon = GFX_Focus_North_America_Orthographic
	cost = 3.00
	available = {
		custom_trigger_tooltip = {
			tooltip = USA_not_in_crisis_tooltip
			NOT = {
				has_country_flag = USA_in_crisis
			}
		}
	}
	cancel = {
		custom_trigger_tooltip = {
			tooltip = USA_in_crisis_tooltip
			has_country_flag = USA_in_crisis
		}
	}
	prerequisite = {
		focus = USA_rfk_64_injustice_anywhere
	}
	ai_will_do = {
		factor = 10
		modifier = {
			factor = 2
			has_country_flag = BRG_disinfomation_abound_flag
		}
	}
	x = 0
	y = 1
	relative_position_id = USA_rfk_64_injustice_anywhere

	completion_reward = {
		add_to_variable = {RFK_Assassination_Level = 1 }
			country_event = { id = bobby.justice.4 days = 3 }
	}
}
shared_focus = { #RFK comes a knocking mister Hoover...
	id = USA_rfk_64_reign_hoover_in
	icon = GFX_USA_Rein_Hoover_In
	cost = 4.00
	available = {
		custom_trigger_tooltip = {
			tooltip = USA_not_in_crisis_tooltip
			NOT = {
				has_country_flag = USA_in_crisis
			}
		}
	}
	cancel = {
		custom_trigger_tooltip = {
			tooltip = USA_in_crisis_tooltip
			has_country_flag = USA_in_crisis
		}
	}
	prerequisite = {
		focus = USA_rfk_64_unamerican_institutions
	}
	completion_reward = {
		log = "[GetDateText]: [Root.GetName]: Focus USA_rfk_64_reign_hoover_in"
		custom_effect_tooltip = USA_RFK_Hoover_tt
		country_event = { id = bobby.justice.5 days = 3 }
		hidden_effect = { USA_RFK_Liberalism_Check = yes }
	}
	x = -1
	y = 1
	relative_position_id = USA_rfk_64_unamerican_institutions
}

shared_focus = {
	id = USA_rfk_64_thorough_investigation
	icon = GFX_IRQ_the_usual_suspects
	cost = 5.00
	available = {
		custom_trigger_tooltip = {
			tooltip = USA_not_in_crisis_tooltip
			NOT = {
				has_country_flag = USA_in_crisis
			}
		}
	}
	cancel = {
		custom_trigger_tooltip = {
			tooltip = USA_in_crisis_tooltip
			has_country_flag = USA_in_crisis
		}
	}
	prerequisite = {
		focus = USA_rfk_64_reign_hoover_in
	}
	ai_will_do = {
		factor = 10
		modifier = {
			factor = 2
			has_country_flag = BRG_disinfomation_abound_flag
		}
	}
	x = 0
	y = 1
	relative_position_id = USA_rfk_64_reign_hoover_in

	completion_reward = {

	custom_effect_tooltip = USA_RFK_Investigation_Time
		country_event = { id = bobby.justice.8 days = 2 }
	}
}

shared_focus = {
	id = USA_rfk_64_look_into_police
	icon = GFX_USA_police
	cost = 5.00
	available = {
		custom_trigger_tooltip = {
			tooltip = USA_not_in_crisis_tooltip
			NOT = {
				has_country_flag = USA_in_crisis
			}
		}
	}
	cancel = {
		custom_trigger_tooltip = {
			tooltip = USA_in_crisis_tooltip
			has_country_flag = USA_in_crisis
		}
	}
	prerequisite = {
		focus = USA_rfk_64_unamerican_institutions
	}
	x = 1
	y = 1
	relative_position_id = USA_rfk_64_unamerican_institutions

	completion_reward = {
		country_event = { id = bobby.justice.11 days = 3 }
		hidden_effect = {
			USA_RFK_Liberalism_Check = yes
			add_to_variable = { RFK_Union_Satisfaction = 3 }
		}
	}
}

shared_focus = {
	id = USA_rfk_64_watching_watchmen
	icon = GFX_USA_law_is_broken
	cost = 5.00
	available = {
		custom_trigger_tooltip = {
			tooltip = USA_not_in_crisis_tooltip
			NOT = {
				has_country_flag = USA_in_crisis
			}
		}
	}
	cancel = {
		custom_trigger_tooltip = {
			tooltip = USA_in_crisis_tooltip
			has_country_flag = USA_in_crisis
		}
	}
	prerequisite = {
		focus = USA_rfk_64_look_into_police
	}
	x = 0
	y = 1
	relative_position_id = USA_rfk_64_look_into_police

	completion_reward = {
		custom_effect_tooltip = USA_RFK_wawm_tt
		custom_effect_tooltip = RFK_Add_Union
		hidden_effect = {
			country_event = { id = bobby.134 days = 2 } #new police routines
			hidden_effect = {
				USA_RFK_Liberalism_Check = yes
				add_to_variable = { RFK_Union_Satisfaction = 1 }
			}
		}
	}
}

shared_focus = {
	id = USA_rfk_64_southern_bullies
	icon = GFX_USA_state_inspections
	cost = 5.00
	available = {
		custom_trigger_tooltip = {
			tooltip = USA_not_in_crisis_tooltip
			NOT = {
				has_country_flag = USA_in_crisis
			}
		}
	}
	cancel = {
		custom_trigger_tooltip = {
			tooltip = USA_in_crisis_tooltip
			has_country_flag = USA_in_crisis
		}
	}
	prerequisite = {
		focus = USA_rfk_64_thorough_investigation
	}
	prerequisite = {
		focus = USA_rfk_64_watching_watchmen
	}
	ai_will_do = {
		factor = 10
		modifier = {
			factor = 2
			has_country_flag = BRG_disinfomation_abound_flag
		}
	}
	x = 0
	y = 3
	relative_position_id = USA_rfk_64_unamerican_institutions

	completion_reward = {
		custom_effect_tooltip = USA_RFK_Southern_Bullies
		add_to_variable = { RFK_Assassination_Level = 3}
		hidden_effect = {
			country_event = { id = bobby.justice.12 days = 2 }
			USA_RFK_Liberalism_Check = yes
		}
	}
}

shared_focus = {
	id = USA_rfk_64_saturday_night_massacre
	icon = GFX_USA_The_Saturday_Night_Massacre
	cost = 0
	available = {
		OR = {
		has_country_flag = RFK_SNM_Failed
		has_country_flag = RFK_SNM_Avoided
			}
		custom_trigger_tooltip = {
			tooltip = USA_not_in_crisis_tooltip
			NOT = {
				has_country_flag = USA_in_crisis
			}
		}
	}
	cancel = {
		custom_trigger_tooltip = {
			tooltip = USA_in_crisis_tooltip
			has_country_flag = USA_in_crisis
		}
	}
	prerequisite = {
		focus = USA_rfk_64_southern_bullies
	}
	ai_will_do = {
		factor = 10
		modifier = {
			factor = 2
			has_country_flag = BRG_disinfomation_abound_flag
		}
	}
	x = 0
	y = 1
	relative_position_id = USA_rfk_64_southern_bullies

	completion_reward = {
		custom_effect_tooltip = RFK_SNM_tt
	}
}
##################################################################################################################################
#LEGAL
shared_focus = {
	id = USA_rfk_64_unjust_justice
	icon = GFX_ORE_institute_common_judicial_guidelines
	cost = 5.00
	available = {
		custom_trigger_tooltip = {
			tooltip = USA_not_in_crisis_tooltip
			NOT = {
				has_country_flag = USA_in_crisis
			}
		}
	}
	cancel = {
		custom_trigger_tooltip = {
			tooltip = USA_in_crisis_tooltip
			has_country_flag = USA_in_crisis
		}
	}
	prerequisite = {
		focus = USA_rfk_64_injustice_anywhere
	}
	ai_will_do = {
		factor = 10
		modifier = {
			factor = 2
			has_country_flag = BRG_disinfomation_abound_flag
		}
	}
	x = 4
	y = 1
	relative_position_id = USA_rfk_64_injustice_anywhere

	completion_reward = {
		country_event = { id = bobby.justice.41 days = 3 }
		# The courts give stronger sentences to black people for the same crimes, boo, fix that
		# set down a committee that goes over sentences compared to crime compared to race to find exactly where in the country, which crimes, which sentences are unjust
	}
}

shared_focus = {
	id = USA_rfk_64_halls_of_justice
	icon = GFX_USA_duty_to_country
	cost = 4
	available = {
		custom_trigger_tooltip = {
			tooltip = USA_not_in_crisis_tooltip
			NOT = {
				has_country_flag = USA_in_crisis
			}
		}
	}
	cancel = {
		custom_trigger_tooltip = {
			tooltip = USA_in_crisis_tooltip
			has_country_flag = USA_in_crisis
		}
	}
	prerequisite = {
		focus = USA_rfk_64_unjust_justice
	}
	x = -1
	y = 1
	relative_position_id = USA_rfk_64_unjust_justice

	completion_reward = {
			country_event = { id = bobby.justice.42 days = 3 }
	}
}

shared_focus = {
	id = USA_rfk_64_racist_prisons
	icon = GFX_TNO_generic_prison
	cost = 4
	available = {
		custom_trigger_tooltip = {
			tooltip = USA_not_in_crisis_tooltip
			NOT = {
				has_country_flag = USA_in_crisis
			}
		}
	}
	cancel = {
		custom_trigger_tooltip = {
			tooltip = USA_in_crisis_tooltip
			has_country_flag = USA_in_crisis
		}
	}
	prerequisite = {
		focus = USA_rfk_64_unjust_justice
	}
	x = 1
	y = 1
	relative_position_id = USA_rfk_64_unjust_justice

	completion_reward = {
		country_event = { id = bobby.justice.43 days = 3 }
	}
}

shared_focus = {
	id = USA_rfk_64_underlying_problem
	icon = GFX_USA_Segregationist_Support
	cost = 5.00
	available = {
		custom_trigger_tooltip = {
			tooltip = USA_not_in_crisis_tooltip
			NOT = {
				has_country_flag = USA_in_crisis
			}
		}
	}
	cancel = {
		custom_trigger_tooltip = {
			tooltip = USA_in_crisis_tooltip
			has_country_flag = USA_in_crisis
		}
	}
	prerequisite = {
		focus = USA_rfk_64_racist_prisons
	}
	prerequisite = {
		focus = USA_rfk_64_halls_of_justice
	}
	x = 0
	y = 2
	relative_position_id = USA_rfk_64_unjust_justice

	completion_reward = {
		country_event = { id = bobby.justice.44 days = 3 }
		#all these things are well and fine, but there is an underlying problem, the supreme court resolution from 1954 that established the rights of states to segregate education, and thus everything, this must be overturned
		hidden_effect = {
			USA_RFK_Liberalism_Check = yes
		}
	}

}
shared_focus = {
	id = USA_rfk_64_brown_v_board
	icon = GFX_ORE_establish_the_planning_commission
	cost = 1.00
	available = {
		custom_trigger_tooltip = {
			tooltip = USA_not_in_crisis_tooltip
			NOT = {
				has_country_flag = USA_in_crisis
			}
		}
	}
	cancel = {
		custom_trigger_tooltip = {
			tooltip = USA_in_crisis_tooltip
			has_country_flag = USA_in_crisis
		}
	}
	prerequisite = {
		focus = USA_rfk_64_underlying_problem
	}
	ai_will_do = {
		factor = 10
		modifier = {
			factor = 2
			has_country_flag = BRG_disinfomation_abound_flag
		}
	}
	completion_reward = {
		log = "[GetDateText]: [Root.GetName]: Focus USA_rfk_64_brown_v_board"
		add_political_power = 50
		add_stability = 0.01
		country_event = { id = bobby.justice.66 }
		hidden_effect = {
			USA_RFK_Liberalism_Check = yes
		}
	}
	x = 0
	y = 3
	relative_position_id = USA_rfk_64_unjust_justice
}

shared_focus = {
	id = USA_rfk_64_no_compromises
	icon = GFX_USA_discuss_with_southern_leaders
	cost = 5.00
	available = {
		custom_trigger_tooltip = {
			tooltip = USA_not_in_crisis_tooltip
			NOT = {
				has_country_flag = USA_in_crisis
			}
		}
	}
	cancel = {
		custom_trigger_tooltip = {
			tooltip = USA_in_crisis_tooltip
			has_country_flag = USA_in_crisis
		}
	}
	prerequisite = {
		focus = USA_rfk_64_brown_v_board
	}
	x = -1
	y = 1
	relative_position_id = USA_rfk_64_brown_v_board

	completion_reward = {
			country_event = { id = bobby.justice.100 days = 5 }
	}
}

shared_focus = {
	id = USA_rfk_64_tighter_control
	icon = GFX_USA_KKK
	cost = 5.00
	available = {
		custom_trigger_tooltip = {
			tooltip = USA_not_in_crisis_tooltip
			NOT = {
				has_country_flag = USA_in_crisis
			}
		}
	}
	cancel = {
		custom_trigger_tooltip = {
			tooltip = USA_in_crisis_tooltip
			has_country_flag = USA_in_crisis
		}
	}
	prerequisite = {
		focus = USA_rfk_64_brown_v_board
	}
	x = 1
	y = 1
	relative_position_id = USA_rfk_64_brown_v_board

	completion_reward = {
			country_event = { id = bobby.justice.49 days = 10 }
	}
}

shared_focus = {
	id = USA_rfk_64_law_and_order
	icon = GFX_USA_A_Great_Society
	cost = 5.00
	available = {
		OR = {
		has_country_flag = RFK_KK_Stopped
		has_country_flag = RFK_KKK_Went_To_Shit
		}
		custom_trigger_tooltip = {
			tooltip = USA_not_in_crisis_tooltip
			NOT = {
				has_country_flag = USA_in_crisis
			}
		}
	}
	cancel = {
		custom_trigger_tooltip = {
			tooltip = USA_in_crisis_tooltip
			has_country_flag = USA_in_crisis
		}
	}
	prerequisite = {
		focus = USA_rfk_64_no_compromises
	}
	prerequisite = {
		focus = USA_rfk_64_tighter_control
	}
	ai_will_do = {
		factor = 10
		modifier = {
			factor = 2
			has_country_flag = BRG_disinfomation_abound_flag
		}
	}
	x = 0
	y = 2
	relative_position_id = USA_rfk_64_brown_v_board

	completion_reward = {
			country_event = { id = bobby.justice.48 days = 5}
			hidden_effect = {
				USA_RFK_Liberalism_Check = yes
		}
	}
}

shared_focus = {
	id = USA_rfk_64_bind_up_wounds
	icon = GFX_RAJ_India_Diplo_US_We_Love_You
	cost = 5.00
	available = {
		custom_trigger_tooltip = {
			tooltip = USA_not_in_crisis_tooltip
			NOT = {
				has_country_flag = USA_in_crisis
			}
		}
	}
	cancel = {
		custom_trigger_tooltip = {
			tooltip = USA_in_crisis_tooltip
			has_country_flag = USA_in_crisis
		}
	}

	prerequisite = {
		focus = USA_rfk_64_law_and_order
	}
	prerequisite = {
		focus = USA_rfk_64_into_the_lights
	}
	prerequisite = {
		focus = USA_rfk_64_saturday_night_massacre
	}
	x = 5
	y = 19

	completion_reward = {
		USA_decrease_depression = yes
		add_popularity = {
			ideology = authoritarian_democrat
			popularity = -0.005
		}
		add_popularity = {
			ideology = social_conservative
			popularity = -0.015
		}
		add_popularity = {
			ideology = social_democrat
			popularity = 0.02
		}
		hidden_effect = {
			country_event = { id = bobby.justice.40 days = 7 }
			USA_RFK_Liberalism_Check = yes
		}
	}
}
###############################################################################################
shared_focus = {
	id = USA_rfK_64_federal_minimum_wage
	icon = GFX_COG_american_funding
	cost = 3.00
	available = {
		custom_trigger_tooltip = {
			tooltip = USA_not_in_crisis_tooltip
			NOT = {
				has_country_flag = USA_in_crisis
			}
		}
	}
	cancel = {
		custom_trigger_tooltip = {
			tooltip = USA_in_crisis_tooltip
			has_country_flag = USA_in_crisis
		}
	}
	prerequisite = {
		focus = USA_rfk_64_rights_of_worker
	}
	mutually_exclusive = {
		focus = USA_rfK_64_public_pensions
	}
	completion_reward = {
		log = "[GetDateText]: [Root.GetName]: Focus USA_rfK_64_federal_minimum_wage"
		custom_effect_tooltip = rfk_chose_min_wage_tt
		set_variable = { rfk_min_wage_or_pension = 1 }
		custom_effect_tooltip = RFK_Add_Union
		add_to_variable = { RFK_Union_Satisfaction = 2 }
	}
	x = 11
	y = 10
}

shared_focus = {
	id = USA_rfK_64_public_pensions
	icon = GFX_Generic_Gold
	cost = 3.00
	available = {
		custom_trigger_tooltip = {
			tooltip = USA_not_in_crisis_tooltip
			NOT = {
				has_country_flag = USA_in_crisis
			}
		}
	}
	cancel = {
		custom_trigger_tooltip = {
			tooltip = USA_in_crisis_tooltip
			has_country_flag = USA_in_crisis
		}
	}
	prerequisite = {
		focus = USA_rfk_64_rights_of_worker
	}
	mutually_exclusive = {
		focus = USA_rfK_64_federal_minimum_wage
	}
	completion_reward = {
		log = "[GetDateText]: [Root.GetName]: Focus USA_rfK_64_public_pensions"
		custom_effect_tooltip = rfk_chose_pension_tt
		set_variable = { rfk_min_wage_or_pension = 2 }
		custom_effect_tooltip = RFK_Subtract_Union
		subtract_from_variable = { RFK_Union_Satisfaction = 2 }
	}
	x = 13
	y = 10
}

shared_focus = {
	id = USA_rfk_64_rights_of_worker
	icon = GFX_RAJ_India_Worker_Rights
	cost = 3.00
	available = {
		custom_trigger_tooltip = {
			tooltip = USA_not_in_crisis_tooltip
			NOT = {
				has_country_flag = USA_in_crisis
			}
		}
	}
	cancel = {
		custom_trigger_tooltip = {
			tooltip = USA_in_crisis_tooltip
			has_country_flag = USA_in_crisis
		}
	}
	prerequisite = {
		focus = USA_rfk_64_safety_net
	}
	completion_reward = {
		log = "[GetDateText]: [Root.GetName]: Focus USA_rfk_64_rights_of_worker"
		add_to_variable = { RFK_Assassination_Level = 1 }
		country_event = { id = bobby.166 days = 7 }
	}
	x = 12
	y = 9
}

shared_focus = {
	id = USA_rfk_64_war_on_poverty
	icon = GFX_endless_money
	cost = 5.00
	available = {
		custom_trigger_tooltip = {
			tooltip = USA_not_in_crisis_tooltip
			NOT = {
				has_country_flag = USA_in_crisis
			}
		}
		custom_trigger_tooltip = {
		tooltip = RFK_is_done_tour
		has_country_flag = RFK_done_tour
		}
	}
	cancel = {
		custom_trigger_tooltip = {
			tooltip = USA_in_crisis_tooltip
			has_country_flag = USA_in_crisis
		}
	}
	prerequisite = {
		focus = USA_rfk_64_tour_the_nation
	}
	completion_reward = {
		log = "[GetDateText]: [Root.GetName]: Focus USA_rfk_64_war_on_poverty"
		custom_effect_tooltip = effect_tt_war_on_poverty_rfk
		# introduce the plan in an event
		# George Wallace expect that special attention is given to the poor southern states
		country_event = { id = bobby.161 }
		hidden_effect = {
			every_owned_state = {
				limit = { can_have_elections_in_state = yes }
				add_to_variable = { NPP_C_bonus_popularity = 0.02}
				add_to_variable = { NPP_popularity = 0.05}
				US_underdog_NPP_2_2 = yes
			}
		}
	}
	x = 20
	y = 8
}

shared_focus = {
	id = USA_rfk_64_support_campaign
	icon = GFX_USA_Raise_the_Fear
	cost = 5.00
	available = {
		custom_trigger_tooltip = {
			tooltip = USA_not_in_crisis_tooltip
			NOT = {
				has_country_flag = USA_in_crisis
			}
		}
	}
	cancel = {
		custom_trigger_tooltip = {
			tooltip = USA_in_crisis_tooltip
			has_country_flag = USA_in_crisis
		}
	}
	prerequisite = {
		focus = USA_rfK_64_federal_minimum_wage
		focus = USA_rfK_64_public_pensions
	}
	completion_reward = {
		custom_effect_tooltip = rfk_increase_pop_tt
		if = {
			limit = { check_variable = { rfk_min_wage_or_pension = 1 } }
			custom_effect_tooltip = RFK_Add_Liberalism
			add_to_variable = { RFK_Liberalism = 1 }
		}
		else = {
			custom_effect_tooltip = RFK_Add_Union
			add_to_variable = { RFK_Union_Satisfaction = 1 }
		}
		hidden_effect = {
			USA_RFK_Union_Happiness_Check = yes
			USA_RFK_Liberalism_Check = yes
			every_owned_state = {
				limit = { can_have_elections_in_state = yes }
				add_to_variable = { NPP_C_bonus_popularity = 0.02}
				add_to_variable = { NPP_popularity = 0.05}
				US_underdog_NPP_2_2 = yes
			}
		}
	}
	x = 12
	y = 11
}

shared_focus = {
	id = USA_rfk_64_job_corps
	icon = GFX_IEA_Its_Nothing_Personal
	cost = 5.00
	available = {
		custom_trigger_tooltip = {
			tooltip = USA_not_in_crisis_tooltip
			NOT = {
				has_country_flag = USA_in_crisis
			}
		}
	}
	cancel = {
		custom_trigger_tooltip = {
			tooltip = USA_in_crisis_tooltip
			has_country_flag = USA_in_crisis
		}
	}
	prerequisite = {
		focus = USA_rfk_64_war_on_poverty
	}
	completion_reward = {
		log = "[GetDateText]: [Root.GetName]: Focus USA_rfk_64_job_corps"
		country_event = { id = bobby.162 }

		custom_effect_tooltip = econ_misc_expenses_add_small_increase
		add_to_variable = { misc_costs = 25 }
		hidden_effect = {
			every_owned_state = {
				limit = { can_have_elections_in_state = yes }
				add_to_variable = { NPP_C_bonus_popularity = 0.02}
				add_to_variable = { NPP_popularity = 0.025}
				US_underdog_NPP_2_2 = yes
			}
		}
		if = {
			limit = {
				has_country_flag = RFK_Promised_Wallace
			}
			custom_effect_tooltip = RFK_Promised_the_South
			custom_effect_tooltip = RFK_Subtract_Union
			hidden_effect = {
				subtract_from_variable = { RFK_Union_Satisfaction = 2 }
				every_owned_state = {
					limit = { 
						can_have_elections_in_state = yes
						OR = {
							check_variable = { nationality = 84 } #African American
							check_variable = { nationality = 83 } #Dixie
						}
					}
					add_to_variable = { NPP_C_bonus_popularity = 0.1}
				}
			}
		}
	}
	x = 21
	y = 9
}

shared_focus = {
	id = USA_rfk_64_food_banks
	icon = GFX_USA_More_Food_Stamps
	cost = 5.00
	available = {
		custom_trigger_tooltip = {
			tooltip = USA_not_in_crisis_tooltip
			NOT = {
				has_country_flag = USA_in_crisis
			}
		}
	}
	cancel = {
		custom_trigger_tooltip = {
			tooltip = USA_in_crisis_tooltip
			has_country_flag = USA_in_crisis
		}
	}
	prerequisite = {
		focus = USA_rfk_64_war_on_poverty
	}
	completion_reward = {
		log = "[GetDateText]: [Root.GetName]: Focus USA_rfk_64_food_banks"
		add_ideas = USA_rfk_federal_food_banks
		TNO_improve_poverty_med = yes #coded with a script
		custom_effect_tooltip = econ_misc_expenses_add_small_increase
		add_to_variable = { misc_costs = 120 }
		hidden_effect = {
			every_owned_state = {
				limit = { can_have_elections_in_state = yes }
				add_to_variable = { NPP_C_bonus_popularity = 0.02}
				add_to_variable = { NPP_popularity = 0.01}
			}
		}
		if = {
			limit = {
				has_country_flag = RFK_Promised_Wallace
			}
			custom_effect_tooltip = RFK_Promised_the_South
			custom_effect_tooltip = RFK_Subtract_Union
			hidden_effect = {
				subtract_from_variable = { RFK_Union_Satisfaction = 2 }
				every_owned_state = {
					limit = { 
						can_have_elections_in_state = yes
						OR = {
							check_variable = { nationality = 84 } #African American
							check_variable = { nationality = 83 } #Dixie
						}
					}
					add_to_variable = { NPP_C_bonus_popularity = 0.1}
				}
			}
		}
	}
	x = 19
	y = 9
}

shared_focus = {
	id = USA_rfk_64_affordable_housing
	icon = GFX_COG_Selling_off_the_Land
	cost = 5.00
	available = {
		custom_trigger_tooltip = {
			tooltip = USA_not_in_crisis_tooltip
			NOT = {
				has_country_flag = USA_in_crisis
			}
		}
	}
	cancel = {
		custom_trigger_tooltip = {
			tooltip = USA_in_crisis_tooltip
			has_country_flag = USA_in_crisis
		}
	}
	prerequisite = {
		focus = USA_rfk_64_job_corps
	}
	prerequisite = {
		focus = USA_rfk_64_food_banks
	}
	select_effect = { USA_RFK_affordable_housing_act = yes }
	completion_reward = {
		log = "[GetDateText]: [Root.GetName]: Focus USA_rfk_64_affordable_housing"
		custom_effect_tooltip = USA_bill_tooltip
		hidden_effect = { country_event = { id = USA_sen_bill.507 } }
		hidden_effect = { USA_RFK_Union_Happiness_Check = yes }
	}
	x = 20
	y = 10
}

shared_focus = {
	id = USA_rfk_64_fight_for_the_future
	icon = GFX_USA_Campaign_in_the_North
	cost = 5.00
	available = {
		custom_trigger_tooltip = {
			tooltip = USA_not_in_crisis_tooltip
			NOT = {
				has_country_flag = USA_in_crisis
			}
		}
	}
	cancel = {
		custom_trigger_tooltip = {
			tooltip = USA_in_crisis_tooltip
			has_country_flag = USA_in_crisis
		}
	}
	completion_reward = {
		log = "[GetDateText]: [Root.GetName]: Focus USA_rfk_64_fight_for_the_future"
		country_event = { id = bobby.164 }
	}
	prerequisite = {
		focus = USA_rfk_64_affordable_housing
	}
	x = 21
	y = 11
}

shared_focus = {
	id = USA_rfk_64_test_the_waters
	icon = GFX_RAJ_India_Wealth_Question
	cost = 5.00
	available = {
		custom_trigger_tooltip = {
			tooltip = USA_not_in_crisis_tooltip
			NOT = {
				has_country_flag = USA_in_crisis
			}
		}
	}
	cancel = {
		custom_trigger_tooltip = {
			tooltip = USA_in_crisis_tooltip
			has_country_flag = USA_in_crisis
		}
	}
	prerequisite = {
		focus = USA_rfk_64_affordable_housing
	}
	completion_reward = {
		country_event = { id = bobby.163 }
		custom_effect_tooltip = rfk_steps_into_state_politics_tt
	}
	x = 19
	y = 11
}

shared_focus = {
	id = USA_rfk_64_no_child_left_behind
	icon = GFX_USA_No_Child_Left_Behind
	cost = 5.00
	available = {
		custom_trigger_tooltip = {
			tooltip = USA_not_in_crisis_tooltip
			NOT = {
				has_country_flag = USA_in_crisis
			}
		}
	}
	cancel = {
		custom_trigger_tooltip = {
			tooltip = USA_in_crisis_tooltip
			has_country_flag = USA_in_crisis
		}
	}
	prerequisite = {
		focus = USA_rfk_64_test_the_waters
	}
	select_effect = { USA_RFK_student_aid_bill = yes }
	completion_reward = {
		log = "[GetDateText]: [Root.GetName]: Focus USA_rfk_64_no_child_left_behind"
		custom_effect_tooltip = USA_bill_tooltip
		hidden_effect = {
			country_event = {id = USA_sen_bill.506}
		}
	}
	x = 18
	y = 12
}

shared_focus = {
	id = USA_rfk_64_community_action
	icon = GFX_USA_Community_Action
	cost = 5.00
	available = {
		custom_trigger_tooltip = {
			tooltip = USA_not_in_crisis_tooltip
			NOT = {
				has_country_flag = USA_in_crisis
			}
		}
	}
	cancel = {
		custom_trigger_tooltip = {
			tooltip = USA_in_crisis_tooltip
			has_country_flag = USA_in_crisis
		}
	}
	prerequisite = {
		focus = USA_rfk_64_fight_for_the_future
		focus = USA_rfk_64_test_the_waters
	}
	completion_reward = {
		#Taking care of the poor is a responsibility for all, the state does something but communities must also do something
		country_event = { id = bobby.253 }
	}
	x = 20
	y = 12
}

shared_focus = {
	id = USA_rfk_64_economic_opportunity_act
	icon = GFX_USA_The_Economic_Opportunity_Act
	cost = 5.00
	available = {
		custom_trigger_tooltip = {
			tooltip = USA_not_in_crisis_tooltip
			NOT = {
				has_country_flag = USA_in_crisis
			}
		}
	}
	cancel = {
		custom_trigger_tooltip = {
			tooltip = USA_in_crisis_tooltip
			has_country_flag = USA_in_crisis
		}
	}
	prerequisite = {
		focus = USA_rfk_64_no_child_left_behind
	}
	prerequisite = {
		focus = USA_rfk_64_community_action
	}
	select_effect = { USA_RFK_economic_opportunity = yes }
	completion_reward = {
		log = "[GetDateText]: [Root.GetName]: Focus USA_rfk_64_economic_opportunity_act"
		custom_effect_tooltip = USA_bill_tooltip
		hidden_effect = {
			country_event = {id = USA_sen_bill.508}
		}
	}
	x = 18
	y = 13
}

shared_focus = {
	id = USA_rfk_64_sit_with_chavez
	icon = GFX_USA_Sit_with_Chavez
	cost = 2.00
	available = {
		custom_trigger_tooltip = {
			tooltip = USA_not_in_crisis_tooltip
			NOT = {
				has_country_flag = USA_in_crisis
			}
		}
	}
	cancel = {
		custom_trigger_tooltip = {
			tooltip = USA_in_crisis_tooltip
			has_country_flag = USA_in_crisis
		}
	}
	prerequisite = {
		focus = USA_rfk_64_support_campaign
	}
	completion_reward = {
		log = "[GetDateText]: [Root.GetName]: Focus USA_rfk_64_sit_with_chavez"
		custom_effect_tooltip = USA_rfK_sit_with_chaves_tt
		if = {
			limit = { has_variable = rfk_party_above_all_var }
			custom_effect_tooltip = USA_party_a_all_var_tt
		}
		hidden_effect = {
			country_event = { id = bobby.154 days = 14 }
			if = {
				limit = {
					has_country_flag = USA_RFK_coop_crm
				}
				every_owned_state = {
					limit = { can_have_elections_in_state = yes }
					set_temp_variable = { popularity_bonus = 0.05 }
					add_to_variable = { NPP_popularity = popularity_bonus }
					add_to_variable = { NPP_popularity = 0.025}

				}
			}
			every_owned_state = {
					limit = { can_have_elections_in_state = yes }
					set_temp_variable = { popularity_bonus = 0.05 }
					add_to_variable = { NPP_popularity = popularity_bonus }
					add_to_variable = { NPP_popularity = 0.025}

				}
			subtract_from_variable = { rfk_party_above_all_var = 1}
		}
	}
	x = 12
	y = 12
}

shared_focus = {
	id = USA_rfk_64_reprimand_police
	icon = GFX_USA_Last_Light_of_Freedom
	cost = 5.00
	available = {
		custom_trigger_tooltip = {
			tooltip = USA_not_in_crisis_tooltip
			NOT = {
				has_country_flag = USA_in_crisis
			}
		}
	}
	cancel = {
		custom_trigger_tooltip = {
			tooltip = USA_in_crisis_tooltip
			has_country_flag = USA_in_crisis
		}
	}
	prerequisite = {
		focus = USA_rfk_64_support_campaign
	}
	completion_reward = {
		if = {
			limit = { has_variable = rfk_party_above_all_var }
			custom_effect_tooltip = USA_party_a_all_var_tt
		}
		subtract_from_variable = { rfk_party_above_all_var = 1}
		add_to_variable = { RFK_Assassination_Level = 3 } #F
		custom_effect_tooltip = rfk_anger_le_hawks
		country_event = { id = bobby.167}
	}
	x = 14
	y = 12
}

shared_focus = {
	id = USA_rfk_64_national_labor_relations
	icon = GFX_USA_Calm_Progressives
	cost = 5.00
	available = {
		custom_trigger_tooltip = {
			tooltip = USA_not_in_crisis_tooltip
			NOT = {
				has_country_flag = USA_in_crisis
			}
		}
	}
	cancel = {
		custom_trigger_tooltip = {
			tooltip = USA_in_crisis_tooltip
			has_country_flag = USA_in_crisis
		}
	}
	prerequisite = {
		focus = USA_rfk_64_sit_with_chavez
	}
	prerequisite = {
		focus = USA_rfk_64_reprimand_police
	}
	select_effect = { USA_RFK_labour_relations_act = yes }
	completion_reward = {
		 custom_effect_tooltip = USA_bill_tooltip

		hidden_effect = { USA_RFK_Union_Happiness_Check = yes
		country_event = { id = USA_sen_bill.509 }
		}
	}
	x = 14
	y = 13
}

shared_focus = {
	id = USA_rfk_64_social_security_act
	icon = GFX_USA_The_Social_Security_Act
	cost = 5.00
	available = {
		custom_trigger_tooltip = {
			tooltip = USA_not_in_crisis_tooltip
			NOT = {
				has_country_flag = USA_in_crisis
			}
		}
	}
	cancel = {
		custom_trigger_tooltip = {
			tooltip = USA_in_crisis_tooltip
			has_country_flag = USA_in_crisis
		}
	}
	select_effect = { clr_country_flag = RD_R_discussing USA_RFK_social_security_act = yes }
	completion_reward = {
		log = "[GetDateText]: [Root.GetName]: Focus USA_rfk_64_social_security_act"
		set_country_flag = USA_in_crisis
		set_variable = { poverty_monthly_change = 0 }
		custom_effect_tooltip = RFK_Begin_Social_security
		hidden_effect = { USA_RFK_Union_Happiness_Check = yes }
		if = {
			limit = { has_variable = rfk_party_above_all_var }
			custom_effect_tooltip = USA_party_a_all_var_tt
		}
		hidden_effect = {
			#country_event = { id = bobby.88 days = 1}
		}
		subtract_from_variable = { rfk_party_above_all_var = 2}
	}
	prerequisite = {
		focus = USA_rfk_64_national_labor_relations
	}
	prerequisite = {
		focus = USA_rfk_64_economic_opportunity_act
	}
	prerequisite = {
		focus = USA_rfk_64_rose_by_any_name
	}
	x = 16
	y = 15
}

shared_focus = {
	id = USA_rfk_64_world_begins_with_you
	# Idea
	icon = GFX_USA_Tackling_the_Causes
	cost = 5.00

	completion_reward = {
		log = "[GetDateText]: [Root.GetName]: Focus USA_rfk_64_world_begins_with_you"
		add_timed_idea = { idea = USA_rfk_world_begins_with_you days = 365 }
		TNO_improve_academic_base_low = yes #coded with a script
	}
	prerequisite = {
		focus = USA_rfk_64_social_security_act
	}
	x = 15
	y = 16
}

shared_focus = {
	id = USA_rfk_64_bridge_political_divide
	icon = GFX_USA_Only_American_Future
	cost = 5.00

	prerequisite = {
		focus = USA_rfk_64_world_begins_with_you
	}

	bypass = {
	has_completed_focus = USA_rfk_64_a_fair_chance
	}
	completion_reward = {
		log = "[GetDateText]: [Root.GetName]: Focus USA_rfk_64_bridge_political_divide"
		add_political_power = -100
		custom_effect_tooltip = RFK_Bridge_Divide.tt
		hidden_effect = {
			set_temp_variable = { new_bill_support = 100 }
			add_to_variable = {NPP_FR_supporting_senators = 100}
			clamp_variable = {
			var = NPP_FR_supporting_senators
			min = 0
			max = NPP_FR_senators
				}
			clamp_variable = {
			var = new_bill_support
			min = 0
			max = NPP_FR_senators
				}
			add_to_variable = {supporting_senators = new_bill_support}
		}
	}

	x = 16
	y = 17
}

shared_focus = {
	id = USA_rfk_64_against_fascism
	icon = GFX_USA_Subvert_the_Pact
	cost = 5.00

	bypass = {
	has_completed_focus = USA_rfk_64_a_fair_chance
	}

	completion_reward = {
		log = "[GetDateText]: [Root.GetName]: Focus USA_rfk_64_against_fascism"
		set_country_flag = RFK_expanded_SSA
		hidden_effect = {
		subtract_from_variable = { RD_R_supporting_senators = 10 }
		set_temp_variable = { new_bill_support = 10 }
		clamp_variable = {
			var = RD_R_supporting_senators
			min = 0
			max = RD_R_senators
		}
		clamp_variable = {
			var = new_bill_support
			min = 0
			max = RD_R_senators
		}
		add_to_variable = { supporting_senators = new_bill_support }
			every_owned_state = {
				limit = { can_have_elections_in_state = yes}
				subtract_from_variable = { NPP_Y_bonus_popularity = 0.05}
				if = {
					limit = { check_variable = { NPP_Y_bonus_popularity < 0}}
					set_variable = { NPP_Y_bonus_popularity = 0.001}
				}
				add_to_variable = { NPP_popularity = 0.05}
				US_underdog_NPP_2_2 = yes
			}
		}
		custom_effect_tooltip = RFK_social_security
	}
	prerequisite = {
		focus = USA_rfk_64_social_security_act
	}
	x = 17
	y = 16
}

shared_focus = {
	id = USA_rfk_64_a_fair_chance
	icon = GFX_USA_Keep_It_Clean
	cost = 5.00

	completion_reward = {
		log = "[GetDateText]: [Root.GetName]: Focus USA_rfk_64_a_fair_chance"
		custom_effect_tooltip = RFK_Pass_Social_Security
		hidden_effect = { 
			country_event = { id = USA_sen_bill.514 }
			clr_country_flag = USA_in_crisis
		}
	}
	prerequisite = {
		focus = USA_rfk_64_world_begins_with_you
	}
	x = 15
	y = 18
}

shared_focus = {
	id = USA_rfk_64_gentle_hand
	icon = GFX_USA_Campaign_in_the_North
	cost = 5.00
	available = {
		custom_trigger_tooltip = {
			tooltip = USA_not_in_crisis_tooltip
			NOT = {
				has_country_flag = USA_in_crisis
			}
		}
	}
	cancel = {
		custom_trigger_tooltip = {
			tooltip = USA_in_crisis_tooltip
			has_country_flag = USA_in_crisis
		}
	}
	completion_reward = {
		log = "[GetDateText]: [Root.GetName]: Focus USA_rfk_64_gentle_hand"
		country_event = { id = bobby.92 days = 1}
		hidden_effect = { USA_RFK_Liberalism_Check = yes }
	}
	prerequisite = {
		focus = USA_rfk_64_bridge_political_divide
	}
	prerequisite = {
		focus = USA_rfk_64_against_fascism
	}
	x = 17
	y = 18
}

shared_focus = {
	id = USA_rfk_64_national_healthcare
	icon = GFX_USA_National_Healthcare
	cost = 5.00
	available = {
		custom_trigger_tooltip = {
			tooltip = USA_not_in_crisis_tooltip
			NOT = {
				has_country_flag = USA_in_crisis
			}
		}
	}
	cancel = {
		custom_trigger_tooltip = {
			tooltip = USA_in_crisis_tooltip
			has_country_flag = USA_in_crisis
		}
	}
	select_effect = { USA_RFK_healthcare_man = yes }
	completion_reward = {
		log = "[GetDateText]: [Root.GetName]: Focus USA_rfk_64_national_healthcare"
		custom_effect_tooltip = USA_rkf64_national_healthcare_pass_yes_no
		hidden_effect = {
			country_event = { id = USA_sen_bill.515 }
		}
	}
	prerequisite = {
		focus = USA_rfk_64_a_fair_chance
	}
	prerequisite = {
		focus = USA_rfk_64_gentle_hand
	}
	x = 16
	y = 19
}

shared_focus = {
	id = USA_rfk_64_greatest_generation
	icon = GFX_USA_A_Great_Society
	cost = 5.00
	available = {
		custom_trigger_tooltip = {
			tooltip = USA_not_in_crisis_tooltip
			NOT = {
				has_country_flag = USA_in_crisis
			}
		}
	}
	cancel = {
		custom_trigger_tooltip = {
			tooltip = USA_in_crisis_tooltip
			has_country_flag = USA_in_crisis
		}
	}
	prerequisite = {
		focus = USA_rfk_64_national_healthcare
	}
	prerequisite = {
		focus = USA_rfk_64_bind_up_wounds
	}
	completion_reward = {
		add_political_power = 100
		hidden_effect = {
			every_owned_state = {
				limit = { can_have_elections_in_state = yes }
				add_to_variable = { NPP_popularity = 0.04 }
				US_underdog_NPP_2_2 = yes } 
			}
		hidden_effect = { USA_RFK_Liberalism_Check = yes }
		custom_effect_tooltip = USA_add_OFN_unity
		add_to_variable = { OFN_unity = 1 }
		USA_decrease_depression = yes
	}
	x = 10
	y = 20
}

shared_focus = {
	id = USA_rfk_64_goodnight_sweet_prince
	icon = GFX_USA_Goodnight_Sweet_Prince
	cost = 1
	available = {
		custom_trigger_tooltip = {
			tooltip = USA_not_in_crisis_tooltip
			NOT = {
				has_country_flag = USA_in_crisis
			}
		}
	}
	cancel = {
		custom_trigger_tooltip = {
			tooltip = USA_in_crisis_tooltip
			has_country_flag = USA_in_crisis
		}
	}
	prerequisite = {
		focus = USA_rfk_64_greatest_generation
	}
	x = 10
	y = 21
	completion_reward = {
		custom_effect_tooltip = RFK_JFK
		hidden_effect = {
			country_event = { id = bobby.100 days = 3 }
			USA_RFK_Liberalism_Check = yes
		}
	}
}
