shared_focus = {
	id = gul_reign_of_the_oil_king
	icon = GFX_IEA_The_New_Administration
	cost = 7.00
	x = 3
	y = 0
	completion_reward = {
		log = "[GetDateText]: [Root.GetName]: Focus gul_reign_of_the_oil_king"
		country_event = { id = GUL.1 }
		hidden_effect = {
			every_country = {
				news_event = {
					id = WORLD.910
					days = 1
				}
			}
		}
	}
}

shared_focus = {
	id = gul_review_the_dubai_project
	icon = GFX_JAP_Make_the_Most_of_It_2
	cost = 7.00
	x = 3
	y = 1
	prerequisite = {
		focus = gul_reign_of_the_oil_king
	}
	completion_reward = {
		log = "[GetDateText]: [Root.GetName]: Focus gul_review_the_dubai_project"
		country_event = { id = GUL.2 }
		658 = {
			add_extra_state_shared_building_slots = 3
		}
	}
}

shared_focus = {
	id = gul_ENI_investments
	icon = GFX_ITA_ENI_Generic
	cost = 7.00
	x = 2
	y = 2
	prerequisite = {
		focus = gul_review_the_dubai_project
	}
	completion_reward = {
		log = "[GetDateText]: [Root.GetName]: Focus gul_ENI_investments"
		658 = {
			add_building_construction = {
				type = fuel_silo
				level = 2
				instant_build = yes
			}
		}
		add_to_variable = {
			var = GDP_growth
			value = 0.001
		}
	}
}

shared_focus = {
	id = gul_involve_the_emirs
	icon = GFX_TNO_generic_help
	cost = 7.00
	x = 4
	y = 2
	prerequisite = {
		focus = gul_review_the_dubai_project
	}
	completion_reward = {
		log = "[GetDateText]: [Root.GetName]: Focus gul_involve_the_emirs"
		add_political_power = 50
		add_stability = 0.1
	}
}

shared_focus = {
	id = gul_ENEL_electrification_plans
	icon = GFX_RAJ_The_Power_of_Electricity
	cost = 7.00
	x = 1
	y = 3
	prerequisite = {
		focus = gul_ENI_investments
	}
	prerequisite = {
		focus = gul_involve_the_emirs
	}
	completion_reward = {
		log = "[GetDateText]: [Root.GetName]: Focus gul_ENEL_electrification_plans"
		add_ideas = GUL_electrification_plans
		add_to_variable = {
			var = GDP_growth
			value = 0.001
		}
	}
}

shared_focus = {
	id = gul_al_yawm
	icon = GFX_generic_paperwork
	cost = 7.00
	x = 3
	y = 3
	prerequisite = {
		focus = gul_ENI_investments
	}
	prerequisite = {
		focus = gul_involve_the_emirs
	}
	completion_reward = {
		log = "[GetDateText]: [Root.GetName]: Focus gul_al_yawm"
		add_political_power = 75
	}
}

shared_focus = {
	id = gul_expand_the_dock_yards
	icon = GFX_USA_Finance_the_Ports
	cost = 7.00
	x = 5
	y = 3
	prerequisite = {
		focus = gul_ENI_investments
	}
	prerequisite = {
		focus = gul_involve_the_emirs
	}
	completion_reward = {
		log = "[GetDateText]: [Root.GetName]: Focus gul_al_yawm"
		658 = {
			add_extra_state_shared_building_slots = 2
			add_building_construction = {
				type = dockyard
				level = 2
				instant_build = yes
			}
			add_building_construction = {
				type = naval_base
				level = 2
				instant_build = yes
				province = 10904
			}
		}
		1335 = {
			add_building_construction = {
				type = naval_base
				level = 2
				instant_build = yes
				province = 8051
			}
		}
		add_to_variable = {
			var = GDP_growth
			value = 0.002
		}
	}
}

shared_focus = {
	id = gul_Nuovo_Pignone
	icon = GFX_JAP_subcontinental_oil
	cost = 7.00
	x = 0
	y = 4
	prerequisite = {
		focus = gul_ENEL_electrification_plans
	}
	prerequisite = {
		focus = gul_al_yawm
	}
	prerequisite = {
		focus = gul_expand_the_dock_yards
	}
	completion_reward = {
		log = "[GetDateText]: [Root.GetName]: Focus gul_Nuovo_Pignone"
		1336 = {
			add_resource = {
				type = oil
				amount = 16
			}
		}
		add_to_variable = {
			var = GDP_growth
			value = 0.001
		}
	}
}

shared_focus = {
	id = gul_new_technical_schools
	icon = GFX_CHI_Scholarships_for_the_Poor
	cost = 7.00
	x = 2
	y = 4
	prerequisite = {
		focus = gul_ENEL_electrification_plans
	}
	prerequisite = {
		focus = gul_al_yawm
	}
	prerequisite = {
		focus = gul_expand_the_dock_yards
	}
	completion_reward = {
		log = "[GetDateText]: [Root.GetName]: Focus gul_new_technical_schools"
		add_tech_bonus = {
			bonus = 0.5
			uses = 2
			category = industry
		}
	}
}

shared_focus = {
	id = gul_immigration_from_india
	icon = GFX_RAJ_India_The_People
	cost = 7.00
	x = 4
	y = 4
	prerequisite = {
		focus = gul_ENEL_electrification_plans
	}
	prerequisite = {
		focus = gul_al_yawm
	}
	prerequisite = {
		focus = gul_expand_the_dock_yards
	}
	completion_reward = {
		log = "[GetDateText]: [Root.GetName]: Focus gul_immigration_from_india"
		658 = {
			add_manpower = 12000
		}
		1336 = {
			add_manpower = 6000
		}
		1335 = {
			add_manpower = 12000
		}
		656 = {
			add_manpower = 16000
		}
	}
}

shared_focus = {
	id = gul_a_new_home_for_the_ENI
	icon = GFX_RAJ_India_Nurture_Heavy_Industry
	cost = 7.00
	x = 6
	y = 4
	prerequisite = {
		focus = gul_ENEL_electrification_plans
	}
	prerequisite = {
		focus = gul_al_yawm
	}
	prerequisite = {
		focus = gul_expand_the_dock_yards
	}
	completion_reward = {
		log = "[GetDateText]: [Root.GetName]: Focus gul_immigration_from_india"
		658 = {
			add_extra_state_shared_building_slots = 1
			add_building_construction = {
				type = infrastructure
				level = 1
				instant_build = yes
			}
		}
		1335 = {
			add_extra_state_shared_building_slots = 1
			add_building_construction = {
				type = infrastructure
				level = 1
				instant_build = yes
			}
		}
		656 = {
			add_extra_state_shared_building_slots = 1
			add_building_construction = {
				type = infrastructure
				level = 1
				instant_build = yes
			}
		}
		add_to_variable = {
			var = GDP_growth
			value = 0.001
		}
	}
}

shared_focus = {
	id = gul_the_heaviest_industries
	icon = GFX_Generic_Industry
	cost = 7.00
	x = 1
	y = 5
	prerequisite = {
		focus = gul_Nuovo_Pignone
	}
	prerequisite = {
		focus = gul_new_technical_schools
	}
	prerequisite = {
		focus = gul_immigration_from_india
	}
	prerequisite = {
		focus = gul_a_new_home_for_the_ENI
	}
	completion_reward = {
		log = "[GetDateText]: [Root.GetName]: Focus gul_the_heaviest_industries"
		658 = {
			add_extra_state_shared_building_slots = 1
			add_building_construction = {
				type = industrial_complex
				level = 1
				instant_build = yes
			}
		}
		1335 = {
			add_extra_state_shared_building_slots = 1
			add_building_construction = {
				type = industrial_complex
				level = 1
				instant_build = yes
			}
		}
		656 = {
			add_extra_state_shared_building_slots = 1
			add_building_construction = {
				type = industrial_complex
				level = 1
				instant_build = yes
			}
		}
		add_to_variable = {
			var = GDP_growth
			value = 0.001
		}
	}
}

shared_focus = {
	id = gul_an_arab_middle_class
	icon = GFX_JAP_Deregulate_the_Families
	cost = 7.00
	x = 3
	y = 5
	prerequisite = {
		focus = gul_Nuovo_Pignone
	}
	prerequisite = {
		focus = gul_new_technical_schools
	}
	prerequisite = {
		focus = gul_immigration_from_india
	}
	prerequisite = {
		focus = gul_a_new_home_for_the_ENI
	}
	completion_reward = {
		log = "[GetDateText]: [Root.GetName]: Focus gul_an_arab_middle_class"
		add_stability = 0.1
	}
}

shared_focus = {
	id = gul_democratic_reforms
	icon = GFX_Democacy_Saved
	cost = 7.00
	x = 5
	y = 5
	prerequisite = {
		focus = gul_Nuovo_Pignone
	}
	prerequisite = {
		focus = gul_new_technical_schools
	}
	prerequisite = {
		focus = gul_immigration_from_india
	}
	prerequisite = {
		focus = gul_a_new_home_for_the_ENI
	}
	completion_reward = {
		log = "[GetDateText]: [Root.GetName]: Focus gul_democratic_reforms"
		add_popularity = {
			ideology = authoritarian_democrat
			popularity = 0.1
		}
		add_popularity = {
			ideology = social_conservative
			popularity = 0.1
		}
	}
}

shared_focus = {
	id = gul_expand_the_tanker_fleet
	icon = GFX_RAJ_India_Diplo_Italy_Oil
	cost = 7.00
	x = 0
	y = 6
	prerequisite = {
		focus = gul_the_heaviest_industries
	}
	prerequisite = {
		focus = gul_an_arab_middle_class
	}
	prerequisite = {
		focus = gul_democratic_reforms
	}
	completion_reward = {
		log = "[GetDateText]: [Root.GetName]: Focus gul_expand_the_tanker_fleet"
		add_equipment_to_stockpile = {
			type = convoy
			amount = 100
			producer = ITA
		}
		add_to_variable = {
			var = GDP_growth
			value = 0.001
		}
	}
}

shared_focus = {
	id = gul_confederazione_araba_sindacati_lavoratori
	icon = GFX_USA_Bring_Back_Unions
	cost = 7.00
	x = 2
	y = 6
	prerequisite = {
		focus = gul_the_heaviest_industries
	}
	prerequisite = {
		focus = gul_an_arab_middle_class
	}
	prerequisite = {
		focus = gul_democratic_reforms
	}
	completion_reward = {
		log = "[GetDateText]: [Root.GetName]: Focus gul_expand_the_tanker_fleet"
		add_ideas = GUL_CASL
		add_to_variable = {
			var = GDP_growth
			value = 0.001
		}
	}
}

shared_focus = {
	id = gul_ENI_air_fleet
	icon = GFX_Dedicated_Air_Crews
	cost = 7.00
	x = 4
	y = 6
	prerequisite = {
		focus = gul_the_heaviest_industries
	}
	prerequisite = {
		focus = gul_an_arab_middle_class
	}
	prerequisite = {
		focus = gul_democratic_reforms
	}
	completion_reward = {
		log = "[GetDateText]: [Root.GetName]: Focus gul_ENI_air_fleet"
		add_equipment_to_stockpile = {
			type = jet_fighter_equipment_1
			amount = 30
			producer = ITA
		}
	}
}

shared_focus = {
	id = gul_raise_the_gulf_scouts
	icon = GFX_IEA_Its_Nothing_Personal
	cost = 7.00
	x = 6
	y = 6
	prerequisite = {
		focus = gul_the_heaviest_industries
	}
	prerequisite = {
		focus = gul_an_arab_middle_class
	}
	prerequisite = {
		focus = gul_democratic_reforms
	}
	completion_reward = {
		log = "[GetDateText]: [Root.GetName]: Focus gul_raise_the_gulf_scouts"
		load_oob = "GUL_gulf_scouts_mattei"
	}
}

shared_focus = {
	id = gul_expand_the_health_care_service
	icon = GFX_USA_The_Workplace_Healthcare_Act
	cost = 7.00
	x = 1
	y = 7
	prerequisite = {
		focus = gul_expand_the_tanker_fleet
	}
	prerequisite = {
		focus = gul_confederazione_araba_sindacati_lavoratori
	}
	prerequisite = {
		focus = gul_ENI_air_fleet
	}
	prerequisite = {
		focus = gul_raise_the_gulf_scouts
	}
	completion_reward = {
		log = "[GetDateText]: [Root.GetName]: Focus gul_expand_the_health_care_service"
		swap_ideas = {
			remove_idea = tno_health_care_public_health_care
			add_idea = tno_health_care_universal_health_care
		}
	}
}

shared_focus = {
	id = gul_we_can_get_rich_together
	icon = GFX_RAJ_rich_help_others
	cost = 7.00
	x = 3
	y = 7
	prerequisite = {
		focus = gul_expand_the_tanker_fleet
	}
	prerequisite = {
		focus = gul_confederazione_araba_sindacati_lavoratori
	}
	prerequisite = {
		focus = gul_ENI_air_fleet
	}
	prerequisite = {
		focus = gul_raise_the_gulf_scouts
	}
	completion_reward = {
		log = "[GetDateText]: [Root.GetName]: Focus gul_we_can_get_rich_together"
		add_stability = 0.1
		add_political_power = 50
	}
}

shared_focus = {
	id = gul_encourage_consumerism
	icon = GFX_RAJ_Sway_The_Rich
	cost = 7.00
	x = 5
	y = 7
	prerequisite = {
		focus = gul_expand_the_tanker_fleet
	}
	prerequisite = {
		focus = gul_confederazione_araba_sindacati_lavoratori
	}
	prerequisite = {
		focus = gul_ENI_air_fleet
	}
	prerequisite = {
		focus = gul_raise_the_gulf_scouts
	}
	completion_reward = {
		log = "[GetDateText]: [Root.GetName]: Focus gul_encourage_consumerism"
		add_to_variable = {
			var = GDP_growth
			value = 0.001
		}
		add_to_variable = {
			var = GDP
			value = 300
		}
		custom_effect_tooltip = gul_encourage_consumerism_tt
	}
}

shared_focus = {
	id = gul_ENI_cities
	icon = GFX_USA_workers_for_business
	cost = 7.00
	x = 0
	y = 8
	prerequisite = {
		focus = gul_expand_the_health_care_service
	}
	prerequisite = {
		focus = gul_we_can_get_rich_together
	}
	completion_reward = {
		log = "[GetDateText]: [Root.GetName]: Focus gul_ENI_cities"
		658 = {
			add_extra_state_shared_building_slots = 2
		}
		1336 = {
			add_extra_state_shared_building_slots = 1
		}
		1335 = {
			add_extra_state_shared_building_slots = 1
		}
		656 = {
			add_extra_state_shared_building_slots = 2
		}
	}
}

shared_focus = {
	id = gul_allow_independent_trade_unions
	icon = GFX_RAJ_India_Worker_Rights
	cost = 7.00
	x = 2
	y = 8
	prerequisite = {
		focus = gul_expand_the_health_care_service
	}
	prerequisite = {
		focus = gul_we_can_get_rich_together
	}
	completion_reward = {
		log = "[GetDateText]: [Root.GetName]: Focus gul_allow_independent_trade_unions"
		swap_ideas = {
			remove_idea = tno_trade_unions_state_controlled
			add_idea = tno_trade_unions_nonsocialist_allowed
		}
	}
}

shared_focus = {
	id = gul_reinforce_ENI_control
	icon = GFX_JAP_oil_concessions
	cost = 7.00
	x = 0
	y = 9
	prerequisite = {
		focus = gul_ENI_cities
	}
	prerequisite = {
		focus = gul_allow_independent_trade_unions
	}
	mutually_exclusive = {
		focus = gul_the_council_of_emirs
	}
	completion_reward = {
		log = "[GetDateText]: [Root.GetName]: Focus gul_reinforce_ENI_control"
		swap_ideas = {
			remove_idea = ita_oil_cult
			add_idea = ita_oil_cult_2
		}
		country_event = { id = GUL.3 }
		custom_effect_tooltip = gul_reinforce_ENI_control_tt
	}
}

shared_focus = {
	id = gul_skyscraper_projects
	icon = GFX_GER_revive_german_industry
	cost = 7.00
	x = 4
	y = 8
	prerequisite = {
		focus = gul_encourage_consumerism
	}
	prerequisite = {
		focus = gul_we_can_get_rich_together
	}
	completion_reward = {
		log = "[GetDateText]: [Root.GetName]: Focus gul_skyscraper_projects"
		658 = {
			add_extra_state_shared_building_slots = 2
		}
		1335 = {
			add_extra_state_shared_building_slots = 1
		}
	}
}

shared_focus = {
	id = gul_set_up_higher_education
	icon = GFX_USA_Secondary_Education_Act
	cost = 7.00
	x = 6
	y = 8
	prerequisite = {
		focus = gul_encourage_consumerism
	}
	prerequisite = {
		focus = gul_we_can_get_rich_together
	}
	completion_reward = {
		log = "[GetDateText]: [Root.GetName]: Focus gul_set_up_higher_education"
		swap_ideas = {
			remove_idea = tno_education_public_education
			add_idea = tno_education_subsidised_higher_education
		}
	}
}

shared_focus = {
	id = gul_the_council_of_emirs
	icon = GFX_OST_Friends_in_the_Council
	cost = 7.00
	x = 6
	y = 9
	prerequisite = {
		focus = gul_skyscraper_projects
	}
	prerequisite = {
		focus = gul_set_up_higher_education
	}
	mutually_exclusive = {
		focus = gul_reinforce_ENI_control
	}
	completion_reward = {
		log = "[GetDateText]: [Root.GetName]: Focus gul_the_council_of_emirs"
		country_event = { id = GUL.4 }
		custom_effect_tooltip = gul_the_council_of_emirs_tt
	}
}

shared_focus = {
	id = gul_police_the_emirs
	icon = GFX_generic_authoritarian_constitution
	cost = 7.00
	x = 0
	y = 10
	prerequisite = {
		focus = gul_reinforce_ENI_control
	}
	completion_reward = {
		log = "[GetDateText]: [Root.GetName]: Focus gul_police_the_emirs"
		add_stability = 0.05
		add_political_power = 75
	}
}

shared_focus = {
	id = gul_quell_unrest_in_buhrain
	icon = GFX_BAS_acquire_subjects_urban
	cost = 7.00
	x = 2
	y = 10
	prerequisite = {
		focus = gul_reinforce_ENI_control
	}
	completion_reward = {
		log = "[GetDateText]: [Root.GetName]: Focus gul_quell_unrest_in_buhrain"
		add_stability = 0.1
		add_political_power = 25
	}
}

shared_focus = {
	id = gul_gunboat_diplomacy
	icon = GFX_generic_diplomacy_expansion
	cost = 7.00
	x = 0
	y = 11
	prerequisite = {
		focus = gul_police_the_emirs
	}
	prerequisite = {
		focus = gul_quell_unrest_in_buhrain
	}
	completion_reward = {
		log = "[GetDateText]: [Root.GetName]: Focus gul_gunboat_diplomacy"
		add_stability = 0.05
		add_political_power = 50
	}
}

shared_focus = {
	id = gul_crackdown_in_qatar
	icon = GFX_RAJ_India_Diplo_Japan_Border
	cost = 7.00
	x = 2
	y = 11
	prerequisite = {
		focus = gul_police_the_emirs
	}
	prerequisite = {
		focus = gul_quell_unrest_in_buhrain
	}
	completion_reward = {
		log = "[GetDateText]: [Root.GetName]: Focus gul_crackdown_in_qatar"
		add_stability = 0.1
		add_political_power = 50
	}
}

shared_focus = {
	id = gul_welfare_for_immigrants
	icon = GFX_generic_change_law_welfare
	cost = 7.00
	x = 0
	y = 12
	prerequisite = {
		focus = gul_gunboat_diplomacy
	}
	prerequisite = {
		focus = gul_crackdown_in_qatar
	}
	completion_reward = {
		log = "[GetDateText]: [Root.GetName]: Focus gul_welfare_for_immigrants"
		add_ideas = GUL_welfare_immigrants
	}
}

shared_focus = {
	id = gul_expand_ENI_bureaucracy
	icon = GFX_JAP_Make_Promises_to_the_Bureaucrats
	cost = 7.00
	x = 2
	y = 12
	prerequisite = {
		focus = gul_gunboat_diplomacy
	}
	prerequisite = {
		focus = gul_crackdown_in_qatar
	}
	completion_reward = {
		log = "[GetDateText]: [Root.GetName]: Focus gul_expand_ENI_bureaucracy"
		add_political_power = 150
	}
}

shared_focus = {
	id = gul_centralized_economic_planning
	icon = GFX_USA_The_Economic_Opportunity_Act
	cost = 7.00
	x = 0
	y = 13
	prerequisite = {
		focus = gul_welfare_for_immigrants
	}
	prerequisite = {
		focus = gul_expand_ENI_bureaucracy
	}
	completion_reward = {
		log = "[GetDateText]: [Root.GetName]: Focus gul_centralized_economic_planning"
		1335 = {
			add_extra_state_shared_building_slots = 1
			add_building_construction = {
				type = industrial_complex
				level = 1
				instant_build = yes
			}
		}
		1336 = {
			add_extra_state_shared_building_slots = 1
			add_building_construction = {
				type = industrial_complex
				level = 1
				instant_build = yes
			}
		}
	}
}

shared_focus = {
	id = gul_the_IRI_method
	icon = GFX_ITA_IRI
	cost = 7.00
	x = 2
	y = 13
	prerequisite = {
		focus = gul_welfare_for_immigrants
	}
	prerequisite = {
		focus = gul_expand_ENI_bureaucracy
	}
	completion_reward = {
		log = "[GetDateText]: [Root.GetName]: Focus gul_the_IRI_method"
		add_ideas = GUL_IRI_method
	}
}

shared_focus = {
	id = gul_expand_offshore_extraction
	icon = GFX_Import_Extraction_Equipment
	cost = 7.00
	x = 0
	y = 14
	prerequisite = {
		focus = gul_centralized_economic_planning
	}
	prerequisite = {
		focus = gul_the_IRI_method
	}
	completion_reward = {
		log = "[GetDateText]: [Root.GetName]: Focus gul_expand_offshore_extraction"
		658 = {
			add_resource = {
				type = oil
				amount = 16
			}
		}
	}
}

shared_focus = {
	id = gul_review_the_fourth_naval_division
	icon = GFX_RAJ_India_New_Naval_Estimates
	cost = 7.00
	x = 2
	y = 14
	prerequisite = {
		focus = gul_centralized_economic_planning
	}
	prerequisite = {
		focus = gul_the_IRI_method
	}
	completion_reward = {
		log = "[GetDateText]: [Root.GetName]: Focus gul_review_the_fourth_naval_division"
		load_oob = "GUL_fourth_naval_division"
	}
}

shared_focus = {
	id = gul_the_oil_empire
	icon = GFX_Expand_Oil_Quotas
	cost = 7.00
	x = 0
	y = 15
	prerequisite = {
		focus = gul_expand_offshore_extraction
	}
	prerequisite = {
		focus = gul_review_the_fourth_naval_division
	}
	completion_reward = {
		log = "[GetDateText]: [Root.GetName]: Focus gul_the_oil_empire"
		swap_ideas = {
			remove_idea = ita_oil_cult_2
			add_idea = ita_oil_cult_3
		}
		country_event = { id = GUL.5 }
	}
}

shared_focus = {
	id = gul_the_qatari_prince
	icon = GFX_generic_monarchist_constitution
	cost = 7.00
	x = 4
	y = 10
	prerequisite = {
		focus = gul_the_council_of_emirs
	}
	completion_reward = {
		log = "[GetDateText]: [Root.GetName]: Focus gul_the_qatari_prince"
		add_stability = 0.05
		country_event = { id = GUL.6 }
	}
}

shared_focus = {
	id = gul_expand_kuwaiti_infrastructure
	icon = GFX_ITA_Modernize_the_Infrastructures
	cost = 7.00
	x = 6
	y = 10
	prerequisite = {
		focus = gul_the_council_of_emirs
	}
	completion_reward = {
		log = "[GetDateText]: [Root.GetName]: Focus gul_expand_kuwaiti_infrastructure"
		656 = {
			add_building_construction = {
				type = infrastructure
				level = 2
				instant_build = yes
			}
			add_building_construction = {
				type = naval_base
				level = 1
				instant_build = yes
				province = 8085
			}
		}
	}
}

shared_focus = {
	id = gul_new_funding_for_the_regia_marina
	icon = GFX_TNO_generic_navy_talk
	cost = 7.00
	x = 4
	y = 11
	prerequisite = {
		focus = gul_the_qatari_prince
	}
	prerequisite = {
		focus = gul_expand_kuwaiti_infrastructure
	}
	completion_reward = {
		log = "[GetDateText]: [Root.GetName]: Focus gul_new_funding_for_the_regia_marina"
		add_tech_bonus = {
			bonus = 0.5
			uses = 2
			category = naval_equipment
		}
	}
}

shared_focus = {
	id = gul_reform_the_gulf_scouts
	icon = GFX_CHI_liberate_population
	cost = 7.00
	x = 6
	y = 11
	prerequisite = {
		focus = gul_the_qatari_prince
	}
	prerequisite = {
		focus = gul_expand_kuwaiti_infrastructure
	}
	completion_reward = {
		log = "[GetDateText]: [Root.GetName]: Focus gul_reform_the_gulf_scouts"
		hidden_effect = {
			delete_unit_template_and_units = {
				division_template = "Gulf Scouts"
			}
		}
		load_oob = "GUL_gulf_scouts_mattei_reformed"
	}
}

shared_focus = {
	id = gul_the_abu_dhabi_blitz
	icon = GFX_CHI_Modern_Construction_Equipment
	cost = 7.00
	x = 4
	y = 12
	prerequisite = {
		focus = gul_new_funding_for_the_regia_marina
	}
	prerequisite = {
		focus = gul_reform_the_gulf_scouts
	}
	completion_reward = {
		log = "[GetDateText]: [Root.GetName]: Focus gul_the_abu_dhabi_blitz"
		add_ideas = GUL_abu_dhabi_blitz
	}
}

shared_focus = {
	id = gul_invite_foreign_capital
	icon = GFX_Generic_Foreign_Investment
	cost = 7.00
	x = 6
	y = 12
	prerequisite = {
		focus = gul_new_funding_for_the_regia_marina
	}
	prerequisite = {
		focus = gul_reform_the_gulf_scouts
	}
	completion_reward = {
		log = "[GetDateText]: [Root.GetName]: Focus gul_invite_foreign_capital"
		add_to_variable = {
			var = GDP_growth
			value = 0.004
		}
		custom_effect_tooltip = gul_invite_foreign_capital_tt
	}
}

shared_focus = {
	id = gul_handshake_with_zayed
	icon = GFX_Generic_Liberty_Handshake
	cost = 7.00
	x = 4
	y = 13
	prerequisite = {
		focus = gul_the_abu_dhabi_blitz
	}
	prerequisite = {
		focus = gul_invite_foreign_capital
	}
	completion_reward = {
		log = "[GetDateText]: [Root.GetName]: Focus gul_handshake_with_zayed"
		country_event = { id = GUL.7 }
	}
}

shared_focus = {
	id = gul_form_a_federal_national_council
	icon = GFX_USA_duty_to_country
	cost = 7.00
	x = 6
	y = 13
	prerequisite = {
		focus = gul_the_abu_dhabi_blitz
	}
	prerequisite = {
		focus = gul_invite_foreign_capital
	}
	completion_reward = {
		log = "[GetDateText]: [Root.GetName]: Focus gul_invite_foreign_capital"
		add_political_power = 120
		add_stability = 0.05
	}
}

shared_focus = {
	id = gul_review_the_deals
	icon = GFX_IRQ_Oil_Deals
	cost = 7.00
	x = 4
	y = 14
	prerequisite = {
		focus = gul_handshake_with_zayed
	}
	prerequisite = {
		focus = gul_form_a_federal_national_council
	}
	completion_reward = {
		log = "[GetDateText]: [Root.GetName]: Focus gul_review_the_deals"
		add_ideas = GUL_deal_with_italy
	}
}

shared_focus = {
	id = gul_draft_a_constitution
	icon = GFX_generic_liberal_constitution
	cost = 7.00
	x = 6
	y = 14
	prerequisite = {
		focus = gul_handshake_with_zayed
	}
	prerequisite = {
		focus = gul_form_a_federal_national_council
	}
	completion_reward = {
		log = "[GetDateText]: [Root.GetName]: Focus gul_draft_a_constitution"
		add_political_power = 120
	}
}

shared_focus = {
	id = gul_the_united_emirates
	icon = GFX_OST_Unite_the_People
	cost = 7.00
	x = 6
	y = 15
	prerequisite = {
		focus = gul_review_the_deals
	}
	prerequisite = {
		focus = gul_draft_a_constitution
	}
	completion_reward = {
		log = "[GetDateText]: [Root.GetName]: Focus gul_the_united_emirates"
		country_event = { id = GUL.8 }
		custom_effect_tooltip = gul_the_united_emirates_tt
	}
}

####

shared_focus = {
	id = gul_reign_of_the_admiral
	icon = GFX_TNO_generic_navy_talk
	cost = 7.00
	x = 4
	y = 0
	completion_reward = {
		log = "[GetDateText]: [Root.GetName]: Focus gul_reign_of_the_admiral"
		country_event = { id = GUL.21 }
		hidden_effect = {
			every_country = {
				news_event = {
					id = WORLD.909
					days = 1
				}
			}
		}
	}
}

shared_focus = {
	id = gul_stop_the_dubai_project
	icon = GFX_JAP_subdue_the_navy
	cost = 7.00
	x = 4
	y = 1
	prerequisite = {
		focus = gul_reign_of_the_admiral
	}
	completion_reward = {
		log = "[GetDateText]: [Root.GetName]: Focus gul_stop_the_dubai_project"
		country_event = { id = GUL.22 }
		add_to_variable = {
			var = money_reserves
			value = 3000
		}
		custom_effect_tooltip = gul_stop_the_dubai_project_tt
	}
}

shared_focus = {
	id = gul_redirect_funds_to_the_fleet
	icon = GFX_JAP_subdue_the_navy
	cost = 7.00
	x = 3
	y = 2
	prerequisite = {
		focus = gul_stop_the_dubai_project
	}
	completion_reward = {
		log = "[GetDateText]: [Root.GetName]: Focus gul_redirect_funds_to_the_fleet"
		add_ideas = GUL_increased_naval_funds
	}
}

shared_focus = {
	id = gul_loyalty_of_the_emirs
	icon = GFX_BAS_acquire_subjects_urban
	cost = 7.00
	x = 5
	y = 2
	prerequisite = {
		focus = gul_stop_the_dubai_project
	}
	completion_reward = {
		log = "[GetDateText]: [Root.GetName]: Focus gul_loyalty_of_the_emirs"
		add_to_variable = {
			var = national_debt
			value = 200
		}
		custom_effect_tooltip = gul_loyalty_of_the_emirs_tt
	}
}

shared_focus = {
	id = gul_bring_in_the_lagunari
	icon = GFX_ITA_I_Love_Umberto_And_Democracy
	cost = 7.00
	x = 0
	y = 3
	prerequisite = {
		focus = gul_redirect_funds_to_the_fleet
	}
	prerequisite = {
		focus = gul_loyalty_of_the_emirs
	}
	completion_reward = {
		log = "[GetDateText]: [Root.GetName]: Focus gul_bring_in_the_lagunari"
		load_oob = "GUL_lagunari"
	}
}

shared_focus = {
	id = gul_the_dubai_arsenal
	icon = GFX_MAG_The_Best_Guns_Money_Can_Buy
	cost = 7.00
	x = 2
	y = 3
	prerequisite = {
		focus = gul_redirect_funds_to_the_fleet
	}
	prerequisite = {
		focus = gul_loyalty_of_the_emirs
	}
	completion_reward = {
		log = "[GetDateText]: [Root.GetName]: Focus gul_the_dubai_arsenal"
		658 = {
			add_extra_state_shared_building_slots = 2
			add_building_construction = {
				type = arms_factory
				level = 2
				instant_build = yes
			}
		}
	}
}

shared_focus = {
	id = gul_set_up_local_commissariati
	icon = GFX_goal_policecar
	cost = 7.00
	x = 4
	y = 3
	prerequisite = {
		focus = gul_redirect_funds_to_the_fleet
	}
	prerequisite = {
		focus = gul_loyalty_of_the_emirs
	}
	completion_reward = {
		log = "[GetDateText]: [Root.GetName]: Focus gul_set_up_local_commissariati"
		add_stability = 0.1
	}
}

shared_focus = {
	id = gul_reward_the_loyalty
	icon = GFX_POL_germanys_loyal_sons
	cost = 7.00
	x = 6
	y = 3
	prerequisite = {
		focus = gul_redirect_funds_to_the_fleet
	}
	prerequisite = {
		focus = gul_loyalty_of_the_emirs
	}
	completion_reward = {
		log = "[GetDateText]: [Root.GetName]: Focus gul_reward_the_loyalty"
		add_war_support = 0.1
	}
}

shared_focus = {
	id = gul_and_punish_the_disloyal
	icon = GFX_CHI_A_War_Cabinet
	cost = 7.00
	x = 8
	y = 3
	prerequisite = {
		focus = gul_redirect_funds_to_the_fleet
	}
	prerequisite = {
		focus = gul_loyalty_of_the_emirs
	}
	completion_reward = {
		log = "[GetDateText]: [Root.GetName]: Focus gul_and_punish_the_disloyal"
		add_political_power = 120
	}
}

shared_focus = {
	id = gul_the_most_modern_ships
	icon = GFX_Shipping_Expansion
	cost = 7.00
	x = 3
	y = 4
	prerequisite = {
		focus = gul_bring_in_the_lagunari
	}
	prerequisite = {
		focus = gul_the_dubai_arsenal
	}
	prerequisite = {
		focus = gul_set_up_local_commissariati
	}
	prerequisite = {
		focus = gul_reward_the_loyalty
	}
	prerequisite = {
		focus = gul_and_punish_the_disloyal
	}
	completion_reward = {
		log = "[GetDateText]: [Root.GetName]: Focus gul_the_most_modern_ships"
		add_tech_bonus = {
			bonus = 0.5
			uses = 2
			category = naval_equipment
		}
	}
}

shared_focus = {
	id = gul_bring_ENI_to_heel
	icon = GFX_ITA_ENI_Generic
	cost = 7.00
	x = 5
	y = 4
	prerequisite = {
		focus = gul_bring_in_the_lagunari
	}
	prerequisite = {
		focus = gul_the_dubai_arsenal
	}
	prerequisite = {
		focus = gul_set_up_local_commissariati
	}
	prerequisite = {
		focus = gul_reward_the_loyalty
	}
	prerequisite = {
		focus = gul_and_punish_the_disloyal
	}
	completion_reward = {
		log = "[GetDateText]: [Root.GetName]: Focus gul_bring_ENI_to_heel"
		658 = {
			add_extra_state_shared_building_slots = 3
			add_building_construction = {
				type = fuel_silo
				level = 2
				instant_build = yes
			}
			add_building_construction = {
				type = synthetic_refinery
				level = 1
				instant_build = yes
			}
		}
	}
}

shared_focus = {
	id = gul_air_patrols
	icon = GFX_TNO_generic_airland_integration
	cost = 7.00
	x = 2
	y = 5
	prerequisite = {
		focus = gul_the_most_modern_ships
	}
	prerequisite = {
		focus = gul_bring_ENI_to_heel
	}
	completion_reward = {
		log = "[GetDateText]: [Root.GetName]: Focus gul_air_patrols"
		add_equipment_to_stockpile = {
			type = jet_fighter_equipment_1
			amount = 50
			producer = ITA
		}
	}
}

shared_focus = {
	id = gul_plan_economic_expanison
	icon = GFX_ITA_The_Status_of_the_Economy
	cost = 7.00
	x = 4
	y = 5
	prerequisite = {
		focus = gul_the_most_modern_ships
	}
	prerequisite = {
		focus = gul_bring_ENI_to_heel
	}
	completion_reward = {
		log = "[GetDateText]: [Root.GetName]: Focus gul_plan_economic_expanison"
		add_to_variable = {
			var = GDP_growth
			value = 0.003
		}
		658 = {
			add_extra_state_shared_building_slots = 2
			add_building_construction = {
				type = industrial_complex
				level = 2
				instant_build = yes
			}
		}
		656 = {
			add_extra_state_shared_building_slots = 1
			add_building_construction = {
				type = industrial_complex
				level = 1
				instant_build = yes
			}
		}
	}
}

shared_focus = {
	id = gul_controlled_immigration
	icon = GFX_generic_change_law_immigration
	cost = 7.00
	x = 6
	y = 5
	prerequisite = {
		focus = gul_the_most_modern_ships
	}
	prerequisite = {
		focus = gul_bring_ENI_to_heel
	}
	completion_reward = {
		log = "[GetDateText]: [Root.GetName]: Focus gul_controlled_immigration"
		658 = {
			add_manpower = 6000
		}
		1336 = {
			add_manpower = 4000
		}
		1335 = {
			add_manpower = 7000
		}
		656 = {
			add_manpower = 10000
		}
		add_political_power = 75
	}
}

shared_focus = {
	id = gul_repurpose_the_industry
	icon = GFX_RAJ_India_Nurture_Heavy_Industry
	cost = 7.00
	x = 1
	y = 6
	prerequisite = {
		focus = gul_air_patrols
	}
	prerequisite = {
		focus = gul_plan_economic_expanison
	}
	prerequisite = {
		focus = gul_controlled_immigration
	}
	completion_reward = {
		log = "[GetDateText]: [Root.GetName]: Focus gul_repurpose_the_industry"
		1335 = {
			add_extra_state_shared_building_slots = 1
			add_building_construction = {
				type = arms_factory
				level = 1
				instant_build = yes
			}
		}
		1336 = {
			add_extra_state_shared_building_slots = 1
			add_building_construction = {
				type = arms_factory
				level = 1
				instant_build = yes
			}
		}
	}
}

shared_focus = {
	id = gul_police_the_streets
	icon = GFX_focus_MAD_take_to_the_streets
	cost = 7.00
	x = 3
	y = 6
	prerequisite = {
		focus = gul_air_patrols
	}
	prerequisite = {
		focus = gul_plan_economic_expanison
	}
	prerequisite = {
		focus = gul_controlled_immigration
	}
	completion_reward = {
		log = "[GetDateText]: [Root.GetName]: Focus gul_police_the_streets"
		add_stability = 0.05
		add_political_power = 50
	}
}

shared_focus = {
	id = gul_penal_colonies
	icon = GFX_BAS_Acquirement_Of_Subjects
	cost = 7.00
	x = 5
	y = 6
	prerequisite = {
		focus = gul_air_patrols
	}
	prerequisite = {
		focus = gul_plan_economic_expanison
	}
	prerequisite = {
		focus = gul_controlled_immigration
	}
	completion_reward = {
		log = "[GetDateText]: [Root.GetName]: Focus gul_penal_colonies"
		658 = {
			add_manpower = 5000
			add_extra_state_shared_building_slots = 1
		}
		1336 = {
			add_manpower = 3000
			add_extra_state_shared_building_slots = 1
		}
	}
}

shared_focus = {
	id = gul_lock_down_the_saudi_border
	icon = GFX_ITA_our_splendid_isolation
	cost = 7.00
	x = 7
	y = 6
	prerequisite = {
		focus = gul_air_patrols
	}
	prerequisite = {
		focus = gul_plan_economic_expanison
	}
	prerequisite = {
		focus = gul_controlled_immigration
	}
	completion_reward = {
		log = "[GetDateText]: [Root.GetName]: Focus gul_lock_down_the_saudi_border"
		add_opinion_modifier = {
			target = SAU
			modifier = GUL_SAU_closed_borders
		}
		SAU = {
			add_opinion_modifier = {
				target = GUL
				modifier = GUL_SAU_closed_borders
			}
		}
	}
}

shared_focus = {
	id = gul_control_the_cities
	icon = GFX_focus_ENG_discipline_the_cities
	cost = 7.00
	x = 2
	y = 7
	prerequisite = {
		focus = gul_repurpose_the_industry
	}
	prerequisite = {
		focus = gul_police_the_streets
	}
	prerequisite = {
		focus = gul_penal_colonies
	}
	prerequisite = {
		focus = gul_lock_down_the_saudi_border
	}
	completion_reward = {
		log = "[GetDateText]: [Root.GetName]: Focus gul_control_the_cities"
		1335 = {
			add_extra_state_shared_building_slots = 1
			add_building_construction = {
				type = industrial_complex
				level = 1
				instant_build = yes
			}
		}
		1336 = {
			add_extra_state_shared_building_slots = 1
			add_building_construction = {
				type = industrial_complex
				level = 1
				instant_build = yes
			}
		}
	}
}

shared_focus = {
	id = gul_control_the_oil_fields
	icon = GFX_RAJ_India_Diplo_Italy_Oil
	cost = 7.00
	x = 4
	y = 7
	prerequisite = {
		focus = gul_repurpose_the_industry
	}
	prerequisite = {
		focus = gul_police_the_streets
	}
	prerequisite = {
		focus = gul_penal_colonies
	}
	prerequisite = {
		focus = gul_lock_down_the_saudi_border
	}
	completion_reward = {
		log = "[GetDateText]: [Root.GetName]: Focus gul_control_the_oil_fields"
		658 = {
			add_resource = {
				type = oil
				amount = 24
			}
		}
	}
}

shared_focus = {
	id = gul_control_the_dunes
	icon = GFX_ITA_Pillars_of_Sand
	cost = 7.00
	x = 6
	y = 7
	prerequisite = {
		focus = gul_repurpose_the_industry
	}
	prerequisite = {
		focus = gul_police_the_streets
	}
	prerequisite = {
		focus = gul_penal_colonies
	}
	prerequisite = {
		focus = gul_lock_down_the_saudi_border
	}
	completion_reward = {
		log = "[GetDateText]: [Root.GetName]: Focus gul_control_the_dunes"
		658 = {
			add_extra_state_shared_building_slots = 2
		}
		1336 = {
			add_extra_state_shared_building_slots = 2
		}
	}
}

shared_focus = {
	id = gul_buy_the_emirs_loyalty
	icon = GFX_USA_money_wall
	cost = 7.00
	x = 1
	y = 8
	prerequisite = {
		focus = gul_control_the_cities
	}
	prerequisite = {
		focus = gul_control_the_oil_fields
	}
	prerequisite = {
		focus = gul_control_the_dunes
	}
	completion_reward = {
		log = "[GetDateText]: [Root.GetName]: Focus gul_buy_the_emirs_loyalty"
		add_to_variable = {
			var = national_debt
			value = 200
		}
		custom_effect_tooltip = gul_loyalty_of_the_emirs_tt
	}
}

shared_focus = {
	id = gul_encourage_islamic_associations
	icon = GFX_generic_islamic_constitution
	cost = 7.00
	x = 3
	y = 8
	prerequisite = {
		focus = gul_control_the_cities
	}
	prerequisite = {
		focus = gul_control_the_oil_fields
	}
	prerequisite = {
		focus = gul_control_the_dunes
	}
	completion_reward = {
		log = "[GetDateText]: [Root.GetName]: Focus gul_encourage_islamic_associations"
		add_stability = 0.1
		add_political_power = 50
	}
}

shared_focus = {
	id = gul_expanding_housing_for_labourers
	icon = GFX_TNO_generic_public_houses
	cost = 7.00
	x = 5
	y = 8
	prerequisite = {
		focus = gul_control_the_cities
	}
	prerequisite = {
		focus = gul_control_the_oil_fields
	}
	prerequisite = {
		focus = gul_control_the_dunes
	}
	completion_reward = {
		log = "[GetDateText]: [Root.GetName]: Focus gul_expanding_housing_for_labourers"
		656 = {
			add_extra_state_shared_building_slots = 2
		}
		1335 = {
			add_extra_state_shared_building_slots = 1
		}
	}
}

shared_focus = {
	id = gul_work_for_italy_italyll_work_for_you
	icon = GFX_ITA_Improve_Relations
	cost = 7.00
	x = 7
	y = 8
	prerequisite = {
		focus = gul_control_the_cities
	}
	prerequisite = {
		focus = gul_control_the_oil_fields
	}
	prerequisite = {
		focus = gul_control_the_dunes
	}
	completion_reward = {
		log = "[GetDateText]: [Root.GetName]: Focus gul_work_for_italy_italyll_work_for_you"
		add_ideas = GUL_inspired_workers
	}
}

shared_focus = {
	id = gul_the_carrot
	icon = GFX_URL_Hunters_and_Trappers
	cost = 7.00
	x = 1
	y = 9
	prerequisite = {
		focus = gul_buy_the_emirs_loyalty
	}
	prerequisite = {
		focus = gul_encourage_islamic_associations
	}
	mutually_exclusive = {
		focus = gul_the_stick
	}
	completion_reward = {
		log = "[GetDateText]: [Root.GetName]: Focus gul_the_carrot"
		country_event = { id = GUL.25 }
		custom_effect_tooltip = gul_the_carrot_tt
		hidden_effect = {
			country_event = { id = GUL.23 days = 7}
		}
	}
}

shared_focus = {
	id = gul_the_stick
	icon = GFX_The_Ultimate_Hunt
	cost = 7.00
	x = 7
	y = 9
	prerequisite = {
		focus = gul_expanding_housing_for_labourers
	}
	prerequisite = {
		focus = gul_work_for_italy_italyll_work_for_you
	}
	mutually_exclusive = {
		focus = gul_the_carrot
	}
	completion_reward = {
		log = "[GetDateText]: [Root.GetName]: Focus gul_the_stick"
		country_event = { id = GUL.25 }
		custom_effect_tooltip = gul_the_stick_tt
		hidden_effect = {
			country_event = { id = GUL.24 days = 7}
		}
	}
}

shared_focus = {
	id = gul_contain_the_riots
	icon = GFX_TNO_generic_riot_police
	cost = 7.00
	x = 1
	y = 10
	prerequisite = {
		focus = gul_the_carrot
	}
	completion_reward = {
		log = "[GetDateText]: [Root.GetName]: Focus gul_contain_the_riots"
		add_stability = 0.1
		add_political_power = 50
	}
}

shared_focus = {
	id = gul_bend_to_pressure
	icon = GFX_JAP_Collapse_Proof_Supremacy
	cost = 7.00
	x = 3
	y = 10
	prerequisite = {
		focus = gul_the_carrot
	}
	completion_reward = {
		log = "[GetDateText]: [Root.GetName]: Focus gul_bend_to_pressure"
		add_political_power = 100
	}
}

shared_focus = {
	id = gul_the_black_currency
	icon = GFX_COG_icon_the_global_market
	cost = 7.00
	x = 1
	y = 11
	prerequisite = {
		focus = gul_contain_the_riots
	}
	prerequisite = {
		focus = gul_bend_to_pressure
	}
	completion_reward = {
		log = "[GetDateText]: [Root.GetName]: Focus gul_the_black_currency"
		add_stability = 0.1
	}
}

shared_focus = {
	id = gul_expand_the_emirs_retinues
	icon = GFX_MAG_American_Advisors
	cost = 7.00
	x = 3
	y = 11
	prerequisite = {
		focus = gul_contain_the_riots
	}
	prerequisite = {
		focus = gul_bend_to_pressure
	}
	completion_reward = {
		log = "[GetDateText]: [Root.GetName]: Focus gul_expand_the_emirs_retinues"
		load_oob = "GUL_emir_retinues"
	}
}

shared_focus = {
	id = gul_money_opens_all_doors
	icon = GFX_USA_foot_in_door
	cost = 7.00
	x = 1
	y = 12
	prerequisite = {
		focus = gul_the_black_currency
	}
	prerequisite = {
		focus = gul_expand_the_emirs_retinues
	}
	completion_reward = {
		log = "[GetDateText]: [Root.GetName]: Focus gul_money_opens_all_doors"
		add_stability = 0.1
		add_to_variable = {
			vart = national_debt
			value = 100
		}
	}
}

shared_focus = {
	id = gul_al_islah
	icon = GFX_JAP_Integrate_reformists
	cost = 7.00
	x = 3
	y = 12
	prerequisite = {
		focus = gul_the_black_currency
	}
	prerequisite = {
		focus = gul_expand_the_emirs_retinues
	}
	completion_reward = {
		log = "[GetDateText]: [Root.GetName]: Focus gul_al_islah"
		add_political_power = 75
	}
}

shared_focus = {
	id = gul_invite_faisal
	icon = GFX_JAP_invite_holdouts
	cost = 7.00
	x = 1
	y = 13
	prerequisite = {
		focus = gul_money_opens_all_doors
	}
	prerequisite = {
		focus = gul_al_islah
	}
	completion_reward = {
		log = "[GetDateText]: [Root.GetName]: Focus gul_invite_faisal"
		remove_opinion_modifier = {
			target = SAU
			modifier = GUL_SAU_closed_borders
		}
		SAU = {
			remove_opinion_modifier = {
				target = GUL
				modifier = GUL_SAU_closed_borders
			}
		}
	}
}

shared_focus = {
	id = gul_the_legitimate_rulers
	icon = GFX_generic_monarchist_constitution
	cost = 7.00
	x = 3
	y = 13
	prerequisite = {
		focus = gul_money_opens_all_doors
	}
	prerequisite = {
		focus = gul_al_islah
	}
	completion_reward = {
		log = "[GetDateText]: [Root.GetName]: Focus gul_the_legitimate_rulers"
		add_stability = 0.03
		add_political_power = 75
	}
}

shared_focus = {
	id = gul_form_the_gulf_cooperation_council
	icon = GFX_goal_ARC_Streamlining_the_congress
	cost = 7.00
	x = 1
	y = 14
	prerequisite = {
		focus = gul_invite_faisal
	}
	prerequisite = {
		focus = gul_the_legitimate_rulers
	}
	completion_reward = {
		log = "[GetDateText]: [Root.GetName]: Focus gul_form_the_gulf_cooperation_council"
		add_popularity = {
			ideology = despotism
			popularity = 0.05
		}
		add_political_power = 75
	}
}

shared_focus = {
	id = gul_confirm_abu_dhabis_primacy
	icon = GFX_generic_constitution
	cost = 7.00
	x = 3
	y = 14
	prerequisite = {
		focus = gul_invite_faisal
	}
	prerequisite = {
		focus = gul_the_legitimate_rulers
	}
	completion_reward = {
		log = "[GetDateText]: [Root.GetName]: Focus gul_confirm_abu_dhabis_primacy"
		add_popularity = {
			ideology = despotism
			popularity = 0.05
		}
		add_political_power = 75
	}
}

shared_focus = {
	id = gul_peace_at_last
	icon = GFX_RAJ_religious_peace
	cost = 7.00
	x = 1
	y = 15
	prerequisite = {
		focus = gul_form_the_gulf_cooperation_council
	}
	prerequisite = {
		focus = gul_confirm_abu_dhabis_primacy
	}
	completion_reward = {
		log = "[GetDateText]: [Root.GetName]: Focus gul_peace_at_last"
		country_event = { id = GUL.26 }
	}
}

shared_focus = {
	id = gul_pull_back_the_emirs
	icon = GFX_ARC_chains_factories
	cost = 7.00
	x = 5
	y = 10
	prerequisite = {
		focus = gul_the_stick
	}
	completion_reward = {
		log = "[GetDateText]: [Root.GetName]: Focus gul_pull_back_the_emirs"
		add_political_power = -50
		add_stability = -0.02
	}
}

shared_focus = {
	id = gul_repress_the_riots
	icon = GFX_ITA_Begin_the_Crackdown
	cost = 7.00
	x = 7
	y = 10
	prerequisite = {
		focus = gul_the_stick
	}
	completion_reward = {
		log = "[GetDateText]: [Root.GetName]: Focus gul_repress_the_riots"
		add_stability = 0.05
		add_political_power = 50
	}
}

shared_focus = {
	id = gul_bolster_the_italian_garrison
	icon = GFX_TNO_generic_italy
	cost = 7.00
	x = 5
	y = 11
	prerequisite = {
		focus = gul_pull_back_the_emirs
	}
	prerequisite = {
		focus = gul_repress_the_riots
	}
	completion_reward = {
		log = "[GetDateText]: [Root.GetName]: Focus gul_bolster_the_italian_garrison"
		add_stability = 0.05
		add_war_support = 0.05
	}
}

shared_focus = {
	id = gul_more_military_funds
	icon = GFX_jap_compromised_military
	cost = 7.00
	x = 7
	y = 11
	prerequisite = {
		focus = gul_pull_back_the_emirs
	}
	prerequisite = {
		focus = gul_repress_the_riots
	}
	completion_reward = {
		log = "[GetDateText]: [Root.GetName]: Focus gul_more_military_funds"
		add_war_support = 0.1
	}
}

shared_focus = {
	id = gul_divide_et_impera
	icon = GFX_Militarize_The_Outskirts
	cost = 7.00
	x = 5
	y = 12
	prerequisite = {
		focus = gul_bolster_the_italian_garrison
	}
	prerequisite = {
		focus = gul_more_military_funds
	}
	completion_reward = {
		log = "[GetDateText]: [Root.GetName]: Focus gul_divide_et_impera"
		add_political_power = 120
	}
}

shared_focus = {
	id = gul_overwork_the_SM
	icon = GFX_JAP_Get_to_Work
	cost = 7.00
	x = 7
	y = 12
	prerequisite = {
		focus = gul_bolster_the_italian_garrison
	}
	prerequisite = {
		focus = gul_more_military_funds
	}
	completion_reward = {
		log = "[GetDateText]: [Root.GetName]: Focus gul_overwork_the_SM"
		add_stability = 0.05
	}
}

shared_focus = {
	id = gul_the_emirs_are_your_enemy
	icon = GFX_Against_The_Opposition
	cost = 7.00
	x = 5
	y = 13
	prerequisite = {
		focus = gul_divide_et_impera
	}
	prerequisite = {
		focus = gul_overwork_the_SM
	}
	completion_reward = {
		log = "[GetDateText]: [Root.GetName]: Focus gul_the_emirs_are_your_enemy"
		add_popularity = {
			ideology = communist
			popularity = 0.1
		}
		add_popularity = {
			ideology = socialist
			popularity = 0.04
		}
	}
}

shared_focus = {
	id = gul_condemn_riyadh
	icon = GFX_JAP_Condemn_Corruption
	cost = 7.00
	x = 7
	y = 13
	prerequisite = {
		focus = gul_divide_et_impera
	}
	prerequisite = {
		focus = gul_overwork_the_SM
	}
	completion_reward = {
		log = "[GetDateText]: [Root.GetName]: Focus gul_overwork_the_SM"
		add_political_power = 50
		add_popularity = {
			ideology = despotism
			popularity = -0.1
		}
	}
}

shared_focus = {
	id = gul_centralize_around_dubai
	icon = GFX_SPA_Strangle_Central_Bank
	cost = 7.00
	x = 5
	y = 14
	prerequisite = {
		focus = gul_the_emirs_are_your_enemy
	}
	prerequisite = {
		focus = gul_condemn_riyadh
	}
	completion_reward = {
		log = "[GetDateText]: [Root.GetName]: Focus gul_centralize_around_dubai"
		add_stability = 0.1
		add_political_power = 50
	}
}

shared_focus = {
	id = gul_destroy_the_emirs
	icon = GFX_generic_suspend_constitution
	cost = 7.00
	x = 7
	y = 14
	prerequisite = {
		focus = gul_the_emirs_are_your_enemy
	}
	prerequisite = {
		focus = gul_condemn_riyadh
	}
	completion_reward = {
		log = "[GetDateText]: [Root.GetName]: Focus gul_destroy_the_emirs"
		add_popularity = {
			ideology = communist
			popularity = 0.05
		}
		add_popularity = {
			ideology = despotism
			popularity = -0.1
		}
	}
}

shared_focus = {
	id = gul_a_new_order
	icon = GFX_generic_socialist_constitution
	cost = 7.00
	x = 7
	y = 15
	prerequisite = {
		focus = gul_centralize_around_dubai
	}
	prerequisite = {
		focus = gul_destroy_the_emirs
	}
	completion_reward = {
		log = "[GetDateText]: [Root.GetName]: Focus gul_a_new_order"
		country_event = { id = GUL.28 }
	}
}
