focus_tree = {
	id = OMO_northern_war
	country = {
		factor = 0
		modifier = {
			add = 0
			tag = OMO
		}
	}
	default = no

	focus = {
		id = OMO_sermon_of_the_father
		icon = GFX_OMO_Sermon_Of_The_Father
		cost = 2.2
		x = 5
		y = 0
		completion_reward = {
			log = "[GetDateText]: [Root.GetName]: Focus OMO_sermon_of_the_father"
			add_manpower = 2500
			hidden_effect = {
				country_event = {
					id = OMO.9
					days = 1
				}
			}
		}
	}

	focus = {
		id = OMO_the_light_shines_in_darkness
		icon = GFX_GAY_A_Light_Shining_In_The_Darkness
		cost = 2.2
		x = 3
		y = 1
		prerequisite = {
			focus = OMO_sermon_of_the_father
		}
		completion_reward = {
			log = "[GetDateText]: [Root.GetName]: Focus OMO_the_light_shines_in_darkness"
			add_stability = 0.1
			add_political_power = 50
			add_command_power = 10
			hidden_effect = {
				country_event = { id = OMO.38 days = 3 }
			}
		}
	}
	focus = {
		id = OMO_burn_the_idols
		icon = GFX_GAY_Champions_of_the_Just
		cost = 2.2
		x = 2
		y = 2
		prerequisite = {
			focus = OMO_the_light_shines_in_darkness
		}
		completion_reward = {
			log = "[GetDateText]: [Root.GetName]: Focus OMO_burn_the_idols"
			add_war_support = 0.15
		}
	}
	focus = {
		id = OMO_the_communal_union
		icon = GFX_TNO_generic_socialist_recruitment
		cost = 2.2
		x = 2
		y = 3
		prerequisite = {
			focus = OMO_burn_the_idols
		}
		completion_reward = {
			log = "[GetDateText]: [Root.GetName]: Focus OMO_the_communal_union"
			add_popularity = {
				ideology = socialist
				popularity = 0.05
			}
		}
	}
	focus = {
		id = OMO_denounce_the_oath
		icon = GFX_generic_suspend_constitution
		cost = 2.2
		x = 4
		y = 2
		prerequisite = {
			focus = OMO_the_light_shines_in_darkness
		}
		completion_reward = {
			log = "[GetDateText]: [Root.GetName]: Focus OMO_denounce_the_oath"
			add_political_power = 50
			add_command_power = 10
		}
	}
	focus = {
		id = OMO_all_one_in_christ
		icon = GFX_GAY_Shepherd_The_Flock
		cost = 2.2
		x = 4
		y = 3
		prerequisite = {
			focus = OMO_denounce_the_oath
		}
		completion_reward = {
			log = "[GetDateText]: [Root.GetName]: Focus OMO_all_one_in_christ"
			add_manpower = 12000
		}
	}
	focus = {
		id = OMO_yet_the_darkness_did_not_overcome
		icon = GFX_OMO_Yet_The_Darkness_Did_Not_Overcome
		cost = 2.2
		x = 3
		y = 4
		prerequisite = {
			focus = OMO_the_communal_union
		}
		prerequisite = {
			focus = OMO_all_one_in_christ
		}
		completion_reward = {
			log = "[GetDateText]: [Root.GetName]: Focus OMO_yet_the_darkness_did_not_overcome"
			add_stability = 0.05
			add_command_power = 10
			country_event = {
				id = OMO.10
				days = 1
			}
		}
	}
	focus = {
		id = OMO_arm_the_believers
		icon = GFX_GAY_The_Guns_of_God
		cost = 2.2
		x = 7
		y = 1
		ai_will_do = {
			factor = 50
		}
		prerequisite = {
			focus = OMO_sermon_of_the_father
		}
		completion_reward = {
			log = "[GetDateText]: [Root.GetName]: Focus OMO_arm_the_believers"
			add_equipment_to_stockpile = {
				type = infantry_equipment
				amount = 255
				producer = IRK
			}
			add_equipment_to_stockpile = {
				type = infantry_equipment
				amount = 150
				producer = BRY
			}
			add_equipment_to_stockpile = {
				type = infantry_equipment
				amount = 375
				producer = MAG
			}
			add_equipment_to_stockpile = {
				type = infantry_equipment
				amount = 120
				producer = YAK
			}
		}
	}
	focus = {
		id = OMO_sudoplatovs_brigade
		icon = GFX_IRK_NKVD_guards_divisions
		cost = 2.2
		x = 6
		y = 2
		ai_will_do = {
			factor = 50
		}
		prerequisite = {
			focus = OMO_arm_the_believers
		}
		completion_reward = {
			log = "[GetDateText]: [Root.GetName]: Focus OMO_sudoplatovs_brigade"
			TNO_improve_army_professionalism_low = yes
			add_manpower = 1000
		}
	}
	focus = {
		id = OMO_infiltrate_their_castles
		icon = GFX_OMO_Infiltrate_Their_Castle
		cost = 2.2
		x = 6
		y = 3
		ai_will_do = {
			factor = 50
		}
		prerequisite = {
			focus = OMO_sudoplatovs_brigade
		}
		completion_reward = {
			log = "[GetDateText]: [Root.GetName]: Focus OMO_infiltrate_their_castles"
			every_neighbor_country = {
				limit = {
					is_far_eastern_nation = yes
				}
				add_political_power = -25
			}
			add_political_power = 25
			army_experience = 10
			add_command_power = 10
		}
	}
	focus = {
		id = OMO_fraternal_militias
		icon = GFX_GAY_Blessed_Are_The_Peacekeepers
		cost = 2.2
		x = 8
		y = 2
		ai_will_do = {
			factor = 50
		}
		prerequisite = {
			focus = OMO_arm_the_believers
		}
		completion_reward = {
			log = "[GetDateText]: [Root.GetName]: Focus OMO_fraternal_militias"
			add_timed_idea = { idea = OMO_fraternal_militias_idea days = 720 }
		}
	}
	focus = {
		id = OMO_take_the_towns
		icon = GFX_ANG_clear_out_the_villages
		cost = 2.2
		x = 8
		y = 3
		ai_will_do = {
			factor = 50
		}
		prerequisite = {
			focus = OMO_fraternal_militias
		}
		completion_reward = {
			log = "[GetDateText]: [Root.GetName]: Focus OMO_take_the_towns"
			army_experience = 15
			every_neighbor_country = {
				limit = {
					is_far_eastern_nation = yes
				}
				country_event = {
					id = OMO.11
					days = 1
				}
			}
		}
	}
	focus = {
		id = OMO_end_the_thieves
		icon = GFX_OMO_End_The_Thieves
		cost = 2.2
		x = 7
		y = 4
		ai_will_do = {
			factor = 50
		}
		prerequisite = {
			focus = OMO_infiltrate_their_castles
		}
		prerequisite = {
			focus = OMO_take_the_towns
		}
		will_lead_to_war_with = KMC
		completion_reward = {
			log = "[GetDateText]: [Root.GetName]: Focus OMO_end_the_thieves"
			declare_war_on = {
				target = KMC
				type = annex_everything
			}
		}
	}
	focus = {
		id = OMO_rouse_the_masses
		icon = GFX_goal_workers_fist
		cost = 2.2
		x = 5
		y = 5
		ai_will_do = {
			factor = 50
		}
		prerequisite = {
			focus = OMO_yet_the_darkness_did_not_overcome
		}
		prerequisite = {
			focus = OMO_end_the_thieves
		}
		available = {
			owns_state = 637
		}
		completion_reward = {
			log = "[GetDateText]: [Root.GetName]: Focus OMO_end_the_thieves"
			load_oob = OMO_peasants_kamchatka
			every_other_country = {
				limit = {
					is_far_eastern_nation = yes
				}
				country_event = {
					id = OMO.13
					days = 1
				}
			}
		}
	}
	focus = {
		id = OMO_bring_the_sword
		icon = GFX_OMO_Bring_The_Sword
		cost = 2.2
		x = 5
		y = 6
		ai_will_do = {
			factor = 100
		}
		prerequisite = {
			focus = OMO_rouse_the_masses
		}
		available = {
			owns_state = 637
		}
		will_lead_to_war_with = AMR
		will_lead_to_war_with = MAG
		will_lead_to_war_with = WCH
		will_lead_to_war_with = IRK
		will_lead_to_war_with = BRY
		will_lead_to_war_with = SEV
		will_lead_to_war_with = YAK
		completion_reward = {
			log = "[GetDateText]: [Root.GetName]: Focus OMO_bring_the_sword"
			add_timed_idea = { idea = RUS_far_east_war days = 365 }
			set_country_flag = OMO_wrath_of_god
			if = {
				limit = {
					AMR = {
						exists = yes
					}
				}
				declare_war_on = {
					target = AMR
					type = annex_everything
				}
			}
			if = {
				limit = {
					MAG = {
						exists = yes
					}
				}
				declare_war_on = {
					target = MAG
					type = annex_everything
				}
			}
			if = {
				limit = {
					WCH = {
						exists = yes
					}
				}
				declare_war_on = {
					target = WCH
					type = annex_everything
				}
			}
			if = {
				limit = {
					IRK = {
						exists = yes
					}
				}
				declare_war_on = {
					target = IRK
					type = annex_everything
				}
			}
			if = {
				limit = {
					BRY = {
						exists = yes
					}
				}
				declare_war_on = {
					target = BRY
					type = annex_everything
				}
			}
			if = {
				limit = {
					SEV = {
						exists = yes
					}
				}
				declare_war_on = {
					target = SEV
					type = annex_everything
				}
			}
			if = {
				limit = {
					YAK = {
						exists = yes
					}
				}
				declare_war_on = {
					target = YAK
					type = annex_everything
				}
			}
		}
	}
	focus = {
		id = OMO_the_harbinger_of_deceit
		icon = GFX_OMO_The_Harbinger_Of_Deceit
		cost = 2.2
		x = 1
		y = 7
		prerequisite = {
			focus = OMO_bring_the_sword
		}
		completion_reward = {
			log = "[GetDateText]: [Root.GetName]: Focus OMO_the_harbinger_of_deceit"
			RUS_integration_cost_days_decrease = yes
		}
	}
	focus = {
		id = OMO_the_pharaoh_of_irkutsk
		icon = GFX_SAH_lessons_from_yagoda
		cost = 2.2
		x = -1
		y = 8
		prerequisite = {
			focus = OMO_the_harbinger_of_deceit
		}
		available = {
			IRK = {
				exists = yes
			}
		}
		bypass = {
			NOT = {
				country_exists = IRK
			}
		}
		completion_reward = {
			log = "[GetDateText]: [Root.GetName]: Focus OMO_the_pharaoh_of_irkutsk"
			add_war_support = 0.15
		}
	}
	focus = {
		id = OMO_revitalize_the_faith
		icon = GFX_GAY_Shield_Of_The_Faithful
		cost = 2.2
		x = -2
		y = 9
		available = {
			IRK = {
				exists = no
			}
		}
		prerequisite = {
			focus = OMO_the_pharaoh_of_irkutsk
		}
		completion_reward = {
			log = "[GetDateText]: [Root.GetName]: Focus OMO_revitalize_the_faith"
			add_stability = 0.075
			add_political_power = -50
			add_popularity = {
				ideology = despotism
				popularity = 0.05
			}
		}
	}
	focus = {
		id = OMO_let_my_people_go
		icon = GFX_OMO_Let_My_People_Go
		cost = 2.2
		x = 0
		y = 9
		prerequisite = {
			focus = OMO_the_pharaoh_of_irkutsk
		}
		completion_reward = {
			log = "[GetDateText]: [Root.GetName]: Focus OMO_bring_the_sword"
			country_event = { id = OMO.14 }
			add_manpower = 6000
			TNO_improve_poverty_low = yes
		}
	}
	focus = {
		id = OMO_the_simon_of_buryatia
		icon = GFX_IRK_lessons_from_sablin
		cost = 2.2
		x = 3
		y = 8
		prerequisite = {
			focus = OMO_the_harbinger_of_deceit
		}
		available = {
			BRY = {
				exists = yes
			}
		}
		bypass = {
			NOT = {
				country_exists = BRY
			}
		}
		completion_reward = {
			log = "[GetDateText]: [Root.GetName]: Focus OMO_bring_the_sword"
			add_war_support = 0.15
		}
	}
	focus = {
		id = OMO_do_away_with_lenins_cult
		icon = GFX_goal_Generic_Anti_Socialism
		cost = 2.2
		x = 2
		y = 9
		available = {
			BRY = {
				exists = no
			}
		}
		prerequisite = {
			focus = OMO_the_simon_of_buryatia
		}
		completion_reward = {
			log = "[GetDateText]: [Root.GetName]: Focus OMO_do_away_with_lenins_cult"
			country_event = { id = OMO.15 }
			add_popularity = {
				ideology = socialist
				popularity = -0.05
			}
		}
	}
	focus = {
		id = OMO_vindicate_the_virtuous
		icon = GFX_generic_change_law_religion
		cost = 2.2
		x = 4
		y = 9
		available = {
			BRY = {
				exists = no
			}
		}
		prerequisite = {
			focus = OMO_the_simon_of_buryatia
		}
		completion_reward = {
			log = "[GetDateText]: [Root.GetName]: Focus OMO_vindicate_the_virtuous"
			add_manpower = 3000
			add_political_power = 25
		}
	}
	focus = {
		id = OMO_end_to_the_pharisees
		icon = GFX_GER_kick_down_the_door
		cost = 2.2
		x = 1
		y = 10
		prerequisite = {
			focus = OMO_revitalize_the_faith
			focus = OMO_do_away_with_lenins_cult
		}
		prerequisite = {
			focus = OMO_let_my_people_go
			focus = OMO_vindicate_the_virtuous
		}
		completion_reward = {
			log = "[GetDateText]: [Root.GetName]: Focus OMO_end_to_the_pharisees"
			add_stability = 0.1
		}
	}
	focus = {
		id = OMO_the_harbinger_of_reaction
		icon = GFX_OMO_The_Harbinger_Of_Reaction
		cost = 2.2
		x = 11
		y = 7
		prerequisite = {
			focus = OMO_bring_the_sword
		}
		completion_reward = {
			log = "[GetDateText]: [Root.GetName]: Focus OMO_the_harbinger_of_reaction"
			RUS_integration_cost_days_decrease = yes
		}
	}
	focus = {
		id = OMO_the_serpent_of_magadan
		icon = GFX_MAG_The_True_Heir_of_Harbin
		cost = 2.2
		x = 7
		y = 8
		prerequisite = {
			focus = OMO_the_harbinger_of_reaction
		}
		available = {
			MAG = {
				exists = yes
			}
		}
		bypass = {
			NOT = {
				country_exists = MAG
			}
		}
		completion_reward = {
			log = "[GetDateText]: [Root.GetName]: Focus OMO_the_serpent_of_magadan"
			add_war_support = 0.15
		}
	}
	focus = {
		id = OMO_expel_the_moneylenders
		icon = GFX_ITA_Weaken_The_Banks
		cost = 2.2
		x = 6
		y = 9
		available = {
			MAG = {
				exists = no
			}
		}
		prerequisite = {
			focus = OMO_the_serpent_of_magadan
		}
		completion_reward = {
			log = "[GetDateText]: [Root.GetName]: Focus OMO_expel_the_moneylenders"
			TNO_improve_industrial_equipment_med = yes
			random_owned_controlled_state = {
				add_extra_state_shared_building_slots = 1
				add_building_construction = {
					type = industrial_complex
					level = 1
					instant_build = yes
				}
			}
		}
	}
	focus = {
		id = OMO_punish_the_leviathan
		icon = GFX_RAJ_Deal_With_Fascist_Militia
		cost = 2.2
		x = 8
		y = 9
		available = {
			MAG = {
				exists = no
			}
		}
		prerequisite = {
			focus = OMO_the_serpent_of_magadan
		}
		completion_reward = {
			log = "[GetDateText]: [Root.GetName]: Focus OMO_punish_the_leviathan"
			country_event = { id = OMO.16 }
		}
	}
	focus = {
		id = OMO_the_haman_of_amur
		icon = GFX_AMR_the_true_heir_of_harbin
		cost = 2.2
		x = 11
		y = 8
		prerequisite = {
			focus = OMO_the_harbinger_of_reaction
		}
		available = {
			AMR = {
				exists = yes
			}
		}
		bypass = {
			NOT = {
				country_exists = AMR
			}
		}
		completion_reward = {
			log = "[GetDateText]: [Root.GetName]: Focus OMO_the_haman_of_amur"
			add_war_support = 0.15
		}
	}
	focus = {
		id = OMO_depose_the_wicked_church
		icon = GFX_TNO_generic_church
		cost = 2.2
		x = 10
		y = 9
		available = {
			AMR = {
				exists = no
			}
		}
		prerequisite = {
			focus = OMO_the_haman_of_amur
		}
		completion_reward = {
			log = "[GetDateText]: [Root.GetName]: Focus OMO_depose_the_wicked_church"
			add_political_power = 75
			add_stability = 0.15
		}
	}
	focus = {
		id = OMO_the_day_of_deliverance
		icon = GFX_Generic_Smash_Fasc
		cost = 2.2
		x = 12
		y = 9
		available = {
			AMR = {
				exists = no
			}
		}
		prerequisite = {
			focus = OMO_the_haman_of_amur
		}
		completion_reward = {
			log = "[GetDateText]: [Root.GetName]: Focus OMO_the_day_of_deliverance"
			country_event = { id = OMO.17 }
		}
	}
	focus = {
		id = OMO_the_belshazzar_of_chita
		icon = GFX_WCH_the_true_heir_of_harbin
		cost = 2.2
		x = 15
		y = 8
		prerequisite = {
			focus = OMO_the_harbinger_of_reaction
		}
		available = {
			WCH = {
				exists = yes
			}
		}
		bypass = {
			NOT = {
				country_exists = WCH
			}
		}
		completion_reward = {
			log = "[GetDateText]: [Root.GetName]: Focus OMO_the_belshazzar_of_chita"
			add_war_support = 0.15
		}
	}
	focus = {
		id = OMO_depose_the_justice_of_the_commoners
		icon = GFX_OST_Unite_the_People
		cost = 2.2
		x = 14
		y = 9
		available = {
			WCH = {
				exists = no
			}
		}
		prerequisite = {
			focus = OMO_the_belshazzar_of_chita
		}
		completion_reward = {
			log = "[GetDateText]: [Root.GetName]: Focus OMO_depose_the_justice_of_the_commoners"
			TNO_improve_poverty_med = yes
		}
	}
	focus = {
		id = OMO_no_render_unto_tsars
		icon = GFX_TNO_Generic_Restricted_Monarchy
		cost = 2.2
		x = 16
		y = 9
		available = {
			WCH = {
				exists = no
			}
		}
		prerequisite = {
			focus = OMO_the_belshazzar_of_chita
		}
		completion_reward = {
			log = "[GetDateText]: [Root.GetName]: Focus OMO_no_render_unto_tsars"
			country_event = { id = OMO.18 }
		}
	}
	focus = {
		id = OMO_end_to_the_princes
		icon = GFX_ITA_Annihilate_the_Royalists
		cost = 2.2
		x = 11
		y = 10
		prerequisite = {
			focus = OMO_expel_the_moneylenders
			focus = OMO_depose_the_wicked_church
			focus = OMO_depose_the_justice_of_the_commoners
		}
		prerequisite = {
			focus = OMO_punish_the_leviathan
			focus = OMO_the_day_of_deliverance
			focus = OMO_no_render_unto_tsars
		}
		completion_reward = {
			log = "[GetDateText]: [Root.GetName]: Focus OMO_end_to_the_princes"
			add_stability = 0.1
		}
	}
	focus = {
		id = OMO_the_kingdom_of_god_within_us
		icon = GFX_GAY_Spirit_Of_Saint_George
		cost = 2.2
		x = 5
		y = 11
		available = {
			IRK = {
				exists = no
			}
		}
		available = {
			BRY = {
				exists = no
			}
		}
		available = {
			MAG = {
				exists = no
			}
		}
		available = {
			AMR = {
				exists = no
			}
		}
		available = {
			WCH = {
				exists = no
			}
		}
		prerequisite = {
			focus = OMO_end_to_the_pharisees
		}
		prerequisite = {
			focus = OMO_end_to_the_princes
		}
		completion_reward = {
			log = "[GetDateText]: [Root.GetName]: Focus OMO_the_kingdom_of_god_within_us"
			country_event = { id = OMO.19 }
			clr_country_flag = OMO_wrath_of_god
		}
	}
}

##############################
####### Regional Tree ########
##############################
focus_tree ={
	id = OMO_father_regional
	country = {
		factor = 0
		modifier = {
			add = 0
			tag = OMO
		}
	}
	default = no

	focus = {
		id = OMO_a_new_sermon
		icon = GFX_OMO_Sermon_Of_The_Father
		cost = 3.6
		x = 10
		y = 0
		completion_reward = {
			log = "[GetDateText]: [Root.GetName]: Focus OMO_a_new_sermon"
			country_event = { id = OMO.20 }
			add_political_power = 75
		}
	}

	focus = {
		id = OMO_a_christlike_life
		icon = GFX_generic_christianity
		cost = 3.6
		prerequisite = {
			focus = OMO_a_new_sermon
		}
		x = -6
		y = 1
		relative_position_id = OMO_a_new_sermon
		completion_reward = {
			log = "[GetDateText]: [Root.GetName]: Focus OMO_a_christlike_life"
			RUS_decrease_administrative_strain = yes
		}
	}

	focus = {
		id = OMO_the_rural_ideal
		icon = GFX_NIK_Honor_in_a_Humble_Life
		cost = 3.6
		prerequisite = {
			focus = OMO_a_christlike_life
		}
		x = -1
		y = 1
		relative_position_id = OMO_a_christlike_life
		completion_reward = {
			log = "[GetDateText]: [Root.GetName]: Focus OMO_the_rural_ideal"
			TNO_improve_agriculture_med = yes
		}
	}

	focus = {
		id = OMO_a_village_is_a_family
		icon = GFX_ANG_clear_out_the_villages
		cost = 3.6
		prerequisite = {
			focus = OMO_a_christlike_life
		}
		x = 1
		y = 1
		relative_position_id = OMO_a_christlike_life
		completion_reward = {
			log = "[GetDateText]: [Root.GetName]: Focus OMO_a_village_is_a_family"
			add_stability = 0.05
			add_popularity = {
				ideology = socialist
				popularity = 0.03
			}
			add_ideas = tno_public_meetings_allowed
		}
	}

	focus = {
		id = OMO_the_holy_cities
		icon = GFX_CAU_The_Model_City
		cost = 3.6
		prerequisite = {
			focus = OMO_the_rural_ideal
		}
		prerequisite = {
			focus = OMO_a_village_is_a_family
		}
		x = -1
		y = 1
		relative_position_id = OMO_the_rural_ideal
		completion_reward = {
			log = "[GetDateText]: [Root.GetName]: Focus OMO_the_holy_cities"
			TNO_improve_poverty_low = yes
			random_owned_controlled_state = {
				add_extra_state_shared_building_slots = 1
			}
			random_owned_controlled_state = {
				add_extra_state_shared_building_slots = 1
			}
			random_owned_controlled_state = {
				add_extra_state_shared_building_slots = 1
			}
		}
	}

	focus = {
		id = OMO_communal_upbringings
		icon = GFX_ORE_members_from_every_commune
		cost = 3.6
		prerequisite = {
			focus = OMO_the_rural_ideal
		}
		prerequisite = {
			focus = OMO_a_village_is_a_family
		}
		x = 1
		y = 1
		relative_position_id = OMO_a_village_is_a_family
		completion_reward = {
			log = "[GetDateText]: [Root.GetName]: Focus OMO_communal_upbringings"
			add_popularity = {
				ideology = socialist
				popularity = 0.03
			}
			add_ideas = tno_education_public_education
			add_ideas = tno_child_labor_illegal
		}
	}

	focus = {
		id = OMO_exalt_the_poor
		icon = GFX_generic_change_law_welfare
		cost = 3.6
		prerequisite = {
			focus = OMO_the_rural_ideal
		}
		prerequisite = {
			focus = OMO_a_village_is_a_family
		}
		x = 1
		y = 1
		relative_position_id = OMO_the_rural_ideal
		completion_reward = {
			log = "[GetDateText]: [Root.GetName]: Focus OMO_exalt_the_poor"
			TNO_improve_poverty_low = yes
			add_ideas = tno_income_taxation_high_income_weighted
		}
	}

	focus = {
		id = OMO_all_one_in_heaven
		icon = GFX_ISH_unity_foremost
		cost = 3.6
		prerequisite = {
			focus = OMO_the_holy_cities
		}
		prerequisite = {
			focus = OMO_communal_upbringings
		}
		prerequisite = {
			focus = OMO_exalt_the_poor
		}
		x = 1
		y = 2
		relative_position_id = OMO_the_rural_ideal
		completion_reward = {
			log = "[GetDateText]: [Root.GetName]: Focus OMO_all_one_in_heaven"
			add_political_power = 50
			RUS_decrease_administrative_strain = yes
		}
	}

	focus = {
		id = OMO_the_revelations_of_the_past
		icon = GFX_GAY_Shield_Of_The_Faithful
		cost = 3.6
		prerequisite = {
			focus = OMO_a_new_sermon
		}
		x = 0
		y = 1
		relative_position_id = OMO_a_new_sermon
		completion_reward = {
			log = "[GetDateText]: [Root.GetName]: Focus OMO_the_revelations_of_the_past"
			add_popularity = {
				ideology = despotism
				popularity = 0.03
			}
			add_stability = 0.05
		}
	}

	focus = {
		id = OMO_let_none_go_hungry
		icon = GFX_SAM_Food_For_All
		cost = 3.6
		prerequisite = {
			focus = OMO_the_revelations_of_the_past
		}
		mutually_exclusive = {
			focus = OMO_let_none_go_naked
		}
		x = -1
		y = 1
		relative_position_id = OMO_the_revelations_of_the_past
		completion_reward = {
			log = "[GetDateText]: [Root.GetName]: Focus OMO_let_none_go_hungry"
			TNO_improve_agriculture_med = yes
			TNO_improve_poverty_low  = yes
		}
	}

	focus = {
		id = OMO_let_none_go_naked
		icon = GFX_USA_The_Fair_Housing_Administration
		cost = 3.6
		prerequisite = {
			focus = OMO_the_revelations_of_the_past
		}
		mutually_exclusive = {
			focus = OMO_let_none_go_hungry
		}
		x = 1
		y = 1
		relative_position_id = OMO_the_revelations_of_the_past
		completion_reward = {
			log = "[GetDateText]: [Root.GetName]: Focus OMO_let_none_go_naked"
			TNO_improve_industrial_equipment_med = yes
			TNO_improve_poverty_low  = yes
		}
	}

	focus = {
		id = OMO_communal_farming
		icon = GFX_farming
		cost = 3.6
		prerequisite = {
			focus = OMO_let_none_go_hungry
			focus = OMO_let_none_go_naked
		}
		mutually_exclusive = {
			focus = OMO_communal_housebuilding
		}
		x = 0
		y = 1
		relative_position_id = OMO_let_none_go_hungry
		completion_reward = {
			log = "[GetDateText]: [Root.GetName]: Focus OMO_communal_farming"
			TNO_improve_agriculture_med = yes
			TNO_improve_poverty_low = yes
		}
	}

	focus = {
		id = OMO_communal_housebuilding
		icon = GFX_TNO_generic_public_houses
		cost = 3.6
		prerequisite = {
			focus = OMO_let_none_go_hungry
			focus = OMO_let_none_go_naked
		}
		mutually_exclusive = {
			focus = OMO_communal_farming
		}
		x = 0
		y = 1
		relative_position_id = OMO_let_none_go_naked
		completion_reward = {
			log = "[GetDateText]: [Root.GetName]: Focus OMO_communal_housebuilding"
			random_owned_controlled_state = {
				add_extra_state_shared_building_slots = 2
			}
			TNO_improve_poverty_low = yes
		}
	}

	focus = {
		id = OMO_love_thy_neighbor
		icon = GFX_ISH_a_union_together
		cost = 3.6
		prerequisite = {
			focus = OMO_communal_farming
			focus = OMO_communal_housebuilding
		}
		x = 1
		y = 1
		relative_position_id = OMO_communal_farming
		completion_reward = {
			log = "[GetDateText]: [Root.GetName]: Focus OMO_love_thy_neighbor"
			add_ideas = tno_slavery_outlawed
			add_ideas = tno_penal_system_rehabilitation
			RUS_decrease_administrative_strain = yes
		}
	}

	focus = {
		id = OMO_progress_through_tradition
		icon = GFX_ISH_uplift_the_proletarian
		cost = 3.6
		prerequisite = {
			focus = OMO_a_new_sermon
		}
		x = 6
		y = 1
		relative_position_id = OMO_a_new_sermon
		completion_reward = {
			log = "[GetDateText]: [Root.GetName]: Focus OMO_progress_through_tradition"
			RUS_decrease_administrative_strain = yes
			add_ideas = tno_press_rights_free_press
		}
	}

	focus = {
		id = OMO_empower_our_mothers_and_sisters
		icon = GFX_generic_change_law_women
		cost = 3.6
		prerequisite = {
			focus = OMO_progress_through_tradition
		}
		x = -2
		y = 1
		relative_position_id = OMO_progress_through_tradition
		completion_reward = {
			log = "[GetDateText]: [Root.GetName]: Focus OMO_empower_our_mothers_and_sisters"
			add_ideas = tno_gender_rights_gender_equality
		}
	}

	focus = {
		id = OMO_open_arms_for_all
		icon = GFX_generic_change_law_immigration
		cost = 3.6
		prerequisite = {
			focus = OMO_progress_through_tradition
		}
		x = 0
		y = 1
		relative_position_id = OMO_progress_through_tradition
		completion_reward = {
			log = "[GetDateText]: [Root.GetName]: Focus OMO_open_arms_for_all"
			add_ideas = tno_immigration_encouraged_immigration
			add_ideas = tno_refugees_give_me_your_poor
		}
	}

	focus = {
		id = OMO_stand_against_chauvinism
		icon = GFX_generic_change_law_religion
		cost = 3.6
		prerequisite = {
			focus = OMO_progress_through_tradition
		}
		x = 2
		y = 1
		relative_position_id = OMO_progress_through_tradition
		completion_reward = {
			log = "[GetDateText]: [Root.GetName]: Focus OMO_stand_against_chauvinism"
			add_ideas = tno_minorities_equal_rights
			add_ideas = tno_racial_integration_integrated_military
		}
	}

	focus = {
		id = OMO_christian_egalitarianism
		icon = GFX_ISH_unpopular_decisions
		cost = 3.6
		prerequisite = {
			focus = OMO_empower_our_mothers_and_sisters
		}
		prerequisite = {
			focus = OMO_open_arms_for_all
		}
		prerequisite = {
			focus = OMO_stand_against_chauvinism
		}
		x = -1
		y = 1
		relative_position_id = OMO_open_arms_for_all
		completion_reward = {
			log = "[GetDateText]: [Root.GetName]: Focus OMO_christian_egalitarianism"
			add_ideas = tno_women_total_equality
		}
	}

	focus = {
		id = OMO_love_for_the_faithless
		icon = GFX_generic_diplomacy_peace
		cost = 3.6
		prerequisite = {
			focus = OMO_empower_our_mothers_and_sisters
		}
		prerequisite = {
			focus = OMO_open_arms_for_all
		}
		prerequisite = {
			focus = OMO_stand_against_chauvinism
		}
		x = 1
		y = 1
		relative_position_id = OMO_open_arms_for_all
		completion_reward = {
			log = "[GetDateText]: [Root.GetName]: Focus OMO_love_for_the_faithless"
			add_ideas = tno_religious_rights_pluralism
		}
	}

	focus = {
		id = OMO_friendship_between_all_peoples
		icon = GFX_OST_Unite_the_People
		cost = 3.6
		prerequisite = {
			focus = OMO_christian_egalitarianism
		}
		prerequisite = {
			focus = OMO_love_for_the_faithless
		}
		x = -1
		y = 1
		relative_position_id = OMO_love_for_the_faithless
		completion_reward = {
			log = "[GetDateText]: [Root.GetName]: Focus OMO_friendship_between_all_peoples"
			RUS_decrease_administrative_strain = yes
		}
	}

	focus = {
		id = OMO_a_truly_holy_russia
		icon = GFX_Focus_Russia_Orthographic
		cost = 3.6
		prerequisite = {
			focus = OMO_all_one_in_heaven
		}
		prerequisite = {
			focus = OMO_love_thy_neighbor
		}
		prerequisite = {
			focus = OMO_friendship_between_all_peoples
		}
		x = 0
		y = 1
		relative_position_id = OMO_love_thy_neighbor
		completion_reward = {
			log = "[GetDateText]: [Root.GetName]: Focus OMO_a_truly_holy_russia"
			country_event = { id = OMO.21 }
			add_ideas = OMO_holy_russia
		}
	}

	##### Regional Economics Tree #####
	focus = {
		id = OMO_the_fruits_of_labor
		icon = GFX_PAV_fruit_of_siberia
		cost = 3.6
		x = 24
		y = 0
		available = {
			has_completed_focus = OMO_a_truly_holy_russia
		}
		completion_reward = {
			log = "[GetDateText]: [Root.GetName]: Focus OMO_the_fruits_of_labor"
			country_event = { id = OMO.22 }
			add_ideas = tno_minimum_wage_good_minimum_wage
			add_ideas = tno_max_workhours_8_hour_work_day
		}
	}

	focus = {
		id = OMO_remember_the_yearning_for_bread
		icon = GFX_URL_A_Paying_Job
		cost = 3.6
		prerequisite = {
			focus = OMO_the_fruits_of_labor
		}
		x = -2
		y = 1
		relative_position_id = OMO_the_fruits_of_labor
		completion_reward = {
			log = "[GetDateText]: [Root.GetName]: Focus OMO_remember_the_yearning_for_bread"
			add_ideas = tno_pensions_acceptable_pensions
			add_ideas = tno_unemployment_generous_subsidies
			TNO_improve_poverty_low = yes
		}
	}

	focus = {
		id = OMO_the_joys_of_charity
		icon = GFX_IBR_promote_religious_charity
		cost = 3.6
		prerequisite = {
			focus = OMO_the_fruits_of_labor
		}
		x = 0
		y = 1
		relative_position_id = OMO_the_fruits_of_labor
		completion_reward = {
			log = "[GetDateText]: [Root.GetName]: Focus OMO_the_joys_of_charity"
			add_ideas = tno_health_care_public_health_care
			add_ideas = tno_pollution_good_regulations
		}
	}

	focus = {
		id = OMO_remember_the_sermon_on_the_mount
		icon = GFX_OMO_Let_My_People_Go
		cost = 3.6
		prerequisite = {
			focus = OMO_the_fruits_of_labor
		}
		x = 2
		y = 1
		relative_position_id = OMO_the_fruits_of_labor
		completion_reward = {
			log = "[GetDateText]: [Root.GetName]: Focus OMO_remember_the_sermon_on_the_mount"
			TNO_improve_academic_base_med = yes
			TNO_improve_poverty_low = yes
		}
	}

	focus = {
		id = OMO_look_to_kropotkin
		icon = GFX_Generic_Liberty_Handshake
		cost = 3.6
		prerequisite = {
			focus = OMO_remember_the_yearning_for_bread
		}
		prerequisite = {
			focus = OMO_the_joys_of_charity
		}
		prerequisite = {
			focus = OMO_remember_the_sermon_on_the_mount
		}
		mutually_exclusive = {
			focus = OMO_look_to_tolstoy
		}
		x = -1
		y = 1
		relative_position_id = OMO_the_joys_of_charity
		completion_reward = {
			log = "[GetDateText]: [Root.GetName]: Focus OMO_look_to_kropotkin"
			add_popularity = {
				ideology = socialist
				popularity = 0.05
			}
			add_ideas = OMO_economy_of_mutual_aid
		}
	}

	focus = {
		id = OMO_look_to_tolstoy
		icon = GFX_KHA_the_foundation_laid
		cost = 3.6
		prerequisite = {
			focus = OMO_remember_the_yearning_for_bread
		}
		prerequisite = {
			focus = OMO_the_joys_of_charity
		}
		prerequisite = {
			focus = OMO_remember_the_sermon_on_the_mount
		}
		mutually_exclusive = {
			focus = OMO_look_to_kropotkin
		}
		x = 1
		y = 1
		relative_position_id = OMO_the_joys_of_charity
		completion_reward = {
			log = "[GetDateText]: [Root.GetName]: Focus OMO_look_to_tolstoy"
			add_popularity = {
				ideology = despotism
				popularity = 0.05
			}
			add_ideas = OMO_christian_anarchism
		}
	}

	focus = {
		id = OMO_no_king_but_god
		icon = GFX_FSR_Only_God_And_His_Servants
		cost = 3.6
		prerequisite = {
			focus = OMO_look_to_kropotkin
			focus = OMO_look_to_tolstoy
		}
		x = 1
		y = 1
		relative_position_id = OMO_look_to_kropotkin
		completion_reward = {
			log = "[GetDateText]: [Root.GetName]: Focus OMO_no_king_but_god"
			add_ideas = tno_trade_unions_all_allowed
			country_event = { id = OMO.23 }
		}
	}

	##### Regional military Tree #####
	focus = {
		id = OMO_blessed_are_the_peacemakers
		icon = GFX_GAY_Blessed_Are_The_Peacekeepers
		cost = 3.6
		x = 30
		y = 0
		available = {
			has_completed_focus = OMO_a_truly_holy_russia
		}
		completion_reward = {
			log = "[GetDateText]: [Root.GetName]: Focus OMO_blessed_are_the_peacemakers"
			army_experience = 20
			country_event = { id = OMO.24 }
		}
	}

	focus = {
		id = OMO_a_necessary_sin
		icon = GFX_GAY_The_Guns_of_God
		cost = 3.6
		prerequisite = {
			focus = OMO_blessed_are_the_peacemakers
		}
		x = -1
		y = 1
		relative_position_id = OMO_blessed_are_the_peacemakers
		completion_reward = {
			log = "[GetDateText]: [Root.GetName]: Focus OMO_a_necessary_sin"
			add_ideas = tno_training_minimal_training
			add_manpower = 5000
		}
	}

	focus = {
		id = OMO_but_a_sin_nonetheless
		icon = GFX_speer_retire_the_officers
		cost = 3.6
		prerequisite = {
			focus = OMO_blessed_are_the_peacemakers
		}
		x = 1
		y = 1
		relative_position_id = OMO_blessed_are_the_peacemakers
		completion_reward = {
			log = "[GetDateText]: [Root.GetName]: Focus OMO_but_a_sin_nonetheless"
			TNO_improve_army_professionalism_med = yes
			add_ideas = tno_draft_exemptions_religious_deferment
		}
	}

	focus = {
		id = OMO_enforce_humanity
		icon = GFX_GER_court_of_human_rights
		cost = 3.6
		prerequisite = {
			focus = OMO_a_necessary_sin
		}
		prerequisite = {
			focus = OMO_but_a_sin_nonetheless
		}
		x = 1
		y = 1
		relative_position_id = OMO_a_necessary_sin
		completion_reward = {
			log = "[GetDateText]: [Root.GetName]: Focus OMO_enforce_humanity"
			add_war_support = 0.05
			add_ideas = tno_military_supervision_total_supervision
		}
	}

	focus = {
		id = OMO_an_army_of_the_faithful
		icon = GFX_OMO_Bring_The_Sword
		cost = 3.6
		prerequisite = {
			focus = OMO_enforce_humanity
		}
		x = -1
		y = 1
		relative_position_id = OMO_enforce_humanity
		completion_reward = {
			log = "[GetDateText]: [Root.GetName]: Focus OMO_an_army_of_the_faithful"
			add_ideas = OMO_a_holy_army
		}
	}

	focus = {
		id = OMO_an_army_of_the_righteous
		icon = GFX_OMO_End_The_Thieves
		cost = 3.6
		prerequisite = {
			focus = OMO_enforce_humanity
		}
		x = 1
		y = 1
		relative_position_id = OMO_enforce_humanity
		completion_reward = {
			log = "[GetDateText]: [Root.GetName]: Focus OMO_an_army_of_the_righteous"
			TNO_improve_army_professionalism_med = yes
			add_ideas = tno_training_basic_training
		}
	}

	##### Sudoplatov Tree #####
	focus = {
		id = OMO_the_three_temptations_of_the_sinner
		icon = GFX_OMO_The_Three_Temptations_of_the_Sinner
		cost = 3.6
		x = 40
		y = 0
		available = {
			has_completed_focus = OMO_a_truly_holy_russia
		}
		completion_reward = {
			log = "[GetDateText]: [Root.GetName]: Focus OMO_the_three_temptations_of_the_sinner"
			country_event = { id = OMO.25 }
			add_political_power = 40
			set_country_flag = OMO_sudoplatovs_temptations
			unlock_decision_category_tooltip = OMO_temptations_category
		}
	}

	focus = {
		id = OMO_sudoplatovs_men
		icon = GFX_IRK_NKVD_guards_divisions
		cost = 3.6
		prerequisite = {
			focus = OMO_the_three_temptations_of_the_sinner
		}
		x = -4
		y = 1
		relative_position_id = OMO_the_three_temptations_of_the_sinner
		completion_reward = {
			log = "[GetDateText]: [Root.GetName]: Focus OMO_sudoplatovs_men"
			add_war_support = 0.05
			TNO_improve_army_professionalism_low = yes
		}
	}

	focus = {
		id = OMO_cast_the_wolves_out_from_the_flock
		icon = GFX_KHA_learning_from_experience
		cost = 3.6
		prerequisite = {
			focus = OMO_sudoplatovs_men
		}
		mutually_exclusive = {
			focus = OMO_leash_the_wolves
		}
		x = -1
		y = 1
		relative_position_id = OMO_sudoplatovs_men
		completion_reward = {
			log = "[GetDateText]: [Root.GetName]: Focus OMO_cast_the_wolves_out_from_the_flock"
			delete_unit_template_and_units = { division_template = "Motostrelkovaya Diviziya" }
			add_political_power = 50
		}
	}

	focus = {
		id = OMO_leash_the_wolves
		icon = GFX_KHA_black_guards_units
		cost = 3.6
		prerequisite = {
			focus = OMO_sudoplatovs_men
		}
		mutually_exclusive = {
			focus = OMO_cast_the_wolves_out_from_the_flock
		}
		x = 1
		y = 1
		relative_position_id = OMO_sudoplatovs_men
		completion_reward = {
			log = "[GetDateText]: [Root.GetName]: Focus OMO_leash_the_wolves"
			add_ideas = OMO_sudoplatovs_wolves
			OMO_give_in_to_temptation = yes
		}
	}

	focus = {
		id = OMO_sudoplatovs_laws
		icon = GFX_IRK_NKVD_guards_divisions
		cost = 3.6
		prerequisite = {
			focus = OMO_the_three_temptations_of_the_sinner
		}
		x = 0
		y = 1
		relative_position_id = OMO_the_three_temptations_of_the_sinner
		completion_reward = {
			log = "[GetDateText]: [Root.GetName]: Focus OMO_sudoplatovs_laws"
			add_stability = 0.05
			add_ideas = tno_security_police
		}
	}

	focus = {
		id = OMO_there_is_only_one_judge
		icon = GFX_OMO_The_Harbinger_Of_Deceit
		cost = 3.6
		prerequisite = {
			focus = OMO_sudoplatovs_laws
		}
		mutually_exclusive = {
			focus = OMO_discipline_creates_holiness
		}
		x = -1
		y = 1
		relative_position_id = OMO_sudoplatovs_laws
		completion_reward = {
			log = "[GetDateText]: [Root.GetName]: Focus OMO_there_is_only_one_judge"
			add_stability = 0.03
			add_political_power = 50
		}
	}

	focus = {
		id = OMO_discipline_creates_holiness
		icon = GFX_GAY_A_Light_Shining_In_The_Darkness
		cost = 3.6
		prerequisite = {
			focus = OMO_sudoplatovs_laws
		}
		mutually_exclusive = {
			focus = OMO_there_is_only_one_judge
		}
		x = 1
		y = 1
		relative_position_id = OMO_sudoplatovs_laws
		completion_reward = {
			log = "[GetDateText]: [Root.GetName]: Focus OMO_discipline_creates_holiness"
			if = {
				limit = { has_dlc = "La Resistance" }
				create_intelligence_agency = {
					name = "Narodnyiy Komissariat Vnutrennikh Del"
					icon = "GFX_intelligence_agency_logo_sov"
				}
			}
			add_ideas = tno_security_security_service
			OMO_give_in_to_temptation = yes
		}
	}

	focus = {
		id = OMO_sudoplatovs_connections
		icon = GFX_UPO_From_the_Shadows
		cost = 3.6
		prerequisite = {
			focus = OMO_the_three_temptations_of_the_sinner
		}
		x = 4
		y = 1
		relative_position_id = OMO_the_three_temptations_of_the_sinner
		completion_reward = {
			log = "[GetDateText]: [Root.GetName]: Focus OMO_sudoplatovs_connections"
			add_political_power = 50
		}
	}

	focus = {
		id = OMO_one_does_not_live_by_power_alone
		icon = GFX_KEM_And_the_Power_of_the_King
		cost = 3.6
		prerequisite = {
			focus = OMO_sudoplatovs_connections
		}
		mutually_exclusive = {
			focus = OMO_and_yet_so_many_could_be_saved
		}
		x = -1
		y = 1
		relative_position_id = OMO_sudoplatovs_connections
		completion_reward = {
			log = "[GetDateText]: [Root.GetName]: Focus OMO_one_does_not_live_by_power_alone"
			add_stability = 0.03
			add_political_power = 50
		}
	}

	focus = {
		id = OMO_and_yet_so_many_could_be_saved
		icon = GFX_Generic_Shady_Deal
		cost = 3.6
		prerequisite = {
			focus = OMO_sudoplatovs_connections
		}
		mutually_exclusive = {
			focus = OMO_one_does_not_live_by_power_alone
		}
		x = 1
		y = 1
		relative_position_id = OMO_sudoplatovs_connections
		completion_reward = {
			log = "[GetDateText]: [Root.GetName]: Focus OMO_and_yet_so_many_could_be_saved"
			add_ideas = OMO_sudoplatovs_connections_idea
			OMO_give_in_to_temptation = yes
		}
	}

	focus = {
		id = OMO_await_judgement
		icon = GFX_OMO_Yet_The_Darkness_Did_Not_Overcome
		cost = 3.6
		prerequisite = {
			focus = OMO_cast_the_wolves_out_from_the_flock
			focus = OMO_leash_the_wolves
		}
		prerequisite = {
			focus = OMO_there_is_only_one_judge
			focus = OMO_discipline_creates_holiness
		}
		prerequisite = {
			focus = OMO_one_does_not_live_by_power_alone
			focus = OMO_and_yet_so_many_could_be_saved
		}
		x = 1
		y = 1
		relative_position_id = OMO_there_is_only_one_judge
		completion_reward = {
			log = "[GetDateText]: [Root.GetName]: Focus OMO_await_judgement"
			custom_effect_tooltip = OMO_await_judgement_tt
			set_country_flag = OMO_didnt_evade_the_judgement_of_the_LORD
			hidden_effect = {
				if = {
					limit = {
						check_variable = { OMO_sudoplatov_influence > 59 }
					}
					country_event = { id = OMO.28 days = 1 }
				}
				else = {
					country_event = { id = OMO.30 days = 1 }
				}
			}
		}
	}
}

focus_tree = {
	id = OMO_father_superregional
	country = {
		factor = 0
		modifier = {
			add = 0
			tag = OMO
		}
	}
	default = no

	focus = {
		id = OMO_the_time_of_liberation
		icon = GFX_OMO_Let_My_People_Go
		cost = 2.3
		x = 8
		y = 0
		completion_reward = {
			log = "[GetDateText]: [Root.GetName]: Focus OMO_the_time_of_liberation"
			add_war_support = 0.05
			RUS_integration_cost_days_decrease = yes
		}
	}

	focus = {
		id = OMO_abolishing_exploitation
		icon = GFX_generic_change_law_welfare
		cost = 2.3
		relative_position_id = OMO_the_time_of_liberation
		x = -2
		y = 1
		prerequisite = {
			focus = OMO_the_time_of_liberation
		}
		completion_reward = {
			log = "[GetDateText]: [Root.GetName]: Focus OMO_abolishing_exploitation"
			add_ideas = tno_pollution_strict_regulations
			TNO_improve_poverty_med = yes
		}
	}
	focus = {
		id = OMO_repairing_bukharins_sin
		icon = GFX_TNO_generic_liberating_camps_prisoners
		cost = 2.3
		relative_position_id = OMO_the_time_of_liberation
		x = 2
		y = 1
		prerequisite = {
			focus = OMO_the_time_of_liberation
		}
		completion_reward = {
			log = "[GetDateText]: [Root.GetName]: Focus OMO_repairing_bukharins_sin"
			add_manpower = 12500
			country_event = { id = OMO.32 }
		}
	}
	focus = {
		id = OMO_a_kingdom_of_god_on_earth
		icon = GFX_OMO_End_The_Thieves
		available = {
			has_completed_focus = OMO_abolishing_exploitation
			has_completed_focus = OMO_repairing_bukharins_sin
		}
		mutually_exclusive = {
			focus = OMO_bridge_the_gap
			focus = OMO_an_ear_to_the_faithless
		}
		cost = 6
		relative_position_id = OMO_the_time_of_liberation
		x = -3
		y = 2
		completion_reward = {
			log = "[GetDateText]: [Root.GetName]: Focus OMO_a_kingdom_of_god_on_earth"
			add_ideas = tno_religious_rights_state_religion
			add_popularity = {
				ideology = despotism
				popularity = 0.05
			}
			country_event = { id = OMO.33 }
		}
	}
	focus = {
		id = OMO_bridge_the_gap
		icon = GFX_generic_change_law_religion
		mutually_exclusive = {
			focus = OMO_a_kingdom_of_god_on_earth
			focus = OMO_an_ear_to_the_faithless
		}
		cost = 2
		relative_position_id = OMO_the_time_of_liberation
		x = 0
		y = 2
		prerequisite = {
			focus = OMO_abolishing_exploitation
		}
		prerequisite = {
			focus = OMO_repairing_bukharins_sin
		}
		completion_reward = {
			log = "[GetDateText]: [Root.GetName]: Focus OMO_bridge_the_gap"
			add_stability = 0.1
			country_event = { id = OMO.34 }
		}
	}
	focus = {
		id = OMO_an_ear_to_the_faithless
		icon = GFX_OST_Unite_the_People
		available = {
			has_completed_focus = OMO_abolishing_exploitation
			has_completed_focus = OMO_repairing_bukharins_sin
		}
		mutually_exclusive = {
			focus = OMO_a_kingdom_of_god_on_earth
			focus = OMO_bridge_the_gap
		}
		cost = 6
		relative_position_id = OMO_the_time_of_liberation
		x = 3
		y = 2
		completion_reward = {
			log = "[GetDateText]: [Root.GetName]: Focus OMO_an_ear_to_the_faithless"
			add_ideas = tno_religious_rights_secularism
			add_popularity = {
				ideology = socialist
				popularity = 0.05
			}
			country_event = { id = OMO.35 }
		}
	}
	focus = {
		id = OMO_a_godly_russia
		icon = GFX_GAY_Spirit_Of_Saint_George
		cost = 2.3
		relative_position_id = OMO_bridge_the_gap
		x = -1
		y = 1
		prerequisite = {
			focus = OMO_a_kingdom_of_god_on_earth
			focus = OMO_bridge_the_gap
		}
		completion_reward = {
			log = "[GetDateText]: [Root.GetName]: Focus OMO_a_godly_russia"
			if = {
				limit = {
					NOT = {
						has_completed_focus = OMO_bridge_the_gap
					}
				}
				swap_ideas = {
					remove_idea = OMO_holy_russia
					add_idea = OMO_holy_russia_godly
				}
			}
			else = {
				add_war_support = 0.05
			}
			add_manpower = 10000
		}
	}
	focus = {
		id = OMO_enlightening_the_faithless
		icon = GFX_FSR_Only_God_And_His_Servants
		cost = 2.3
		relative_position_id = OMO_a_godly_russia
		x = -1
		y = 1
		prerequisite = {
			focus = OMO_a_godly_russia
		}
		completion_reward = {
			log = "[GetDateText]: [Root.GetName]: Focus OMO_enlightening_the_faithless"
			TNO_improve_academic_base_med = yes
			add_popularity = {
				ideology = despotism
				popularity = 0.03
			}
		}
	}
	focus = {
		id = OMO_denouncing_the_sinners
		icon = GFX_OMO_Infiltrate_Their_Castle
		cost = 2.3
		relative_position_id = OMO_enlightening_the_faithless
		x = 1
		y = 1
		prerequisite = {
			focus = OMO_enlightening_the_faithless
		}
		completion_reward = {
			log = "[GetDateText]: [Root.GetName]: Focus OMO_denouncing_the_sinners"
			swap_ideas = {
				remove_idea = RUS_faith_in_holy_father
				add_idea = RUS_faith_in_holy_father_2
			}
		}
	}
	focus = {
		id = OMO_a_syncretic_russia
		icon = GFX_GAY_Shield_Of_The_Faithful
		cost = 2.3
		relative_position_id = OMO_bridge_the_gap
		x = 0
		y = 2
		prerequisite = {
			focus = OMO_bridge_the_gap
		}
		completion_reward = {
			log = "[GetDateText]: [Root.GetName]: Focus OMO_a_syncretic_russia"
			swap_ideas = {
				remove_idea = OMO_holy_russia
				add_idea = OMO_holy_russia_syncretic
			}
		}
	}
	focus = {
		id = OMO_an_equal_russia
		icon = GFX_Generic_Liberty_Handshake
		cost = 2.3
		relative_position_id = OMO_bridge_the_gap
		x = 1
		y = 1
		prerequisite = {
			focus = OMO_bridge_the_gap
			focus = OMO_an_ear_to_the_faithless
		}
		completion_reward = {
			log = "[GetDateText]: [Root.GetName]: Focus OMO_an_equal_russia"
			if = {
				limit = {
					NOT = {
						has_completed_focus = OMO_bridge_the_gap
					}
				}
				swap_ideas = {
					remove_idea = OMO_holy_russia
					add_idea = OMO_holy_russia_equal
				}
			}
			else = {
				add_stability = 0.05
			}
			TNO_improve_poverty_med = yes
		}
	}
	focus = {
		id = OMO_faith_is_a_choice
		icon = GFX_JAP_Kakushin_Godo
		cost = 2.3
		relative_position_id = OMO_an_equal_russia
		x = 1
		y = 1
		prerequisite = {
			focus = OMO_an_equal_russia
		}
		completion_reward = {
			log = "[GetDateText]: [Root.GetName]: Focus OMO_faith_is_a_choice"
			add_ideas = tno_minorities_affirmative_action
			add_popularity = {
				ideology = socialist
				popularity = 0.03
			}
		}
	}
	focus = {
		id = OMO_secular_yet_holy
		icon = GFX_Secularists_Appeased
		cost = 2.3
		relative_position_id = OMO_faith_is_a_choice
		x = -1
		y = 1
		prerequisite = {
			focus = OMO_faith_is_a_choice
		}
		completion_reward = {
			log = "[GetDateText]: [Root.GetName]: Focus OMO_secular_yet_holy"
			swap_ideas = {
				remove_idea = OMO_holy_duty
				add_idea = OMO_holy_duty_2
			}
		}
	}
	focus = {
		id = OMO_unite_the_flock
		icon = GFX_GAY_Shepherd_The_Flock
		cost = 2.3
		relative_position_id = OMO_a_syncretic_russia
		x = 0
		y = 2
		prerequisite = {
			focus = OMO_denouncing_the_sinners
			focus = OMO_a_syncretic_russia
			focus = OMO_secular_yet_holy
		}
		completion_reward = {
			log = "[GetDateText]: [Root.GetName]: Focus OMO_unite_the_flock"
			TNO_improve_army_professionalism_low = yes
			RUS_integration_cost_days_decrease = yes
			country_event = { id = OMO.36 }
		}
	}
}
