#this file claimed by uncountably

###########################################
###  HARRINGTON GANG GANG GANG (68 tree)###
###########################################
#TIME TO YEET THE POVERTY - Silvvy was here -Walker Of Chaos was here

shared_focus = {
	id = USA_har_68_harrington_presidency
	icon = GFX_USA_Harrington
	cost = 2.00
	available = {
		custom_trigger_tooltip = {
			tooltip = USA_not_in_crisis_tooltip
			NOT = {
				has_country_flag = USA_in_crisis
			}
		}
	}
	cancel = {
		custom_trigger_tooltip = {
			tooltip = USA_in_crisis_tooltip
			has_country_flag = USA_in_crisis
		}
	}
	offset = {
		x = 0
		trigger = {
			always = yes
		}
	}
	x = 11
	y = 0
	completion_reward = {
		log = "[GetDateText]: [Root.GetName]: Focus USA_har_68_harrington_presidency"
		country_event = { id = harrington.301 }
		custom_effect_tooltip = USA_HAR_introduce_cabinet
		hidden_effect = {
			country_event = {
				id = harrington.304
				days = 10
			}
			country_event = {
				id = harrington.305
				days = 15
			}
			country_event = {
				id = harrington.306
				days = 20
			}
		}
	}
}

shared_focus = {
	id = USA_har_68_shake_things_up
	icon = GFX_USA_Against_the_NPP
	cost = 2.00
	prerequisite = {
		focus = USA_har_68_harrington_presidency
	}
	available = {
		custom_trigger_tooltip = {
			tooltip = USA_not_in_crisis_tooltip
			NOT = {
				has_country_flag = USA_in_crisis
			}
		}
	}
	cancel = {
		custom_trigger_tooltip = {
			tooltip = USA_in_crisis_tooltip
			has_country_flag = USA_in_crisis
		}
	}
	x = 10
	y = 1
	completion_reward = {
		log = "[GetDateText]: [Root.GetName]: Focus USA_har_68_shake_things_up"
		country_event = { id = harrington.302 }
		add_political_power = 60
		add_stability = -0.02
	}
}

shared_focus = {
	id = USA_har_68_a_moral_agenda
	icon = GFX_MAD_freedom_must_be_found
	cost = 2.00
	prerequisite = {
		focus = USA_har_68_harrington_presidency
	}
	available = {
		custom_trigger_tooltip = {
			tooltip = USA_not_in_crisis_tooltip
			NOT = {
				has_country_flag = USA_in_crisis
			}
		}
	}
	cancel = {
		custom_trigger_tooltip = {
			tooltip = USA_in_crisis_tooltip
			has_country_flag = USA_in_crisis
		}
	}
	x = 12
	y = 1
	completion_reward = {
		log = "[GetDateText]: [Root.GetName]: Focus USA_har_68_a_moral_agenda"
		country_event = { id = harrington.303 }
		hidden_effect = { country_event = { id = harrington.93 days = 7 } }
	}
}

shared_focus = {
	id = USA_har_68_pressure_the_far_right
	icon = GFX_Generic_Authoritarian_Conscription
	cost = 2.00
	prerequisite = {
		focus = USA_har_68_shake_things_up
	}
	prerequisite = {
		focus = USA_har_68_a_moral_agenda
	}
	mutually_exclusive = {
		focus = USA_har_68_convince_the_republicans
	}
	available = {
		custom_trigger_tooltip = {
			tooltip = USA_not_in_crisis_tooltip
			NOT = {
				has_country_flag = USA_in_crisis
			}
		}
	}
	cancel = {
		custom_trigger_tooltip = {
			tooltip = USA_in_crisis_tooltip
			has_country_flag = USA_in_crisis
		}
	}
	x = 9
	y = 2
	completion_reward = {
		log = "[GetDateText]: [Root.GetName]: Focus USA_har_68_pressure_the_far_right"
		country_event = { id = harrington.2 }
	}
}

shared_focus = {
	id = USA_har_68_unite_the_party
	icon = GFX_USA_secure_party_npp
	cost = 2.00
	prerequisite = {
		focus = USA_har_68_pressure_the_far_right
	}
	available = {
		custom_trigger_tooltip = {
			tooltip = USA_not_in_crisis_tooltip
			NOT = {
				has_country_flag = USA_in_crisis
			}
		}
	}
	cancel = {
		custom_trigger_tooltip = {
			tooltip = USA_in_crisis_tooltip
			has_country_flag = USA_in_crisis
		}
	}
	x = 9
	y = 3
	completion_reward = {
		log = "[GetDateText]: [Root.GetName]: Focus USA_har_68_unite_the_party"
		custom_effect_tooltip = USA_add_NPP_unity
		hidden_effect = { add_to_variable = { USA_NPP_Unity = 1 } }
	}
}

shared_focus = {
	id = USA_har_68_convince_the_republicans
	icon = GFX_USA_convince_republicans
	cost = 2.00
	prerequisite = {
		focus = USA_har_68_shake_things_up
	}
	prerequisite = {
		focus = USA_har_68_a_moral_agenda
	}
	mutually_exclusive = {
		focus = USA_har_68_pressure_the_far_right
	}
	available = {
		custom_trigger_tooltip = {
			tooltip = USA_not_in_crisis_tooltip
			NOT = {
				has_country_flag = USA_in_crisis
			}
		}
	}
	cancel = {
		custom_trigger_tooltip = {
			tooltip = USA_in_crisis_tooltip
			has_country_flag = USA_in_crisis
		}
	}
	x = 13
	y = 2
	completion_reward = {
		log = "[GetDateText]: [Root.GetName]: Focus USA_har_68_convince_the_republicans"
		country_event = { id = harrington.5 }
		hidden_effect = {
			country_event = {
				id = harrington.6
				days = 7
			}
		}
	}
}

shared_focus = {
	id = USA_har_68_unite_the_progressives
	icon = GFX_RAJ_Roses_Are_Red
	cost = 2.00
	prerequisite = {
		focus = USA_har_68_convince_the_republicans
	}
	available = {
		custom_trigger_tooltip = {
			tooltip = USA_not_in_crisis_tooltip
			NOT = {
				has_country_flag = USA_in_crisis
			}
		}
	}
	cancel = {
		custom_trigger_tooltip = {
			tooltip = USA_in_crisis_tooltip
			has_country_flag = USA_in_crisis
		}
	}
	x = 13
	y = 3
	completion_reward = {
		log = "[GetDateText]: [Root.GetName]: Focus USA_har_68_unite_the_progressives"
		hidden_effect = {
			every_owned_state = {
				limit = {
					can_have_elections_in_state = yes
					NOT = { check_variable = { nationality = 337 } } #Exclude Corn Belt
					OR = {
						check_variable = { NPP_C_bonus_popularity > NPP_FR_bonus_popularity }
						check_variable = { RD_R_bonus_popularity > RD_D_bonus_popularity }
					}
				}
				add_to_variable = { NPP_popularity = 0.04 }
				add_to_variable = { NPP_C_bonus_popularity = 0.04 }
				subtract_from_variable = { RD_popularity = 0.04 }
				subtract_from_variable = { RD_R_bonus_popularity = 0.04 }
				US_underdog_NPP_2_2 = yes
			}
		}
		custom_effect_tooltip = USA_HAR_unite_the_progressives_tt
	}
}

shared_focus = {
	id = USA_har_68_bring_it_into_the_open
	icon = GFX_USA_Moral_Shadow
	cost = 3.00
	prerequisite = {
		focus = USA_har_68_unite_the_party
		focus = USA_har_68_unite_the_progressives
	}
	available = {
		custom_trigger_tooltip = {
			tooltip = USA_not_in_crisis_tooltip
			NOT = {
				has_country_flag = USA_in_crisis
			}
		}
	}
	cancel = {
		custom_trigger_tooltip = {
			tooltip = USA_in_crisis_tooltip
			has_country_flag = USA_in_crisis
		}
	}
	x = 11
	y = 4
	completion_reward = {
		log = "[GetDateText]: [Root.GetName]: Focus USA_har_68_bring_it_into_the_open"
		custom_effect_tooltip = USA_HAR_unlock_class_managment
	}
}

shared_focus = {
	id = USA_har_68_meet_with_the_activists
	icon = GFX_USA_Calm_Progressives_Lady_Liberty
	cost = 2.00
	prerequisite = {
		focus = USA_har_68_bring_it_into_the_open
	}
	mutually_exclusive = {
		focus = USA_har_68_cross_the_country
	}
	available = {
		custom_trigger_tooltip = {
			tooltip = USA_not_in_crisis_tooltip
			NOT = {
				has_country_flag = USA_in_crisis
			}
		}
	}
	cancel = {
		custom_trigger_tooltip = {
			tooltip = USA_in_crisis_tooltip
			has_country_flag = USA_in_crisis
		}
	}
	x = 8
	y = 5
	completion_reward = {
		log = "[GetDateText]: [Root.GetName]: Focus USA_har_68_meet_with_the_activists"
		custom_effect_tooltip = USA_HAR_senate_path
		country_event = { id = harrington.19 }
		set_country_flag = USA_HAR_Close_To_The_Senate 
	}
}

shared_focus = {
	id = USA_har_68_working_with_the_unions
	icon = GFX_USA_Bring_Back_Unions
	cost = 2.00
	prerequisite = {
		focus = USA_har_68_meet_with_the_activists
	}
	available = {
		custom_trigger_tooltip = {
			tooltip = USA_not_in_crisis_tooltip
			NOT = {
				has_country_flag = USA_in_crisis
			}
		}
	}
	cancel = {
		custom_trigger_tooltip = {
			tooltip = USA_in_crisis_tooltip
			has_country_flag = USA_in_crisis
		}
	}
	x = 7
	y = 6
	completion_reward = {
		log = "[GetDateText]: [Root.GetName]: Focus USA_har_68_working_with_the_unions"
		country_event = { id = harrington.20 }
	}
}

shared_focus = {
	id = USA_har_68_talks_with_chavez
	icon = GFX_OST_Unite_the_Left
	cost = 2.00
	prerequisite = {
		focus = USA_har_68_working_with_the_unions
	}
	available = {
		custom_trigger_tooltip = {
			tooltip = USA_not_in_crisis_tooltip
			NOT = {
				has_country_flag = USA_in_crisis
			}
		}
	}
	cancel = {
		custom_trigger_tooltip = {
			tooltip = USA_in_crisis_tooltip
			has_country_flag = USA_in_crisis
		}
	}
	x = 7
	y = 7
	completion_reward = {
		log = "[GetDateText]: [Root.GetName]: Focus USA_har_68_talks_with_chavez"
		country_event = { id = harrington.21 }
	}
}

shared_focus = {
	id = USA_har_68_meeting_with_the_senators
	icon = GFX_OST_Friends_in_the_Council
	cost = 2.00
	prerequisite = {
		focus = USA_har_68_meet_with_the_activists
	}
	available = {
		custom_trigger_tooltip = {
			tooltip = USA_not_in_crisis_tooltip
			NOT = {
				has_country_flag = USA_in_crisis
			}
		}
	}
	cancel = {
		custom_trigger_tooltip = {
			tooltip = USA_in_crisis_tooltip
			has_country_flag = USA_in_crisis
		}
	}
	x = 9
	y = 6
	completion_reward = {
		log = "[GetDateText]: [Root.GetName]: Focus USA_har_68_meeting_with_the_senators"
		country_event = { id = harrington.23 }
	}
}

shared_focus = {
	id = USA_har_68_working_with_the_grassroots
	icon = GFX_USA_Proto_Progressives
	cost = 2.00
	prerequisite = {
		focus = USA_har_68_meeting_with_the_senators
	}
	available = {
		custom_trigger_tooltip = {
			tooltip = USA_not_in_crisis_tooltip
			NOT = {
				has_country_flag = USA_in_crisis
			}
		}
	}
	cancel = {
		custom_trigger_tooltip = {
			tooltip = USA_in_crisis_tooltip
			has_country_flag = USA_in_crisis
		}
	}
	x = 9
	y = 7
	completion_reward = {
		log = "[GetDateText]: [Root.GetName]: Focus USA_har_68_working_with_the_grassroots"
		country_event = { id = harrington.29 }
	}
}

shared_focus = {
	id = USA_har_68_trying_for_a_better_future
	icon = GFX_Generic_Social_Liberal
	cost = 2.00
	prerequisite = {
		focus = USA_har_68_talks_with_chavez
	}
	prerequisite = {
		focus = USA_har_68_working_with_the_grassroots
	}
	available = {
		custom_trigger_tooltip = {
			tooltip = USA_not_in_crisis_tooltip
			NOT = {
				has_country_flag = USA_in_crisis
			}
		}
	}
	cancel = {
		custom_trigger_tooltip = {
			tooltip = USA_in_crisis_tooltip
			has_country_flag = USA_in_crisis
		}
	}
	x = 8
	y = 8
	completion_reward = {
		log = "[GetDateText]: [Root.GetName]: Focus USA_har_68_trying_for_a_better_future"
		custom_effect_tooltip = USA_HAR_charm_the_middle_tt
		custom_effect_tooltip = USA_HAR_charm_the_poor_tt
		custom_effect_tooltip = USA_HAR_charm_the_poverty_tt
		hidden_effect = {
			add_to_variable = { USA_HAR_middle_enthusiasm = 12 }
			add_to_variable = { USA_HAR_poor_enthusiasm = 12 }
			add_to_variable = { USA_HAR_poverty_enthusiasm = 12 }
			USA_HAR_calculate_enthusiasm = yes
		}
		add_political_power = 50
	}
}

shared_focus = {
	id = USA_har_68_cross_the_country
	icon = GFX_TNO_generic_america
	cost = 2.00
	prerequisite = {
		focus = USA_har_68_bring_it_into_the_open
	}
	mutually_exclusive = {
		focus = USA_har_68_meet_with_the_activists
	}
	available = {
		custom_trigger_tooltip = {
			tooltip = USA_not_in_crisis_tooltip
			NOT = {
				has_country_flag = USA_in_crisis
			}
		}
	}
	cancel = {
		custom_trigger_tooltip = {
			tooltip = USA_in_crisis_tooltip
			has_country_flag = USA_in_crisis
		}
	}
	x = 14
	y = 5
	completion_reward = {
		log = "[GetDateText]: [Root.GetName]: Focus USA_har_68_cross_the_country"
		custom_effect_tooltip = USA_HAR_people_path
		country_event = { id = harrington.7 }
		add_political_power = 50
		set_country_flag = USA_HAR_Close_To_The_People
	}
}

shared_focus = {
	id = USA_har_68_the_urban_poor
	icon = GFX_RAJ_we_failed_the_poor
	cost = 2.00
	prerequisite = {
		focus = USA_har_68_cross_the_country
	}
	available = {
		custom_trigger_tooltip = {
			tooltip = USA_not_in_crisis_tooltip
			NOT = {
				has_country_flag = USA_in_crisis
			}
		}
	}
	cancel = {
		custom_trigger_tooltip = {
			tooltip = USA_in_crisis_tooltip
			has_country_flag = USA_in_crisis
		}
	}
	x = 13
	y = 6
	completion_reward = {
		log = "[GetDateText]: [Root.GetName]: Focus USA_har_68_the_urban_poor"
		country_event = { id = harrington.8 }
	}
}

shared_focus = {
	id = USA_har_68_open_their_minds
	icon = GFX_RAJ_India_Education_For_All
	cost = 2.00
	prerequisite = {
		focus = USA_har_68_the_urban_poor
	}
	available = {
		custom_trigger_tooltip = {
			tooltip = USA_not_in_crisis_tooltip
			NOT = {
				has_country_flag = USA_in_crisis
			}
		}
	}
	cancel = {
		custom_trigger_tooltip = {
			tooltip = USA_in_crisis_tooltip
			has_country_flag = USA_in_crisis
		}
	}
	x = 13
	y = 7
	completion_reward = {
		log = "[GetDateText]: [Root.GetName]: Focus USA_har_68_open_their_minds"
		country_event = { id = harrington.9 }
	}
}

shared_focus = {
	id = USA_har_68_the_rural_poor
	icon = GFX_Generic_Refugees
	cost = 2.00
	prerequisite = {
		focus = USA_har_68_cross_the_country
	}
	available = {
		custom_trigger_tooltip = {
			tooltip = USA_not_in_crisis_tooltip
			NOT = {
				has_country_flag = USA_in_crisis
			}
		}
	}
	cancel = {
		custom_trigger_tooltip = {
			tooltip = USA_in_crisis_tooltip
			has_country_flag = USA_in_crisis
		}
	}
	x = 15
	y = 6
	completion_reward = {
		log = "[GetDateText]: [Root.GetName]: Focus USA_har_68_the_rural_poor"
		country_event = { id = harrington.10 }
	}
}

shared_focus = {
	id = USA_har_68_soften_their_hearts
	icon = GFX_RAJ_India_Diplo_US_We_Love_You
	cost = 2.00
	prerequisite = {
		focus = USA_har_68_the_rural_poor
	}
	available = {
		custom_trigger_tooltip = {
			tooltip = USA_not_in_crisis_tooltip
			NOT = {
				has_country_flag = USA_in_crisis
			}
		}
	}
	cancel = {
		custom_trigger_tooltip = {
			tooltip = USA_in_crisis_tooltip
			has_country_flag = USA_in_crisis
		}
	}
	x = 15
	y = 7
	completion_reward = {
		log = "[GetDateText]: [Root.GetName]: Focus USA_har_68_soften_their_hearts"
		country_event = { id = harrington.11 }
	}
}

shared_focus = {
	id = USA_har_68_the_better_angels_of_our_nature
	icon = GFX_BRT_A_New_Life
	cost = 2.00
	prerequisite = {
		focus = USA_har_68_open_their_minds
	}
	prerequisite = {
		focus = USA_har_68_soften_their_hearts
	}
	available = {
		custom_trigger_tooltip = {
			tooltip = USA_not_in_crisis_tooltip
			NOT = {
				has_country_flag = USA_in_crisis
			}
		}
	}
	cancel = {
		custom_trigger_tooltip = {
			tooltip = USA_in_crisis_tooltip
			has_country_flag = USA_in_crisis
		}
	}
	x = 14
	y = 8
	completion_reward = {
		log = "[GetDateText]: [Root.GetName]: Focus USA_har_68_the_better_angels_of_our_nature"
		hidden_effect = {
			every_owned_state = {
				limit = {
					can_have_elections_in_state = yes
					NOT = { check_variable = { nationality = 337 } } #Unchanging Corn
				}
				if = {
					limit = {
						OR = {
							check_variable = { nationality = 82 } #Yankee
							check_variable = { nationality = 85 } #Steel Belt
							check_variable = { nationality = 88 } #Pacific
						}
					}
				add_to_variable = { NPP_C_bonus_popularity = 0.06 }
				add_to_variable = { NPP_popularity = 0.04 }
				}
				else = {
				add_to_variable = { NPP_C_bonus_popularity = 0.04 }
				add_to_variable = { NPP_popularity = 0.02 }
				}
				US_underdog_NPP_2_2 = yes
			}
			add_to_variable = { USA_HAR_rich_enthusiasm = 9 }
			add_to_variable = { USA_HAR_middle_enthusiasm = 9 }
			add_to_variable = { USA_HAR_poor_enthusiasm = 9 }
			add_to_variable = { USA_HAR_poverty_enthusiasm = 9 }
			USA_HAR_calculate_enthusiasm = yes
		}
		custom_effect_tooltip = USA_HAR_charm_everyone_tt
	}
}

shared_focus = {
	id = USA_har_68_the_other_america
	icon = GFX_USA_The_Other_America
	cost = 3.00
	prerequisite = {
		focus = USA_har_68_trying_for_a_better_future
		focus = USA_har_68_the_better_angels_of_our_nature
	}
	available = {
		custom_trigger_tooltip = {
			tooltip = USA_not_in_crisis_tooltip
			NOT = {
				has_country_flag = USA_in_crisis
			}
		}
	}
	cancel = {
		custom_trigger_tooltip = {
			tooltip = USA_in_crisis_tooltip
			has_country_flag = USA_in_crisis
		}
	}
	x = 11
	y = 9
	completion_reward = {
		log = "[GetDateText]: [Root.GetName]: Focus USA_har_68_the_other_america"
		custom_effect_tooltip = USA_HAR_help_the_poverty_tt
		custom_effect_tooltip = USA_HAR_unlock_other_america_decisions
		add_to_variable = { USA_HAR_poverty_influence = 3 }
	}
}

shared_focus = {
	id = USA_har_68_tackling_the_causes
	icon = GFX_USA_Tackling_the_Causes
	cost = 4.00
	prerequisite = {
		focus = USA_har_68_the_other_america
	}
	available = {
		custom_trigger_tooltip = {
			tooltip = USA_not_in_crisis_tooltip
			NOT = {
				has_country_flag = USA_in_crisis
			}
		}
	}
	cancel = {
		custom_trigger_tooltip = {
			tooltip = USA_in_crisis_tooltip
			has_country_flag = USA_in_crisis
		}
	}
	x = 5
	y = 10
	completion_reward = {
		log = "[GetDateText]: [Root.GetName]: Focus USA_har_68_tackling_the_causes"
		custom_effect_tooltip = USA_HAR_charm_the_middle_tt
		custom_effect_tooltip = USA_HAR_charm_the_poor_tt
		custom_effect_tooltip = USA_HAR_charm_the_poverty_tt
		hidden_effect = {
			add_to_variable = { USA_HAR_middle_enthusiasm = 4 } #They will benefit the least from what you do but they can still get behind the idea of better schools and healthcare.
			add_to_variable = { USA_HAR_poor_enthusiasm = 9 } #The most hyped about this stuff since they are currently stuck in shitty jobs and this is a way out.
			add_to_variable = { USA_HAR_poverty_enthusiasm = 5 } #They like this stuff but their primary concern is getting jobs and food, not colllege.
			USA_HAR_calculate_enthusiasm = yes
		}
	}
}

shared_focus = {
	id = USA_har_68_from_a_young_age
	icon = GFX_USA_Begin_Integration
	cost = 4.00
	prerequisite = {
		focus = USA_har_68_tackling_the_causes
	}
	available = {
		custom_trigger_tooltip = {
			tooltip = USA_not_in_crisis_tooltip
			NOT = {
				has_country_flag = USA_in_crisis
			}
		}
		custom_trigger_tooltip = {
			tooltip = USA_bill_in_consideration
			NOT = {
				has_country_flag = USA_discussing_bill #No Bill is currently being discussed
			}
		}
	}
	cancel = {
		custom_trigger_tooltip = {
			tooltip = USA_in_crisis_tooltip
			has_country_flag = USA_in_crisis
		}
	}
	relative_position_id = USA_har_68_tackling_the_causes
	x = -3
	y = 1
	completion_reward = {
		log = "[GetDateText]: [Root.GetName]: Focus USA_har_68_from_a_young_age"
		custom_effect_tooltip = USA_HAR_introduce_education_reform
		custom_effect_tooltip = USA_HAR_charm_the_poor_tt
		custom_effect_tooltip = USA_HAR_charm_the_poverty_tt
		hidden_effect = {
			USA_harry_primary_education_setup = yes
			add_to_variable = { USA_HAR_poor_enthusiasm = 5 } #Helping their kids out is good
			add_to_variable = { USA_HAR_poverty_enthusiasm = 5 } #Ditto
			USA_HAR_calculate_enthusiasm = yes
		}
	}
}

shared_focus = {
	id = USA_har_68_assess_school_resources
	icon = GFX_CHI_Increase_Education_Spending
	cost = 4.00
	prerequisite = {
		focus = USA_har_68_from_a_young_age
	}
	available = {
		custom_trigger_tooltip = {
			tooltip = USA_not_in_crisis_tooltip
			NOT = {
				has_country_flag = USA_in_crisis
			}
		}
	}
	cancel = {
		custom_trigger_tooltip = {
			tooltip = USA_in_crisis_tooltip
			has_country_flag = USA_in_crisis
		}
	}
	relative_position_id = USA_har_68_from_a_young_age
	x = -1
	y = 1
	completion_reward = {
		log = "[GetDateText]: [Root.GetName]: Focus USA_har_68_assess_school_resources"
		country_event = { id = harrington.43 }
	}
}

shared_focus = {
	id = USA_har_68_spotlighting_the_issues
	icon = GFX_CHI_Oversee_The_Teaching
	cost = 4.00
	prerequisite = {
		focus = USA_har_68_from_a_young_age
	}
	available = {
		custom_trigger_tooltip = {
			tooltip = USA_not_in_crisis_tooltip
			NOT = {
				has_country_flag = USA_in_crisis
			}
		}
	}
	cancel = {
		custom_trigger_tooltip = {
			tooltip = USA_in_crisis_tooltip
			has_country_flag = USA_in_crisis
		}
	}
	relative_position_id = USA_har_68_from_a_young_age
	x = 1
	y = 1
	completion_reward = {
		log = "[GetDateText]: [Root.GetName]: Focus USA_har_68_spotlighting_the_issues"
		custom_effect_tooltip = USA_subtract_NPP_popularity_low_south
		TNO_improve_academic_base_low = yes
		hidden_effect = { #South is not fond of you calling them out for their racism
			every_owned_state = {
				limit = {
					can_have_elections_in_state = yes
					OR = {
						check_variable = { nationality = 83 } #Dixie
						check_variable = { nationality = 84 } #African American
						check_variable = { nationality = 86 } #Southwestern
					}
				}
				set_temp_variable = { popularity_bonus = 0.02 }
				subtract_from_variable = { NPP_popularity = popularity_bonus }
				subtract_from_variable = { NPP_FR_bonus_popularity = popularity_bonus }
				add_to_variable = { RD_popularity = popularity_bonus }
				add_to_variable = { RD_D_bonus_popularity = popularity_bonus }
				US_underdog_RD_2_2 = yes
			}
		}
	}
}

shared_focus = {
	id = USA_har_68_elementary_secondary_education_act
	icon = GFX_USA_Primary_Education_Act
	cost = 4.00
	prerequisite = {
		focus = USA_har_68_assess_school_resources
	}
	prerequisite = {
		focus = USA_har_68_spotlighting_the_issues
	}
	available = {
		custom_trigger_tooltip = {
			tooltip = USA_not_in_crisis_tooltip
			NOT = {
				has_country_flag = USA_in_crisis
			}
		}
	}
	cancel = {
		custom_trigger_tooltip = {
			tooltip = USA_in_crisis_tooltip
			has_country_flag = USA_in_crisis
		}
	}
	relative_position_id = USA_har_68_from_a_young_age
	x = 0
	y = 2
	completion_reward = {
		log = "[GetDateText]: [Root.GetName]: Focus USA_har_68_elementary_secondary_education_act"
		country_event = {
			id = harrington.48
		}
	}
}

shared_focus = {
	id = USA_har_68_talking_with_teachers_unions
	icon = GFX_SLO_The_Writers_Union
	cost = 4.00
	prerequisite = {
		focus = USA_har_68_elementary_secondary_education_act
	}
	available = {
		custom_trigger_tooltip = {
			tooltip = USA_not_in_crisis_tooltip
			NOT = {
				has_country_flag = USA_in_crisis
			}
		}
	}
	cancel = {
		custom_trigger_tooltip = {
			tooltip = USA_in_crisis_tooltip
			has_country_flag = USA_in_crisis
		}
	}
	bypass = {
		has_country_flag = USA_HAR_failed_to_pass_primary_education_act
	}
	relative_position_id = USA_har_68_elementary_secondary_education_act 
	x = -1
	y = 1
	completion_reward = {
		log = "[GetDateText]: [Root.GetName]: Focus USA_har_68_talking_with_teachers_unions"
		custom_effect_tooltip = USA_har_68_talking_with_teachers_unions_tt
		hidden_effect = {
			if = {
				limit = { has_country_flag = USA_HAR_more_school_funding }
				country_event = {
					id = harringotn.49
				}
			}
			else = {
				country_event = {
					id = harringotn.50
				}
			}
		}
	}
}

shared_focus = {
	id = USA_har_68_managing_generational_poverty
	icon = GFX_CHI_Scholarships_for_the_Poor
	cost = 4.00
	prerequisite = {
		focus = USA_har_68_elementary_secondary_education_act
	}
	available = {
		custom_trigger_tooltip = {
			tooltip = USA_not_in_crisis_tooltip
			NOT = {
				has_country_flag = USA_in_crisis
			}
		}
	}
	cancel = {
		custom_trigger_tooltip = {
			tooltip = USA_in_crisis_tooltip
			has_country_flag = USA_in_crisis
		}
	}
	bypass = {
		has_country_flag = USA_HAR_failed_to_pass_primary_education_act
	}
	relative_position_id = USA_har_68_elementary_secondary_education_act
	x = 1
	y = 1
	completion_reward = {
		log = "[GetDateText]: [Root.GetName]: Focus USA_har_68_managing_generational_poverty"
		custom_effect_tooltip = USA_HAR_charm_the_poor_tt
		custom_effect_tooltip = USA_HAR_charm_the_poverty_tt
		custom_effect_tooltip = USA_HAR_fatigue_small_tt
		TNO_improve_academic_base_low = yes
		hidden_effect = {
			USA_HAR_fatigue_hit_1 = yes
			add_to_variable = { USA_HAR_poor_enthusiasm = 4 }
			add_to_variable = { USA_HAR_poverty_enthusiasm = 4 }
			USA_HAR_calculate_enthusiasm = yes
		}
	}
}

shared_focus = {
	id = USA_har_68_the_issue_of_higher_education
	icon = GFX_VIN_Education_Reform
	cost = 4.00
	prerequisite = {
		focus = USA_har_68_talking_with_teachers_unions
	}
	prerequisite = {
		focus = USA_har_68_managing_generational_poverty
	}
	available = {
		custom_trigger_tooltip = {
			tooltip = USA_not_in_crisis_tooltip
			NOT = {
				has_country_flag = USA_in_crisis
			}
		}
		custom_trigger_tooltip = {
			tooltip = USA_bill_in_consideration
			NOT = {
				has_country_flag = USA_discussing_bill #No Bill is currently being discussed
			}
		}
	}
	cancel = {
		custom_trigger_tooltip = {
			tooltip = USA_in_crisis_tooltip
			has_country_flag = USA_in_crisis
		}
	}
	relative_position_id =  USA_har_68_elementary_secondary_education_act
	x = 0
	y = 2
	completion_reward = {
		log = "[GetDateText]: [Root.GetName]: Focus USA_har_68_the_issue_of_higher_education"
		custom_effect_tooltip = USA_HAR_introduce_higher_education_act
		custom_effect_tooltip = USA_subtract_NPP_popularity_low_south
		custom_effect_tooltip = USA_HAR_fatigue_tt
		hidden_effect = {
			USA_harry_higher_education_bill = yes
			every_owned_state = {
				limit = {
					can_have_elections_in_state = yes
					OR = {
						check_variable = { nationality = 83 } #Dixie
						check_variable = { nationality = 84 } #African American
						check_variable = { nationality = 86 } #Southwestern
					}
					NOT = { state = 953 } #Exclude West Virginia
				}
				set_temp_variable = { popularity_bonus = 0.02 }
				subtract_from_variable = { NPP_popularity = popularity_bonus }
				subtract_from_variable = { NPP_FR_bonus_popularity = popularity_bonus }
				add_to_variable = { RD_popularity = popularity_bonus }
				add_to_variable = { RD_D_bonus_popularity = popularity_bonus }
				US_underdog_RD_2_2 = yes
			}
			USA_HAR_fatigue_hit_2 = yes
		}
	}
}

shared_focus = {
	id = USA_har_68_opening_the_league
	icon = GFX_USA_Opening_The_League
	cost = 4.00
	prerequisite = {
		focus = USA_har_68_the_issue_of_higher_education
	}
	available = {
		custom_trigger_tooltip = {
			tooltip = USA_not_in_crisis_tooltip
			NOT = {
				has_country_flag = USA_in_crisis
			}
		}
	}
	cancel = {
		custom_trigger_tooltip = {
			tooltip = USA_in_crisis_tooltip
			has_country_flag = USA_in_crisis
		}
	}
	relative_position_id = USA_har_68_the_issue_of_higher_education
	x = 0
	y = 1
	completion_reward = {
		log = "[GetDateText]: [Root.GetName]: Focus USA_har_68_opening_the_league"
		country_event = {
			id = harrington.51
		}
	}
}

shared_focus = {
	id = USA_har_68_the_higher_education_act
	icon = GFX_USA_Secondary_Education_Act
	cost = 4.00
	prerequisite = {
		focus = USA_har_68_opening_the_league
	}
	available = {
		custom_trigger_tooltip = {
			tooltip = USA_not_in_crisis_tooltip
			NOT = {
				has_country_flag = USA_in_crisis
			}
		}
	}
	cancel = {
		custom_trigger_tooltip = {
			tooltip = USA_in_crisis_tooltip
			has_country_flag = USA_in_crisis
		}
	}
	relative_position_id = USA_har_68_opening_the_league
	x = 0
	y = 1
	completion_reward = {
		log = "[GetDateText]: [Root.GetName]: Focus USA_har_68_the_higher_education_act"
		country_event = {
			id = harrington.52
		}
	}
}

shared_focus = {
	id = USA_har_68_the_issue_of_healthcare
	icon = GFX_RAJ_India_Health
	cost = 4.00
	prerequisite = {
		focus = USA_har_68_tackling_the_causes
	}
	available = {
		custom_trigger_tooltip = {
			tooltip = USA_not_in_crisis_tooltip
			NOT = {
				has_country_flag = USA_in_crisis
			}
		}
		custom_trigger_tooltip = {
			tooltip = USA_bill_in_consideration
			NOT = {
				has_country_flag = USA_discussing_bill #No Bill is currently being discussed
			}
		}
	}
	cancel = {
		custom_trigger_tooltip = {
			tooltip = USA_in_crisis_tooltip
			has_country_flag = USA_in_crisis
		}
	}
	relative_position_id = USA_har_68_tackling_the_causes
	x = 3
	y = 1
	completion_reward = {
		log = "[GetDateText]: [Root.GetName]: Focus USA_har_68_the_issue_of_healthcare"
		custom_effect_tooltip = USA_HAR_introduce_healthcare_regulations
		custom_effect_tooltip = USA_HAR_charm_the_middle_tt
		custom_effect_tooltip = USA_HAR_charm_the_poor_tt
		custom_effect_tooltip = USA_HAR_charm_the_poverty_tt
		hidden_effect = {
			USA_harry_healthcare_regulations_setup = yes
			add_to_variable = { USA_HAR_middle_enthusiasm = 3 } #Better healthcare is good
			add_to_variable = { USA_HAR_poor_enthusiasm = 6 } #You mean this will let me go to the doctor without bankrupting myself?
			add_to_variable = { USA_HAR_poverty_enthusiasm = 4 } #This sounds good but there would still be significant barriers towards us affording healthcare
			USA_HAR_calculate_enthusiasm = yes
		}
	}
}

shared_focus = {
	id = USA_har_68_regulating_the_insurance_companies
	icon = GFX_RAJ_India_Minority_Protections
	cost = 4.00
	prerequisite = {
		focus = USA_har_68_the_issue_of_healthcare
	}
	available = {
		custom_trigger_tooltip = {
			tooltip = USA_not_in_crisis_tooltip
			NOT = {
				has_country_flag = USA_in_crisis
			}
		}
	}
	cancel = {
		custom_trigger_tooltip = {
			tooltip = USA_in_crisis_tooltip
			has_country_flag = USA_in_crisis
		}
	}
	relative_position_id = USA_har_68_the_issue_of_healthcare
	x = -1
	y = 1
	completion_reward = {
		log = "[GetDateText]: [Root.GetName]: Focus USA_har_68_regulating_the_insurance_companies"
		custom_effect_tooltip = USA_HAR_charm_the_middle_tt
		custom_effect_tooltip = USA_HAR_charm_the_poor_tt
		add_political_power = 40
		custom_effect_tooltip = USA_HAR_anger_the_rich_tt
		custom_effect_tooltip = USA_HAR_endear_supporters
		hidden_effect = {
			add_to_variable = {USA_HAR_middle_enthusiasm = 2 }
			add_to_variable = {USA_HAR_poor_enthusiasm = 2 }
			subtract_from_variable = { USA_HAR_rich_enthusiasm = 2 }
			USA_HAR_calculate_enthusiasm = yes
			every_owned_state = { #Your supporters like the speeches
				limit = {
					can_have_elections_in_state = yes
					OR = {
						check_variable = { nationality = 82 } #Yankee
						check_variable = { nationality = 85 } #Steel Belt
					}
				}
				set_temp_variable = { popularity_bonus = 0.04 }
				add_to_variable = { NPP_popularity = popularity_bonus }
				add_to_variable = { NPP_C_bonus_popularity = popularity_bonus }
				add_to_variable = { RD_popularity = popularity_bonus }
				add_to_variable = { RD_R_bonus_popularity = popularity_bonus }
				US_underdog_RD_2_2 = yes
			}
		}
	}
}

shared_focus = {
	id = USA_har_68_lowering_healthcare_costs
	icon = GFX_USA_The_Workplace_Healthcare_Act
	cost = 4.00
	prerequisite = {
		focus = USA_har_68_the_issue_of_healthcare
	}
	available = {
		custom_trigger_tooltip = {
			tooltip = USA_not_in_crisis_tooltip
			NOT = {
				has_country_flag = USA_in_crisis
			}
		}
	}
	cancel = {
		custom_trigger_tooltip = {
			tooltip = USA_in_crisis_tooltip
			has_country_flag = USA_in_crisis
		}
	}
	relative_position_id = USA_har_68_the_issue_of_healthcare
	x = 1
	y = 1
	completion_reward = {
		log = "[GetDateText]: [Root.GetName]: Focus USA_har_68_lowering_healthcare_costs"
		custom_effect_tooltip = USA_HAR_charm_the_poor_tt
		custom_effect_tooltip = USA_HAR_charm_the_poverty_tt
		custom_effect_tooltip = USA_HAR_anger_the_rich_tt
		custom_effect_tooltip = USA_HAR_lower_healthcare_costs
		hidden_effect = {
			add_to_variable = {USA_HAR_poor_enthusiasm = 2 }
			add_to_variable = {USA_HAR_poverty_enthusiasm = 2 }
			subtract_from_variable = { USA_HAR_rich_enthusiasm = 2 }
			USA_HAR_calculate_enthusiasm = yes
			every_owned_state = { #West Coast employers don't like you threatening the bottom line
				limit = {
					can_have_elections_in_state = yes
					check_variable = { nationality = 88 } #Pacific
				}
				set_temp_variable = { popularity_bonus = 0.04 }
				subtract_from_variable = { NPP_popularity = popularity_bonus }
				subtract_from_variable = { NPP_FR_bonus_popularity = popularity_bonus }
				add_to_variable = { RD_popularity = popularity_bonus }
				add_to_variable = { RD_D_bonus_popularity = popularity_bonus }
				US_underdog_RD_2_2 = yes
			}
		}
	}
}

shared_focus = {
	id = USA_har_68_make_some_revisions
	icon = GFX_BRT_The_Breton_Standard
	cost = 4.00
	prerequisite = {
		focus = USA_har_68_regulating_the_insurance_companies
	}
	prerequisite = {
		focus = USA_har_68_lowering_healthcare_costs
	}
	available = {
		custom_trigger_tooltip = {
			tooltip = USA_not_in_crisis_tooltip
			NOT = {
				has_country_flag = USA_in_crisis
			}
		}
	}
	cancel = {
		custom_trigger_tooltip = {
			tooltip = USA_in_crisis_tooltip
			has_country_flag = USA_in_crisis
		}
	}
	relative_position_id = USA_har_68_the_issue_of_healthcare
	x = 0
	y = 2
	completion_reward = {
		log = "[GetDateText]: [Root.GetName]: Focus USA_har_68_make_some_revisions"
		country_event = {
			id = harrington.73
		}
	}
}

shared_focus = {
	id = USA_har_68_handling_conservative_opposition
	icon = GFX_USA_Raise_the_Fear
	cost = 4.00
	prerequisite = {
		focus = USA_har_68_make_some_revisions
	}
	available = {
		custom_trigger_tooltip = {
			tooltip = USA_not_in_crisis_tooltip
			NOT = {
				has_country_flag = USA_in_crisis
			}
		}
	}
	cancel = {
		custom_trigger_tooltip = {
			tooltip = USA_in_crisis_tooltip
			has_country_flag = USA_in_crisis
		}
	}
	bypass = {
		has_country_flag = USA_HAR_failed_to_pass_healthcare_regulations
	}
	relative_position_id = USA_har_68_make_some_revisions
	x = -1
	y = 1
	completion_reward = {
		log = "[GetDateText]: [Root.GetName]: Focus USA_har_68_handling_conservative_opposition"
		country_event = {
			id = harrington.74
		}
	}
}

shared_focus = {
	id = USA_har_68_push_past_the_ama
	icon = GFX_USA_Reign_in_the_AMA
	cost = 4.00
	prerequisite = {
		focus = USA_har_68_make_some_revisions
	}
	available = {
		custom_trigger_tooltip = {
			tooltip = USA_not_in_crisis_tooltip
			NOT = {
				has_country_flag = USA_in_crisis
			}
		}
	}
	cancel = {
		custom_trigger_tooltip = {
			tooltip = USA_in_crisis_tooltip
			has_country_flag = USA_in_crisis
		}
	}
	bypass = {
		has_country_flag = USA_HAR_failed_to_pass_healthcare_regulations
	}
	relative_position_id = USA_har_68_make_some_revisions
	x = 1
	y = 1
	completion_reward = {
		log = "[GetDateText]: [Root.GetName]: Focus USA_har_68_push_past_the_ama"
		custom_effect_tooltip = USA_HAR_charm_the_middle_tt
		add_political_power = 30
		hidden_effect = {
			add_to_variable = { USA_HAR_middle_enthusiasm = 10 }
			USA_HAR_calculate_enthusiasm = yes
		}
	}
}

shared_focus = {
	id = USA_har_68_a_right_not_a_privilege
	icon = GFX_OST_Fight_for_Freedom
	cost = 4.00
	prerequisite = {
		focus = USA_har_68_handling_conservative_opposition
	}
	prerequisite = {
		focus = USA_har_68_push_past_the_ama
	}
	available = {
		custom_trigger_tooltip = {
			tooltip = USA_not_in_crisis_tooltip
			NOT = {
				has_country_flag = USA_in_crisis
			}
		}
		custom_trigger_tooltip = {
			tooltip = USA_bill_in_consideration
			NOT = {
				has_country_flag = USA_discussing_bill #No Bill is currently being discussed
			}
		}
	}
	cancel = {
		custom_trigger_tooltip = {
			tooltip = USA_in_crisis_tooltip
			has_country_flag = USA_in_crisis
		}
	}
	relative_position_id = USA_har_68_make_some_revisions
	x = 0
	y = 2
	completion_reward = {
		log = "[GetDateText]: [Root.GetName]: Focus USA_har_68_a_right_not_a_privilege"
		custom_effect_tooltip = USA_HAR_introduce_medicare
		hidden_effect = {
			USA_harry_medicare = yes
			every_owned_state = {
				limit = {
					can_have_elections_in_state = yes
					OR = {
						check_variable = { nationality = 82 } #Yankee
						check_variable = { nationality = 85 } #Steel Belt
						state = 953 #West Virginia
					}
				}
				set_temp_variable = { popularity_bonus = 0.03 }
				add_to_variable = { NPP_popularity = popularity_bonus }
				add_to_variable = { NPP_C_bonus_popularity = popularity_bonus }
				subtract_from_variable = { RD_popularity = popularity_bonus }
				subtract_from_variable = { RD_R_bonus_popularity = popularity_bonus }
				US_underdog_RD_2_2 = yes
			}
			every_owned_state = {
				limit = {
					can_have_elections_in_state = yes
					NOT = {
						OR = {
							check_variable = { nationality = 82 } #Yankee
							check_variable = { nationality = 85 } #Steel Belt
							state = 953 #West Virginia
						}
					}
				}
				set_temp_variable = { popularity_bonus = 0.02 }
				if = {
					limit = { check_variable = { nationality = 88 } } #Pacific
					add_to_temp_variable = { popularity_bonus = 0.02 }
				}
				subtract_from_variable = { NPP_popularity = popularity_bonus }
				subtract_from_variable = { NPP_FR_bonus_popularity = popularity_bonus }
				add_to_variable = { RD_popularity = popularity_bonus }
				add_to_variable = { RD_D_bonus_popularity = popularity_bonus }
				US_underdog_RD_2_2 = yes
			}
			if = { #Get offered the chance to make the bill more radical if you don't have good enough healthcare
				limit = { NOT = { has_idea = tno_health_care_universal_health_care } }
				country_event = { 
					id = harrington.75
				}
			}
			else = {
				set_variable = { USA_C_NPP_bill_support_new = 1 }
				USA_clamp_bill_support = yes
			}
		}
	}
}

shared_focus = {
	id = USA_har_68_assessing_financial_resources
	icon = GFX_RAJ_India_Wealth_Question
	cost = 4.00
	prerequisite = {
		focus = USA_har_68_a_right_not_a_privilege
	}
	available = {
		custom_trigger_tooltip = {
			tooltip = USA_not_in_crisis_tooltip
			NOT = {
				has_country_flag = USA_in_crisis
			}
		}
	}
	cancel = {
		custom_trigger_tooltip = {
			tooltip = USA_in_crisis_tooltip
			has_country_flag = USA_in_crisis
		}
	}
	relative_position_id = USA_har_68_a_right_not_a_privilege
	x = 0
	y = 1
	completion_reward = {
		log = "[GetDateText]: [Root.GetName]: Focus USA_har_68_assessing_financial_resources"
		custom_effect_tooltip = USA_har_68_assessing_financial_resources_tt
		custom_effect_tooltip = USA_HAR_fatigue_small_tt
		hidden_effect = {
			USA_HAR_fatigue_hit_1 = yes
			every_owned_state = { #Exclude heartlands
				limit = {
					can_have_elections_in_state = yes
					NOT = {
						OR = {
							check_variable = { nationality = 82 } #Yankee
							check_variable = { nationality = 85 } #Steel Belt
							check_variable = { nationality = 337 } #Unchanging Corn
						}
					}
				}
				set_temp_variable = { popularity_bonus = 0.04 }
				subtract_from_variable = { NPP_popularity = popularity_bonus }
				subtract_from_variable = { NPP_C_bonus_popularity = popularity_bonus }
				add_to_variable = { RD_popularity = popularity_bonus }
				US_underdog_RD_2_2 = yes
			}
		}
	}
}

shared_focus = {
	id = USA_har_68_establishing_medicare
	icon = GFX_USA_Medicare__Medicaid
	cost = 4.00
	prerequisite = {
		focus = USA_har_68_assessing_financial_resources
	}
	available = {
		custom_trigger_tooltip = {
			tooltip = USA_not_in_crisis_tooltip
			NOT = {
				has_country_flag = USA_in_crisis
			}
		}
	}
	cancel = {
		custom_trigger_tooltip = {
			tooltip = USA_in_crisis_tooltip
			has_country_flag = USA_in_crisis
		}
	}
	relative_position_id = USA_har_68_assessing_financial_resources
	x = 0
	y = 1
	completion_reward = {
		log = "[GetDateText]: [Root.GetName]: Focus USA_har_68_establishing_medicare"
		country_event = { id = harrington.76 }
	}
}

shared_focus = { #i call this branch the "I never want to win the South ever again" branch
	id = USA_har_68_systemic_inequalities
	icon = GFX_USA_state_inspections
	cost = 4.00
	prerequisite = {
		focus = USA_har_68_elementary_secondary_education_act
		focus = USA_har_68_make_some_revisions
	}
	available = {
		custom_trigger_tooltip = {
			tooltip = USA_not_in_crisis_tooltip
			NOT = {
				has_country_flag = USA_in_crisis
			}
		}
		custom_trigger_tooltip = {
			tooltip = USA_bill_in_consideration
			NOT = {
				has_country_flag = USA_discussing_bill #No Bill is currently being discussed
			}
		}
	}
	cancel = {
		custom_trigger_tooltip = {
			tooltip = USA_in_crisis_tooltip
			has_country_flag = USA_in_crisis
		}
	}
	relative_position_id = USA_har_68_elementary_secondary_education_act
	x = 3
	y = 1
	completion_reward = {
		log = "[GetDateText]: [Root.GetName]: Focus USA_har_68_systemic_inequalities"
		custom_effect_tooltip = USA_har_68_systemic_inequalities_tt
		custom_effect_tooltip = USA_HAR_anger_society
		custom_effect_tooltip = USA_HAR_charm_the_poor_tt
		custom_effect_tooltip = USA_HAR_charm_the_poverty_tt
		custom_effect_tooltip = USA_HAR_anger_the_rich_tt
		custom_effect_tooltip = USA_HAR_anger_the_middle_tt
		custom_effect_tooltip = USA_HAR_fatigue_tt
		custom_effect_tooltip = USA_subtract_NPP_unity
		hidden_effect = { #You just told the 60s-70s America that African Americans deserve human rights, guess what happens.
			USA_harry_affarmative_Education_act = yes
			USA_HAR_fatigue_hit_2 = yes
			subtract_from_variable = { USA_NPP_Unity = 2 }
			add_to_variable = { USA_HAR_poor_enthusiasm = 4} #Generally for it but racists reduce the size of the boost
			add_to_variable = { USA_HAR_poverty_enthusiasm = 10} #FUCK YES
			subtract_from_variable = { USA_HAR_rich_enthusiasm = 7} #They don't need more rights
			subtract_from_variable = { USA_HAR_middle_enthusiasm = 7} #Racism
			USA_HAR_calculate_enthusiasm = yes
			every_owned_state = {
				limit = {
					can_have_elections_in_state = yes
					OR = {
						check_variable = { nationality = 83 } #Dixie
						check_variable = { nationality = 86 } #Southwestern
					}
				}
				set_temp_variable = { popularity_bonus = 0.05 }
				subtract_from_variable = { NPP_popularity = popularity_bonus }
				subtract_from_variable = { NPP_C_bonus_popularity = popularity_bonus }
				US_underdog_NPP_2_2 = yes
			}
			every_owned_state = {
				limit = {
					can_have_elections_in_state = yes
					OR = {
					
						check_variable = { nationality = 82 } #Yankee
						check_variable = { nationality = 85 } #Steel Belt
						check_variable = { nationality = 87 } #Rockies
						check_variable = { nationality = 88 } #Pacific

					}
				}
				set_temp_variable = { popularity_bonus = 0.04 }
				subtract_from_variable = { NPP_popularity = popularity_bonus }
				subtract_from_variable = { NPP_C_bonus_popularity = popularity_bonus }
				US_underdog_NPP_2_2 = yes
			}
			every_owned_state = { #Minorities like this
				limit = {
					can_have_elections_in_state = yes
					OR = {
						check_variable = { nationality = 84 } #African American
						check_variable = { nationality = 89 } #Hawaiian, on the unlikely chance you regained them
					}
				}
				set_temp_variable = { popularity_bonus = 0.04 }
				add_to_variable = { NPP_popularity = popularity_bonus }
				add_to_variable = { NPP_C_bonus_popularity = popularity_bonus }
				US_underdog_NPP_2_2 = yes
			}
		}
	}
}

shared_focus = {
	id = USA_har_68_the_presidents_commission_on_racial_inequality
	icon = GFX_USA_anti_segregation_propaganda
	cost = 4.00
	prerequisite = {
		focus = USA_har_68_systemic_inequalities
	}
	available = {
		custom_trigger_tooltip = {
			tooltip = USA_not_in_crisis_tooltip
			NOT = {
				has_country_flag = USA_in_crisis
			}
		}
	}
	cancel = {
		custom_trigger_tooltip = {
			tooltip = USA_in_crisis_tooltip
			has_country_flag = USA_in_crisis
		}
	}
	relative_position_id = USA_har_68_systemic_inequalities
	x = 0
	y = 1
	completion_reward = {
		log = "[GetDateText]: [Root.GetName]: Focus USA_har_68_the_presidents_commission_on_racial_inequality"
		country_event = {
			id = harrington.53
		}
	}
}

shared_focus = {
	id = USA_har_68_a_radical_proposal
	icon = GFX_USA_Civil_Rights_Act_Deluxe
	cost = 4.00
	prerequisite = {
		focus = USA_har_68_the_presidents_commission_on_racial_inequality
	}
	available = {
		custom_trigger_tooltip = {
			tooltip = USA_not_in_crisis_tooltip
			NOT = {
				has_country_flag = USA_in_crisis
			}
		}
	}
	cancel = {
		custom_trigger_tooltip = {
			tooltip = USA_in_crisis_tooltip
			has_country_flag = USA_in_crisis
		}
	}
	relative_position_id = USA_har_68_the_presidents_commission_on_racial_inequality
	x = 0
	y =1
	completion_reward = {
		log = "[GetDateText]: [Root.GetName]: Focus USA_har_68_a_radical_proposal"
		custom_effect_tooltip = USA_har_68_a_radical_proposal_tt
		custom_effect_tooltip = USA_subtract_NPP_unity
		custom_effect_tooltip = USA_HAR_fatigue_tt
		hidden_effect = {
			USA_HAR_fatigue_hit_2 = yes
			subtract_from_variable = { USA_NPP_Unity = 1 }
			every_owned_state = { #Less commited progressivess join Republicans
				limit = {
					can_have_elections_in_state = yes
					OR = {
						check_variable = { nationality = 83 } #Dixie
						check_variable = { nationality = 86 } #Southwestern
					}
				}
				set_temp_variable = { popularity_bonus = 0.04 }
				subtract_from_variable = { NPP_popularity = popularity_bonus }
				subtract_from_variable = { NPP_C_bonus_popularity = popularity_bonus }
				add_to_variable = { RD_popularity = popularity_bonus }
				add_to_variable = { RD_R_bonus_popularity = popularity_bonus }
				US_underdog_RD_2_2 = yes
			}
			every_owned_state = {
				limit = {
					can_have_elections_in_state = yes
					OR = {
					
						check_variable = { nationality = 82 } #Yankee
						check_variable = { nationality = 85 } #Steel Belt
						check_variable = { nationality = 87 } #Rockies
						check_variable = { nationality = 88 } #Pacific

					}
				}
				set_temp_variable = { popularity_bonus = 0.03 }
				subtract_from_variable = { NPP_popularity = popularity_bonus }
				subtract_from_variable = { NPP_C_bonus_popularity = popularity_bonus }
				add_to_variable = { RD_popularity = popularity_bonus }
				add_to_variable = { RD_R_bonus_popularity = popularity_bonus }
				US_underdog_RD_2_2 = yes
			}
			every_owned_state = { #Minorities like this
				limit = {
					can_have_elections_in_state = yes
					OR = {
						check_variable = { nationality = 84 } #African American
						check_variable = { nationality = 89 } #Hawaiian, on the unlikely chance you regained them
					}
				}
				set_temp_variable = { popularity_bonus = 0.04 }
				add_to_variable = { NPP_popularity = popularity_bonus }
				add_to_variable = { NPP_C_bonus_popularity = popularity_bonus }
				US_underdog_NPP_2_2 = yes
			}
		}
	}
}

shared_focus = {
	id = USA_har_68_introduce_affirmative_action
	icon = GFX_USA_african_american_south
	cost = 4.00
	prerequisite = {
		focus = USA_har_68_a_radical_proposal
	}
	available = {
		custom_trigger_tooltip = {
			tooltip = USA_not_in_crisis_tooltip
			NOT = {
				has_country_flag = USA_in_crisis
			}
		}
	}
	cancel = {
		custom_trigger_tooltip = {
			tooltip = USA_in_crisis_tooltip
			has_country_flag = USA_in_crisis
		}
	}
	relative_position_id = USA_har_68_a_radical_proposal
	x = 0
	y = 1
	completion_reward = {
		log = "[GetDateText]: [Root.GetName]: Focus USA_har_68_introduce_affirmative_action"
		country_event = {
			id = harrington.57
		}
	}
}

shared_focus = {
	id = USA_har_68_working_to_eliminate_poverty
	icon = GFX_IEA_Its_Nothing_Personal
	cost = 4.00
	prerequisite = {
		focus = USA_har_68_introduce_affirmative_action
	}
	prerequisite = {
		focus = USA_har_68_establishing_medicare
	}
	prerequisite = {
		focus = USA_har_68_the_higher_education_act
	}
	available = {
		custom_trigger_tooltip = {
			tooltip = USA_not_in_crisis_tooltip
			NOT = {
				has_country_flag = USA_in_crisis
			}
		}
	}
	cancel = {
		custom_trigger_tooltip = {
			tooltip = USA_in_crisis_tooltip
			has_country_flag = USA_in_crisis
		}
	}
	x = 5
	y = 18
	completion_reward = {
		log = "[GetDateText]: [Root.GetName]: Focus USA_har_68_working_to_eliminate_poverty"
		add_political_power = 75
		add_stability = 0.03
	}
}

shared_focus = {
	id = USA_har_68_tackling_the_effects
	icon = GFX_USA_Tackling_the_Effects
	cost = 4.00
	prerequisite = {
		focus = USA_har_68_the_other_america
	}
	available = {
		custom_trigger_tooltip = {
			tooltip = USA_not_in_crisis_tooltip
			NOT = {
				has_country_flag = USA_in_crisis
			}
		}
	}
	cancel = {
		custom_trigger_tooltip = {
			tooltip = USA_in_crisis_tooltip
			has_country_flag = USA_in_crisis
		}
	}
	x = 17
	y = 10
	completion_reward = {
		log = "[GetDateText]: [Root.GetName]: Focus USA_har_68_tackling_the_effects"
		custom_effect_tooltip = USA_HAR_charm_the_poor_tt
		custom_effect_tooltip = USA_HAR_charm_the_poverty_tt
		custom_effect_tooltip = USA_HAR_help_the_poor_tt
		custom_effect_tooltip = USA_HAR_help_the_poverty_tt
		hidden_effect = {
			add_to_variable = { USA_HAR_poor_enthusiasm = 4 } #Workking cllass life is shit, this stuff makes it less so
			add_to_variable = { USA_HAR_poverty_enthusiasm = 6 } #Stuff like this is why they love Harrington
			add_to_variable = { USA_HAR_poor_influence = 2 } #Focus on their issues make them more politically important
			add_to_variable = { USA_HAR_poverty_influence = 1 } #Same as above but being poorer limits their influence
			USA_HAR_calculate_enthusiasm = yes
		}
	}
}

shared_focus = {
	id = USA_har_68_the_food_stamp_program
	icon = GFX_shopping_spree
	cost = 4.00
	prerequisite = {
		focus = USA_har_68_tackling_the_effects
	}
	available = {
		custom_trigger_tooltip = {
			tooltip = USA_not_in_crisis_tooltip
			NOT = {
				has_country_flag = USA_in_crisis
			}
		}
		custom_trigger_tooltip = {
			tooltip = USA_bill_in_consideration
			NOT = {
				has_country_flag = USA_discussing_bill #No Bill is currently being discussed
			}
		}
	}
	cancel = {
		custom_trigger_tooltip = {
			tooltip = USA_in_crisis_tooltip
			has_country_flag = USA_in_crisis
		}
	}
	x = 14
	y = 11
	completion_reward = {
		log = "[GetDateText]: [Root.GetName]: Focus USA_har_68_the_food_stamp_program"
		custom_effect_tooltip = USA_HAR_introduce_food_stamps_act
		hidden_effect = {
			USA_harry_food_stamps = yes
			set_variable = { USA_HAR_food_bill_effectivness = 0 }
		}
	}
}

shared_focus = {
	id = USA_har_68_discuss_increasing_eligibility
	icon = GFX_IEA_Implementing_the_Strategic_Staircase
	cost = 4.00
	prerequisite = {
		focus = USA_har_68_the_food_stamp_program
	}
	available = {
		custom_trigger_tooltip = {
			tooltip = USA_not_in_crisis_tooltip
			NOT = {
				has_country_flag = USA_in_crisis
			}
		}
	}
	cancel = {
		custom_trigger_tooltip = {
			tooltip = USA_in_crisis_tooltip
			has_country_flag = USA_in_crisis
		}
	}
	x = 13
	y = 12
	completion_reward = {
		log = "[GetDateText]: [Root.GetName]: Focus USA_har_68_discuss_increasing_eligibility"
		country_event = {
			id = harrington.60
		}
	}
}

shared_focus = {
	id = USA_har_68_targeting_the_hotspots
	icon = GFX_Generic_Good_Economy
	cost = 4.00
	prerequisite = {
		focus = USA_har_68_the_food_stamp_program
	}
	available = {
		custom_trigger_tooltip = {
			tooltip = USA_not_in_crisis_tooltip
			NOT = {
				has_country_flag = USA_in_crisis
			}
		}
	}
	cancel = {
		custom_trigger_tooltip = {
			tooltip = USA_in_crisis_tooltip
			has_country_flag = USA_in_crisis
		}
	}
	x = 15
	y = 12
	completion_reward = {
		log = "[GetDateText]: [Root.GetName]: Focus USA_har_68_targeting_the_hotspots"
		country_event = {
			id = harrington.61
		}
	}
}

shared_focus = { #should this be a legislative focus? vote now on your phones # I've voted YES. Seeing that I'm the only fucking person coding that, it's 100% for Yes. God I love Democracy.
	id = USA_har_68_establish_government_food_banks
	icon = GFX_USA_More_Food_Stamps
	cost = 4.00
	prerequisite = {
		focus = USA_har_68_discuss_increasing_eligibility
	}
	prerequisite = {
		focus = USA_har_68_targeting_the_hotspots
	}
	available = {
		custom_trigger_tooltip = {
			tooltip = USA_not_in_crisis_tooltip
			NOT = {
				has_country_flag = USA_in_crisis
			}
		}
	}
	cancel = {
		custom_trigger_tooltip = {
			tooltip = USA_in_crisis_tooltip
			has_country_flag = USA_in_crisis
		}
	}
	x = 14
	y = 13
	completion_reward = {
		log = "[GetDateText]: [Root.GetName]: Focus USA_har_68_establish_government_food_banks"
		country_event = {
			id = harrington.62
		}
	}
}

shared_focus = {
	id = USA_har_68_expanding_rural_distribution
	icon = GFX_USA_Campaign_in_the_South
	cost = 4.00
	prerequisite = {
		focus = USA_har_68_establish_government_food_banks
	}
	available = {
		custom_trigger_tooltip = {
			tooltip = USA_not_in_crisis_tooltip
			NOT = {
				has_country_flag = USA_in_crisis
			}
		}
	}
	bypass = {
		custom_trigger_tooltip = {
			tooltip = USA_HAR_no_food_stamps_act
			has_country_flag = USA_HAR_no_food_stamps
		}
	}
	cancel = {
		custom_trigger_tooltip = {
			tooltip = USA_in_crisis_tooltip
			has_country_flag = USA_in_crisis
		}
	}
	x = 13
	y = 14
	completion_reward = {
		log = "[GetDateText]: [Root.GetName]: Focus USA_har_68_expanding_rural_distribution"
		custom_effect_tooltip = USA_HAR_increase_rural_popularity
		hidden_effect = {
			every_owned_state = {
				limit = {
					can_have_elections_in_state = yes
					OR = {
						check_variable = { nationality = 83 } #Dixie
						check_variable = { nationality = 84 } #African American
						check_variable = { nationality = 86 } #Southwestern
						check_variable = { nationality = 87 } #Rockies
					}
				}
				set_temp_variable = { popularity_bonus = 0.04 }
				add_to_variable = { NPP_popularity = popularity_bonus }
				add_to_variable = { NPP_C_bonus_popularity = popularity_bonus }
				subtract_from_variable = { RD_popularity = popularity_bonus }
				subtract_from_variable = { RD_R_bonus_popularity = popularity_bonus }
				US_underdog_NPP_2_2 = yes
			}
		}
	}
}

shared_focus = {
	id = USA_har_68_ensuring_urban_supply
	icon = GFX_USA_Campaign_in_the_North
	cost = 4.00
	prerequisite = {
		focus = USA_har_68_establish_government_food_banks
	}
	available = {
		custom_trigger_tooltip = {
			tooltip = USA_not_in_crisis_tooltip
			NOT = {
				has_country_flag = USA_in_crisis
			}
		}
	}
	bypass = {
		custom_trigger_tooltip = {
			tooltip = USA_HAR_no_food_stamps_act
			has_country_flag = USA_HAR_no_food_stamps
		}
	}
	cancel = {
		custom_trigger_tooltip = {
			tooltip = USA_in_crisis_tooltip
			has_country_flag = USA_in_crisis
		}
	}
	x = 15
	y = 14
	completion_reward = {
		log = "[GetDateText]: [Root.GetName]: Focus USA_har_68_ensuring_urban_supply"
		custom_effect_tooltip = USA_HAR_increase_urban_popularity
		custom_effect_tooltip = USA_HAR_fatigue_small_tt
		hidden_effect = {
			USA_HAR_fatigue_hit_1 = yes
			every_owned_state = {
				limit = {
				   can_have_elections_in_state = yes
				   OR = {
					   check_variable = { nationality = 82 } #Yankee
					   check_variable = { nationality = 85 } #Steel Belt
					   check_variable = { nationality = 88 } #Pacific
				   }
				}
				set_temp_variable = { popularity_bonus = 0.04 }
				add_to_variable = { NPP_popularity = popularity_bonus }
				add_to_variable = { NPP_C_bonus_popularity = popularity_bonus }
				subtract_from_variable = { RD_popularity = popularity_bonus }
				subtract_from_variable = { RD_R_bonus_popularity = popularity_bonus }
				US_underdog_NPP_2_2 = yes
			}
		}
	}
}

shared_focus = {
	id = USA_har_68_enticements_for_the_states
	icon = GFX_endless_money
	cost = 4.00
	prerequisite = {
		focus = USA_har_68_expanding_rural_distribution
	}
	prerequisite = {
		focus = USA_har_68_ensuring_urban_supply
	}
	available = {
		custom_trigger_tooltip = {
			tooltip = USA_not_in_crisis_tooltip
			NOT = {
				has_country_flag = USA_in_crisis
			}
		}
		custom_trigger_tooltip = {
			tooltip = USA_bill_in_consideration
			NOT = {
				has_country_flag = USA_discussing_bill #No Bill is currently being discussed
			}
		}
	}
	cancel = {
		custom_trigger_tooltip = {
			tooltip = USA_in_crisis_tooltip
			has_country_flag = USA_in_crisis
		}
	}
	x = 14
	y = 15
	completion_reward = {
		log = "[GetDateText]: [Root.GetName]: Focus USA_har_68_enticements_for_the_states"
		custom_effect_tooltip = USA_har_68_enticements_for_the_states_tt
		hidden_effect = {
			set_country_flag = USA_HAR_passing_hunger_bill
			set_variable = { USA_HAR_hunger_bill_strength = 0 }
			USA_harry_hunger_bill = yes
		}
	}
}

shared_focus = {
	id = USA_har_68_the_right_to_food
	icon = GFX_RAJ_India_Famine_Averted
	cost = 4.00
	prerequisite = {
		focus = USA_har_68_enticements_for_the_states
	}
	available = {
		custom_trigger_tooltip = {
			tooltip = USA_not_in_crisis_tooltip
			NOT = {
				has_country_flag = USA_in_crisis
			}
		}
		custom_trigger_tooltip = {
			tooltip = USA_HAR_passing_hunger_bill_tt
			has_country_flag = USA_HAR_passing_hunger_bill
		}
	}
	cancel = {
		custom_trigger_tooltip = {
			tooltip = USA_in_crisis_tooltip
			has_country_flag = USA_in_crisis
		}
	}
	x = 12
	y = 16
	completion_reward = {
		log = "[GetDateText]: [Root.GetName]: Focus USA_har_68_the_right_to_food"
		custom_effect_tooltip = USA_HAR_right_foci_tooltip
		custom_effect_tooltip = USA_subtract_NPP_popularity_low_south
		custom_effect_tooltip = USA_HAR_fatigue_small_tt
		hidden_effect = { #Set up variables for popularity adjustment
			set_temp_variable = { popularity_bonus = 0.04 }
		}
		if = { #Based on average enthusiaism your popularity will be affected in different ways
			limit = { check_variable = { USA_HAR_enthusiasm < 26 } } #Shut the hell up Harrington
			multiply_temp_variable = { popularity_bonus = 1.5 } #Biggger popularity hit
		}
		else_if = {
			limit = { check_variable = { USA_HAR_enthusiasm > 74 } } #Wow you are amazing Harrington
			multiply_temp_variable = { popularity_bonus = 0.5 } #Smaller popularity hit
		}
		hidden_effect = {
			USA_HAR_fatigue_hit_1 = yes
			every_owned_state = { #South is none to pleased about this
				limit = {
					can_have_elections_in_state = yes
					OR = {
						check_variable = { nationality = 84 } #African American
						check_variable = { nationality = 83 } #Dixie
						check_variable = { nationality = 86 } #Southwestern
					}
				}
				subtract_from_variable = { NPP_FR_bonus_popularity = popularity_bonus } #Outraged conservatives defect to democrats
				subtract_from_variable = { NPP_popularity = popularity_bonus }
				add_to_variable = { RD_popularity = popularity_bonus } #RDs appreciate the new members
				add_to_variable = { RD_D_bonus_popularity = popularity_bonus }
				US_underdog_RD_2_2 = yes
			}
			add_to_variable = { USA_HAR_hunger_bill_strength = 1 }
			set_variable = { USA_C_NPP_bill_support_new = 0.05 } #Nearly everyone loves the bill, only a few holdouts oppose it
			set_variable = { USA_L_NPP_bill_support_new = 0.2 } #Most of them want a really radical bill so each additional right helps a lot
			set_variable = { USA_FR_NPP_bill_support_new = -0.05 } #So many people already hate this its hard to get more people to defect
			set_variable = { USA_RD_R_bill_support_new = -0.1 } #More people who support this initially hence a larger pool of defectors
			set_variable = { USA_RD_D_bill_support_new = -0.2 } #Same as NPP-FR
			USA_clamp_bill_support = yes
		}
	}
}

shared_focus = {
	id = USA_har_68_the_right_to_water
	icon = GFX_USA_right_to_water
	cost = 4.00
	prerequisite = {
		focus = USA_har_68_enticements_for_the_states
	}
	available = {
		custom_trigger_tooltip = {
			tooltip = USA_not_in_crisis_tooltip
			NOT = {
				has_country_flag = USA_in_crisis
			}
		}
		custom_trigger_tooltip = {
			tooltip = USA_HAR_passing_hunger_bill_tt
			has_country_flag = USA_HAR_passing_hunger_bill
		}
	}
	cancel = {
		custom_trigger_tooltip = {
			tooltip = USA_in_crisis_tooltip
			has_country_flag = USA_in_crisis
		}
	}
	x = 14
	y = 16
	completion_reward = {
		log = "[GetDateText]: [Root.GetName]: Focus USA_har_68_the_right_to_water"
		custom_effect_tooltip = USA_HAR_right_foci_tooltip
		custom_effect_tooltip = USA_subtract_NPP_popularity_low_south
		custom_effect_tooltip = USA_HAR_fatigue_small_tt
		hidden_effect = { #Set up variables for popularity adjustment
			set_temp_variable = { popularity_bonus = 0.04 }
		}
		if = { #Based on average enthusiaism your popularity will be affected in different ways
			limit = { check_variable = { USA_HAR_enthusiasm < 26 } } #Shut the hell up Harrington
			multiply_temp_variable = { popularity_bonus = 1.5 } #Biggger popularity hit
		}
		else_if = {
			limit = { check_variable = { USA_HAR_enthusiasm > 74 } } #Wow you are amazing Harrington
			multiply_temp_variable = { popularity_bonus = 0.5 } #Smaller popularity hit
		}
		hidden_effect = {
			USA_HAR_fatigue_hit_1 = yes
			every_owned_state = { #South is none to pleased about this
				limit = {
					can_have_elections_in_state = yes
					OR = {
						check_variable = { nationality = 84 } #African American
						check_variable = { nationality = 83 } #Dixie
						check_variable = { nationality = 86 } #Southwestern
					}
				}
				subtract_from_variable = { NPP_FR_bonus_popularity = popularity_bonus } #Outraged conservatives defect to democrats
				subtract_from_variable = { NPP_popularity = popularity_bonus }
				add_to_variable = { RD_popularity = popularity_bonus } #RDs appreciate the new members
				add_to_variable = { RD_D_bonus_popularity = popularity_bonus }
				US_underdog_RD_2_2 = yes
			}
			add_to_variable = { USA_HAR_hunger_bill_strength = 1 }
			set_variable = { USA_C_NPP_bill_support_new = 0.05 } #Nearly everyone loves the bill, only a few holdouts oppose it
			set_variable = { USA_L_NPP_bill_support_new = 0.2 } #Most of them want a really radical bill so each additional right helps a lot
			set_variable = { USA_FR_NPP_bill_support_new = -0.05 } #So many people already hate this its hard to get more people to defect
			set_variable = { USA_RD_R_bill_support_new = -0.1 } #More people who support this initially hence a larger pool of defectors
			set_variable = { USA_RD_D_bill_support_new = -0.2 } #Same as NPP-FR
			USA_clamp_bill_support = yes
		}
	}
}

shared_focus = {
	id = USA_har_68_the_right_to_shelter
	icon = GFX_USA_The_Fair_Housing_Administration
	cost = 4.00
	prerequisite = {
		focus = USA_har_68_enticements_for_the_states
	}
	available = {
		custom_trigger_tooltip = {
			tooltip = USA_not_in_crisis_tooltip
			NOT = {
				has_country_flag = USA_in_crisis
			}
		}
		custom_trigger_tooltip = {
			tooltip = USA_HAR_passing_hunger_bill_tt
			has_country_flag = USA_HAR_passing_hunger_bill
		}
	}
	cancel = {
		custom_trigger_tooltip = {
			tooltip = USA_in_crisis_tooltip
			has_country_flag = USA_in_crisis
		}
	}
	x = 16
	y = 16
	completion_reward = {
		log = "[GetDateText]: [Root.GetName]: Focus USA_har_68_the_right_to_shelter"
		custom_effect_tooltip = USA_HAR_right_foci_tooltip
		custom_effect_tooltip = USA_subtract_NPP_popularity_low_south
		custom_effect_tooltip = USA_HAR_fatigue_small_tt
		hidden_effect = { #Set up variables for popularity adjustment
			set_temp_variable = { popularity_bonus = 0.04 }
		}
		if = { #Based on average enthusiaism your popularity will be affected in different ways
			limit = { check_variable = { USA_HAR_enthusiasm < 26 } } #Shut the hell up Harrington
			multiply_temp_variable = { popularity_bonus = 1.5 } #Biggger popularity hit
		}
		else_if = {
			limit = { check_variable = { USA_HAR_enthusiasm > 74 } } #Wow you are amazing Harrington
			multiply_temp_variable = { popularity_bonus = 0.5 } #Smaller popularity hit
		}
		hidden_effect = {
			USA_HAR_fatigue_hit_1 = yes
			every_owned_state = { #South is none to pleased about this
				limit = {
					can_have_elections_in_state = yes
					OR = {
						check_variable = { nationality = 84 } #African American
						check_variable = { nationality = 83 } #Dixie
						check_variable = { nationality = 86 } #Southwestern
					}
				}
				subtract_from_variable = { NPP_FR_bonus_popularity = popularity_bonus } #Outraged conservatives defect to democrats
				subtract_from_variable = { NPP_popularity = popularity_bonus }
				add_to_variable = { RD_popularity = popularity_bonus } #RDs appreciate the new members
				add_to_variable = { RD_D_bonus_popularity = popularity_bonus }
				US_underdog_RD_2_2 = yes
			}
			add_to_variable = { USA_HAR_hunger_bill_strength = 1 }
			set_variable = { USA_C_NPP_bill_support_new = 0.05 } #Nearly everyone loves the bill, only a few holdouts oppose it
			set_variable = { USA_L_NPP_bill_support_new = 0.2 } #Most of them want a really radical bill so each additional right helps a lot
			set_variable = { USA_FR_NPP_bill_support_new = -0.05 } #So many people already hate this its hard to get more people to defect
			set_variable = { USA_RD_R_bill_support_new = -0.1 } #More people who support this initially hence a larger pool of defectors
			set_variable = { USA_RD_D_bill_support_new = -0.2 } #Same as NPP-FR
			USA_clamp_bill_support = yes
		}
	}
}

shared_focus = {
	id = USA_har_68_the_hunger_bill
	icon = GFX_USA_The_Great_Society
	cost = 4.00
	prerequisite = {
		focus = USA_har_68_the_right_to_food
		focus = USA_har_68_the_right_to_water
		focus = USA_har_68_the_right_to_shelter
	}
	available = {
		custom_trigger_tooltip = {
			tooltip = USA_not_in_crisis_tooltip
			NOT = {
				has_country_flag = USA_in_crisis
			}
		}
	}
	cancel = {
		custom_trigger_tooltip = {
			tooltip = USA_in_crisis_tooltip
			has_country_flag = USA_in_crisis
		}
	}
	x = 14
	y = 17
	completion_reward = {
		log = "[GetDateText]: [Root.GetName]: Focus USA_har_68_the_hunger_bill"
		country_event = {
			id = harrington.69
		}
		clr_country_flag = USA_HAR_passing_hunger_bill
	}
}

shared_focus = {
	id = USA_har_68_managing_unemployment
	icon = GFX_GER_back_to_work
	cost = 4.00
	prerequisite = {
		focus = USA_har_68_tackling_the_effects
	}
	available = {
		custom_trigger_tooltip = {
			tooltip = USA_not_in_crisis_tooltip
			NOT = {
				has_country_flag = USA_in_crisis
			}
		}
	}
	cancel = {
		custom_trigger_tooltip = {
			tooltip = USA_in_crisis_tooltip
			has_country_flag = USA_in_crisis
		}
	}
	relative_position_id = USA_har_68_tackling_the_effects
	x = 3
	y = 1
	completion_reward = {
		log = "[GetDateText]: [Root.GetName]: Focus USA_har_68_managing_unemployment"
		add_stability = 0.01
		custom_effect_tooltip = USA_HAR_charm_the_poor_tt
		custom_effect_tooltip = USA_HAR_charm_the_poverty_tt
		hidden_effect = {
			add_to_variable = { USA_HAR_poor_enthusiasm = 2 }
			add_to_variable = { USA_HAR_poverty_enthusiasm = 5 }
			USA_HAR_calculate_enthusiasm = yes
		}
	}
}

shared_focus = {
	id = USA_har_68_job_corps
	icon = GFX_CHI_Modern_Construction_Equipment
	cost = 4.00
	prerequisite = {
		focus = USA_har_68_managing_unemployment
	}
	available = {
		custom_trigger_tooltip = {
			tooltip = USA_not_in_crisis_tooltip
			NOT = {
				has_country_flag = USA_in_crisis
			}
		}
	}
	cancel = {
		custom_trigger_tooltip = {
			tooltip = USA_in_crisis_tooltip
			has_country_flag = USA_in_crisis
		}
	}
	relative_position_id = USA_har_68_managing_unemployment
	x = 1
	y = 1
	completion_reward = {
		log = "[GetDateText]: [Root.GetName]: Focus USA_har_68_job_corps"
		TNO_improve_poverty_low = yes
		custom_effect_tooltip = USA_HAR_charm_the_poverty_tt
		custom_effect_tooltip = USA_HAR_anger_the_rich_tt
		custom_effect_tooltip = econ_misc_costs_add_1_percent
		hidden_effect = {
			add_to_variable = { USA_HAR_poverty_enthusiasm = 5 }
			subtract_from_variable = { USA_HAR_rich_enthusiasm = 5 }
			set_temp_variable = { money_stuff = GDP }
			multiply_temp_variable = { money_stuff = 0.01 }
			add_to_variable = { misc_costs = money_stuff }
			USA_HAR_calculate_enthusiasm = yes
		}
	}
}

shared_focus = {
	id = USA_har_68_tackle_abusive_practices
	icon = GFX_RAJ_India_Worker_Rights
	cost = 4.00
	prerequisite = {
		focus = USA_har_68_managing_unemployment
	}
	available = {
		custom_trigger_tooltip = {
			tooltip = USA_not_in_crisis_tooltip
			NOT = {
				has_country_flag = USA_in_crisis
			}
		}
	}
	cancel = {
		custom_trigger_tooltip = {
			tooltip = USA_in_crisis_tooltip
			has_country_flag = USA_in_crisis
		}
	}
	relative_position_id = USA_har_68_managing_unemployment
	x = -1
	y = 1
	completion_reward = {
		log = "[GetDateText]: [Root.GetName]: Focus USA_har_68_tackle_abusive_practices"
		custom_effect_tooltip = USA_HAR_charm_the_poverty_tt
		custom_effect_tooltip = USA_HAR_charm_the_poor_tt
		custom_effect_tooltip = USA_HAR_charm_the_middle_tt
		custom_effect_tooltip = USA_HAR_anger_the_rich_tt
		hidden_effect = {
			add_to_variable = { USA_HAR_poverty_enthusiasm = 4 } #They really appreciate this but many of them prioritize getting a job over having a good job
			add_to_variable = { USA_HAR_poor_enthusiasm = 7 } #Main ones who see the benefit on accounting of them having jobs
			add_to_variable = { USA_HAR_middle_enthusiasm = 2 } #Not nearly as affected as the rest but some of them will still benefit from this
			subtract_from_variable = { USA_HAR_rich_enthusiasm = 5 }
			USA_HAR_calculate_enthusiasm = yes
		}
		add_ideas = USA_HAR_fight_abusive_practices
	}
}

shared_focus = {
	id = USA_har_68_unemployment_benefits
	icon = GFX_USA_The_Economic_Opportunity_Act
	cost = 4.00
	prerequisite = {
		focus = USA_har_68_job_corps
	}
	prerequisite = {
		focus = USA_har_68_tackle_abusive_practices
	}
	available = {
		custom_trigger_tooltip = {
			tooltip = USA_not_in_crisis_tooltip
			NOT = {
				has_country_flag = USA_in_crisis
			}
		}
		custom_trigger_tooltip = {
			tooltip = USA_bill_in_consideration
			NOT = {
				has_country_flag = USA_discussing_bill #No Bill is currently being discussed
			}
		}
	}
	cancel = {
		custom_trigger_tooltip = {
			tooltip = USA_in_crisis_tooltip
			has_country_flag = USA_in_crisis
		}
	}
	relative_position_id = USA_har_68_managing_unemployment
	x = 0
	y = 2
	completion_reward = {
		log = "[GetDateText]: [Root.GetName]: Focus USA_har_68_unemployment_benefits"
		custom_effect_tooltip = USA_HAR_introduce_social_security_act
		custom_effect_tooltip = USA_HAR_fatigue_tt
		hidden_effect = {
			USA_harry_social_security_bill = yes
			USA_HAR_fatigue_hit_2 = yes
			set_country_flag = USA_HAR_passing_social_security
		}
	}
}

shared_focus = {
	id = USA_har_68_paying_for_it_all
	icon = GFX_USA_money
	cost = 4.00
	prerequisite = {
		focus = USA_har_68_unemployment_benefits
	}
	available = {
		custom_trigger_tooltip = {
			tooltip = USA_not_in_crisis_tooltip
			NOT = {
				has_country_flag = USA_in_crisis
			}
		}
		custom_trigger_tooltip = {
			tooltip = USA_HAR_passing_social_security_bill_tt
			has_country_flag = USA_HAR_passing_social_security
		}
	}
	cancel = {
		custom_trigger_tooltip = {
			tooltip = USA_in_crisis_tooltip
			has_country_flag = USA_in_crisis
		}
	}
	relative_position_id = USA_har_68_unemployment_benefits
	x = 2
	y = 1
	completion_reward = {
		log = "[GetDateText]: [Root.GetName]: Focus USA_har_68_paying_for_it_all"
		custom_effect_tooltip = USA_har_68_paying_for_it_all_tt
		custom_effect_tooltip = USA_HAR_anger_everyone_tt
		custom_effect_tooltip = USA_decrease_bill_support_everyone
		custom_effect_tooltip = USA_HAR_fatigue_small_tt
		set_country_flag = USA_har_68_general_tax_hike
		hidden_effect = {
			USA_HAR_fatigue_hit_1 = yes
			subtract_from_variable = { USA_HAR_poverty_enthusiasm = 4 } #They understand why this is beingg done they just don't like it
			subtract_from_variable = { USA_HAR_poor_enthusiasm = 6 } #They fear that if this is screwed up they will be forced into poverty
			subtract_from_variable = { USA_HAR_middle_enthusiasm = 8 } #They end up bearing the brunt of the costs and thus surprisingly are not very happy about this
			subtract_from_variable = { USA_HAR_rich_enthusiasm = 4 } #They don't want higgher taxes but they also know they got off better than they could have

			subtract_from_variable = { USA_C_NPP_bill_support = 0.1 } #Of course I love the oppurtunity to explain to my constituents why their taxes grew
			subtract_from_variable = { USA_L_NPP_bill_support = 0.1 } #There are rich people right there you could be taxing instead
			subtract_from_variable = { USA_FR_NPP_bill_support = 0.05 } #At least you didn't targget their main demographic
			subtract_from_variable = { USA_RD_D_bill_support = 0.05 } #Its hard for them to hate you more at this point tbh
			subtract_from_variable = { USA_RD_R_bill_support = 0.10 } #Both their pro-wellfare and pro-bussiness wings dislike taxes
			USA_HAR_calculate_enthusiasm = yes
			USA_clamp_bill_support = yes
		}
	}
}

shared_focus = {
	id = USA_har_68_paying_their_fair_share
	icon = GFX_RAJ_we_failed_the_rich
	cost = 4.00
	prerequisite = {
		focus = USA_har_68_unemployment_benefits
	}
	available = {
		custom_trigger_tooltip = {
			tooltip = USA_not_in_crisis_tooltip
			NOT = {
				has_country_flag = USA_in_crisis
			}
		}
		custom_trigger_tooltip = {
			tooltip = USA_HAR_passing_social_security_bill_tt
			has_country_flag = USA_HAR_passing_social_security
		}
	}
	cancel = {
		custom_trigger_tooltip = {
			tooltip = USA_in_crisis_tooltip
			has_country_flag = USA_in_crisis
		}
	}
	relative_position_id = USA_har_68_unemployment_benefits
	x = -2
	y = 1
	completion_reward = {
		log = "[GetDateText]: [Root.GetName]: Focus USA_har_68_paying_their_fair_share"
		custom_effect_tooltip = USA_har_68_paying_their_fair_share_tt
		custom_effect_tooltip = USA_HAR_anger_the_middle_tt
		custom_effect_tooltip = USA_HAR_anger_the_rich_tt
		custom_effect_tooltip = USA_increase_bill_support_NPP_C
		custom_effect_tooltip = USA_increase_bill_support_NPP_L
		custom_effect_tooltip = USA_HAR_fatigue_small_tt
		set_country_flag = USA_har_68_income_tax_hike
		if = { #Republicans will only support this if you earlier reached out to them
			limit = { has_country_flag = USA_HAR_work_with_reps }
			custom_effect_tooltip = USA_increase_bill_support_RD_R
			hidden_effect = {
				set_variable = { USA_RD_R_bill_support_new = 0.15 } #They aren't too happy about this but you have earned their trust
			}
		}
		custom_effect_tooltip = USA_decrease_bill_support_NPP_FR
		custom_effect_tooltip = USA_decrease_bill_support_RD_D
		hidden_effect = { #Handle bill support and enthusiaism
			USA_HAR_fatigue_hit_1 = yes
			subtract_from_variable = { USA_HAR_middle_enthusiasm = 6 } #Not hit as hard as a general tax increase would bring
			subtract_from_variable = { USA_HAR_rich_enthusiasm = 12 } #They hate you now
			set_variable = { USA_C_NPP_bill_support_new = 0.05 } #Duh
			set_variable = { USA_L_NPP_bill_support_new = 0.25 } #Do I really need to explain this?
			set_variable = { USA_FR_NPP_bill_support_new = -0.10 } #Coounting the day untill you get kicked out of office
			set_variable = { USA_RD_D_bill_support_new = -0.05 } #No
			USA_HAR_calculate_enthusiasm = yes
			USA_clamp_bill_support = yes
		}
	}
}

shared_focus = {
	id = USA_har_68_consider_cutting_the_military
	icon = GFX_USA_Outlaw_Literacy_Tests
	cost = 4.00
	prerequisite = {
		focus = USA_har_68_paying_for_it_all
	}
	available = {
		custom_trigger_tooltip = {
			tooltip = USA_not_in_crisis_tooltip
			NOT = {
				has_country_flag = USA_in_crisis
			}
		}
		custom_trigger_tooltip = {
			tooltip = USA_HAR_passing_social_security_bill_tt
			has_country_flag = USA_HAR_passing_social_security
		}
	}
	cancel = {
		custom_trigger_tooltip = {
			tooltip = USA_in_crisis_tooltip
			has_country_flag = USA_in_crisis
		}
	}
	relative_position_id = USA_har_68_paying_for_it_all
	x = 0
	y = 1
	completion_reward = {
		log = "[GetDateText]: [Root.GetName]: Focus USA_har_68_consider_cutting_the_military"
		country_event = { id = harrington.85 }
	}
}

shared_focus = {
	id = USA_har_68_how_much_to_raise_taxes
	icon = GFX_RAJ_India_Wealth_Question
	cost = 4.00
	prerequisite = {
		focus = USA_har_68_paying_their_fair_share
	}
	available = {
		custom_trigger_tooltip = {
			tooltip = USA_not_in_crisis_tooltip
			NOT = {
				has_country_flag = USA_in_crisis
			}
		}
		custom_trigger_tooltip = {
			tooltip = USA_HAR_passing_social_security_bill_tt
			has_country_flag = USA_HAR_passing_social_security
		}
	}
	cancel = {
		custom_trigger_tooltip = {
			tooltip = USA_in_crisis_tooltip
			has_country_flag = USA_in_crisis
		}
	}
	relative_position_id = USA_har_68_paying_their_fair_share
	x = 0
	y = 1
	completion_reward = {
		log = "[GetDateText]: [Root.GetName]: Focus USA_har_68_how_much_to_raise_taxes"
		country_event = { id = harrington.87 }
	}
}

shared_focus = {
	id = USA_har_68_drawing_up_a_budget
	icon = GFX_USA_america_economic_miracle
	cost = 4.00
	prerequisite = {
		focus = USA_har_68_consider_cutting_the_military
		focus = USA_har_68_how_much_to_raise_taxes
	}
	prerequisite = {
		focus = USA_har_68_amend_the_fair_labor_standards_act
	}
	available = {
		custom_trigger_tooltip = {
			tooltip = USA_not_in_crisis_tooltip
			NOT = {
				has_country_flag = USA_in_crisis
			}
		}
		custom_trigger_tooltip = {
			tooltip = USA_HAR_passing_social_security_bill_tt
			has_country_flag = USA_HAR_passing_social_security
		}
	}
	cancel = {
		custom_trigger_tooltip = {
			tooltip = USA_in_crisis_tooltip
			has_country_flag = USA_in_crisis
		}
	}
	relative_position_id = USA_har_68_how_much_to_raise_taxes
	x = 2
	y = 1
	completion_reward = {
		log = "[GetDateText]: [Root.GetName]: Focus USA_har_68_drawing_up_a_budget"
		add_political_power = 60 #Now that you have solid numbers you should be able to convince a couple more senators
	}
}

shared_focus = {
	id = USA_har_68_social_security
	icon = GFX_USA_The_Social_Security_Act
	cost = 4.00
	prerequisite = {
		focus = USA_har_68_drawing_up_a_budget
	}
	available = {
		custom_trigger_tooltip = {
			tooltip = USA_not_in_crisis_tooltip
			NOT = {
				has_country_flag = USA_in_crisis
			}
		}
	}
	cancel = {
		custom_trigger_tooltip = {
			tooltip = USA_in_crisis_tooltip
			has_country_flag = USA_in_crisis
		}
	}
	relative_position_id = USA_har_68_drawing_up_a_budget
	x = 0
	y = 1
	completion_reward = {
		log = "[GetDateText]: [Root.GetName]: Focus USA_har_68_social_security"
		country_event = {
			id = harrington.92
		}
		clr_country_flag = USA_HAR_passing_social_security
	}
}

shared_focus = {
	id = USA_har_68_pushing_the_businesses
	icon = GFX_USA_Only_American_Future
	cost = 4.00
	prerequisite = {
		focus = USA_har_68_unemployment_benefits
	}
	available = {
		custom_trigger_tooltip = {
			tooltip = USA_not_in_crisis_tooltip
			NOT = {
				has_country_flag = USA_in_crisis
			}
		}
		custom_trigger_tooltip = {
			tooltip = USA_HAR_passing_social_security_bill_tt
			has_country_flag = USA_HAR_passing_social_security
		}
	}
	cancel = {
		custom_trigger_tooltip = {
			tooltip = USA_in_crisis_tooltip
			has_country_flag = USA_in_crisis
		}
	}
	relative_position_id = USA_har_68_unemployment_benefits
	x = 0
	y = 1
	completion_reward = {
		log = "[GetDateText]: [Root.GetName]: Focus USA_har_68_pushing_the_businesses"
		add_stability = 0.02
	}
}

shared_focus = {
	id = USA_har_68_amend_the_fair_labor_standards_act
	icon = GFX_SLO_Ease_Price_Controls
	cost = 4.00
	prerequisite = {
		focus = USA_har_68_pushing_the_businesses
	}
	available = {
		custom_trigger_tooltip = {
			tooltip = USA_not_in_crisis_tooltip
			NOT = {
				has_country_flag = USA_in_crisis
			}
		}
		custom_trigger_tooltip = {
			tooltip = USA_HAR_passing_social_security_bill_tt
			has_country_flag = USA_HAR_passing_social_security
		}
	}
	cancel = {
		custom_trigger_tooltip = {
			tooltip = USA_in_crisis_tooltip
			has_country_flag = USA_in_crisis
		}
	}
	relative_position_id = USA_har_68_pushing_the_businesses
	x = 0
	y = 1
	completion_reward = {
		log = "[GetDateText]: [Root.GetName]: Focus USA_har_68_amend_the_fair_labor_standards_act"
		custom_effect_tooltip = USA_har_68_amend_the_fair_labor_standards_act_tt
		country_event = {
			id = harrington.91
		}
	}
}

shared_focus = {
	id = USA_har_68_working_to_solve_poverty
	icon = GFX_USA_get_in_loser_were_saving_america
	cost = 4.00
	prerequisite = {
		focus = USA_har_68_the_hunger_bill
	}
	prerequisite = {
		focus = USA_har_68_social_security
	}
	available = {
		custom_trigger_tooltip = {
			tooltip = USA_not_in_crisis_tooltip
			NOT = {
				has_country_flag = USA_in_crisis
			}
		}
	}
	cancel = {
		custom_trigger_tooltip = {
			tooltip = USA_in_crisis_tooltip
			has_country_flag = USA_in_crisis
		}
	}
	bypass = {
		custom_trigger_tooltip = {
			tooltip = USA_HAR_addressed_poverty
			AND = {
				has_country_flag = USA_HAR_passed_hunger_bill
				has_country_flag = USA_HAR_passed_social_security
			}
		}
	}
	x = 17
	y = 18
	completion_reward = {
		log = "[GetDateText]: [Root.GetName]: Focus USA_har_68_working_to_solve_poverty"
		custom_effect_tooltip = USA_har_68_working_to_solve_poverty_tt
		hidden_effect = {
			add_to_variable = { GDP_growth = 0.01 }
		}
	}
}

shared_focus = {
	id = USA_har_68_an_america_for_all
	icon = GFX_USA_Glenn_A_City_on_a_Hill
	cost = 4.00
	prerequisite = {
		focus = USA_har_68_working_to_eliminate_poverty
	}
	prerequisite = {
		focus = USA_har_68_working_to_solve_poverty
	}
	available = {
		custom_trigger_tooltip = {
			tooltip = USA_not_in_crisis_tooltip
			NOT = {
				has_country_flag = USA_in_crisis
			}
		}
	}
	cancel = {
		custom_trigger_tooltip = {
			tooltip = USA_in_crisis_tooltip
			has_country_flag = USA_in_crisis
		}
	}
	x = 11
	y = 19
	completion_reward = {
		log = "[GetDateText]: [Root.GetName]: Focus USA_har_68_an_america_for_all"
		custom_effect_tooltip = USA_HAR_america_for_all
		add_to_variable = { USA_unity = 1 }
		custom_effect_tooltip = USA_add_societal_unity
		hidden_effect = {
			every_owned_state = {
				limit = {
					can_have_elections_in_state = yes
					NOT = { check_variable = { nationality = 337 } }
				}
				set_temp_variable = { popularity_bonus = 0.08 }
				if = {
					limit = {
						OR = {
							check_variable = { nationality = 83 } #Dixie
							check_variable = { nationality = 84 } #African American
							check_variable = { nationality = 86 } #Southwestern
							check_variable = { nationality = 87 } #Rockies
						}
						subtract_from_temp_variable = { popularity_bonus = 0.03 }
					}
				}
				add_to_variable = { NPP_C_bonus_popularity = popularity_bonus }
				subtract_from_temp_variable = { NPP_popularity = 0.02 }
				add_to_variable = { NPP_popularity = popularity_bonus }
			}
		}
	}
}

shared_focus = {
	id = USA_har_68_an_end_to_poverty
	icon = GFX_USA_an_end_to_poverty
	cost = 4.00
	prerequisite = {
		focus = USA_har_68_an_america_for_all
	}
	available = {
		custom_trigger_tooltip = {
			tooltip = USA_not_in_crisis_tooltip
			NOT = {
				has_country_flag = USA_in_crisis
			}
		}
	}
	cancel = {
		custom_trigger_tooltip = {
			tooltip = USA_in_crisis_tooltip
			has_country_flag = USA_in_crisis
		}
	}
	x = 11
	y = 20
	completion_reward = {
		log = "[GetDateText]: [Root.GetName]: Focus USA_har_68_an_end_to_poverty"
		add_political_power = 100
		add_stability = 0.05
		USA_decrease_depression = yes
		TNO_improve_poverty_low = yes
	}
}
















