shared_focus = {
	id = USA_Fighting_Tyranny_Since_1776
	icon = GFX_USA_Crying_Eagle
	cost = 4.00
	allow_branch = { NOT = { has_country_flag = USA_WW3_Is_On } }
	available = {
		custom_trigger_tooltip = {
			tooltip = USA_not_in_crisis_tooltip
			NOT = { has_country_flag = USA_in_crisis }
		}
		if = {
			limit = { has_country_flag = USA_64_FR_NPP }
			has_completed_focus = USA_wal64_the_wallace_presidency
		}
	}
	cancel = {
		custom_trigger_tooltip = {
			tooltip = USA_in_crisis_tooltip
			has_country_flag = USA_in_crisis
		}
	}
	ai_will_do = {
		factor = 10
		modifier = {
			add = 100
			AND = {
			date > 1969.9.12
			OR = {
			has_country_flag = USA_64_C_NPP
			has_country_flag = USA_64_FR_NPP
					}
				}
			}
		modifier = {
			add = -100
			OR = {
			has_country_flag = USA_68_C_NPP
			has_country_flag = USA_68_FR_NPP
					}
				}
			}
	x = 0
	y = 0
	offset = {
		x = 38
		y = 12
		trigger = {
			OR = {
				has_country_flag = USA_64_C_NPP
				has_country_flag = USA_test_fp_tree_rfk
			}
			has_country_flag = USA_NPP_64_SAF_war
		}
	}
	offset = {
		x = 38
		y = 0
		trigger = {
			OR = {
				has_country_flag = USA_64_C_NPP
				has_country_flag = USA_test_fp_tree_rfk
			}
			NOT = { has_country_flag = USA_NPP_64_SAF_war }
		}
	}
	offset = {
		x = 56
		y = 12
		trigger = {
			OR = {
				has_country_flag = USA_64_FR_NPP
				has_country_flag = USA_test_fp_tree_wal
			}
			has_country_flag = USA_NPP_64_SAF_war
		}
	}
	offset = {
		x = 56
		y = 0
		trigger = {
			OR = {
				has_country_flag = USA_64_FR_NPP
				has_country_flag = USA_test_fp_tree_wal
			}
			NOT = { has_country_flag = USA_NPP_64_SAF_war }
		}
	}
	offset = {
		x = 30
		y = 0
		trigger = {
			OR = {
				has_country_flag = USA_68_C_NPP
				has_country_flag = USA_test_fp_tree_har
			}
		}
	}
	offset = {
		x = 34
		y = 1
		trigger = {
			OR = {
				has_country_flag = USA_68_FR_NPP
				has_country_flag = USA_test_fp_tree_mcs
			}
		}
	}
	offset = {
		x = 34
		y = 1
		trigger = {
			OR = {
				has_country_flag = USA_LEMAY
				has_country_flag = USA_test_fp_tree_wal
			}
		}
	}
	offset = {
		x = 30
		y = 1
		trigger = {
			OR = {
				has_country_flag = USA_THURMOND_FR_NPP
				has_country_flag = USA_test_fp_tree_rfk
			}
		}
	}
	completion_reward = {
		###add event or something here gives pp i dunno?-BT09
		log = "[GetDateText]: [Root.GetName]: Focus USA_Fighting_Tyranny_Since_1776"
		add_war_support = 0.02
		country_event = { id = npp_fp.1 days = 1 }
		set_variable = { USA_NPP_FP_Decision_Counter = 0 }
		if = {
			limit = {
				has_country_leader = {
					name = "George Wallace"
					ruling_only = yes
				}
			}
		}
	}
}
# Domestic Preparedness Portion # Claude's work
shared_focus = {
	id = USA_Domestic_Preparedness
	icon = GFX_USA_For_the_Good_of_the_Party
	cost = 3
	prerequisite = {
		focus = USA_Fighting_Tyranny_Since_1776
	}
	available = {
		custom_trigger_tooltip = {
			tooltip = USA_not_in_crisis_tooltip
			NOT = { has_country_flag = USA_in_crisis }
		}
	}
	ai_will_do = {
		factor = 10
		modifier = {
			add = 100
			AND = {
				date > 1969.9.12
				OR = {
					has_country_flag = USA_64_C_NPP
					has_country_flag = USA_64_FR_NPP
				}
			}
		}
		modifier = {
			add = -100
			AND = {
				date > 1969.9.12
				OR = {
					has_country_flag = USA_68_C_NPP
					has_country_flag = USA_68_FR_NPP
				}
			}
		}
	}
	relative_position_id = USA_Fighting_Tyranny_Since_1776
	x = -6
	y = 1
	completion_reward = {
		###dunno what to add here- BT09
		log = "[GetDateText]: [Root.GetName]: Focus USA_Domestic_Preparedness"
		custom_effect_tooltip = NPP_Domestic_Prep_tooltip
		country_event = { id = npp_fp.31 days = 1 }
	}
}

### the pp for some of these is just a placeholder-BT09
shared_focus = {
	id = USA_Feed_The_Beast
	icon = GFX_Generic_Industry
	cost = 4.00
	prerequisite = {
		focus = USA_Domestic_Preparedness
	}
	available = {
		custom_trigger_tooltip = {
			tooltip = USA_not_in_crisis_tooltip
			NOT = { has_country_flag = USA_in_crisis }
		}
	}
	ai_will_do = {
		factor = 10
		modifier = {
			add = 100
			AND = {
				date > 1969.9.12
					OR = {
						has_country_flag = USA_64_C_NPP
						has_country_flag = USA_64_FR_NPP
					}
				}
			}
		modifier = {
			add = -100
			AND = {
				date > 1969.9.12
				OR = {
					has_country_flag = USA_68_C_NPP
					has_country_flag = USA_68_FR_NPP
				}
			}
		}
	}
	relative_position_id = USA_Domestic_Preparedness
	x = -4
	y = 1
	completion_reward = {
		add_political_power = 25
		log = "[GetDateText]: [Root.GetName]: Focus USA_Feed_The_Beast"
		set_variable = { NPP_built_factories = 0 }
		custom_effect_tooltip = USA_NPP_Build_Military_Factories.tt
	}
}

shared_focus = {
	id = USA_Pump_The_Gas
	icon = GFX_usa_jet_fighter_plane
	cost = 4.00
	prerequisite = {
		focus = USA_Feed_The_Beast
	}
	available = {
		custom_trigger_tooltip = {
			tooltip = USA_not_in_crisis_tooltip
			NOT = { has_country_flag = USA_in_crisis }
		}
	}
	ai_will_do = {
		factor = 10
		modifier = {
			add = 100
			AND = {
				date > 1969.9.12
				OR = {
					has_country_flag = USA_64_C_NPP
					has_country_flag = USA_64_FR_NPP
				}
			}
		}
		modifier = {
			add = -100
			AND = {
				date > 1969.9.12
				OR = {
					has_country_flag = USA_68_C_NPP
					has_country_flag = USA_68_FR_NPP
				}
			}
		}
	}
	relative_position_id = USA_Feed_The_Beast
	x = 1
	y = 1
	completion_reward = {
		set_variable = { NPP_fuel_gained = 0 }
		set_variable = { NPP_flight = 0 }
		custom_effect_tooltip = USA_Pump_The_Gas.tt
		random_owned_controlled_state = {
			limit = {
				is_core_of = ROOT
				free_building_slots = {
					building = arms_factory
					size > 1
					include_locked = yes
				}
			}
			add_extra_state_shared_building_slots = 1
			add_building_construction = {
				type = arms_factory
				level = 2
				instant_build = yes
			}
		}
		log = "[GetDateText]: [Root.GetName]: Focus USA_Pump_The_Gas"
	}
}

shared_focus = {
	id = USA_Eyes_On_The_Ports
	icon = GFX_MZB_cctv
	cost = 3
	prerequisite = {
		focus = USA_Feed_The_Beast
		focus = USA_Fire_Up_The_People
	}
	available = {
		custom_trigger_tooltip = {
			tooltip = USA_not_in_crisis_tooltip
			NOT = { has_country_flag = USA_in_crisis }
		}
	}
	relative_position_id = USA_Domestic_Preparedness
	x = 0
	y = 2
	completion_reward = {
		log = "[GetDateText]: [Root.GetName]: Focus USA_Eyes_On_The_Ports"
		add_timed_idea = {
			idea = USA_NPP_FP_extra_observation
			days = 730
		}
		if = {
			limit = {
				has_country_leader = {
					name = "George Wallace"
					ruling_only = yes
				}
			}
		}
	}
}

shared_focus = {
	id = USA_Fort_Alcatraz
	icon = GFX_USA_Fort_Alcatraz
	cost = 3
	prerequisite = {
		focus = USA_Eyes_On_The_Ports
	}
	available = {
		custom_trigger_tooltip = {
			tooltip = USA_not_in_crisis_tooltip
			NOT = { has_country_flag = USA_in_crisis }
		}
	}
	relative_position_id = USA_Eyes_On_The_Ports
	x = -1
	y = 1
	completion_reward = {
		log = "[GetDateText]: [Root.GetName]: Focus USA_Fort_Alcatraz"
		378 = {
			add_building_construction = {
				type = coastal_bunker
				province = 677
				level = 3
				instant_build = yes
			}
			add_building_construction = {
				type = bunker
				province = 677
				level = 3
				instant_build = yes
			}
		}
	}
}

shared_focus = {
	id = USA_Battleship_Diplomacy
	icon = GFX_GER_Recognize_Pacific_Claims
	cost = 3
	prerequisite = {
		focus = USA_Eyes_On_The_Ports
	}
	available = {
		custom_trigger_tooltip = {
			tooltip = USA_not_in_crisis_tooltip
			NOT = { has_country_flag = USA_in_crisis }
		}
	}
	relative_position_id = USA_Eyes_On_The_Ports
	x = 1
	y = 1
	completion_reward = {
		log = "[GetDateText]: [Root.GetName]: Focus USA_Battleship_Diplomacy"
		add_timed_idea = {
			idea = USA_NPP_FP_bb_diplomacy
			days = 1080
		}
	}
}

###add event about knowing everything about the ports, including Japanese comms?
shared_focus = {
	id = USA_See_All_Hear_All
	icon = GFX_USA_empire
	cost = 3
	prerequisite = {
		focus = USA_Fort_Alcatraz
	}
	prerequisite = {
		focus = USA_Battleship_Diplomacy
	}
	available = {
		custom_trigger_tooltip = {
			tooltip = USA_not_in_crisis_tooltip
			NOT = { has_country_flag = USA_in_crisis }
		}
	}
	relative_position_id = USA_Fort_Alcatraz
	x = 1
	y = 1
	completion_reward = {
		log = "[GetDateText]: [Root.GetName]: Focus USA_See_All_Hear_All"
		add_political_power = 10
		378 =  {
			add_building_construction = {
				type = bunker
				province = 677
				level = 2
				instant_build = yes
			}
		}
		990 = {
			add_building_construction = {
				type = bunker
				province = 9814
				level = 2
				instant_build = yes
			}
		}
		country_event = { id = npp_fp.36 days = 1 }
	}
}

shared_focus = {
	id = USA_Cogs_In_The_Machine
	icon = GFX_YUN_The_War_Machine
	cost = 4.00
	prerequisite = {
		focus = USA_Feed_The_Beast
	}
	available = {
		custom_trigger_tooltip = {
			tooltip = USA_not_in_crisis_tooltip
			NOT = { has_country_flag = USA_in_crisis }
		}
	}
	relative_position_id = USA_Feed_The_Beast
	x = -1
	y = 1
	completion_reward = {
		add_timed_idea = {
			idea = USA_NPP_FP_spinning_cogs
			days = 730
		}
		log = "[GetDateText]: [Root.GetName]: Focus USA_Cogs_In_The_Machine"
	}
}

shared_focus = {
	id = USA_Rosie_The_Rifleman
	icon = GFX_Respect_women_focus_2
	cost = 4.00
	prerequisite = {
		focus = USA_Cogs_In_The_Machine
	}
	prerequisite = {
		focus = USA_Pump_The_Gas
	}
	available = {
		custom_trigger_tooltip = {
			tooltip = USA_not_in_crisis_tooltip
			NOT = { has_country_flag = USA_in_crisis }
		}
	}
	relative_position_id = USA_Cogs_In_The_Machine
	x = 1
	y = 1
	select_effect = { NPP_Rosie_Rifleman = yes }
	completion_reward = {
		log = "[GetDateText]: [Root.GetName]: Focus USA_Rosie_The_Rifleman"
		custom_effect_tooltip = USA_ww3_emergency_naval_procurement_act_tooltip
		hidden_effect = {
			country_event = { id = npp_fp.35 }
		}
		if = {
			limit = {
				has_country_leader = {
					name = "George Wallace"
					ruling_only = yes
				}
			}
		}
	}
}

shared_focus = {
	id = USA_Fund_The_Skunkworks
	icon = GFX_JAP_Mediate_a_Research_Agreement
	cost = 4.00
	prerequisite = {
		focus = USA_Rosie_The_Rifleman
	}
	available = {
		custom_trigger_tooltip = {
			tooltip = USA_not_in_crisis_tooltip
			NOT = { has_country_flag = USA_in_crisis }
		}
	}
	relative_position_id = USA_Rosie_The_Rifleman
	x = 0
	y = 1
	completion_reward = {
		custom_effect_tooltip = USA_Fund_The_Skunkworks.tt
		log = "[GetDateText]: [Root.GetName]: Focus USA_Fund_The_Skunkworks"
	}
}

shared_focus = {
	id = USA_Ready_For_Battle
	icon = GFX_RAJ_The_Army
	cost = 4.00
	prerequisite = {
		focus = USA_Fund_The_Skunkworks
	}
	available = {
		custom_trigger_tooltip = {
			tooltip = USA_not_in_crisis_tooltip
			NOT = { has_country_flag = USA_in_crisis }
		}
	}
	relative_position_id = USA_Fund_The_Skunkworks
	x = 0
	y = 1
	completion_reward = {
		add_political_power = 40
		log = "[GetDateText]: [Root.GetName]: Focus USA_Ready_For_Battle"
	}
}

shared_focus = {
	id = USA_Fire_Up_The_People
	icon = GFX_GER_The_Peoples_coup
	cost = 4.00
	prerequisite = {
		focus = USA_Domestic_Preparedness
	}
	available = {
		custom_trigger_tooltip = {
			tooltip = USA_not_in_crisis_tooltip
			NOT = { has_country_flag = USA_in_crisis }
		}
	}
	relative_position_id = USA_Domestic_Preparedness
	x = 4
	y = 1
	completion_reward = {
		log = "[GetDateText]: [Root.GetName]: Focus USA_Fire_Up_The_People"
		add_timed_idea = {
			idea = USA_64_NPP_fire_up_the_people
			days = 730
		}
		country_event = { id = npp_fp.32 days = 1 }
	}
}

shared_focus = {
	id = USA_Community_Action
	icon = GFX_USA_A_Great_Society
	cost = 4.00
	prerequisite = {
		focus = USA_Fire_Up_The_People
	}
	available = {
		custom_trigger_tooltip = {
			tooltip = USA_not_in_crisis_tooltip
			NOT = { has_country_flag = USA_in_crisis }
		}
	}
	ai_will_do = {
		factor = 10
		modifier = {
			add = 100
			AND = {
				date > 1969.9.12
				OR = {
				has_country_flag = USA_64_C_NPP
				has_country_flag = USA_64_FR_NPP
				}
			}
		}
		modifier = {
			add = -100
			AND = {
				date > 1969.9.12
				OR = {
					has_country_flag = USA_68_C_NPP
					has_country_flag = USA_68_FR_NPP
				}
			}
		}
	}
	relative_position_id = USA_Fire_Up_The_People
	x = 0
	y = 1
	completion_reward = {
		custom_effect_tooltip = NPP_Community_action
		log = "[GetDateText]: [Root.GetName]: Focus USA_Community_Action"

	}
}

shared_focus = {
	id = USA_We_Fight_For_America
	icon = GFX_USA_Retake_Our_Land
	cost = 4.00
	prerequisite = {
		focus = USA_Community_Action
	}
	available = {
		custom_trigger_tooltip = {
			tooltip = USA_not_in_crisis_tooltip
			NOT = { has_country_flag = USA_in_crisis }
		}
	}
	relative_position_id = USA_Community_Action
	x = 0
	y = 1
	completion_reward = {
		log = "[GetDateText]: [Root.GetName]: Focus USA_We_Fight_For_America"
		custom_effect_tooltip = NPP_Fighting_For_America
	}
}

shared_focus = {
	id = USA_Aggressive_Recruitment_Methods
	icon = GFX_General_Recruitment
	cost = 4.00
	prerequisite = {
		focus = USA_We_Fight_For_America
	}
	available = {
		custom_trigger_tooltip = {
			tooltip = USA_not_in_crisis_tooltip
			NOT = { has_country_flag = USA_in_crisis }
		}
	}
	relative_position_id = USA_We_Fight_For_America
	x = -1
	y = 1
	completion_reward = {
	custom_effect_tooltip = NPP_Aggressive_Recruiting_Methods_tt
		log = "[GetDateText]: [Root.GetName]: Focus USA_Aggressive_Recruitment_Methods"
	}
}

shared_focus = {
	id = USA_Crank_Up_The_Draft
	icon = GFX_USA_Bring_Back_Our_Boys
	cost = 4.00
	prerequisite = {
		focus = USA_We_Fight_For_America
	}
	available = {
		custom_trigger_tooltip = {
			tooltip = USA_not_in_crisis_tooltip
			NOT = { has_country_flag = USA_in_crisis }
		}
	}
	relative_position_id = USA_We_Fight_For_America
	x = 1
	y = 1
	select_effect = { NPP_Crank_Up_Draft = yes }
	completion_reward = {
		log = "[GetDateText]: [Root.GetName]: Focus USA_Crank_Up_The_Draft"
		custom_effect_tooltip = USA_general_bill_pass
		hidden_effect = {
			country_event = { id = npp_fp.34 }
		}
		if = {
			limit = {
				has_country_leader = {
					name = "George Wallace"
					ruling_only = yes
				}
			}
		}
	}
}

shared_focus = {
	id = USA_Ready_For_War
	icon = GFX_generic_tank_warfare
	cost = 4.00
	prerequisite = {
		focus = USA_Aggressive_Recruitment_Methods
	}
	prerequisite = {
		focus = USA_Crank_Up_The_Draft
	}
	available = {
		custom_trigger_tooltip = {
			tooltip = USA_not_in_crisis_tooltip
			NOT = { has_country_flag = USA_in_crisis }
		}
	}
	relative_position_id = USA_Aggressive_Recruitment_Methods
	x = 1
	y = 1
	completion_reward = {
		add_war_support = 0.05
		log = "[GetDateText]: [Root.GetName]: Focus USA_Ready_For_War"
		country_event = { id = npp_fp.33 }
		custom_effect_tooltip = NPP_Ready_for_War.tt
	}

}

shared_focus = {
	id = USA_On_To_Tokyo
	icon = GFX_JAP_Hull_Accords
	cost = 5
	prerequisite = {
		focus = USA_Ready_For_Battle
		focus = USA_Ready_For_War
	}
	prerequisite = {
		focus = USA_See_All_Hear_All
	}
	available = {
		custom_trigger_tooltip = {
			tooltip = USA_not_in_crisis_tooltip
			NOT = { has_country_flag = USA_in_crisis }
		}
	}
	relative_position_id = USA_See_All_Hear_All
	x = 0
	y = 2
	completion_reward = {
		log = "[GetDateText]: [Root.GetName]: Focus USA_On_To_Tokyo"
		custom_effect_tooltip = USA_NPP_ON_TO_TOKYO_BITCHES
		country_event = { id = honolulu_accords.1 days = 7 }
		if = {
			limit = {
				has_country_leader = {
					name = "George Wallace"
					ruling_only = yes
				}
			}
		}
	}
}
# Brothers In Arms Tree # left side for Claude and right side for Senjue
shared_focus = {
	id = USA_Brothers_In_Arms
	icon = GFX_SCO_Scotland_In_The_OFN
	cost = 3.00
	prerequisite = {
		focus = USA_Fighting_Tyranny_Since_1776
	}
	available = {
		custom_trigger_tooltip = {
			tooltip = USA_not_in_crisis_tooltip
			NOT = { has_country_flag = USA_in_crisis }
		}
	}
	ai_will_do = {
		factor = 10
		modifier = {
			add = 100
			AND = {
				date > 1969.9.12
				OR = {
					has_country_flag = USA_64_C_NPP
					has_country_flag = USA_64_FR_NPP
				}
			}
		}
		modifier = {
			add = -100
			AND = {
				date > 1969.9.12
				OR = {
					has_country_flag = USA_68_C_NPP
					has_country_flag = USA_68_FR_NPP
				}
			}
		}
	}
	relative_position_id = USA_Fighting_Tyranny_Since_1776
	x = 6
	y = 1
	completion_reward = {
		log = "[GetDateText]: [Root.GetName]: Focus USA_Brothers_In_Arms"
		country_event = { id = npp_fp.3 days = 1 }
		unlock_decision_category_tooltip = NPP_FP_invest_in_allies_category
	}
}

shared_focus = {
	id = USA_Down_Under
	icon = GFX_AST_Advance_Australia_Fair
	cost = 3.00
	prerequisite = {
		focus = USA_Brothers_In_Arms
	}
	available = {
		custom_trigger_tooltip = {
			tooltip = USA_not_in_crisis_tooltip
			NOT = { has_country_flag = USA_in_crisis }
		}
	}
	ai_will_do = {
		factor = 10
		modifier = {
			add = 100
			AND = {
				date > 1969.9.12
				OR = {
					has_country_flag = USA_64_C_NPP
					has_country_flag = USA_64_FR_NPP
				}
			}
		}
		modifier = {
			add = -100
			AND = {
				date > 1969.9.12
				OR = {
					has_country_flag = USA_68_C_NPP
					has_country_flag = USA_68_FR_NPP
				}
			}
		}
	}
	relative_position_id = USA_Brothers_In_Arms
	x = -3
	y = 1
	completion_reward = {
		###add some event about australia or something
		log = "[GetDateText]: [Root.GetName]: Focus USA_Down_Under"
		custom_effect_tooltip = USA_add_OFN_unity
		add_to_variable = { OFN_unity = 1 }
		country_event = { id = npp_fp.4 days = 1 }
		if = {
			limit = {
				has_country_leader = {
					name = "George Wallace"
					ruling_only = yes
				}
			}
		}
	}
}

shared_focus = {
	id = USA_The_Docks_Of_Darwin
	icon = GFX_SAF_air_and_naval_support
	cost = 3.00
	prerequisite = {
		focus = USA_Down_Under
	}
	available = {
		custom_trigger_tooltip = {
			tooltip = USA_not_in_crisis_tooltip
			NOT = { has_country_flag = USA_in_crisis }
		}
	}
	relative_position_id = USA_Down_Under
	x = -1
	y = 1
	completion_reward = {
		log = "[GetDateText]: [Root.GetName]: Focus USA_The_Docks_Of_Darwin"
		520 = {
			add_building_construction = {
				type = coastal_bunker
				province = 7669
				level = 2
				instant_build = yes
			}
			add_building_construction = {
				type = naval_base
				province = 7669
				level = 3
				instant_build = yes
			}
			add_building_construction = {
				type = infrastructure
				level = 1
				instant_build = yes
			}
		}
	}
}

shared_focus = {
	id = USA_The_Factories_Of_Sydney
	icon = GFX_USA_workers_for_business
	cost = 3.00
	prerequisite = {
		focus = USA_Down_Under
	}
	available = {
		custom_trigger_tooltip = {
			tooltip = USA_not_in_crisis_tooltip
			NOT = { has_country_flag = USA_in_crisis }
		}
	}
	relative_position_id = USA_Down_Under
	x = 1
	y = 1
	completion_reward = {
		log = "[GetDateText]: [Root.GetName]: Focus USA_The_Factories_Of_Sydney"
		285 = {
			add_building_construction = {
				type = arms_factory
				level = 1
				instant_build = yes
			}
		}
	}
}

shared_focus = {
	id = USA_Our_Third_Eye
	icon = GFX_Generic_Espionage
	cost = 3.00
	prerequisite = {
		focus = USA_The_Docks_Of_Darwin
	}
	prerequisite = {
		focus = USA_The_Factories_Of_Sydney
	}
	available = {
		custom_trigger_tooltip = {
			tooltip = USA_not_in_crisis_tooltip
			NOT = { has_country_flag = USA_in_crisis }
		}
	}
	relative_position_id = USA_The_Docks_Of_Darwin
	x = 1
	y = 1
	completion_reward = {
		log = "[GetDateText]: [Root.GetName]: Focus USA_Our_Third_Eye"
		AST = {
			add_timed_idea = {
				idea = USA_NPP_FP_american_decoders
				days = 365
			}
		}
	}
}

shared_focus = {
	id = USA_Fort_Australia
	icon = GFX_COG_Fortify_The_Border
	cost = 3.00
	prerequisite = {
		focus = USA_Our_Third_Eye
	}
	available = {
		custom_trigger_tooltip = {
			tooltip = USA_not_in_crisis_tooltip
			NOT = { has_country_flag = USA_in_crisis }
		}
	}
	relative_position_id = USA_Our_Third_Eye
	x = 0
	y = 1
	completion_reward = {
		log = "[GetDateText]: [Root.GetName]: Focus USA_Fort_Australia"
		AST = {
			add_timed_idea = {
				idea = USA_NPP_FP_bunker_builders
				days = 365
			}
		}
	}
}

shared_focus = {
	id = USA_The_OFN
	icon = GFX_AST_maintain_ofn
	cost = 3.00
	prerequisite = {
		focus = USA_Brothers_In_Arms
	}
	available = {
		custom_trigger_tooltip = {
			tooltip = USA_not_in_crisis_tooltip
			NOT = { has_country_flag = USA_in_crisis }
		}
	}
	relative_position_id = USA_Brothers_In_Arms
	x = 3
	y = 1
	ai_will_do = {
		factor = 10
		modifier = {
			add = 100
			AND = {
				date > 1969.9.12
				OR = {
					has_country_flag = USA_64_C_NPP
					has_country_flag = USA_64_FR_NPP
				}
			}
		}
		modifier = {
			add = -100
			AND = {
				date > 1969.9.12
				OR = {
					has_country_flag = USA_68_C_NPP
					has_country_flag = USA_68_FR_NPP
				}
			}
		}
	}
	completion_reward = {
		log = "[GetDateText]: [Root.GetName]: Focus USA_The_OFN"
		add_to_variable = { misc_costs = 125 }
		custom_effect_tooltip = USA_add_OFN_unity
		add_to_variable = { OFN_unity = 2 }
		every_country = {
			limit = { is_in_faction_with = USA }
			add_offsite_building = { type = industrial_complex level = 1}
		}
		custom_effect_tooltip = USA.nation.expenses.tt
		if = {
			limit = {
				has_country_leader = {
					name = "George Wallace"
					ruling_only = yes
				}
			}
		}
	}
}

shared_focus = {
	id = USA_Canada
	icon = GFX_SKN_Approach_Canada
	cost = 3.00
	prerequisite = {
		focus = USA_The_OFN
	}
	available = {
		custom_trigger_tooltip = {
			tooltip = USA_not_in_crisis_tooltip
			NOT = { has_country_flag = USA_in_crisis }
		}
	}
	relative_position_id = USA_The_OFN
	x = 0
	y = 1
	completion_reward = {
		log = "[GetDateText]: [Root.GetName]: Focus USA_Canada"
		CAN = {
			add_offsite_building = { type = arms_factory level = 2}
			add_offsite_building = { type = industrial_complex level = 1}
			multiply_variable = { GDP = 1.02 }
		}
		USA = {
			multiply_variable = {GDP = 0.99 }
		}
		custom_effect_tooltip = USA.aiding.nations.tt
	}
}
shared_focus = {
	id = USA_Guyana
	icon = GFX_USA_Our_New_Friend
	cost = 3.00
	prerequisite = {
		focus = USA_Canada
	}
	bypass = {
		NOT = { is_in_faction_with = GUY }
	}
	available = {
		custom_trigger_tooltip = {
			tooltip = USA_not_in_crisis_tooltip
			NOT = { has_country_flag = USA_in_crisis }
		}
	}
	relative_position_id = USA_Canada
	x = 1
	y = 1
	completion_reward = {
		log = "[GetDateText]: [Root.GetName]: Focus USA_Guyana"
		GUY = {
			add_offsite_building = { type = arms_factory level = 1 }
			add_offsite_building = { type = industrial_complex level = 2 }
			multiply_variable = {GDP = 1.02}
		}
		USA = {
			multiply_variable = {GDP = 0.99}
		}
		custom_effect_tooltip = USA.aiding.nations.tt
	}
}

shared_focus = {
	id = USA_New_Zealand
	icon = GFX_USA_Our_Old_Ally
	cost = 3.00
	prerequisite = {
		focus = USA_Canada
	}
	available = {
		custom_trigger_tooltip = {
			tooltip = USA_not_in_crisis_tooltip
			NOT = { has_country_flag = USA_in_crisis }
		}
	}
	relative_position_id =USA_Canada
	x = -1
	y = 1
	completion_reward = {
		log = "[GetDateText]: [Root.GetName]: Focus USA_New_Zealand"
		NZL = {
		add_offsite_building = { type = arms_factory level= 1 }
		add_offsite_building = { type = industrial_complex level = 2 }
		}
		USA = {
			multiply_variable = {GDP = 0.99}
		}
		custom_effect_tooltip = USA.aiding.nations.tt
	}
}

shared_focus = {
	id = USA_Semper_Liber
	icon = GFX_generic_liberty
	cost = 3.00
	prerequisite = {
		focus = USA_New_Zealand
	}
	prerequisite = {
		focus = USA_Guyana
	}
	available = {
		custom_trigger_tooltip = {
			tooltip = USA_not_in_crisis_tooltip
			NOT = { has_country_flag = USA_in_crisis }
		}
	}
	relative_position_id = USA_Guyana
	x = -1
	y = 1
	completion_reward = {
		log = "[GetDateText]: [Root.GetName]: Focus USA_Semper_Liber"
		custom_effect_tooltip = USA_add_OFN_unity
		add_to_variable = { OFN_unity = 1 }
		add_timed_idea = {
			idea = NPP_FP_semper_liber
			days = 730
		}
	}
}

shared_focus = {
	id = USA_United_And_Ready
	icon = GFX_USA_Praise_The_OFN
	cost = 3.00
	prerequisite = {
		focus = USA_Fort_Australia
	}
	prerequisite = {
		focus = USA_Semper_Liber
	}
	available = {
		custom_trigger_tooltip = {
			tooltip = USA_not_in_crisis_tooltip
			NOT = { has_country_flag = USA_in_crisis }
		}
	}
	relative_position_id = USA_Semper_Liber
	x = -3
	y = 1
	completion_reward = {
		log = "[GetDateText]: [Root.GetName]: Focus USA_United_And_Ready"
		every_country = {
			limit = { is_in_faction_with = USA }
			add_war_support = 0.03
			add_stability = 0.03
		}
		add_to_variable = { OFN_Unity = 1 }
		custom_effect_tooltip = USA_add_OFN_unity
		custom_effect_tooltip = NPP_FP_united_and_ready
		if = {
			limit = {
				has_country_leader = {
					name = "George Wallace"
					ruling_only = yes
				}
			}
		}
	}
}
