# Allows you to create your own dynamic keys
# to be called in localization.
# defined_text -> this is it, we're defining the text
# text -> a discrete entry that can be picked to display in loc.
# trigger -> determines if a text entry will be picked or not.
# (The triggers need to be valid for the scope the key is called in
# (eg Root or From.From).)
# localization_key -> points to the localization key
# that'll be used if trigger passes

defined_text = {
	name = GetNationality
	text = { # No Culture
		trigger = {
			check_variable = { nationality = 0 }
		}
		localization_key = var_nationality_0
	}

	text = {
		trigger = {
			check_variable = { nationality = 1 }
		}
		localization_key = var_nationality_1
	}

	text = {
		trigger = {
			check_variable = { nationality = 2 }
		}
		localization_key = var_nationality_2
	}

	text = {
		trigger = {
			check_variable = { nationality = 3 }
		}
		localization_key = var_nationality_3
	}

	text = {
		trigger = {
			check_variable = { nationality = 4 }
		}
		localization_key = var_nationality_4
	}

	text = {
		trigger = {
			check_variable = { nationality = 5 }
		}
		localization_key = var_nationality_5
	}

	text = {
		trigger = {
			check_variable = { nationality = 6 }
		}
		localization_key = var_nationality_6
	}

	text = {
		trigger = {
			check_variable = { nationality = 7 }
		}
		localization_key = var_nationality_7
	}

	text = {
		trigger = {
			check_variable = { nationality = 8 }
		}
		localization_key = var_nationality_8
	}

	text = {
		trigger = {
			check_variable = { nationality = 9 }
		}
		localization_key = var_nationality_9
	}

	text = {
		trigger = {
			check_variable = { nationality = 10 }
		}
		localization_key = var_nationality_10
	}

	text = {
		trigger = {
			check_variable = { nationality = 11 }
		}
		localization_key = var_nationality_11
	}

	text = {
		trigger = {
			check_variable = { nationality = 12 }
		}
		localization_key = var_nationality_12
	}

	text = {
		trigger = {
			check_variable = { nationality = 13 }
		}
		localization_key = var_nationality_13
	}

	text = {
		trigger = {
			check_variable = { nationality = 14 }
		}
		localization_key = var_nationality_14
	}

	text = {
		trigger = {
			check_variable = { nationality = 15 }
		}
		localization_key = var_nationality_15
	}

	text = {
		trigger = {
			check_variable = { nationality = 16 }
		}
		localization_key = var_nationality_16
	}

	text = {
		trigger = {
			check_variable = { nationality = 17 }
		}
		localization_key = var_nationality_17
	}

	text = {
		trigger = {
			check_variable = { nationality = 18 }
		}
		localization_key = var_nationality_18
	}

	text = {
		trigger = {
			check_variable = { nationality = 19 }
		}
		localization_key = var_nationality_19
	}

	text = {
		trigger = {
			check_variable = { nationality = 20 }
		}
		localization_key = var_nationality_20
	}

	text = {
		trigger = {
			check_variable = { nationality = 21 }
		}
		localization_key = var_nationality_21
	}

	text = {
		trigger = {
			check_variable = { nationality = 22 }
		}
		localization_key = var_nationality_22
	}

	text = {
		trigger = {
			check_variable = { nationality = 23 }
		}
		localization_key = var_nationality_23
	}

	text = {
		trigger = {
			check_variable = { nationality = 24 }
		}
		localization_key = var_nationality_24
	}

	text = {
		trigger = {
			check_variable = { nationality = 25 }
		}
		localization_key = var_nationality_25
	}

	text = {
		trigger = {
			check_variable = { nationality = 26 }
		}
		localization_key = var_nationality_26
	}

	text = {
		trigger = {
			check_variable = { nationality = 27 }
		}
		localization_key = var_nationality_27
	}

	text = {
		trigger = {
			check_variable = { nationality = 28 }
		}
		localization_key = var_nationality_28
	}

	text = {
		trigger = {
			check_variable = { nationality = 29 }
		}
		localization_key = var_nationality_29
	}

	text = {
		trigger = {
			check_variable = { nationality = 30 }
		}
		localization_key = var_nationality_30
	}

	text = {
		trigger = {
			check_variable = { nationality = 31 }
		}
		localization_key = var_nationality_31
	}

	text = {
		trigger = {
			check_variable = { nationality = 32 }
		}
		localization_key = var_nationality_32
	}

	text = {
		trigger = {
			check_variable = { nationality = 33 }
		}
		localization_key = var_nationality_33
	}

	text = {
		trigger = {
			check_variable = { nationality = 34 }
		}
		localization_key = var_nationality_34
	}

	text = {
		trigger = {
			check_variable = { nationality = 35 }
		}
		localization_key = var_nationality_35
	}

	text = {
		trigger = {
			check_variable = { nationality = 36 }
		}
		localization_key = var_nationality_36
	}

	text = {
		trigger = {
			check_variable = { nationality = 37 }
		}
		localization_key = var_nationality_37
	}

	text = {
		trigger = {
			check_variable = { nationality = 38 }
		}
		localization_key = var_nationality_38
	}

	text = {
		trigger = {
			check_variable = { nationality = 39 }
		}
		localization_key = var_nationality_39
	}

	text = {
		trigger = {
			check_variable = { nationality = 40 }
		}
		localization_key = var_nationality_40
	}

	text = {
		trigger = {
			check_variable = { nationality = 41 }
		}
		localization_key = var_nationality_41
	}

	text = {
		trigger = {
			check_variable = { nationality = 42 }
		}
		localization_key = var_nationality_42
	}

	text = {
		trigger = {
			check_variable = { nationality = 43 }
		}
		localization_key = var_nationality_43
	}

	text = {
		trigger = {
			check_variable = { nationality = 44 }
		}
		localization_key = var_nationality_44
	}

	text = {
		trigger = {
			check_variable = { nationality = 45 }
		}
		localization_key = var_nationality_45
	}

	text = {
		trigger = {
			check_variable = { nationality = 46 }
		}
		localization_key = var_nationality_46
	}

	text = {
		trigger = {
			check_variable = { nationality = 47 }
		}
		localization_key = var_nationality_47
	}

	text = {
		trigger = {
			check_variable = { nationality = 48 }
		}
		localization_key = var_nationality_48
	}

	text = {
		trigger = {
			check_variable = { nationality = 49 }
		}
		localization_key = var_nationality_49
	}

	text = {
		trigger = {
			check_variable = { nationality = 50 }
		}
		localization_key = var_nationality_50
	}

	text = {
		trigger = {
			check_variable = { nationality = 51 }
		}
		localization_key = var_nationality_51
	}

	text = {
		trigger = {
			check_variable = { nationality = 52 }
		}
		localization_key = var_nationality_52
	}

	text = {
		trigger = {
			check_variable = { nationality = 53 }
		}
		localization_key = var_nationality_53
	}

	text = {
		trigger = {
			check_variable = { nationality = 54 }
		}
		localization_key = var_nationality_54
	}

	text = {
		trigger = {
			check_variable = { nationality = 55 }
		}
		localization_key = var_nationality_55
	}

	text = {
		trigger = {
			check_variable = { nationality = 56 }
		}
		localization_key = var_nationality_56
	}

	text = {
		trigger = {
			check_variable = { nationality = 57 }
		}
		localization_key = var_nationality_57
	}

	text = {
		trigger = {
			check_variable = { nationality = 58 }
		}
		localization_key = var_nationality_58
	}

	text = {
		trigger = {
			check_variable = { nationality = 59 }
		}
		localization_key = var_nationality_59
	}

	text = {
		trigger = {
			check_variable = { nationality = 60 }
		}
		localization_key = var_nationality_60
	}

	text = {
		trigger = {
			check_variable = { nationality = 61 }
		}
		localization_key = var_nationality_61
	}
	text = {
		trigger = {
			check_variable = { nationality = 62 }
		}
		localization_key = var_nationality_62
	}
	text = {
		trigger = {
			check_variable = { nationality = 63 }
		}
		localization_key = var_nationality_63
	}
	text = {
		trigger = {
			check_variable = { nationality = 64 }
		}
		localization_key = var_nationality_64
	}
	text = {
		trigger = {
			check_variable = { nationality = 65 }
		}
		localization_key = var_nationality_65
	}
	text = {
		trigger = {
			check_variable = { nationality = 66 }
		}
		localization_key = var_nationality_66
	}
	text = {
		trigger = {
			check_variable = { nationality = 67 }
		}
		localization_key = var_nationality_67
	}
	text = {
		trigger = {
			check_variable = { nationality = 68 }
		}
		localization_key = var_nationality_68
	}
	text = {
		trigger = {
			check_variable = { nationality = 69 }
		}
		localization_key = var_nationality_69
	}
	text = {
		trigger = {
			check_variable = { nationality = 70 }
		}
		localization_key = var_nationality_70
	}
	text = {
		trigger = {
			check_variable = { nationality = 71 }
		}
		localization_key = var_nationality_71
	}
	text = {
		trigger = {
			check_variable = { nationality = 72 }
		}
		localization_key = var_nationality_72
	}
	text = {
		trigger = {
			check_variable = { nationality = 73 }
		}
		localization_key = var_nationality_73
	}










	text = {
		trigger = {
			check_variable = { nationality = 62 }
		}
		localization_key = var_nationality_62
	}

	text = {
		trigger = {
			check_variable = { nationality = 63 }
		}
		localization_key = var_nationality_63
	}

	text = {
		trigger = {
			check_variable = { nationality = 64 }
		}
		localization_key = var_nationality_64
	}

	text = {
		trigger = {
			check_variable = { nationality = 65 }
		}
		localization_key = var_nationality_65
	}

	text = {
		trigger = {
			check_variable = { nationality = 66 }
		}
		localization_key = var_nationality_66
	}

	text = {
		trigger = {
			check_variable = { nationality = 67 }
		}
		localization_key = var_nationality_67
	}

	text = {
		trigger = {
			check_variable = { nationality = 68 }
		}
		localization_key = var_nationality_68
	}

	text = {
		trigger = {
			check_variable = { nationality = 69 }
		}
		localization_key = var_nationality_69
	}

	text = {
		trigger = {
			check_variable = { nationality = 70 }
		}
		localization_key = var_nationality_70
	}

	text = {
		trigger = {
			check_variable = { nationality = 71 }
		}
		localization_key = var_nationality_71
	}

	text = {
		trigger = {
			check_variable = { nationality = 72 }
		}
		localization_key = var_nationality_72
	}

	text = {
		trigger = {
			check_variable = { nationality = 73 }
		}
		localization_key = var_nationality_73
	}

	text = {
		trigger = {
			check_variable = { nationality = 74 }
		}
		localization_key = var_nationality_74
	}

	text = {
		trigger = {
			check_variable = { nationality = 75 }
		}
		localization_key = var_nationality_75
	}

	text = {
		trigger = {
			check_variable = { nationality = 76 }
		}
		localization_key = var_nationality_76
	}

	text = {
		trigger = {
			check_variable = { nationality = 77 }
		}
		localization_key = var_nationality_77
	}

	text = {
		trigger = {
			check_variable = { nationality = 78 }
		}
		localization_key = var_nationality_78
	}

	text = {
		trigger = {
			check_variable = { nationality = 79 }
		}
		localization_key = var_nationality_79
	}


	text = {
		trigger = {
			check_variable = { nationality = 80 }
		}
		localization_key = var_nationality_80
	}

	text = {
		trigger = {
			check_variable = { nationality = 81 }
		}
		localization_key = var_nationality_81
	}


	text = {
		trigger = {
			check_variable = { nationality = 82 }
		}
		localization_key = var_nationality_82
	}

	text = {
		trigger = {
			check_variable = { nationality = 83 }
		}
		localization_key = var_nationality_83
	}

	text = {
		trigger = {
			check_variable = { nationality = 84 }
		}
		localization_key = var_nationality_84
	}

	text = {
		trigger = {
			check_variable = { nationality = 85 }
		}
		localization_key = var_nationality_85
	}

	text = {
		trigger = {
			check_variable = { nationality = 86 }
		}
		localization_key = var_nationality_86
	}

	text = {
		trigger = {
			check_variable = { nationality = 87 }
		}
		localization_key = var_nationality_87
	}

	text = {
		trigger = {
			check_variable = { nationality = 88 }
		}
		localization_key = var_nationality_88
	}

	text = {
		trigger = {
			check_variable = { nationality = 337 }
		}
		localization_key = var_nationality_337
	}

	text = {
		trigger = {
			check_variable = { nationality = 89 }
		}
		localization_key = var_nationality_89
	}

	text = {
		trigger = {
			check_variable = { nationality = 90 }
		}
		localization_key = var_nationality_90
	}

	text = {
		trigger = {
			check_variable = { nationality = 91 }
		}
		localization_key = var_nationality_91
	}

	text = {
		trigger = {
			check_variable = { nationality = 92 }
		}
		localization_key = var_nationality_92
	}

	text = {
		trigger = {
			check_variable = { nationality = 93 }
		}
		localization_key = var_nationality_93
	}

	text = {
		trigger = {
			check_variable = { nationality = 94 }
		}
		localization_key = var_nationality_94
	}

	text = {
		trigger = {
			check_variable = { nationality = 95 }
		}
		localization_key = var_nationality_95
	}

	text = {
		trigger = {
			check_variable = { nationality = 96 }
		}
		localization_key = var_nationality_96
	}

	text = {
		trigger = {
			check_variable = { nationality = 97 }
		}
		localization_key = var_nationality_97
	}

	text = {
		trigger = {
			check_variable = { nationality = 98 }
		}
		localization_key = var_nationality_98
	}

	text = {
		trigger = {
			check_variable = { nationality = 99 }
		}
		localization_key = var_nationality_99
	}

	text = {
		trigger = {
			check_variable = { nationality = 100 }
		}
		localization_key = var_nationality_100
	}

	text = {
		trigger = {
			check_variable = { nationality = 101 }
		}
		localization_key = var_nationality_101
	}

	text = {
		trigger = {
			check_variable = { nationality = 102 }
		}
		localization_key = var_nationality_102
	}

	text = {
		trigger = {
			check_variable = { nationality = 103 }
		}
		localization_key = var_nationality_103
	}

	text = {
		trigger = {
			check_variable = { nationality = 104 }
		}
		localization_key = var_nationality_104
	}

	text = {
		trigger = {
			check_variable = { nationality = 105 }
		}
		localization_key = var_nationality_105
	}

	text = {
		trigger = {
			check_variable = { nationality = 106 }
		}
		localization_key = var_nationality_106
	}

	text = {
		trigger = {
			check_variable = { nationality = 107 }
		}
		localization_key = var_nationality_107
	}

	text = {
		trigger = {
			check_variable = { nationality = 108 }
		}
		localization_key = var_nationality_108
	}

	text = {
		trigger = {
			check_variable = { nationality = 109 }
		}
		localization_key = var_nationality_109
	}

	text = {
		trigger = {
			check_variable = { nationality = 110 }
		}
		localization_key = var_nationality_110
	}

	text = {
		trigger = {
			check_variable = { nationality = 111 }
		}
		localization_key = var_nationality_111
	}

	text = {
		trigger = {
			check_variable = { nationality = 112 }
		}
		localization_key = var_nationality_112
	}

	text = {
		trigger = {
			check_variable = { nationality = 113 }
		}
		localization_key = var_nationality_113
	}

	text = {
		trigger = {
			check_variable = { nationality = 114 }
		}
		localization_key = var_nationality_114
	}

	text = {
		trigger = {
			check_variable = { nationality = 115 }
		}
		localization_key = var_nationality_115
	}

	text = {
		trigger = {
			check_variable = { nationality = 116 }
		}
		localization_key = var_nationality_116
	}

	text = {
		trigger = {
			check_variable = { nationality = 117 }
		}
		localization_key = var_nationality_117
	}

	text = {
		trigger = {
			check_variable = { nationality = 118 }
		}
		localization_key = var_nationality_118
	}

	text = {
		trigger = {
			check_variable = { nationality = 119 }
		}
		localization_key = var_nationality_119
	}

	text = {
		trigger = {
			check_variable = { nationality = 120 }
		}
		localization_key = var_nationality_120
	}

	text = {
		trigger = {
			check_variable = { nationality = 121 }
		}
		localization_key = var_nationality_121
	}

	text = {
		trigger = {
			check_variable = { nationality = 122 }
		}
		localization_key = var_nationality_122
	}

	text = {
		trigger = {
			check_variable = { nationality = 123 }
		}
		localization_key = var_nationality_123
	}

	text = {
		trigger = {
			check_variable = { nationality = 124 }
		}
		localization_key = var_nationality_124
	}

	text = {
		trigger = {
			check_variable = { nationality = 125 }
		}
		localization_key = var_nationality_125
	}

	text = {
		trigger = {
			check_variable = { nationality = 126 }
		}
		localization_key = var_nationality_126
	}

	text = {
		trigger = {
			check_variable = { nationality = 127 }
		}
		localization_key = var_nationality_127
	}

	text = {
		trigger = {
			check_variable = { nationality = 129 }
		}
		localization_key = var_nationality_129
	}

	text = {
		trigger = {
			check_variable = { nationality = 130 }
		}
		localization_key = var_nationality_130
	}

	text = {
		trigger = {
			check_variable = { nationality = 131 }
		}
		localization_key = var_nationality_131
	}

	text = {
		trigger = {
			check_variable = { nationality = 132 }
		}
		localization_key = var_nationality_132
	}

	text = {
		trigger = {
			check_variable = { nationality = 133 }
		}
		localization_key = var_nationality_133
	}

	text = {
		trigger = {
			check_variable = { nationality = 134 }
		}
		localization_key = var_nationality_134
	}

	text = {
		trigger = {
			check_variable = { nationality = 135 }
		}
		localization_key = var_nationality_135
	}

	text = {
		trigger = {
			check_variable = { nationality = 136 }
		}
		localization_key = var_nationality_136
	}

	text = {
		trigger = {
			check_variable = { nationality = 137 }
		}
		localization_key = var_nationality_137
	}

	text = {
		trigger = {
			check_variable = { nationality = 138 }
		}
		localization_key = var_nationality_138
	}

	text = {
		trigger = {
			check_variable = { nationality = 139 }
		}
		localization_key = var_nationality_139
	}

	text = {
		trigger = {
			check_variable = { nationality = 140 }
		}
		localization_key = var_nationality_140
	}

	text = {
		trigger = {
			check_variable = { nationality = 141 }
		}
		localization_key = var_nationality_141
	}

	text = {
		trigger = {
			check_variable = { nationality = 142 }
		}
		localization_key = var_nationality_142
	}

	text = {
		trigger = {
			check_variable = { nationality = 143 }
		}
		localization_key = var_nationality_143
	}

	text = {
		trigger = {
			check_variable = { nationality = 144 }
		}
		localization_key = var_nationality_144
	}

	text = {
		trigger = {
			check_variable = { nationality = 145 }
		}
		localization_key = var_nationality_145
	}

	text = {
		trigger = {
			check_variable = { nationality = 146 }
		}
		localization_key = var_nationality_146
	}

	text = {
		trigger = {
			check_variable = { nationality = 147 }
		}
		localization_key = var_nationality_147
	}

	text = {
		trigger = {
			check_variable = { nationality = 148 }
		}
		localization_key = var_nationality_148
	}

	text = {
		trigger = {
			check_variable = { nationality = 149 }
		}
		localization_key = var_nationality_149
	}

	text = {
		trigger = {
			check_variable = { nationality = 150 }
		}
		localization_key = var_nationality_150
	}

	text = {
		trigger = {
			check_variable = { nationality = 151 }
		}
		localization_key = var_nationality_151
	}

	text = {
		trigger = {
			check_variable = { nationality = 152 }
		}
		localization_key = var_nationality_152
	}

	text = {
		trigger = {
			check_variable = { nationality = 153 }
		}
		localization_key = var_nationality_153
	}

	text = {
		trigger = {
			check_variable = { nationality = 154 }
		}
		localization_key = var_nationality_154
	}

	text = {
		trigger = {
			check_variable = { nationality = 155 }
		}
		localization_key = var_nationality_155
	}

	text = {
		trigger = {
			check_variable = { nationality = 156 }
		}
		localization_key = var_nationality_156
	}

	text = {
		trigger = {
			check_variable = { nationality = 157 }
		}
		localization_key = var_nationality_157
	}

	text = {
		trigger = {
			check_variable = { nationality = 158 }
		}
		localization_key = var_nationality_158
	}

	text = {
		trigger = {
			check_variable = { nationality = 159 }
		}
		localization_key = var_nationality_159
	}

	text = {
		trigger = {
			check_variable = { nationality = 160 }
		}
		localization_key = var_nationality_160
	}

	text = {
		trigger = {
			check_variable = { nationality = 161 }
		}
		localization_key = var_nationality_161
	}

	text = {
		trigger = {
			check_variable = { nationality = 162 }
		}
		localization_key = var_nationality_162
	}

	text = {
		trigger = {
			check_variable = { nationality = 163 }
		}
		localization_key = var_nationality_163
	}

	text = {
		trigger = {
			check_variable = { nationality = 164 }
		}
		localization_key = var_nationality_164
	}

	text = {
		trigger = {
			check_variable = { nationality = 165 }
		}
		localization_key = var_nationality_165
	}

	text = {
		trigger = {
			check_variable = { nationality = 166 }
		}
		localization_key = var_nationality_166
	}

	text = {
		trigger = {
			check_variable = { nationality = 167 }
		}
		localization_key = var_nationality_167
	}

	text = {
		trigger = {
			check_variable = { nationality = 168 }
		}
		localization_key = var_nationality_168
	}

	text = {
		trigger = {
			check_variable = { nationality = 169 }
		}
		localization_key = var_nationality_169
	}

	text = {
		trigger = {
			check_variable = { nationality = 170 }
		}
		localization_key = var_nationality_170
	}

	text = {
		trigger = {
			check_variable = { nationality = 171 }
		}
		localization_key = var_nationality_171
	}

	text = {
		trigger = {
			check_variable = { nationality = 172 }
		}
		localization_key = var_nationality_172
	}

	text = {
		trigger = {
			check_variable = { nationality = 173 }
		}
		localization_key = var_nationality_173
	}

	text = {
		trigger = {
			check_variable = { nationality = 174 }
		}
		localization_key = var_nationality_174
	}

	text = {
		trigger = {
			check_variable = { nationality = 175 }
		}
		localization_key = var_nationality_175
	}

	text = {
		trigger = {
			check_variable = { nationality = 176 }
		}
		localization_key = var_nationality_176
	}

	text = {
		trigger = {
			check_variable = { nationality = 177 }
		}
		localization_key = var_nationality_177
	}

	text = {
		trigger = {
			check_variable = { nationality = 178 }
		}
		localization_key = var_nationality_178
	}

	text = {
		trigger = {
			check_variable = { nationality = 179 }
		}
		localization_key = var_nationality_179
	}

	text = {
		trigger = {
			check_variable = { nationality = 180 }
		}
		localization_key = var_nationality_180
	}

	text = {
		trigger = {
			check_variable = { nationality = 181 }
		}
		localization_key = var_nationality_181
	}

	text = {
		trigger = {
			check_variable = { nationality = 182 }
		}
		localization_key = var_nationality_182
	}

	text = {
		trigger = {
			check_variable = { nationality = 183 }
		}
		localization_key = var_nationality_183
	}

	text = {
		trigger = {
			check_variable = { nationality = 184 }
		}
		localization_key = var_nationality_184
	}

	text = {
		trigger = {
			check_variable = { nationality = 185 }
		}
		localization_key = var_nationality_185
	}

	text = {
		trigger = {
			check_variable = { nationality = 186 }
		}
		localization_key = var_nationality_186
	}

	text = {
		trigger = {
			check_variable = { nationality = 187 }
		}
		localization_key = var_nationality_187
	}

	text = {
		trigger = {
			check_variable = { nationality = 188 }
		}
		localization_key = var_nationality_188
	}

	text = {
		trigger = {
			check_variable = { nationality = 189 }
		}
		localization_key = var_nationality_189
	}

	text = {
		trigger = {
			check_variable = { nationality = 190 }
		}
		localization_key = var_nationality_190
	}

	text = {
		trigger = {
			check_variable = { nationality = 191 }
		}
		localization_key = var_nationality_191
	}

	text = {
		trigger = {
			check_variable = { nationality = 192 }
		}
		localization_key = var_nationality_192
	}

	text = {
		trigger = {
			check_variable = { nationality = 193 }
		}
		localization_key = var_nationality_193
	}

	text = {
		trigger = {
			check_variable = { nationality = 194 }
		}
		localization_key = var_nationality_194
	}

	text = {
		trigger = {
			check_variable = { nationality = 195 }
		}
		localization_key = var_nationality_195
	}

	text = {
		trigger = {
			check_variable = { nationality = 196 }
		}
		localization_key = var_nationality_196
	}

	text = {
		trigger = {
			check_variable = { nationality = 197 }
		}
		localization_key = var_nationality_197
	}

	text = {
		trigger = {
			check_variable = { nationality = 198 }
		}
		localization_key = var_nationality_198
	}

	text = {
		trigger = {
			check_variable = { nationality = 199 }
		}
		localization_key = var_nationality_199
	}

	text = {
		trigger = {
			check_variable = { nationality = 200 }
		}
		localization_key = var_nationality_200
	}

	text = {
		trigger = {
			check_variable = { nationality = 201 }
		}
		localization_key = var_nationality_201
	}

	text = {
		trigger = {
			check_variable = { nationality = 202 }
		}
		localization_key = var_nationality_202
	}

	text = {
		trigger = {
			check_variable = { nationality = 203 }
		}
		localization_key = var_nationality_203
	}

	text = {
		trigger = {
			check_variable = { nationality = 204 }
		}
		localization_key = var_nationality_204
	}

	text = {
		trigger = {
			check_variable = { nationality = 205 }
		}
		localization_key = var_nationality_205
	}

	text = {
		trigger = {
			check_variable = { nationality = 206 }
		}
		localization_key = var_nationality_206
	}

	text = {
		trigger = {
			check_variable = { nationality = 207 }
		}
		localization_key = var_nationality_207
	}

	text = {
		trigger = {
			check_variable = { nationality = 208 }
		}
		localization_key = var_nationality_208
	}

	text = {
		trigger = {
			check_variable = { nationality = 209 }
		}
		localization_key = var_nationality_209
	}

	text = {
		trigger = {
			check_variable = { nationality = 210 }
		}
		localization_key = var_nationality_210
	}

	text = {
		trigger = {
			check_variable = { nationality = 211 }
		}
		localization_key = var_nationality_211
	}

	text = {
		trigger = {
			check_variable = { nationality = 212 }
		}
		localization_key = var_nationality_212
	}

	text = {
		trigger = {
			check_variable = { nationality = 213 }
		}
		localization_key = var_nationality_213
	}

	text = {
		trigger = {
			check_variable = { nationality = 214 }
		}
		localization_key = var_nationality_214
	}

	text = {
		trigger = {
			check_variable = { nationality = 215 }
		}
		localization_key = var_nationality_215
	}

	text = {
		trigger = {
			check_variable = { nationality = 216 }
		}
		localization_key = var_nationality_216
	}

	text = {
		trigger = {
			check_variable = { nationality = 217 }
		}
		localization_key = var_nationality_217
	}

	text = {
		trigger = {
			check_variable = { nationality = 218 }
		}
		localization_key = var_nationality_218
	}
	text = {
		trigger = {
			check_variable = { nationality = 219 }
		}
		localization_key = var_nationality_219
	}
	text = {
		trigger = {
			check_variable = { nationality = 220 }
		}
		localization_key = var_nationality_220
	}
	text = {
		trigger = {
			check_variable = { nationality = 221 }
		}
		localization_key = var_nationality_221
	}
	text = {
		trigger = {
			check_variable = { nationality = 222 }
		}
		localization_key = var_nationality_222
	}
	text = {
		trigger = {
			check_variable = { nationality = 223 }
		}
		localization_key = var_nationality_223
	}
	text = {
		trigger = {
			check_variable = { nationality = 224 }
		}
		localization_key = var_nationality_224
	}
	text = {
		trigger = {
			check_variable = { nationality = 225 }
		}
		localization_key = var_nationality_225
	}
	text = {
		trigger = {
			check_variable = { nationality = 226 }
		}
		localization_key = var_nationality_226
	}
	text = {
		trigger = {
			check_variable = { nationality = 227 }
		}
		localization_key = var_nationality_227
	}
	text = {
		trigger = {
			check_variable = { nationality = 228 }
		}
		localization_key = var_nationality_228
	}
	text = {
		trigger = {
			check_variable = { nationality = 229 }
		}
		localization_key = var_nationality_229
	}
	text = {
		trigger = {
			check_variable = { nationality = 230 }
		}
		localization_key = var_nationality_230
	}
	text = {
		trigger = {
			check_variable = { nationality = 231 }
		}
		localization_key = var_nationality_231
	}
	text = {
		trigger = {
			check_variable = { nationality = 232 }
		}
		localization_key = var_nationality_232
	}
	text = {
		trigger = {
			check_variable = { nationality = 233 }
		}
		localization_key = var_nationality_233
	}
	text = {
		trigger = {
			check_variable = { nationality = 234 }
		}
		localization_key = var_nationality_234
	}
	text = {
		trigger = {
			check_variable = { nationality = 235 }
		}
		localization_key = var_nationality_235
	}
	text = {
		trigger = {
			check_variable = { nationality = 236 }
		}
		localization_key = var_nationality_236
	}
	text = {
		trigger = {
			check_variable = { nationality = 237 }
		}
		localization_key = var_nationality_237
	}
	text = {
		trigger = {
			check_variable = { nationality = 238 }
		}
		localization_key = var_nationality_238
	}
	text = {
		trigger = {
			check_variable = { nationality = 239 }
		}
		localization_key = var_nationality_239
	}
	text = {
		trigger = {
			check_variable = { nationality = 240 }
		}
		localization_key = var_nationality_240
	}
	text = {
		trigger = {
			check_variable = { nationality = 241 }
		}
		localization_key = var_nationality_241
	}
	text = {
		trigger = {
			check_variable = { nationality = 242 }
		}
		localization_key = var_nationality_242
	}
	text = {
		trigger = {
			check_variable = { nationality = 243 }
		}
		localization_key = var_nationality_243
	}
	text = {
		trigger = {
			check_variable = { nationality = 244 }
		}
		localization_key = var_nationality_244
	}
	text = {
		trigger = {
			check_variable = { nationality = 245 }
		}
		localization_key = var_nationality_245
	}
	text = {
		trigger = {
			check_variable = { nationality = 246 }
		}
		localization_key = var_nationality_246
	}
	text = {
		trigger = {
			check_variable = { nationality = 247 }
		}
		localization_key = var_nationality_247
	}
	text = {
		trigger = {
			check_variable = { nationality = 248 }
		}
		localization_key = var_nationality_248
	}
	text = {
		trigger = {
			check_variable = { nationality = 249 }
		}
		localization_key = var_nationality_249
	}
	text = {
		trigger = {
			check_variable = { nationality = 250 }
		}
		localization_key = var_nationality_250
	}
	text = {
		trigger = {
			check_variable = { nationality = 251 }
		}
		localization_key = var_nationality_251
	}
	text = {
		trigger = {
			check_variable = { nationality = 252 }
		}
		localization_key = var_nationality_252
	}
	text = {
		trigger = {
			check_variable = { nationality = 253 }
		}
		localization_key = var_nationality_253
	}
	text = {
		trigger = {
			check_variable = { nationality = 254 }
		}
		localization_key = var_nationality_254
	}
	text = {
		trigger = {
			check_variable = { nationality = 255 }
		}
		localization_key = var_nationality_255
	}
	text = {
		trigger = {
			check_variable = { nationality = 256 }
		}
		localization_key = var_nationality_256
	}
	text = {
		trigger = {
			check_variable = { nationality = 257 }
		}
		localization_key = var_nationality_257
	}
	text = {
		trigger = {
			check_variable = { nationality = 258 }
		}
		localization_key = var_nationality_258
	}
	text = {
		trigger = {
			check_variable = { nationality = 259 }
		}
		localization_key = var_nationality_259
	}
	text = {
		trigger = {
			check_variable = { nationality = 260 }
		}
		localization_key = var_nationality_260
	}
	text = {
		trigger = {
			check_variable = { nationality = 261 }
		}
		localization_key = var_nationality_261
	}
	text = {
		trigger = {
			check_variable = { nationality = 262 }
		}
		localization_key = var_nationality_262
	}
	text = {
		trigger = {
			check_variable = { nationality = 263 }
		}
		localization_key = var_nationality_263
	}
	text = {
		trigger = {
			check_variable = { nationality = 264 }
		}
		localization_key = var_nationality_264
	}
	text = {
		trigger = {
			check_variable = { nationality = 265 }
		}
		localization_key = var_nationality_265
	}
	text = {
		trigger = {
			check_variable = { nationality = 266 }
		}
		localization_key = var_nationality_266
	}
	text = {
		trigger = {
			check_variable = { nationality = 267 }
		}
		localization_key = var_nationality_267
	}
	text = {
		trigger = {
			check_variable = { nationality = 268 }
		}
		localization_key = var_nationality_268
	}
	text = {
		trigger = {
			check_variable = { nationality = 269 }
		}
		localization_key = var_nationality_269
	}
	text = {
		trigger = {
			check_variable = { nationality = 270 }
		}
		localization_key = var_nationality_270
	}
	text = {
		trigger = {
			check_variable = { nationality = 271 }
		}
		localization_key = var_nationality_271
	}
	text = {
		trigger = {
			check_variable = { nationality = 272 }
		}
		localization_key = var_nationality_272
	}
	text = {
		trigger = {
			check_variable = { nationality = 273 }
		}
		localization_key = var_nationality_273
	}
	text = {
		trigger = {
			check_variable = { nationality = 274 }
		}
		localization_key = var_nationality_274
	}
	text = {
		trigger = {
			check_variable = { nationality = 275 }
		}
		localization_key = var_nationality_275
	}
	text = {
		trigger = {
			check_variable = { nationality = 276 }
		}
		localization_key = var_nationality_276
	}
	text = {
		trigger = {
			check_variable = { nationality = 277 }
		}
		localization_key = var_nationality_277
	}
	text = {
		trigger = {
			check_variable = { nationality = 278 }
		}
		localization_key = var_nationality_278
	}
	text = {
		trigger = {
			check_variable = { nationality = 279 }
		}
		localization_key = var_nationality_279
	}
	text = {
		trigger = {
			check_variable = { nationality = 280 }
		}
		localization_key = var_nationality_280
	}
	text = {
		trigger = {
			check_variable = { nationality = 281 }
		}
		localization_key = var_nationality_281
	}
	text = {
		trigger = {
			check_variable = { nationality = 282 }
		}
		localization_key = var_nationality_282
	}
	text = {
		trigger = {
			check_variable = { nationality = 283 }
		}
		localization_key = var_nationality_283
	}
	text = {
		trigger = {
			check_variable = { nationality = 284 }
		}
		localization_key = var_nationality_284
	}
	text = {
		trigger = {
			check_variable = { nationality = 285 }
		}
		localization_key = var_nationality_285
	}
	text = {
		trigger = {
			check_variable = { nationality = 286 }
		}
		localization_key = var_nationality_286
	}
	text = {
		trigger = {
			check_variable = { nationality = 287 }
		}
		localization_key = var_nationality_287
	}
	text = {
		trigger = {
			check_variable = { nationality = 288 }
		}
		localization_key = var_nationality_288
	}
	text = {
		trigger = {
			check_variable = { nationality = 289 }
		}
		localization_key = var_nationality_289
	}
	text = {
		trigger = {
			check_variable = { nationality = 290 }
		}
		localization_key = var_nationality_290
	}
	text = {
		trigger = {
			check_variable = { nationality = 291 }
		}
		localization_key = var_nationality_291
	}
	text = {
		trigger = {
			check_variable = { nationality = 292 }
		}
		localization_key = var_nationality_292
	}
	text = {
		trigger = {
			check_variable = { nationality = 293 }
		}
		localization_key = var_nationality_293
	}
	text = {
		trigger = {
			check_variable = { nationality = 294 }
		}
		localization_key = var_nationality_294
	}
	text = {
		trigger = {
			check_variable = { nationality = 295 }
		}
		localization_key = var_nationality_295
	}
	text = {
		trigger = {
			check_variable = { nationality = 296 }
		}
		localization_key = var_nationality_296
	}
	text = {
		trigger = {
			check_variable = { nationality = 297 }
		}
		localization_key = var_nationality_297
	}
	text = {
		trigger = {
			check_variable = { nationality = 298 }
		}
		localization_key = var_nationality_298
	}
	text = {
		trigger = {
			check_variable = { nationality = 299 }
		}
		localization_key = var_nationality_299
	}
	text = {
		trigger = {
			check_variable = { nationality = 300 }
		}
		localization_key = var_nationality_300
	}
	text = {
		trigger = {
			check_variable = { nationality = 301 }
		}
		localization_key = var_nationality_301
	}

	text = {
		trigger = {
			check_variable = { nationality = 302 }
		}
		localization_key = var_nationality_302
	}

	text = {
		trigger = {
			check_variable = { nationality = 303 }
		}
		localization_key = var_nationality_303
	}
	text = {
		trigger = {
			check_variable = { nationality = 304 }
		}
		localization_key = var_nationality_304
	}
	text = {
		trigger = {
			check_variable = { nationality = 305 }
		}
		localization_key = var_nationality_305
	}
	text = {
		trigger = {
			check_variable = { nationality = 306 }
		}
		localization_key = var_nationality_306
	}
	text = {
		trigger = {
			check_variable = { nationality = 307 }
		}
		localization_key = var_nationality_307
	}
	text = {
		trigger = {
			check_variable = { nationality = 308 }
		}
		localization_key = var_nationality_308
	}
	text = {
		trigger = {
			check_variable = { nationality = 309 }
		}
		localization_key = var_nationality_309
	}
	text = {
		trigger = {
			check_variable = { nationality = 310 }
		}
		localization_key = var_nationality_310
	}
	text = {
		trigger = {
			check_variable = { nationality = 311 }
		}
		localization_key = var_nationality_311
	}
	text = {
		trigger = {
			check_variable = { nationality = 312 }
		}
		localization_key = var_nationality_312
	}
	text = {
		trigger = {
			check_variable = { nationality = 313 }
		}
		localization_key = var_nationality_313
	}
	text = {
		trigger = {
			check_variable = { nationality = 314 }
		}
		localization_key = var_nationality_314
	}
	text = {
		trigger = {
			check_variable = { nationality = 315 }
		}
		localization_key = var_nationality_315
	}
	text = {
		trigger = {
			check_variable = { nationality = 316 }
		}
		localization_key = var_nationality_316
	}
	text = {
		trigger = {
			check_variable = { nationality = 317 }
		}
		localization_key = var_nationality_317
	}
	text = {
		trigger = {
			check_variable = { nationality = 318 }
		}
		localization_key = var_nationality_318
	}
	text = {
		trigger = {
			check_variable = { nationality = 319 }
		}
		localization_key = var_nationality_319
	}
	text = {
		trigger = {
			check_variable = { nationality = 320 }
		}
		localization_key = var_nationality_320
	}
	text = {
		trigger = {
			check_variable = { nationality = 321 }
		}
		localization_key = var_nationality_321
	}
	text = {
		trigger = {
			check_variable = { nationality = 322 }
		}
		localization_key = var_nationality_322
	}
	text = {
		trigger = {
			check_variable = { nationality = 323 }
		}
		localization_key = var_nationality_323
	}
	text = {
		trigger = {
			check_variable = { nationality = 324 }
		}
		localization_key = var_nationality_324
	}
	text = {
		trigger = {
			check_variable = { nationality = 325 }
		}
		localization_key = var_nationality_325
	}
	text = {
		trigger = {
			check_variable = { nationality = 326 }
		}
		localization_key = var_nationality_326
	}
	text = {
		trigger = {
			check_variable = { nationality = 327 }
		}
		localization_key = var_nationality_327
	}
	text = {
		trigger = {
			check_variable = { nationality = 328 }
		}
		localization_key = var_nationality_328
	}
	text = {
		trigger = {
			check_variable = { nationality = 329 }
		}
		localization_key = var_nationality_329
	}
	text = {
		trigger = {
			check_variable = { nationality = 330 }
		}
		localization_key = var_nationality_330
	}
	text = {
		trigger = {
			check_variable = { nationality = 331 }
		}
		localization_key = var_nationality_331
	}
	text = {
		trigger = {
			check_variable = { nationality = 332 }
		}
		localization_key = var_nationality_332
	}
	text = {
		trigger = {
			check_variable = { nationality = 333 }
		}
		localization_key = var_nationality_333
	}
	text = {
		trigger = {
			check_variable = { nationality = 334 }
		}
		localization_key = var_nationality_334
	}
	text = {
		trigger = {
			check_variable = { nationality = 335 }
		}
		localization_key = var_nationality_335
	}
	text = {
		trigger = {
			check_variable = { nationality = 336 }
		}
		localization_key = var_nationality_336
	}
}
