defined_text = {
	name = GetITA_oil_reliance
	text = {
		trigger = {
			check_variable = { ITA_oil_reliance > 8 }
		}
		localization_key = ITA_completely_reliant
	}

	text = {
		trigger = {
			check_variable = { ITA_oil_reliance > 6 }
		}
		localization_key = ITA_worryingly_reliant
	}

	text = {
		trigger = {
			check_variable = { ITA_oil_reliance > 4 }
		}
		localization_key = ITA_increasingly_reliant
	}

	text = {
		trigger = {
			check_variable = { ITA_oil_reliance > 2 }
		}
		localization_key = ITA_slightly_reliant
	}

	text = {
		trigger = {
			check_variable = { ITA_oil_reliance > 0 }
		}
		localization_key = ITA_not_reliant
	}
}

defined_text = {
	name = YOLProgress
	text = {
		trigger = {
			has_country_flag = ITA_YOL_begun
		}
		localization_key = "Counter Terror"
	}

	text = {
		trigger = {
			AND = {
				has_country_flag = ITA_YOL_begun
				has_country_flag = ITA_YOL_progress
			}
		}
		localization_key = "The Years of Lead"
	}
}

defined_text = {
	name = ITANukeProgress
	text = {
		trigger = {
			check_variable = {
				var = ITA_nuclearprogress
				value = 1
				compare = less_than
			}
		}
		localization_key = ITANukeNotMade
	}

	text = {
		trigger = {
			check_variable = {
				var = ITA_nuclearprogress
				value = 1
				compare = greater_than_or_equals
			}
		}
		localization_key = ITANukeIsDone
		trigger = {
			NOT = {
				check_variable = {
					var = ITA_nuclearstockpile
					value = 1
					compare = greater_than
				}
			}
		}
	}
	text = {
		trigger = {
			check_variable = {
				var = ITA_nuclearprogress
				value = 1
				compare = greater_than_or_equals
			}
		}
		trigger = {
			check_variable = {
				var = ITA_nuclearstockpile
				value = 1
				compare = greater_than
			}
		}
		localization_key = ITANukeIsDoneMore
	}
}

defined_text = {
	name = ITA_NuclearLeader
	text = {
		trigger = {
			ITA = {
				has_country_flag = ITA_Edoardo_Amaldi
			}
		}
		localization_key = ITA_Edoardo_Amaldi_L
	}
	text = {
		trigger = {
			ITA = {
				has_country_flag = ITA_Emilio_Segre
			}
		}
		localization_key = ITA_Emilio_Segre_L
	}
	text = {
		trigger = {
			ITA = {
				has_country_flag = ITA_Paolo_Moci
			}
		}
		localization_key = ITA_Paolo_Moci_L
	}
	text = {
		trigger = {
			ITA = {
				has_country_flag = ITA_Oscar_DAgostino
			}
		}
		localization_key = ITA_Oscar_DAgostino_L
	}
	text = {
		trigger = {
			ITA = {
				has_country_flag = ITA_Bruno_Pontecorvo
			}
		}
		localization_key = ITA_Bruno_Pontecorvo_L
	}
	text = {
		trigger = {
			ITA = {
				has_country_flag = ITA_Ettore_Majorana
			}
		}
		localization_key = ITA_Ettore_Majorana_L
	}
	text = {
		trigger = {
			ITA = {
				has_country_flag = ITA_Franco_Rasetti
			}
		}
		localization_key = ITA_Franco_Rasetti_L
	}
}

defined_text = {
	name = ITA_NuclearTrait
	text = {
		trigger = {
			ITA = {
				has_country_flag = ITA_Edoardo_Amaldi
			}
		}
		localization_key = ITA_Edoardo_Amaldi_T
	}
	text = {
		trigger = {
			ITA = {
				has_country_flag = ITA_Emilio_Segre
			}
		}
		localization_key = ITA_Emilio_Segre_T
	}
	text = {
		trigger = {
			ITA = {
				has_country_flag = ITA_Paolo_Moci
			}
		}
		localization_key = ITA_Paolo_Moci_T
	}
	text = {
		trigger = {
			ITA = {
				has_country_flag = ITA_Oscar_DAgostino
			}
		}
		localization_key = ITA_Oscar_DAgostino_T
	}
	text = {
		trigger = {
			ITA = {
				has_country_flag = ITA_Bruno_Pontecorvo
			}
		}
		localization_key = ITA_Bruno_Pontecorvo_T
	}
	text = {
		trigger = {
			ITA = {
				has_country_flag = ITA_Ettore_Majorana
			}
		}
		localization_key = ITA_Ettore_Majorana_T
	}
	text = {
		trigger = {
			ITA = {
				has_country_flag = ITA_Franco_Rasetti
			}
		}
		localization_key = ITA_Franco_Rasetti_T
	}
}

defined_text = {
	name = ITA_NuclearSpeed
	text = {
		trigger = {
			ITA = {
				has_country_flag = ITA_fast_nuke
			}
		}
		localization_key = ITA_nuke_work_fast
	}
	text = {
		trigger = {
			ITA = {
				has_country_flag = ITA_moderate_nuke
			}
		}
		localization_key = ITA_nuke_work_normal
	}
	text = {
		trigger = {
			ITA = {
				has_country_flag = ITA_slow_nuke
			}
		}
		localization_key = ITA_nuke_work_slow
	}
	text = {
		trigger = {
			ITA = {
				has_country_flag = ITA_stagnant_nuke
			}
		}
		localization_key = ITA_nuke_work_stagnant
	}
}

defined_text = {
	name = ITA_CD_dominant_wing
	text = {
		trigger = {
			check_variable = {
				var = party_popularity@social_conservative
				value = party_popularity@social_liberal
				compare = greater_than
			}
		}
		localization_key = ITA_CON_BIG
	}
	text = {
		trigger = {
			check_variable = {
				var = party_popularity@social_liberal
				value = party_popularity@social_conservative
				compare = greater_than
			}
		}
		localization_key = ITA_LIB_BIG
	}
	text = {
		trigger = {
			check_variable = {
				var = party_popularity@social_liberal
				value = party_popularity@social_conservative
				compare = equals
			}
		}
		localization_key = ITA_EVEN_CD
	}
}

defined_text = {
	name = ITA_FD_dominant_wing
	text = {
		trigger = {
			check_variable = {
				var = party_popularity@socialist
				value = party_popularity@social_democrat
				compare = greater_than
			}
		}
		localization_key = ITA_LIBSOC_BIG
	}
	text = {
		trigger = {
			check_variable = {
				var = party_popularity@social_democrat
				value = party_popularity@socialist
				compare = greater_than
			}
		}
		localization_key = ITA_SOCDEM_BIG
	}
	text = {
		trigger = {
			check_variable = {
				var = party_popularity@social_democrat
				value = party_popularity@socialist
				compare = equals
			}
		}
		localization_key = ITA_EVEN_FD
	}
}

defined_text = {
	name = ITA_BN_dominant_wing
	text = {
		trigger = {
			check_variable = {
				var = party_popularity@authoritarian_democrat
				value = party_popularity@fascism
				compare = greater_than
			}
		}
		localization_key = ITA_AUTHDEM_BIG
	}
	text = {
		trigger = {
			check_variable = {
				var = party_popularity@fascism
				value = party_popularity@authoritarian_democrat
				compare = greater_than
			}
		}
		localization_key = ITA_FASCIST_BIG
	}
	text = {
		trigger = {
			check_variable = {
				var = party_popularity@authoritarian_democrat
				value = party_popularity@fascism
				compare = equals
			}
		}
		localization_key = ITA_EVEN_BN
	}
}

defined_text = {
	name = ITA_FDParty_health
	text = {
		trigger = {
			check_variable = {
				var = ITA_FD_Strength
				value = 3
				compare = less_than_or_equals
			}
			NOT = {
				has_country_flag = ITA_FD_colapse
			}
			NOT = {
				check_variable = {
					var = ITA_FD_coalition_pop
					value = .1
					compare = less_than_or_equals
				}
			}
		}
		localization_key = ITA_FDStrong
	}
	text = {
		trigger = {
			check_variable = { ITA_FD_Strength > 3.01 }
			check_variable = {
				var = ITA_FD_Strength
				value = 6
				compare = less_than_or_equals
			}
			NOT = {
				has_country_flag = ITA_FD_colapse
			}
			NOT = {
				check_variable = {
					var = ITA_FD_coalition_pop
					value = .1
					compare = less_than_or_equals
				}
			}
		}
		localization_key = ITA_FDHigh
	}
	text = {
		trigger = {
			check_variable = { ITA_FD_Strength > 6.01 }
			check_variable = {
				var = ITA_FD_Strength
				value = 9
				compare = less_than_or_equals
			}
			NOT = {
				has_country_flag = ITA_FD_colapse
			}
			NOT = {
				check_variable = {
					var = ITA_FD_coalition_pop
					value = .1
					compare = less_than_or_equals
				}
			}
		}
		localization_key = ITA_FDStable
	}
	text = {
		trigger = {
			check_variable = { ITA_FD_Strength > 9.01 }
			check_variable = {
				var = ITA_FD_Strength
				value = 12
				compare = less_than_or_equals
			}
			NOT = {
				has_country_flag = ITA_FD_colapse
			}
			NOT = {
				check_variable = {
					var = ITA_FD_coalition_pop
					value = .1
					compare = less_than_or_equals
				}
			}
		}
		localization_key = ITA_FDModerate
	}
	text = {
		trigger = {
			check_variable = { ITA_FD_Strength > 12.01 }
			check_variable = {
				var = ITA_FD_Strength
				value = 15
				compare = less_than_or_equals
			}
			NOT = {
				has_country_flag = ITA_FD_colapse
			}
			NOT = {
				check_variable = {
					var = ITA_FD_coalition_pop
					value = .1
					compare = less_than_or_equals
				}
			}
		}
		localization_key = ITA_FDDeclining
	}
	text = {
		trigger = {
			check_variable = { ITA_FD_Strength > 15.01 }
			check_variable = {
				var = ITA_FD_Strength
				value = 18
				compare = less_than_or_equals
			}
			NOT = {
				has_country_flag = ITA_FD_colapse
			}
			NOT = {
				check_variable = {
					var = ITA_FD_coalition_pop
					value = .1
					compare = less_than_or_equals
				}
			}
		}
		localization_key = ITA_FDVeryWeak
	}
	text = {
		trigger = {
			check_variable = { ITA_FD_Strength > 18.01 }
			NOT = {
				has_country_flag = ITA_FD_colapse
			}
			NOT = {
				check_variable = {
					var = ITA_FD_coalition_pop
					value = .1
					compare = less_than_or_equals
				}
			}
		}
		localization_key = ITA_FDCloseSplit
	}
	text = {
		trigger = {
			has_country_flag = ITA_FD_colapse
		}
		localization_key = ITA_FDHasSplit
	}
	text = {
		trigger = {
			NOT = {
				has_country_flag = ITA_FD_colapse
			}
			check_variable = {
				var = ITA_FD_coalition_pop
				value = .1
				compare = less_than_or_equals
			}
		}
		localization_key = ITA_FDlowpubsupport
	}
}

defined_text = {
	name = ITA_BNParty_health
	text = {
		trigger = {
			check_variable = {
				var = ITA_BN_Strength
				value = 3
				compare = less_than_or_equals
			}
			NOT = {
				has_country_flag = ITA_BN_colapse
			}
			NOT = {
				check_variable = {
					var = ITA_BN_coalition_pop
					value = .1
					compare = less_than_or_equals
				}
			}
		}
		localization_key = ITA_BNStrong
	}
	text = {
		trigger = {
			check_variable = { ITA_BN_Strength > 3.01 }
			check_variable = {
				var = ITA_BN_Strength
				value = 6
				compare = less_than_or_equals
			}
			NOT = {
				has_country_flag = ITA_BN_colapse
			}
			NOT = {
				check_variable = {
					var = ITA_BN_coalition_pop
					value = .1
					compare = less_than_or_equals
				}
			}
		}
		localization_key = ITA_BNHigh
	}
	text = {
		trigger = {
			check_variable = { ITA_BN_Strength > 6.01 }
			check_variable = {
				var = ITA_BN_Strength
				value = 9
				compare = less_than_or_equals
			}
			NOT = {
				has_country_flag = ITA_BN_colapse
			}
			NOT = {
				check_variable = {
					var = ITA_BN_coalition_pop
					value = .1
					compare = less_than_or_equals
				}
			}
		}
		localization_key = ITA_BNStable
	}
	text = {
		trigger = {
			check_variable = { ITA_BN_Strength > 9.01 }
			check_variable = {
				var = ITA_BN_Strength
				value = 12
				compare = less_than_or_equals
			}
			NOT = {
				has_country_flag = ITA_BN_colapse
			}
			NOT = {
				check_variable = {
					var = ITA_BN_coalition_pop
					value = .1
					compare = less_than_or_equals
				}
			}
		}
		localization_key = ITA_BNModerate
	}
	text = {
		trigger = {
			check_variable = { ITA_BN_Strength > 12.01 }
			check_variable = {
				var = ITA_BN_Strength
				value = 15
				compare = less_than_or_equals
			}
			NOT = {
				has_country_flag = ITA_BN_colapse
			}
			NOT = {
				check_variable = {
					var = ITA_BN_coalition_pop
					value = .1
					compare = less_than_or_equals
				}
			}
		}
		localization_key = ITA_BNDeclining
	}
	text = {
		trigger = {
			check_variable = { ITA_BN_Strength > 15.01 }
			check_variable = {
				var = ITA_BN_Strength
				value = 18
				compare = less_than_or_equals
			}
			NOT = {
				has_country_flag = ITA_BN_colapse
			}
			NOT = {
				check_variable = {
					var = ITA_BN_coalition_pop
					value = .1
					compare = less_than_or_equals
				}
			}
		}
		localization_key = ITA_BNVeryWeak
	}
	text = {
		trigger = {
			check_variable = { ITA_BN_Strength > 18.01 }
			NOT = {
				has_country_flag = ITA_BN_colapse
			}
			NOT = {
				check_variable = {
					var = ITA_BN_coalition_pop
					value = .1
					compare = less_than_or_equals
				}
			}
		}
		localization_key = ITA_BNCloseSplit
	}
	text = {
		trigger = {
			has_country_flag = ITA_BN_colapse
		}
		localization_key = ITA_BNHasSplit
	}
	text = {
		trigger = {
			NOT = {
				has_country_flag = ITA_BN_colapse
			}
			check_variable = {
				var = ITA_BN_coalition_pop
				value = .1
				compare = less_than_or_equals
			}
		}
		localization_key = ITA_BNlowpubsupport
	}
}

defined_text = {
	name = ITA_ruling_party
	text = {
		trigger = {
			has_government = social_liberal
		}
		localization_key = ITA_LibDem
	}

	text = {
		trigger = {
			has_government = social_conservative
		}
		localization_key = ITA_ConDem
	}

	text = {
		trigger = {
			has_government = market_liberal
		}
		localization_key = ITA_MKLib
	}

	text = {
		trigger = {
			has_government = social_democrat
			NOT = {
				has_country_flag = ITA_FD_colapse
			}
		}
		localization_key = ITA_SocDemFD
	}

	text = {
		trigger = {
			has_government = socialist
			NOT = {
				has_country_flag = ITA_FD_colapse
			}
		}
		localization_key = ITA_SocialistFD
	}

	text = {
		trigger = {
			has_government = social_democrat
			has_country_flag = ITA_FD_colapse
		}
		localization_key = ITA_SocDemCOL
	}

	text = {
		trigger = {
			has_government = socialist
			has_country_flag = ITA_FD_colapse
		}
		localization_key = ITA_SocialistCOL
	}

	text = {
		trigger = {
			has_government = despotism
			NOT = {
				has_country_flag = ITA_BN_colapse
			}
		}
		localization_key = ITA_DespBN
	}

	text = {
		trigger = {
			has_government = authoritarian_democrat
			NOT = {
				has_country_flag = ITA_BN_colapse
			}
		}
		localization_key = ITA_AuthDemBN
	}

	text = {
		trigger = {
			has_government = fascism
			NOT = {
				has_country_flag = ITA_BN_colapse
			}
		}
		localization_key = ITA_FashBN
	}

	text = {
		trigger = {
			has_government = despotism
			has_country_flag = ITA_BN_colapse
		}
		localization_key = ITA_DespCOL
	}

	text = {
		trigger = {
			has_government = authoritarian_democrat
			has_country_flag = ITA_BN_colapse
		}
		localization_key = ITA_AuthDemCOL
	}

	text = {
		trigger = {
			has_government = fascism
			has_country_flag = ITA_BN_colapse
		}
		localization_key = ITA_FashCOL
	}
}

defined_text = {
	name = ITAINF_CROATIA
	text = {
		trigger = {
			ITA = {
				check_variable = {
					var = CRO_ITA_Influence
					value = 300
					compare = greater_than_or_equals
				}
				check_variable = {
					var = CRO_ITA_Influence
					value = 400
					compare = less_than
				}
			}
		}
		localization_key = ITA_CRO_HI
	}
	text = {
		trigger = {
			ITA = {
				check_variable = {
					var = CRO_ITA_Influence
					value = 400
					compare = greater_than_or_equals
				}
				check_variable = {
					var = CRO_ITA_Influence
					value = 500
					compare = less_than
				}
			}
		}
		localization_key = ITA_CRO_RE
	}
	text = {
		trigger = {
			ITA = {
				check_variable = {
					var = CRO_ITA_Influence
					value = 500
					compare = greater_than_or_equals
				}
			}
		}
		localization_key = ITA_CRO_GOV
	}
	text = {
		trigger = {
			ITA = {
				check_variable = {
					var = CRO_ITA_Influence
					value = 200
					compare = greater_than_or_equals
				}
				check_variable = {
					var = CRO_ITA_Influence
					value = 300
					compare = less_than
				}
			}
		}
		localization_key = ITA_CRO_AS
	}
	text = {
		trigger = {
			ITA = {
				check_variable = {
					var = CRO_ITA_Influence
					value = 100
					compare = greater_than_or_equals
				}
				check_variable = {
					var = CRO_ITA_Influence
					value = 200
					compare = less_than
				}
			}
		}
		localization_key = ITA_CRO_ANT
	}
	text = {
		trigger = {
			ITA = {
				check_variable = { CRO_ITA_Influence = 0 }
			}
		}
		localization_key = ITA_CRO_NON
	}
}

defined_text = {
	name = ITAINF_GREECE
	text = {
		trigger = {
			ITA = {
				check_variable = {
					var = GRE_ITA_Influence
					value = 300
					compare = greater_than_or_equals
				}
				check_variable = {
					var = GRE_ITA_Influence
					value = 400
					compare = less_than
				}
			}
		}
		localization_key = ITA_GRE_HI
	}
	text = {
		trigger = {
			ITA = {
				check_variable = {
					var = GRE_ITA_Influence
					value = 400
					compare = greater_than_or_equals
				}
				check_variable = {
					var = GRE_ITA_Influence
					value = 500
					compare = less_than
				}
			}
		}
		localization_key = ITA_GRE_RE
	}
	text = {
		trigger = {
			ITA = {
				check_variable = {
					var = GRE_ITA_Influence
					value = 500
					compare = greater_than_or_equals
				}
			}
		}
		localization_key = ITA_GRE_GOV
	}
	text = {
		trigger = {
			ITA = {
				check_variable = {
					var = GRE_ITA_Influence
					value = 200
					compare = greater_than_or_equals
				}
				check_variable = {
					var = GRE_ITA_Influence
					value = 300
					compare = less_than
				}
			}
		}
		localization_key = ITA_GRE_AS
	}
	text = {
		trigger = {
			ITA = {
				check_variable = {
					var = GRE_ITA_Influence
					value = 100
					compare = greater_than_or_equals
				}
				check_variable = {
					var = GRE_ITA_Influence
					value = 200
					compare = less_than
				}
			}
		}
		localization_key = ITA_GRE_ANT
	}
	text = {
		trigger = {
			ITA = {
				check_variable = { GRE_ITA_Influence = 0 }
			}
		}
		localization_key = ITA_GRE_NON
	}
}

defined_text = {
	name = ITAINF_BULGARIA
	text = {
		trigger = {
			ITA = {
				check_variable = {
					var = BUL_ITA_Influence
					value = 300
					compare = greater_than_or_equals
				}
				check_variable = {
					var = BUL_ITA_Influence
					value = 400
					compare = less_than
				}
			}
		}
		localization_key = ITA_BUL_HI
	}
	text = {
		trigger = {
			ITA = {
				check_variable = {
					var = BUL_ITA_Influence
					value = 400
					compare = greater_than_or_equals
				}
				check_variable = {
					var = BUL_ITA_Influence
					value = 500
					compare = less_than
				}
			}
		}
		localization_key = ITA_BUL_RE
	}
	text = {
		trigger = {
			ITA = {
				check_variable = {
					var = BUL_ITA_Influence
					value = 500
					compare = greater_than_or_equals
				}
			}
		}
		localization_key = ITA_BUL_GOV
	}
	text = {
		trigger = {
			ITA = {
				check_variable = {
					var = BUL_ITA_Influence
					value = 200
					compare = greater_than_or_equals
				}
				check_variable = {
					var = BUL_ITA_Influence
					value = 300
					compare = less_than
				}
			}
		}
		localization_key = ITA_BUL_AS
	}
	text = {
		trigger = {
			ITA = {
				check_variable = {
					var = BUL_ITA_Influence
					value = 100
					compare = greater_than_or_equals
				}
				check_variable = {
					var = BUL_ITA_Influence
					value = 200
					compare = less_than
				}
			}
		}
		localization_key = ITA_BUL_ANT
	}
	text = {
		trigger = {
			ITA = {
				check_variable = { BUL_ITA_Influence = 0 }
			}
		}
		localization_key = ITA_BUL_NON
	}
}

defined_text = {
	name = ITAINF_ROMANIA
	text = {
		trigger = {
			ITA = {
				check_variable = {
					var = ROM_ITA_Influence
					value = 300
					compare = greater_than_or_equals
				}
			}
			check_variable = {
				var = ROM_ITA_Influence
				value = 400
				compare = less_than
			}
		}
		localization_key = ITA_ROM_HI
	}
	text = {
		trigger = {
			ITA = {
				check_variable = {
					var = ROM_ITA_Influence
					value = 400
					compare = greater_than_or_equals
				}
				check_variable = {
					var = ROM_ITA_Influence
					value = 500
					compare = less_than
				}
			}
		}
		localization_key = ITA_ROM_RE
	}
	text = {
		trigger = {
			ITA = {
				check_variable = {
					var = ROM_ITA_Influence
					value = 500
					compare = greater_than_or_equals
				}
			}
		}
		localization_key = ITA_ROM_GOV
	}
	text = {
		trigger = {
			ITA = {
				check_variable = {
					var = ROM_ITA_Influence
					value = 200
					compare = greater_than_or_equals
				}
				check_variable = {
					var = ROM_ITA_Influence
					value = 300
					compare = less_than
				}
			}
		}
		localization_key = ITA_ROM_AS
	}
	text = {
		trigger = {
			ITA = {
				check_variable = {
					var = ROM_ITA_Influence
					value = 100
					compare = greater_than_or_equals
				}
				check_variable = {
					var = BUL_ITA_Influence
					value = 200
					compare = less_than
				}
			}
		}
		localization_key = ITA_ROM_ANT
	}
	text = {
		trigger = {
			ITA = {
				check_variable = { ROM_ITA_Influence = 0 }
			}
		}
		localization_key = ITA_ROM_NON
	}
}

defined_text = {
	name = ITAINF_SERBIA
	text = {
		trigger = {
			ITA = {
				check_variable = {
					var = SER_ITA_Influence
					value = 300
					compare = greater_than_or_equals
				}
			}
			check_variable = {
				var = SER_ITA_Influence
				value = 400
				compare = less_than
			}
		}
		localization_key = ITA_SER_HI
	}
	text = {
		trigger = {
			ITA = {
				check_variable = {
					var = SER_ITA_Influence
					value = 400
					compare = greater_than_or_equals
				}
				check_variable = {
					var = SER_ITA_Influence
					value = 500
					compare = less_than
				}
			}
		}
		localization_key = ITA_SER_RE
	}
	text = {
		trigger = {
			ITA = {
				check_variable = {
					var = SER_ITA_Influence
					value = 500
					compare = greater_than_or_equals
				}
			}
		}
		localization_key = ITA_SER_GOV
	}
	text = {
		trigger = {
			ITA = {
				check_variable = {
					var = SER_ITA_Influence
					value = 200
					compare = greater_than_or_equals
				}
				check_variable = {
					var = SER_ITA_Influence
					value = 300
					compare = less_than
				}
			}
		}
		localization_key = ITA_SER_AS
	}
	text = {
		trigger = {
			ITA = {
				check_variable = {
					var = SER_ITA_Influence
					value = 100
					compare = greater_than_or_equals
				}
				check_variable = {
					var = SER_ITA_Influence
					value = 200
					compare = less_than
				}
			}
		}
		localization_key = ITA_SER_ANT
	}
	text = {
		trigger = {
			ITA = {
				check_variable = { SER_ITA_Influence = 0 }
			}
		}
		localization_key = ITA_SER_NON
	}
}

defined_text = {
	name = ITAINF_HUNGARY
	text = {
		trigger = {
			ITA = {
				check_variable = {
					var = HUN_ITA_Influence
					value = 300
					compare = greater_than_or_equals
				}
			}
			check_variable = {
				var = HUN_ITA_Influence
				value = 400
				compare = less_than
			}
		}
		localization_key = ITA_HUN_HI
	}
	text = {
		trigger = {
			ITA = {
				check_variable = {
					var = HUN_ITA_Influence
					value = 400
					compare = greater_than_or_equals
				}
				check_variable = {
					var = HUN_ITA_Influence
					value = 500
					compare = less_than
				}
			}
		}
		localization_key = ITA_HUN_RE
	}
	text = {
		trigger = {
			ITA = {
				check_variable = {
					var = HUN_ITA_Influence
					value = 500
					compare = greater_than_or_equals
				}
			}
		}
		localization_key = ITA_HUN_GOV
	}
	text = {
		trigger = {
			ITA = {
				check_variable = {
					var = HUN_ITA_Influence
					value = 200
					compare = greater_than_or_equals
				}
				check_variable = {
					var = HUN_ITA_Influence
					value = 300
					compare = less_than
				}
			}
		}
		localization_key = ITA_HUN_AS
	}
	text = {
		trigger = {
			ITA = {
				check_variable = {
					var = HUN_ITA_Influence
					value = 100
					compare = greater_than_or_equals
				}
				check_variable = {
					var = HUN_ITA_Influence
					value = 200
					compare = less_than
				}
			}
		}
		localization_key = ITA_HUN_ANT
	}
	text = {
		trigger = {
			ITA = {
				check_variable = { HUN_ITA_Influence = 0 }
			}
		}
		localization_key = ITA_HUN_NON
	}
}

defined_text = {
	name = ITAINF_FRANCE
	text = {
		trigger = {
			ITA = {
				check_variable = {
					var = FRA_ITA_Influence
					value = 300
					compare = greater_than_or_equals
				}
			}
			check_variable = {
				var = FRA_ITA_Influence
				value = 400
				compare = less_than
			}
		}
		localization_key = ITA_FRA_HI
	}
	text = {
		trigger = {
			ITA = {
				check_variable = {
					var = FRA_ITA_Influence
					value = 400
					compare = greater_than_or_equals
				}
				check_variable = {
					var = FRA_ITA_Influence
					value = 500
					compare = less_than
				}
			}
		}
		localization_key = ITA_FRA_RE
	}
	text = {
		trigger = {
			ITA = {
				check_variable = {
					var = FRA_ITA_Influence
					value = 500
					compare = greater_than_or_equals
				}
			}
		}
		localization_key = ITA_FRA_GOV
	}
	text = {
		trigger = {
			ITA = {
				check_variable = {
					var = FRA_ITA_Influence
					value = 200
					compare = greater_than_or_equals
				}
				check_variable = {
					var = FRA_ITA_Influence
					value = 300
					compare = less_than
				}
			}
		}
		localization_key = ITA_FRA_AS
	}
	text = {
		trigger = {
			ITA = {
				check_variable = {
					var = FRA_ITA_Influence
					value = 100
					compare = greater_than_or_equals
				}
				check_variable = {
					var = FRA_ITA_Influence
					value = 200
					compare = less_than
				}
			}
		}
		localization_key = ITA_FRA_ANT
	}
	text = {
		trigger = {
			ITA = {
				check_variable = { FRA_ITA_Influence = 0 }
			}
		}
		localization_key = ITA_FRA_NON
	}
}

defined_text = {
	name = ITAINF_ITAALG
	text = {
		trigger = {
			ITA = {
				check_variable = {
					var = ILG_ITA_Influence
					value = 300
					compare = greater_than_or_equals
				}
			}
			check_variable = {
				var = ILG_ITA_Influence
				value = 400
				compare = less_than
			}
		}
		localization_key = ITA_ILG_HI
	}
	text = {
		trigger = {
			ITA = {
				check_variable = {
					var = ILG_ITA_Influence
					value = 400
					compare = greater_than_or_equals
				}
				check_variable = {
					var = ILG_ITA_Influence
					value = 500
					compare = less_than
				}
			}
		}
		localization_key = ITA_ILG_RE
	}
	text = {
		trigger = {
			ITA = {
				check_variable = {
					var = ILG_ITA_Influence
					value = 500
					compare = greater_than_or_equals
				}
			}
		}
		localization_key = ITA_ILG_GOV
	}
	text = {
		trigger = {
			ITA = {
				check_variable = {
					var = ILG_ITA_Influence
					value = 200
					compare = greater_than_or_equals
				}
				check_variable = {
					var = ILG_ITA_Influence
					value = 300
					compare = less_than
				}
			}
		}
		localization_key = ITA_ILG_AS
	}
	text = {
		trigger = {
			ITA = {
				check_variable = {
					var = ILG_ITA_Influence
					value = 100
					compare = greater_than_or_equals
				}
				check_variable = {
					var = ILG_ITA_Influence
					value = 200
					compare = less_than
				}
			}
		}
		localization_key = ITA_ILG_ANT
	}
	text = {
		trigger = {
			ITA = {
				check_variable = { ILG_ITA_Influence = 0 }
			}
		}
		localization_key = ITA_ILG_NON
	}
}

defined_text = {
	name = BoEArmy
	text = {
		trigger = {
			ITA = {
				check_variable = { ITA_Sogno_RoyalArmy < ITA_Borghese_RoyalArmy }
				check_variable = {
					var = ITA_Sogno_RoyalArmy
					value = 2
					compare = less_than_or_equals
				}
			}
		}
		localization_key = BorgStrongFavorArmy
	}
	text = {
		trigger = {
			ITA = {
				check_variable = { ITA_Sogno_RoyalArmy < ITA_Borghese_RoyalArmy }
				check_variable = { ITA_Sogno_RoyalArmy > 2 }
			}
		}
		localization_key = BorgFavorArmy
	}
	text = {
		trigger = {
			ITA = {
				check_variable = { ITA_Sogno_RoyalArmy = ITA_Borghese_RoyalArmy }
			}
		}
		localization_key = NoFavorArmy
	}
	text = {
		trigger = {
			ITA = {
				check_variable = { ITA_Sogno_RoyalArmy > ITA_Borghese_RoyalArmy }
				check_variable = { ITA_Borghese_RoyalArmy > 2 }
			}
		}
		localization_key = SogFavorArmy
	}
	text = {
		trigger = {
			ITA = {
				check_variable = { ITA_Sogno_RoyalArmy > ITA_Borghese_RoyalArmy }
				check_variable = {
					var = ITA_Borghese_RoyalArmy
					value = 2
					compare = less_than_or_equals
				}
			}
		}
		localization_key = SogStrongFavorArmy
	}
}

defined_text = {
	name = BoENavy
	text = {
		trigger = {
			ITA = {
				check_variable = { ITA_Sogno_RoyalNavy < ITA_Borghese_RoyalNavy }
				check_variable = {
					var = ITA_Sogno_RoyalNavy
					value = 2
					compare = less_than_or_equals
				}
			}
		}
		localization_key = BorgStrongFavorNavy
	}
	text = {
		trigger = {
			ITA = {
				check_variable = { ITA_Sogno_RoyalNavy < ITA_Borghese_RoyalNavy }
				check_variable = { ITA_Sogno_RoyalNavy > 2 }
			}
		}
		localization_key = BorgFavorNavy
	}
	text = {
		trigger = {
			ITA = {
				check_variable = { ITA_Sogno_RoyalNavy = ITA_Borghese_RoyalNavy }
			}
		}
		localization_key = NoFavorNavy
	}
	text = {
		trigger = {
			ITA = {
				check_variable = { ITA_Sogno_RoyalNavy > ITA_Borghese_RoyalNavy }
				check_variable = { ITA_Borghese_RoyalNavy > 2 }
			}
		}
		localization_key = SogFavorNavy
	}
	text = {
		trigger = {
			ITA = {
				check_variable = { ITA_Sogno_RoyalNavy > ITA_Borghese_RoyalNavy }
				check_variable = {
					var = ITA_Borghese_RoyalNavy
					value = 2
					compare = less_than_or_equals
				}
			}
		}
		localization_key = SogStrongFavorNavy
	}
}

defined_text = {
	name = BoEAirForce
	text = {
		trigger = {
			ITA = {
				check_variable = { ITA_Sogno_RoyalAirforce < ITA_Borghese_RoyalAirforce }
				check_variable = {
					var = ITA_Sogno_RoyalAirforce
					value = 2
					compare = less_than_or_equals
				}
			}
		}
		localization_key = BorgStrongFavorAirForce
	}
	text = {
		trigger = {
			ITA = {
				check_variable = { ITA_Sogno_RoyalAirforce < ITA_Borghese_RoyalAirforce }
				check_variable = { ITA_Sogno_RoyalAirforce > 2 }
			}
		}
		localization_key = BorgFavorAirForce
	}
	text = {
		trigger = {
			ITA = {
				check_variable = { ITA_Sogno_RoyalAirforce = ITA_Borghese_RoyalAirforce }
			}
		}
		localization_key = NoFavorAirForce
	}
	text = {
		trigger = {
			ITA = {
				check_variable = { ITA_Sogno_RoyalAirforce > ITA_Borghese_RoyalAirforce }
				check_variable = { ITA_Borghese_RoyalAirforce > 2 }
			}
		}
		localization_key = SogFavorAirForce
	}
	text = {
		trigger = {
			ITA = {
				check_variable = { ITA_Sogno_RoyalAirforce > ITA_Borghese_RoyalAirforce }
				check_variable = {
					var = ITA_Borghese_RoyalAirforce
					value = 2
					compare = less_than_or_equals
				}
			}
		}
		localization_key = SogStrongFavorAirForce
	}
}

defined_text = {
	name = BoEBlackShirts
	text = {
		trigger = {
			ITA = {
				NOT = { has_country_flag = ITA_blackshirts_abolished }
				check_variable = { ITA_Sogno_Blackshirts < ITA_Borghese_Blackshirts }
				check_variable = {
					var = ITA_Sogno_Blackshirts
					value = 2
					compare = less_than_or_equals
				}
			}
		}
		localization_key = BorgStrongFavorBlackShirts
	}
	text = {
		trigger = {
			ITA = {
				NOT = { has_country_flag = ITA_blackshirts_abolished }
				check_variable = { ITA_Sogno_Blackshirts < ITA_Borghese_Blackshirts }
				check_variable = { ITA_Sogno_Blackshirts > 2 }
			}
		}
		localization_key = BorgFavorBlackShirts
	}
	text = {
		trigger = {
			ITA = {
				NOT = { has_country_flag = ITA_blackshirts_abolished }
				check_variable = { ITA_Sogno_Blackshirts = ITA_Borghese_Blackshirts }
			}
		}
		localization_key = NoFavorBlackShirts
	}
	text = {
		trigger = {
			ITA = {
				NOT = { has_country_flag = ITA_blackshirts_abolished }
				check_variable = { ITA_Sogno_Blackshirts > ITA_Borghese_Blackshirts }
				check_variable = { ITA_Borghese_Blackshirts > 2 }
			}
		}
		localization_key = SogFavorBlackShirts
	}
	text = {
		trigger = {
			ITA = {
				NOT = { has_country_flag = ITA_blackshirts_abolished }
				check_variable = { ITA_Sogno_Blackshirts > ITA_Borghese_Blackshirts }
				check_variable = {
					var = ITA_Borghese_Blackshirts
					value = 2
					compare = less_than_or_equals
				}
			}
		}
		localization_key = SogStrongFavorBlackShirts
	}
	text = {
		trigger = {
			ITA = {
				has_country_flag = ITA_blackshirts_abolished
			}
		}
		localization_key = BlackShirtsGone
	}
}

defined_text = {
	name = BoECarabinieri
	text = {
		trigger = {
			ITA = {
				check_variable = { ITA_Sogno_Carabinieri < ITA_Borghese_Carabinieri }
				check_variable = {
					var = ITA_Sogno_Carabinieri
					value = 2
					compare = less_than_or_equals
				}
			}
		}
		localization_key = BorgStrongFavorCarabinieri
	}
	text = {
		trigger = {
			ITA = {
				check_variable = { ITA_Sogno_Carabinieri < ITA_Borghese_Carabinieri }
				check_variable = { ITA_Sogno_Carabinieri > 2 }
			}
		}
		localization_key = BorgFavorCarabinieri
	}
	text = {
		trigger = {
			ITA = {
				check_variable = { ITA_Sogno_Carabinieri = ITA_Borghese_Carabinieri }
			}
		}
		localization_key = NoFavorCarabinieri
	}
	text = {
		trigger = {
			ITA = {
				check_variable = { ITA_Sogno_Carabinieri > ITA_Borghese_Carabinieri }
				check_variable = { ITA_Borghese_Carabinieri > 2 }
			}
		}
		localization_key = SogFavorCarabinieri
	}
	text = {
		trigger = {
			ITA = {
				check_variable = { ITA_Sogno_Carabinieri > ITA_Borghese_Carabinieri }
				check_variable = {
					var = ITA_Borghese_Carabinieri
					value = 2
					compare = less_than_or_equals
				}
			}
		}
		localization_key = SogStrongFavorCarabinieri
	}
}

defined_text = {
	name = RiAGIP_Success
	text = {
		trigger = {
			ITA = {
				check_variable = {
					var = ITA_AGIP_Success
					value = 40
					compare = greater_than_or_equals
				}
			}
		}
		localization_key = AGIP_Extremely_Profitable
	}
	text = {
		trigger = {
			ITA = {
				check_variable = {
					var = ITA_AGIP_Success
					value = 30
					compare = greater_than_or_equals
				}
			}
		}
		localization_key = AGIP_Profitable
	}
	text = {
		trigger = {
			ITA = {
				check_variable = {
					var = ITA_AGIP_Success
					value = 20
					compare = greater_than_or_equals
				}
			}
		}
		localization_key = AGIP_Adequate
	}
	text = {
		trigger = {
			ITA = {
				check_variable = {
					var = ITA_AGIP_Success
					value = 10
					compare = greater_than_or_equals
				}
			}
		}
		localization_key = AGIP_Unprofitable
	}
	text = {
		trigger = {
			ITA = {
				check_variable = {
					var = ITA_AGIP_Success
					value = 0
					compare = greater_than_or_equals
				}
			}
		}
		localization_key = AGIP_Extremely_Unprofitable
	}
}


###############
#### E N I ####
###############

defined_text = {
	name = GetAlgeria_ENI_invest
	text = {
		trigger = {
			check_variable = { ITA_ENI_algeria_stage = 0 }
		}
		localization_key = ILG_invest
	}
	text = {
		trigger = {
			check_variable = { ITA_ENI_algeria_stage = 1 }
		}
		localization_key = ILG_prospect
	}
	text = {
		trigger = {
				check_variable = { ITA_ENI_algeria_stage = 2 }
				has_country_flag = ILG_medium_turnout_algeria
		}
		localization_key = ILG_development_med
	}
	text = {
		trigger = {
				check_variable = { ITA_ENI_algeria_stage = 2 }
				has_country_flag = ILG_high_turnout_algeria
		}
		localization_key = ILG_development_high
	}
	text = {
		trigger = {
				check_variable = { ITA_ENI_algeria_stage = 3 }
				has_country_flag = ILG_medium_turnout_algeria
		}
		localization_key = ILG_improve_med
	}
	text = {
		trigger = {
				check_variable = { ITA_ENI_algeria_stage = 3 }
				has_country_flag = ILG_high_turnout_algeria
		}
		localization_key = ILG_improve_high
	}
	text = {
		trigger = {
				check_variable = { ITA_ENI_algeria_stage = 4 }
				has_country_flag = ILG_high_turnout_algeria
		}
		localization_key = ILG_top_off_development
	}
}

defined_text = {
	name = GetAlgeria_ENI_desc_invest
	text = {
		trigger = {
			check_variable = { ITA_ENI_algeria_stage = 0 }
		}
		localization_key = ENI_invest
	}
	text = {
		trigger = {
			check_variable = { ITA_ENI_algeria_stage = 1 }
		}
		localization_key = ENI_prospect
	}
	text = {
		trigger = {
				check_variable = { ITA_ENI_algeria_stage = 2 }
				has_country_flag = ILG_low_turnout_algeria
		}
		localization_key = ENI_development_low
	}
	text = {
		trigger = {
				check_variable = { ITA_ENI_algeria_stage = 2 }
				has_country_flag = ILG_medium_turnout_algeria
		}
		localization_key = ENI_development_med
	}
	text = {
		trigger = {
				check_variable = { ITA_ENI_algeria_stage = 2 }
				has_country_flag = ILG_high_turnout_algeria
		}
		localization_key = ENI_development_high
	}
	text = {
		trigger = {
				check_variable = { ITA_ENI_algeria_stage = 3 }
				has_country_flag = ILG_medium_turnout_algeria
		}
		localization_key = ENI_improve_med
	}
	text = {
		trigger = {
				check_variable = { ITA_ENI_algeria_stage = 3 }
				has_country_flag = ILG_high_turnout_algeria
		}
		localization_key = ENI_improve_high
	}
	text = {
		trigger = {
				check_variable = { ITA_ENI_algeria_stage = 4 }
				has_country_flag = ILG_medium_turnout_algeria
		}
		localization_key = ENI_good_peak
	}
	text = {
		trigger = {
				check_variable = { ITA_ENI_algeria_stage = 4 }
				has_country_flag = ILG_high_turnout_algeria
		}
		localization_key = ENI_good_improvable
	}
	text = {
		trigger = {
				check_variable = { ITA_ENI_algeria_stage = 5 }
				has_country_flag = ILG_high_turnout_algeria
		}
		localization_key = ENI_toped_off_development
	}
}

defined_text = {
	name = GetAlbania_ENI_invest
	text = {
		trigger = {
			check_variable = { ITA_ENI_albania_stage = 0 }
		}
		localization_key = ALB_invest
	}
	text = {
		trigger = {
			check_variable = { ITA_ENI_albania_stage = 1 }
		}
		localization_key = ALB_prospect
	}
	text = {
		trigger = {
				check_variable = { ITA_ENI_albania_stage = 2 }
				has_country_flag = ALB_medium_turnout_albania
		}
		localization_key = ALB_development_med
	}
	text = {
		trigger = {
				check_variable = { ITA_ENI_albania_stage = 2 }
				has_country_flag = ALB_high_turnout_albania
		}
		localization_key = ALB_development_high
	}
	text = {
		trigger = {
				check_variable = { ITA_ENI_albania_stage = 3 }
				has_country_flag = ALB_medium_turnout_albania
		}
		localization_key = ALB_improve_med
	}
	text = {
		trigger = {
				check_variable = { ITA_ENI_albania_stage = 3 }
				has_country_flag = ALB_high_turnout_albania
		}
		localization_key = ALB_improve_high
	}
	text = {
		trigger = {
				check_variable = { ITA_ENI_albania_stage = 4 }
				has_country_flag = ALB_high_turnout_albania
		}
		localization_key = ALB_top_off_development
	}
}

defined_text = {
	name = GetAlbania_ENI_desc_invest
	text = {
		trigger = {
			check_variable = { ITA_ENI_albania_stage = 0 }
		}
		localization_key = ENI_invest
	}
	text = {
		trigger = {
			check_variable = { ITA_ENI_albania_stage = 1 }
		}
		localization_key = ENI_prospect
	}
	text = {
		trigger = {
				check_variable = { ITA_ENI_albania_stage = 2 }
				has_country_flag = ALB_low_turnout_albania
		}
		localization_key = ENI_development_low
	}
	text = {
		trigger = {
				check_variable = { ITA_ENI_albania_stage = 2 }
				has_country_flag = ALB_medium_turnout_albania
		}
		localization_key = ENI_development_med
	}
	text = {
		trigger = {
				check_variable = { ITA_ENI_albania_stage = 2 }
				has_country_flag = ALB_high_turnout_albania
		}
		localization_key = ENI_development_high
	}
	text = {
		trigger = {
				check_variable = { ITA_ENI_albania_stage = 3 }
				has_country_flag = ALB_medium_turnout_albania
		}
		localization_key = ENI_improve_med
	}
	text = {
		trigger = {
				check_variable = { ITA_ENI_albania_stage = 3 }
				has_country_flag = ALB_high_turnout
		}
		localization_key = ENI_improve_high
	}
	text = {
		trigger = {
				check_variable = { ITA_ENI_albania_stage = 4 }
				has_country_flag = ALB_medium_turnout_albania
		}
		localization_key = ENI_good_peak
	}
	text = {
		trigger = {
				check_variable = { ITA_ENI_albania_stage = 4 }
				has_country_flag = ALB_high_turnout_albania
		}
		localization_key = ENI_good_improvable
	}
	text = {
		trigger = {
				check_variable = { ITA_ENI_albania_stage = 5 }
				has_country_flag = ALB_high_turnout_albania
		}
		localization_key = ENI_toped_off_development
	}
}

defined_text = {
	name = GetCroatia_ENI_invest
	text = {
		trigger = {
			check_variable = { ITA_ENI_croatia_stage = 0 }
		}
		localization_key = CRO_invest
	}
	text = {
		trigger = {
			check_variable = { ITA_ENI_croatia_stage = 1 }
		}
		localization_key = CRO_prospect
	}
	text = {
		trigger = {
				check_variable = { ITA_ENI_croatia_stage = 2 }
				has_country_flag = ILG_medium_turnout_croatia
		}
		localization_key = CRO_development_med
	}
	text = {
		trigger = {
				check_variable = { ITA_ENI_croatia_stage = 2 }
				has_country_flag = ILG_high_turnout_croatia
		}
		localization_key = CRO_development_high
	}
	text = {
		trigger = {
				check_variable = { ITA_ENI_croatia_stage = 3 }
				has_country_flag = ILG_medium_turnout_croatia
		}
		localization_key = CRO_improve_med
	}
	text = {
		trigger = {
				check_variable = { ITA_ENI_croatia_stage = 3 }
				has_country_flag = ILG_high_turnout_croatia
		}
		localization_key = CRO_improve_high
	}
	text = {
		trigger = {
				check_variable = { ITA_ENI_croatia_stage = 4 }
				has_country_flag = ILG_high_turnout_croatia
		}
		localization_key = CRO_top_off_development
	}
}

defined_text = {
	name = GetCroatia_ENI_desc_invest
	text = {
		trigger = {
			check_variable = { ITA_ENI_croatia_stage = 0 }
		}
		localization_key = ENI_invest
	}
	text = {
		trigger = {
			check_variable = { ITA_ENI_croatia_stage = 1 }
		}
		localization_key = ENI_prospect
	}
	text = {
		trigger = {
				check_variable = { ITA_ENI_croatia_stage = 2 }
				has_country_flag = ILG_low_turnout_croatia
		}
		localization_key = ENI_development_low
	}
	text = {
		trigger = {
				check_variable = { ITA_ENI_croatia_stage = 2 }
				has_country_flag = ILG_medium_turnout_croatia
		}
		localization_key = ENI_development_med
	}
	text = {
		trigger = {
				check_variable = { ITA_ENI_croatia_stage = 2 }
				has_country_flag = ILG_high_turnout_croatia
		}
		localization_key = ENI_development_high
	}
	text = {
		trigger = {
				check_variable = { ITA_ENI_croatia_stage = 3 }
				has_country_flag = ILG_medium_turnout_croatia
		}
		localization_key = ENI_improve_med
	}
	text = {
		trigger = {
				check_variable = { ITA_ENI_croatia_stage = 3 }
				has_country_flag = ILG_high_turnout_croatia
		}
		localization_key = ENI_improve_high
	}
	text = {
		trigger = {
				check_variable = { ITA_ENI_croatia_stage = 4 }
				has_country_flag = ILG_medium_turnout_croatia
		}
		localization_key = ENI_good_peak
	}
	text = {
		trigger = {
				check_variable = { ITA_ENI_croatia_stage = 4 }
				has_country_flag = ILG_high_turnout_croatia
		}
		localization_key = ENI_good_improvable
	}
	text = {
		trigger = {
				check_variable = { ITA_ENI_croatia_stage = 5 }
				has_country_flag = ILG_high_turnout_croatia
		}
		localization_key = ENI_toped_off_development
	}
}

defined_text = {
	name = GetEastAfrica_ENI_invest
	text = {
		trigger = {
			check_variable = { ITA_ENI_east_africa_stage = 0 }
		}
		localization_key = IEA_invest
	}
	text = {
		trigger = {
			check_variable = { ITA_ENI_east_africa_stage = 1 }
		}
		localization_key = IEA_prospect
	}
	text = {
		trigger = {
				check_variable = { ITA_ENI_east_africa_stage = 2 }
				has_country_flag = ILG_medium_turnout_east_africa
		}
		localization_key = IEA_development_med
	}
	text = {
		trigger = {
				check_variable = { ITA_ENI_east_africa_stage = 2 }
				has_country_flag = ILG_high_turnout_east_africa
		}
		localization_key = IEA_development_high
	}
	text = {
		trigger = {
				check_variable = { ITA_ENI_east_africa_stage = 3 }
				has_country_flag = ILG_medium_turnout_east_africa
		}
		localization_key = IEA_improve_med
	}
	text = {
		trigger = {
				check_variable = { ITA_ENI_east_africa_stage = 3 }
				has_country_flag = ILG_high_turnout_east_africa
		}
		localization_key = IEA_improve_high
	}
	text = {
		trigger = {
				check_variable = { ITA_ENI_east_africa_stage = 4 }
				has_country_flag = ILG_high_turnout_east_africa
		}
		localization_key = IEA_top_off_development
	}
}

defined_text = {
	name = GetEastAfrica_ENI_desc_invest
	text = {
		trigger = {
			check_variable = { ITA_ENI_east_africa_stage = 0 }
		}
		localization_key = ENI_invest
	}
	text = {
		trigger = {
			check_variable = { ITA_ENI_east_africa_stage = 1 }
		}
		localization_key = ENI_prospect
	}
	text = {
		trigger = {
				check_variable = { ITA_ENI_east_africa_stage = 2 }
				has_country_flag = ILG_low_turnout_east_africa
		}
		localization_key = ENI_development_low
	}
	text = {
		trigger = {
				check_variable = { ITA_ENI_east_africa_stage = 2 }
				has_country_flag = ILG_medium_turnout_east_africa
		}
		localization_key = ENI_development_med
	}
	text = {
		trigger = {
				check_variable = { ITA_ENI_east_africa_stage = 2 }
				has_country_flag = ILG_high_turnout_east_africa
		}
		localization_key = ENI_development_high
	}
	text = {
		trigger = {
				check_variable = { ITA_ENI_east_africa_stage = 3 }
				has_country_flag = ILG_medium_turnout_east_africa
		}
		localization_key = ENI_improve_med
	}
	text = {
		trigger = {
				check_variable = { ITA_ENI_east_africa_stage = 3 }
				has_country_flag = ILG_high_turnout_east_africa
		}
		localization_key = ENI_improve_high
	}
	text = {
		trigger = {
				check_variable = { ITA_ENI_east_africa_stage = 4 }
				has_country_flag = ILG_medium_turnout_east_africa
		}
		localization_key = ENI_good_peak
	}
	text = {
		trigger = {
				check_variable = { ITA_ENI_east_africa_stage = 4 }
				has_country_flag = ILG_high_turnout_east_africa
		}
		localization_key = ENI_good_improvable
	}
	text = {
		trigger = {
				check_variable = { ITA_ENI_east_africa_stage = 5 }
				has_country_flag = ILG_high_turnout_east_africa
		}
		localization_key = ENI_toped_off_development
	}
}

defined_text = {
	name = GetEgypt_ENI_invest
	text = {
		trigger = {
			check_variable = { ITA_ENI_egypt_stage = 0 }
		}
		localization_key = EGY_invest
	}
	text = {
		trigger = {
			check_variable = { ITA_ENI_egypt_stage = 1 }
		}
		localization_key = EGY_prospect
	}
	text = {
		trigger = {
				check_variable = { ITA_ENI_egypt_stage = 2 }
				has_country_flag = ILG_medium_turnout_egypt
		}
		localization_key = EGY_development_med
	}
	text = {
		trigger = {
				check_variable = { ITA_ENI_egypt_stage = 2 }
				has_country_flag = ILG_high_turnout_egypt
		}
		localization_key = EGY_development_high
	}
	text = {
		trigger = {
				check_variable = { ITA_ENI_egypt_stage = 3 }
				has_country_flag = ILG_medium_turnout_egypt
		}
		localization_key = EGY_improve_med
	}
	text = {
		trigger = {
				check_variable = { ITA_ENI_egypt_stage = 3 }
				has_country_flag = ILG_high_turnout_egypt
		}
		localization_key = EGY_improve_high
	}
	text = {
		trigger = {
				check_variable = { ITA_ENI_egypt_stage = 4 }
				has_country_flag = ILG_high_turnout_egypt
		}
		localization_key = EGY_top_off_development
	}
}

defined_text = {
	name = GetEgypt_ENI_desc_invest
	text = {
		trigger = {
			check_variable = { ITA_ENI_egypt_stage = 0 }
		}
		localization_key = ENI_invest
	}
	text = {
		trigger = {
			check_variable = { ITA_ENI_egypt_stage = 1 }
		}
		localization_key = ENI_prospect
	}
	text = {
		trigger = {
				check_variable = { ITA_ENI_egypt_stage = 2 }
				has_country_flag = ILG_low_turnout_egypt

		}
		localization_key = ENI_development_low
	}
	text = {
		trigger = {
				check_variable = { ITA_ENI_egypt_stage = 2 }
				has_country_flag = ILG_medium_turnout_egypt
		}
		localization_key = ENI_development_med
	}
	text = {
		trigger = {
				check_variable = { ITA_ENI_egypt_stage = 2 }
				has_country_flag = ILG_high_turnout_egypt
		}
		localization_key = ENI_development_high
	}
	text = {
		trigger = {
				check_variable = { ITA_ENI_egypt_stage = 3 }
				has_country_flag = ILG_medium_turnout_egypt
		}
		localization_key = ENI_improve_med
	}
	text = {
		trigger = {
				check_variable = { ITA_ENI_egypt_stage = 3 }
				has_country_flag = ILG_high_turnout_egypt
		}
		localization_key = ENI_improve_high
	}
	text = {
		trigger = {
				check_variable = { ITA_ENI_egypt_stage = 4 }
				has_country_flag = ILG_medium_turnout_egypt
		}
		localization_key = ENI_good_peak
	}
	text = {
		trigger = {
				check_variable = { ITA_ENI_egypt_stage = 4 }
				has_country_flag = ILG_high_turnout_egypt
		}
		localization_key = ENI_good_improvable
	}
	text = {
		trigger = {
				check_variable = { ITA_ENI_egypt_stage = 5 }
				has_country_flag = ILG_high_turnout_egypt
		}
		localization_key = ENI_toped_off_development
	}
}

defined_text = {
	name = GetGreece_ENI_invest
	text = {
		trigger = {
			check_variable = { ITA_ENI_greece_stage = 0 }
		}
		localization_key = GRE_invest
	}
	text = {
		trigger = {
			check_variable = { ITA_ENI_greece_stage = 1 }
		}
		localization_key = GRE_prospect
	}
	text = {
		trigger = {
				check_variable = { ITA_ENI_greece_stage = 2 }
				has_country_flag = ILG_medium_turnout_greece
		}
		localization_key = GRE_development_med
	}
	text = {
		trigger = {
				check_variable = { ITA_ENI_greece_stage = 2 }
				has_country_flag = ILG_high_turnout_greece
		}
		localization_key = GRE_development_high
	}
	text = {
		trigger = {
				check_variable = { ITA_ENI_greece_stage = 3 }
				has_country_flag = ILG_medium_turnout_greece
		}
		localization_key = GRE_improve_med
	}
	text = {
		trigger = {
				check_variable = { ITA_ENI_greece_stage = 3 }
				has_country_flag = ILG_high_turnout_greece
		}
		localization_key = GRE_improve_high
	}
	text = {
		trigger = {
				check_variable = { ITA_ENI_greece_stage = 4 }
				has_country_flag = ILG_high_turnout_greece
		}
		localization_key = GRE_top_off_development
	}
}

defined_text = {
	name = GetGreece_ENI_desc_invest
	text = {
		trigger = {
			check_variable = { ITA_ENI_greece_stage = 0 }
		}
		localization_key = ENI_invest
	}
	text = {
		trigger = {
			check_variable = { ITA_ENI_greece_stage = 1 }
		}
		localization_key = ENI_prospect
	}
	text = {
		trigger = {
				check_variable = { ITA_ENI_greece_stage = 2 }
				has_country_flag = ILG_low_turnout_greece
		}
		localization_key = ENI_development_low
	}
	text = {
		trigger = {
				check_variable = { ITA_ENI_greece_stage = 2 }
				has_country_flag = ILG_medium_turnout_greece
		}
		localization_key = ENI_development_med
	}
	text = {
		trigger = {
				check_variable = { ITA_ENI_greece_stage = 2 }
				has_country_flag = ILG_high_turnout_greece
		}
		localization_key = ENI_development_high
	}
	text = {
		trigger = {
				check_variable = { ITA_ENI_greece_stage = 3 }
				has_country_flag = ILG_medium_turnout_greece
		}
		localization_key = ENI_improve_med
	}
	text = {
		trigger = {
				check_variable = { ITA_ENI_greece_stage = 3 }
				has_country_flag = ILG_high_turnout_greece
		}
		localization_key = ENI_improve_high
	}
	text = {
		trigger = {
				check_variable = { ITA_ENI_greece_stage = 4 }
				has_country_flag = ILG_medium_turnout_greece
		}
		localization_key = ENI_good_peak
	}
	text = {
		trigger = {
				check_variable = { ITA_ENI_greece_stage = 4 }
				has_country_flag = ILG_high_turnout_greece
		}
		localization_key = ENI_good_improvable
	}
	text = {
		trigger = {
				check_variable = { ITA_ENI_greece_stage = 5 }
				has_country_flag = ILG_high_turnout_greece
		}
		localization_key = ENI_toped_off_development
	}
}

defined_text = {
	name = GetKuwait_ENI_invest
	text = {
		trigger = {
			check_variable = { ITA_ENI_kuwait_stage = 0 }
		}
		localization_key = KUW_invest
	}
	text = {
		trigger = {
			check_variable = { ITA_ENI_kuwait_stage = 1 }
		}
		localization_key = KUW_prospect
	}
	text = {
		trigger = {
				check_variable = { ITA_ENI_kuwait_stage = 2 }
				has_country_flag = ILG_medium_turnout_kuwait
		}
		localization_key = KUW_development_med
	}
	text = {
		trigger = {
				check_variable = { ITA_ENI_kuwait_stage = 2 }
				has_country_flag = ILG_high_turnout_kuwait
		}
		localization_key = KUW_development_high
	}
	text = {
		trigger = {
				check_variable = { ITA_ENI_kuwait_stage = 3 }
				has_country_flag = ILG_medium_turnout_kuwait
		}
		localization_key = KUW_improve_med
	}
	text = {
		trigger = {
				check_variable = { ITA_ENI_kuwait_stage = 3 }
				has_country_flag = ILG_high_turnout_kuwait
		}
		localization_key = KUW_improve_high
	}
	text = {
		trigger = {
				check_variable = { ITA_ENI_kuwait_stage = 4 }
				has_country_flag = ILG_high_turnout_kuwait
		}
		localization_key = KUW_top_off_development
	}
}

defined_text = {
	name = GetKuwait_ENI_desc_invest
	text = {
		trigger = {
			check_variable = { ITA_ENI_kuwait_stage = 0 }
		}
		localization_key = ENI_invest
	}
	text = {
		trigger = {
			check_variable = { ITA_ENI_kuwait_stage = 1 }
		}
		localization_key = ENI_prospect
	}
	text = {
		trigger = {
				check_variable = { ITA_ENI_kuwait_stage = 2 }
				has_country_flag = ILG_low_turnout_kuwait
		}
		localization_key = ENI_development_low
	}
	text = {
		trigger = {
				check_variable = { ITA_ENI_kuwait_stage = 2 }
				has_country_flag = ILG_medium_turnout_kuwait
		}
		localization_key = ENI_development_med
	}
	text = {
		trigger = {
				check_variable = { ITA_ENI_kuwait_stage = 2 }
				has_country_flag = ILG_high_turnout_kuwait
		}
		localization_key = ENI_development_high
	}
	text = {
		trigger = {
				check_variable = { ITA_ENI_kuwait_stage = 3 }
				has_country_flag = ILG_medium_turnout_kuwait
		}
		localization_key = ENI_improve_med
	}
	text = {
		trigger = {
				check_variable = { ITA_ENI_kuwait_stage = 3 }
				has_country_flag = ILG_high_turnout_kuwait
		}
		localization_key = ENI_improve_high
	}
	text = {
		trigger = {
				check_variable = { ITA_ENI_kuwait_stage = 4 }
				has_country_flag = ILG_medium_turnout_kuwait
		}
		localization_key = ENI_good_peak
	}
	text = {
		trigger = {
				check_variable = { ITA_ENI_kuwait_stage = 4 }
				has_country_flag = ILG_high_turnout_kuwait
		}
		localization_key = ENI_good_improvable
	}
	text = {
		trigger = {
				check_variable = { ITA_ENI_kuwait_stage = 5 }
				has_country_flag = ILG_high_turnout_kuwait
		}
		localization_key = ENI_toped_off_development
	}
}

defined_text = {
	name = GetIraq_ENI_invest
	text = {
		trigger = {
			check_variable = { ITA_ENI_iraq_stage = 0 }
		}
		localization_key = IRQ_invest
	}
	text = {
		trigger = {
			check_variable = { ITA_ENI_iraq_stage = 1 }
		}
		localization_key = IRQ_prospect
	}
	text = {
		trigger = {
				check_variable = { ITA_ENI_iraq_stage = 2 }
				has_country_flag = ILG_medium_turnout_iraq
		}
		localization_key = IRQ_development_med
	}
	text = {
		trigger = {
				check_variable = { ITA_ENI_iraq_stage = 2 }
				has_country_flag = ILG_high_turnout_iraq
		}
		localization_key = IRQ_development_high
	}
	text = {
		trigger = {
				check_variable = { ITA_ENI_iraq_stage = 3 }
				has_country_flag = ILG_medium_turnout_iraq
		}
		localization_key = IRQ_improve_med
	}
	text = {
		trigger = {
				check_variable = { ITA_ENI_iraq_stage = 3 }
				has_country_flag = ILG_high_turnout_iraq
		}
		localization_key = IRQ_improve_high
	}
	text = {
		trigger = {
				check_variable = { ITA_ENI_iraq_stage = 4 }
				has_country_flag = ILG_high_turnout_iraq
		}
		localization_key = IRQ_top_off_development
	}
}

defined_text = {
	name = GetIraq_ENI_desc_invest
	text = {
		trigger = {
			check_variable = { ITA_ENI_iraq_stage = 0 }
		}
		localization_key = ENI_invest
	}
	text = {
		trigger = {
			check_variable = { ITA_ENI_iraq_stage = 1 }
		}
		localization_key = ENI_prospect
	}
	text = {
		trigger = {
				check_variable = { ITA_ENI_iraq_stage = 2 }
				has_country_flag = ILG_low_turnout_iraq
		}
		localization_key = ENI_development_low
	}
	text = {
		trigger = {
				check_variable = { ITA_ENI_iraq_stage = 2 }
				has_country_flag = ILG_medium_turnout_iraq
		}
		localization_key = ENI_development_med
	}
	text = {
		trigger = {
				check_variable = { ITA_ENI_iraq_stage = 2 }
				has_country_flag = ILG_high_turnout_iraq
		}
		localization_key = ENI_development_high
	}
	text = {
		trigger = {
				check_variable = { ITA_ENI_iraq_stage = 3 }
				has_country_flag = ILG_medium_turnout_iraq
		}
		localization_key = ENI_improve_med
	}
	text = {
		trigger = {
				check_variable = { ITA_ENI_iraq_stage = 3 }
				has_country_flag = ILG_high_turnout_iraq
		}
		localization_key = ENI_improve_high
	}
	text = {
		trigger = {
				check_variable = { ITA_ENI_iraq_stage = 4 }
				has_country_flag = ILG_medium_turnout_iraq
		}
		localization_key = ENI_good_peak
	}
	text = {
		trigger = {
				check_variable = { ITA_ENI_iraq_stage = 4 }
				has_country_flag = ILG_high_turnout_iraq
		}
		localization_key = ENI_good_improvable
	}
	text = {
		trigger = {
				check_variable = { ITA_ENI_iraq_stage = 5 }
				has_country_flag = ILG_high_turnout_iraq
		}
		localization_key = ENI_toped_off_development
	}
}

defined_text = {
	name = GetItaly_ENI_invest
	text = {
		trigger = {
			check_variable = { ITA_ENI_italy_stage = 0 }
		}
		localization_key = ITA_invest
	}
	text = {
		trigger = {
			check_variable = { ITA_ENI_italy_stage = 1 }
		}
		localization_key = ITA_prospect
	}
	text = {
		trigger = {
				check_variable = { ITA_ENI_italy_stage = 2 }
				has_country_flag = ILG_medium_turnout_italy
		}
		localization_key = ITA_development_med
	}
	text = {
		trigger = {
				check_variable = { ITA_ENI_italy_stage = 2 }
				has_country_flag = ILG_high_turnout_italy
		}
		localization_key = ITA_development_high
	}
	text = {
		trigger = {
				check_variable = { ITA_ENI_italy_stage = 3 }
				has_country_flag = ILG_medium_turnout_italy
		}
		localization_key = ITA_improve_med
	}
	text = {
		trigger = {
				check_variable = { ITA_ENI_italy_stage = 3 }
				has_country_flag = ILG_high_turnout_italy
		}
		localization_key = ITA_improve_high
	}
	text = {
		trigger = {
				check_variable = { ITA_ENI_italy_stage = 4 }
				has_country_flag = ILG_high_turnout_italy
		}
		localization_key = ITA_top_off_development
	}
}

defined_text = {
	name = GetItaly_ENI_desc_invest
	text = {
		trigger = {
			check_variable = { ITA_ENI_italy_stage = 0 }
		}
		localization_key = ENI_invest
	}
	text = {
		trigger = {
			check_variable = { ITA_ENI_italy_stage = 1 }
		}
		localization_key = ENI_prospect
	}
	text = {
		trigger = {
				check_variable = { ITA_ENI_italy_stage = 2 }
				has_country_flag = ILG_low_turnout_italy
		}
		localization_key = ENI_development_low
	}
	text = {
		trigger = {
				check_variable = { ITA_ENI_italy_stage = 2 }
				has_country_flag = ILG_medium_turnout_italy
		}
		localization_key = ENI_development_med
	}
	text = {
		trigger = {
				check_variable = { ITA_ENI_italy_stage = 2 }
				has_country_flag = ILG_high_turnout_italy
		}
		localization_key = ENI_development_high
	}
	text = {
		trigger = {
				check_variable = { ITA_ENI_italy_stage = 3 }
				has_country_flag = ILG_medium_turnout_italy
		}
		localization_key = ENI_improve_med
	}
	text = {
		trigger = {
				check_variable = { ITA_ENI_italy_stage = 3 }
				has_country_flag = ILG_high_turnout_italy
		}
		localization_key = ENI_improve_high
	}
	text = {
		trigger = {
				check_variable = { ITA_ENI_italy_stage = 4 }
				has_country_flag = ILG_medium_turnout_italy
		}
		localization_key = ENI_good_peak
	}
	text = {
		trigger = {
				check_variable = { ITA_ENI_italy_stage = 4 }
				has_country_flag = ILG_high_turnout_italy
		}
		localization_key = ENI_good_improvable
	}
	text = {
		trigger = {
				check_variable = { ITA_ENI_italy_stage = 5 }
				has_country_flag = ILG_high_turnout_italy
		}
		localization_key = ENI_toped_off_development
	}
}

defined_text = {
	name = GetLibya_ENI_invest
	text = {
		trigger = {
			check_variable = { ITA_ENI_libya_stage = 0 }
		}
		localization_key = LBA_invest
	}
	text = {
		trigger = {
			check_variable = { ITA_ENI_libya_stage = 1 }
		}
		localization_key = LBA_prospect
	}
	text = {
		trigger = {
				check_variable = { ITA_ENI_libya_stage = 2 }
				has_country_flag = ILG_medium_turnout_libya
		}
		localization_key = LBA_development_med
	}
	text = {
		trigger = {
				check_variable = { ITA_ENI_libya_stage = 2 }
				has_country_flag = ILG_high_turnout_libya
		}
		localization_key = LBA_development_high
	}
	text = {
		trigger = {
				check_variable = { ITA_ENI_libya_stage = 3 }
				has_country_flag = ILG_medium_turnout_libya
		}
		localization_key = LBA_improve_med
	}
	text = {
		trigger = {
				check_variable = { ITA_ENI_libya_stage = 3 }
				has_country_flag = ILG_high_turnout_libya
		}
		localization_key = LBA_improve_high
	}
	text = {
		trigger = {
				check_variable = { ITA_ENI_libya_stage = 4 }
				has_country_flag = ILG_high_turnout_libya
		}
		localization_key = LBA_top_off_development
	}
}

defined_text = {
	name = GetLibya_ENI_desc_invest
	text = {
		trigger = {
			check_variable = { ITA_ENI_libya_stage = 0 }
		}
		localization_key = ENI_invest
	}
	text = {
		trigger = {
			check_variable = { ITA_ENI_libya_stage = 1 }
		}
		localization_key = ENI_prospect
	}
	text = {
		trigger = {
				check_variable = { ITA_ENI_libya_stage = 2 }
				has_country_flag = ILG_low_turnout_libya
		}
		localization_key = ENI_development_low
	}
	text = {
		trigger = {
				check_variable = { ITA_ENI_libya_stage = 2 }
				has_country_flag = ILG_medium_turnout_libya
		}
		localization_key = ENI_development_med
	}
	text = {
		trigger = {
				check_variable = { ITA_ENI_libya_stage = 2 }
				has_country_flag = ILG_high_turnout_libya
		}
		localization_key = ENI_development_high
	}
	text = {
		trigger = {
				check_variable = { ITA_ENI_libya_stage = 3 }
				has_country_flag = ILG_medium_turnout_libya
		}
		localization_key = ENI_improve_med
	}
	text = {
		trigger = {
				check_variable = { ITA_ENI_libya_stage = 3 }
				has_country_flag = ILG_high_turnout_libya
		}
		localization_key = ENI_improve_high
	}
	text = {
		trigger = {
				check_variable = { ITA_ENI_libya_stage = 4 }
				has_country_flag = ILG_medium_turnout_libya
		}
		localization_key = ENI_good_peak
	}
	text = {
		trigger = {
				check_variable = { ITA_ENI_libya_stage = 4 }
				has_country_flag = ILG_high_turnout_libya
		}
		localization_key = ENI_good_improvable
	}
	text = {
		trigger = {
				check_variable = { ITA_ENI_libya_stage = 5 }
				has_country_flag = ILG_high_turnout_libya
		}
		localization_key = ENI_toped_off_development
	}
}

defined_text = {
	name = GetNorth_Sudan_ENI_invest
	text = {
		trigger = {
			check_variable = { ITA_ENI_north_sudan_stage = 0 }
		}
		localization_key = NSD_invest
	}
	text = {
		trigger = {
			check_variable = { ITA_ENI_north_sudan_stage = 1 }
		}
		localization_key = NSD_prospect
	}
	text = {
		trigger = {
				check_variable = { ITA_ENI_north_sudan_stage = 2 }
				has_country_flag = ILG_medium_turnout_north_sudan
		}
		localization_key = NSD_development_med
	}
	text = {
		trigger = {
				check_variable = { ITA_ENI_north_sudan_stage = 2 }
				has_country_flag = ILG_high_turnout_north_sudan
		}
		localization_key = NSD_development_high
	}
	text = {
		trigger = {
				check_variable = { ITA_ENI_north_sudan_stage = 3 }
				has_country_flag = ILG_medium_turnout_north_sudan
		}
		localization_key = NSD_improve_med
	}
	text = {
		trigger = {
				check_variable = { ITA_ENI_north_sudan_stage = 3 }
				has_country_flag = ILG_high_turnout_north_sudan
		}
		localization_key = NSD_improve_high
	}
	text = {
		trigger = {
				check_variable = { ITA_ENI_north_sudan_stage = 4 }
				has_country_flag = ILG_high_turnout_north_sudan
		}
		localization_key = NSD_top_off_development
	}
}

defined_text = {
	name = GetNorth_Sudan_ENI_desc_invest
	text = {
		trigger = {
			check_variable = { ITA_ENI_north_sudan_stage = 0 }
		}
		localization_key = ENI_invest
	}
	text = {
		trigger = {
			check_variable = { ITA_ENI_north_sudan_stage = 1 }
		}
		localization_key = ENI_prospect
	}
	text = {
		trigger = {
				check_variable = { ITA_ENI_north_sudan_stage = 2 }
				has_country_flag = ILG_low_turnout_north_sudan
		}
		localization_key = ENI_development_low
	}
	text = {
		trigger = {
				check_variable = { ITA_ENI_north_sudan_stage = 2 }
				has_country_flag = ILG_medium_turnout_north_sudan
		}
		localization_key = ENI_development_med
	}
	text = {
		trigger = {
				check_variable = { ITA_ENI_north_sudan_stage = 2 }
				has_country_flag = ILG_high_turnout_north_sudan
		}
		localization_key = ENI_development_high
	}
	text = {
		trigger = {
				check_variable = { ITA_ENI_north_sudan_stage = 3 }
				has_country_flag = ILG_medium_turnout_north_sudan
		}
		localization_key = ENI_improve_med
	}
	text = {
		trigger = {
				check_variable = { ITA_ENI_north_sudan_stage = 3 }
				has_country_flag = ILG_high_turnout_north_sudan
		}
		localization_key = ENI_improve_high
	}
	text = {
		trigger = {
				check_variable = { ITA_ENI_north_sudan_stage = 4 }
				has_country_flag = ILG_medium_turnout_north_sudan
		}
		localization_key = ENI_good_peak
	}
	text = {
		trigger = {
				check_variable = { ITA_ENI_north_sudan_stage = 4 }
				has_country_flag = ILG_high_turnout_north_sudan
		}
		localization_key = ENI_good_improvable
	}
	text = {
		trigger = {
				check_variable = { ITA_ENI_north_sudan_stage = 5 }
				has_country_flag = ILG_high_turnout_north_sudan
		}
		localization_key = ENI_toped_off_development
	}
}

defined_text = {
	name = GetOman_ENI_invest
	text = {
		trigger = {
			check_variable = { ITA_ENI_oman_stage = 0 }
		}
		localization_key = OMA_invest
	}
	text = {
		trigger = {
			check_variable = { ITA_ENI_oman_stage = 1 }
		}
		localization_key = OMA_prospect
	}
	text = {
		trigger = {
				check_variable = { ITA_ENI_oman_stage = 2 }
				has_country_flag = ILG_medium_turnout_oman
		}
		localization_key = OMA_development_med
	}
	text = {
		trigger = {
				check_variable = { ITA_ENI_oman_stage = 2 }
				has_country_flag = ILG_high_turnout_oman
		}
		localization_key = OMA_development_high
	}
	text = {
		trigger = {
				check_variable = { ITA_ENI_oman_stage = 3 }
				has_country_flag = ILG_medium_turnout_oman
		}
		localization_key = OMA_improve_med
	}
	text = {
		trigger = {
				check_variable = { ITA_ENI_oman_stage = 3 }
				has_country_flag = ILG_high_turnout_oman
		}
		localization_key = OMA_improve_high
	}
	text = {
		trigger = {
				check_variable = { ITA_ENI_oman_stage = 4 }
				has_country_flag = ILG_high_turnout_oman
		}
		localization_key = OMA_top_off_development
	}
}

defined_text = {
	name = GetOman_ENI_desc_invest
	text = {
		trigger = {
			check_variable = { ITA_ENI_oman_stage = 0 }
		}
		localization_key = ENI_invest
	}
	text = {
		trigger = {
			check_variable = { ITA_ENI_oman_stage = 1 }
		}
		localization_key = ENI_prospect
	}
	text = {
		trigger = {
				check_variable = { ITA_ENI_oman_stage = 2 }
				has_country_flag = ILG_low_turnout_oman
		}
		localization_key = ENI_development_low
	}
	text = {
		trigger = {
				check_variable = { ITA_ENI_oman_stage = 2 }
				has_country_flag = ILG_medium_turnout_oman
		}
		localization_key = ENI_development_med
	}
	text = {
		trigger = {
				check_variable = { ITA_ENI_oman_stage = 2 }
				has_country_flag = ILG_high_turnout_oman
		}
		localization_key = ENI_development_high
	}
	text = {
		trigger = {
				check_variable = { ITA_ENI_oman_stage = 3 }
				has_country_flag = ILG_medium_turnout_oman
		}
		localization_key = ENI_improve_med
	}
	text = {
		trigger = {
				check_variable = { ITA_ENI_oman_stage = 3 }
				has_country_flag = ILG_high_turnout_oman
		}
		localization_key = ENI_improve_high
	}
	text = {
		trigger = {
				check_variable = { ITA_ENI_oman_stage = 4 }
				has_country_flag = ILG_medium_turnout_oman
		}
		localization_key = ENI_good_peak
	}
	text = {
		trigger = {
				check_variable = { ITA_ENI_oman_stage = 4 }
				has_country_flag = ILG_high_turnout_oman
		}
		localization_key = ENI_good_improvable
	}
	text = {
		trigger = {
				check_variable = { ITA_ENI_oman_stage = 5 }
				has_country_flag = ILG_high_turnout_oman
		}
		localization_key = ENI_toped_off_development
	}
}

defined_text = {
	name = GetPalestine_ENI_invest
	text = {
		trigger = {
			check_variable = { ITA_ENI_palestine_stage = 0 }
		}
		localization_key = PAL_invest
	}
	text = {
		trigger = {
			check_variable = { ITA_ENI_palestine_stage = 1 }
		}
		localization_key = PAL_prospect
	}
	text = {
		trigger = {
				check_variable = { ITA_ENI_palestine_stage = 2 }
				has_country_flag = ILG_medium_turnout_palestine
		}
		localization_key = PAL_development_med
	}
	text = {
		trigger = {
				check_variable = { ITA_ENI_palestine_stage = 2 }
				has_country_flag = ILG_high_turnout_palestine
		}
		localization_key = PAL_development_high
	}
	text = {
		trigger = {
				check_variable = { ITA_ENI_palestine_stage = 3 }
				has_country_flag = ILG_medium_turnout_palestine
		}
		localization_key = PAL_improve_med
	}
	text = {
		trigger = {
				check_variable = { ITA_ENI_palestine_stage = 3 }
				has_country_flag = ILG_high_turnout_palestine
		}
		localization_key = PAL_improve_high
	}
	text = {
		trigger = {
				check_variable = { ITA_ENI_palestine_stage = 4 }
				has_country_flag = ILG_high_turnout_palestine
		}
		localization_key = PAL_top_off_development
	}
}

defined_text = {
	name = GetPalestine_ENI_desc_invest
	text = {
		trigger = {
			check_variable = { ITA_ENI_palestine_stage = 0 }
		}
		localization_key = ENI_invest
	}
	text = {
		trigger = {
			check_variable = { ITA_ENI_palestine_stage = 1 }
		}
		localization_key = ENI_prospect
	}
	text = {
		trigger = {
				check_variable = { ITA_ENI_palestine_stage = 2 }
				has_country_flag = ILG_low_turnout_palestine
		}
		localization_key = ENI_development_low
	}
	text = {
		trigger = {
				check_variable = { ITA_ENI_palestine_stage = 2 }
				has_country_flag = ILG_medium_turnout_palestine
		}
		localization_key = ENI_development_med
	}
	text = {
		trigger = {
				check_variable = { ITA_ENI_palestine_stage = 2 }
				has_country_flag = ILG_high_turnout_palestine
		}
		localization_key = ENI_development_high
	}
	text = {
		trigger = {
				check_variable = { ITA_ENI_palestine_stage = 3 }
				has_country_flag = ILG_medium_turnout_palestine
		}
		localization_key = ENI_improve_med
	}
	text = {
		trigger = {
				check_variable = { ITA_ENI_palestine_stage = 3 }
				has_country_flag = ILG_high_turnout_palestine
		}
		localization_key = ENI_improve_high
	}
	text = {
		trigger = {
				check_variable = { ITA_ENI_palestine_stage = 4 }
				has_country_flag = ILG_medium_turnout_palestine
		}
		localization_key = ENI_good_peak
	}
	text = {
		trigger = {
				check_variable = { ITA_ENI_palestine_stage = 4 }
				has_country_flag = ILG_high_turnout_palestine
		}
		localization_key = ENI_good_improvable
	}
	text = {
		trigger = {
				check_variable = { ITA_ENI_palestine_stage = 5 }
				has_country_flag = ILG_high_turnout_palestine
		}
		localization_key = ENI_toped_off_development
	}
}

defined_text = {
	name = GetPersian_Gulf_ENI_invest
	text = {
		trigger = {
			check_variable = { ITA_ENI_persian_gulf_stage = 0 }
		}
		localization_key = PER_invest
	}
	text = {
		trigger = {
			check_variable = { ITA_ENI_persian_gulf_stage = 1 }
		}
		localization_key = PER_prospect
	}
	text = {
		trigger = {
				check_variable = { ITA_ENI_persian_gulf_stage = 2 }
				has_country_flag = ILG_medium_turnout_persian_gulf
		}
		localization_key = PER_development_med
	}
	text = {
		trigger = {
				check_variable = { ITA_ENI_persian_gulf_stage = 2 }
				has_country_flag = ILG_high_turnout_persian_gulf
		}
		localization_key = PER_development_high
	}
	text = {
		trigger = {
				check_variable = { ITA_ENI_persian_gulf_stage = 3 }
				has_country_flag = ILG_medium_turnout_persian_gulf
		}
		localization_key = PER_improve_med
	}
	text = {
		trigger = {
				check_variable = { ITA_ENI_persian_gulf_stage = 3 }
				has_country_flag = ILG_high_turnout_persian_gulf
		}
		localization_key = PER_improve_high
	}
	text = {
		trigger = {
				check_variable = { ITA_ENI_persian_gulf_stage = 4 }
				has_country_flag = ILG_high_turnout_persian_gulf
		}
		localization_key = PER_top_off_development
	}
}

defined_text = {
	name = GetPersian_Gulf_ENI_desc_invest
	text = {
		trigger = {
			check_variable = { ITA_ENI_persian_gulf_stage = 0 }
		}
		localization_key = ENI_invest
	}
	text = {
		trigger = {
			check_variable = { ITA_ENI_persian_gulf_stage = 1 }
		}
		localization_key = ENI_prospect
	}
	text = {
		trigger = {
				check_variable = { ITA_ENI_persian_gulf_stage = 2 }
				has_country_flag = ILG_low_turnout_persian_gulf
		}
		localization_key = ENI_development_low
	}
	text = {
		trigger = {
				check_variable = { ITA_ENI_persian_gulf_stage = 2 }
				has_country_flag = ILG_medium_turnout_persian_gulf
		}
		localization_key = ENI_development_med
	}
	text = {
		trigger = {
				check_variable = { ITA_ENI_persian_gulf_stage = 2 }
				has_country_flag = ILG_high_turnout_persian_gulf
		}
		localization_key = ENI_development_high
	}
	text = {
		trigger = {
				check_variable = { ITA_ENI_persian_gulf_stage = 3 }
				has_country_flag = ILG_medium_turnout_persian_gulf
		}
		localization_key = ENI_improve_med
	}
	text = {
		trigger = {
				check_variable = { ITA_ENI_persian_gulf_stage = 3 }
				has_country_flag = ILG_high_turnout_persian_gulf
		}
		localization_key = ENI_improve_high
	}
	text = {
		trigger = {
				check_variable = { ITA_ENI_persian_gulf_stage = 4 }
				has_country_flag = ILG_medium_turnout_persian_gulf
		}
		localization_key = ENI_good_peak
	}
	text = {
		trigger = {
				check_variable = { ITA_ENI_persian_gulf_stage = 4 }
				has_country_flag = ILG_high_turnout_persian_gulf
		}
		localization_key = ENI_good_improvable
	}
	text = {
		trigger = {
				check_variable = { ITA_ENI_persian_gulf_stage = 5 }
				has_country_flag = ILG_high_turnout_persian_gulf
		}
		localization_key = ENI_toped_off_development
	}
}

defined_text = {
	name = GetSouth_Sudan_ENI_invest
	text = {
		trigger = {
			check_variable = { ITA_ENI_south_sudan_stage = 0 }
		}
		localization_key = SSD_invest
	}
	text = {
		trigger = {
			check_variable = { ITA_ENI_south_sudan_stage = 1 }
		}
		localization_key = SSD_prospect
	}
	text = {
		trigger = {
				check_variable = { ITA_ENI_south_sudan_stage = 2 }
				has_country_flag = ILG_medium_turnout_south_sudan
		}
		localization_key = SSD_development_med
	}
	text = {
		trigger = {
				check_variable = { ITA_ENI_south_sudan_stage = 2 }
				has_country_flag = ILG_high_turnout_south_sudan
		}
		localization_key = SSD_development_high
	}
	text = {
		trigger = {
				check_variable = { ITA_ENI_south_sudan_stage = 3 }
				has_country_flag = ILG_medium_turnout_south_sudan
		}
		localization_key = SSD_improve_med
	}
	text = {
		trigger = {
				check_variable = { ITA_ENI_south_sudan_stage = 3 }
				has_country_flag = ILG_high_turnout_south_sudan
		}
		localization_key = SSD_improve_high
	}
	text = {
		trigger = {
				check_variable = { ITA_ENI_south_sudan_stage = 4 }
				has_country_flag = ILG_high_turnout_south_sudan
		}
		localization_key = SSD_top_off_development
	}
}

defined_text = {
	name = GetSouth_Sudan_ENI_desc_invest
	text = {
		trigger = {
			check_variable = { ITA_ENI_south_sudan_stage = 0 }
		}
		localization_key = ENI_invest
	}
	text = {
		trigger = {
			check_variable = { ITA_ENI_south_sudan_stage = 1 }
		}
		localization_key = ENI_prospect
	}
	text = {
		trigger = {
				check_variable = { ITA_ENI_south_sudan_stage = 2 }
				has_country_flag = ILG_low_turnout_south_sudan
		}
		localization_key = ENI_development_low
	}
	text = {
		trigger = {
				check_variable = { ITA_ENI_south_sudan_stage = 2 }
				has_country_flag = ILG_medium_turnout_south_sudan
		}
		localization_key = ENI_development_med
	}
	text = {
		trigger = {
				check_variable = { ITA_ENI_south_sudan_stage = 2 }
				has_country_flag = ILG_high_turnout_south_sudan
		}
		localization_key = ENI_development_high
	}
	text = {
		trigger = {
				check_variable = { ITA_ENI_south_sudan_stage = 3 }
				has_country_flag = ILG_medium_turnout_south_sudan
		}
		localization_key = ENI_improve_med
	}
	text = {
		trigger = {
				check_variable = { ITA_ENI_south_sudan_stage = 3 }
				has_country_flag = ILG_high_turnout_south_sudan
		}
		localization_key = ENI_improve_high
	}
	text = {
		trigger = {
				check_variable = { ITA_ENI_south_sudan_stage = 4 }
				has_country_flag = ILG_medium_turnout_south_sudan
		}
		localization_key = ENI_good_peak
	}
	text = {
		trigger = {
				check_variable = { ITA_ENI_south_sudan_stage = 4 }
				has_country_flag = ILG_high_turnout_south_sudan
		}
		localization_key = ENI_good_improvable
	}
	text = {
		trigger = {
				check_variable = { ITA_ENI_south_sudan_stage = 5 }
				has_country_flag = ILG_high_turnout_south_sudan
		}
		localization_key = ENI_toped_off_development
	}
}

defined_text = {
	name = GetTransjordan_ENI_invest
	text = {
		trigger = {
			check_variable = { ITA_ENI_transjordan_stage = 0 }
		}
		localization_key = JOR_invest
	}
	text = {
		trigger = {
			check_variable = { ITA_ENI_transjordan_stage = 1 }
		}
		localization_key = JOR_prospect
	}
	text = {
		trigger = {
				check_variable = { ITA_ENI_transjordan_stage = 2 }
				has_country_flag = ILG_medium_turnout_transjordan
		}
		localization_key = JOR_development_med
	}
	text = {
		trigger = {
				check_variable = { ITA_ENI_transjordan_stage = 2 }
				has_country_flag = ILG_high_turnout_transjordan
		}
		localization_key = JOR_development_high
	}
	text = {
		trigger = {
				check_variable = { ITA_ENI_transjordan_stage = 3 }
				has_country_flag = ILG_medium_turnout_transjordan
		}
		localization_key = JOR_improve_med
	}
	text = {
		trigger = {
				check_variable = { ITA_ENI_transjordan_stage = 3 }
				has_country_flag = ILG_high_turnout_transjordan
		}
		localization_key = JOR_improve_high
	}
	text = {
		trigger = {
				check_variable = { ITA_ENI_transjordan_stage = 4 }
				has_country_flag = ILG_high_turnout_transjordan
		}
		localization_key = JOR_top_off_development
	}
}

defined_text = {
	name = GetTransjordan_ENI_desc_invest
	text = {
		trigger = {
			check_variable = { ITA_ENI_transjordan_stage = 0 }
		}
		localization_key = ENI_invest
	}
	text = {
		trigger = {
			check_variable = { ITA_ENI_transjordan_stage = 1 }
		}
		localization_key = ENI_prospect
	}
	text = {
		trigger = {
				check_variable = { ITA_ENI_transjordan_stage = 2 }
				has_country_flag = ILG_low_turnout_transjordan
		}
		localization_key = ENI_development_low
	}
	text = {
		trigger = {
				check_variable = { ITA_ENI_transjordan_stage = 2 }
				has_country_flag = ILG_medium_turnout_transjordan
		}
		localization_key = ENI_development_med
	}
	text = {
		trigger = {
				check_variable = { ITA_ENI_transjordan_stage = 2 }
				has_country_flag = ILG_high_turnout_transjordan
		}
		localization_key = ENI_development_high
	}
	text = {
		trigger = {
				check_variable = { ITA_ENI_transjordan_stage = 3 }
				has_country_flag = ILG_medium_turnout_transjordan
		}
		localization_key = ENI_improve_med
	}
	text = {
		trigger = {
				check_variable = { ITA_ENI_transjordan_stage = 3 }
				has_country_flag = ILG_high_turnout_transjordan
		}
		localization_key = ENI_improve_high
	}
	text = {
		trigger = {
				check_variable = { ITA_ENI_transjordan_stage = 4 }
				has_country_flag = ILG_medium_turnout_transjordan
		}
		localization_key = ENI_good_peak
	}
	text = {
		trigger = {
				check_variable = { ITA_ENI_transjordan_stage = 4 }
				has_country_flag = ILG_high_turnout_transjordan
		}
		localization_key = ENI_good_improvable
	}
	text = {
		trigger = {
				check_variable = { ITA_ENI_transjordan_stage = 5 }
				has_country_flag = ILG_high_turnout_transjordan
		}
		localization_key = ENI_toped_off_development
	}
}

defined_text = {
	name = GetTunisia_ENI_invest
	text = {
		trigger = {
			check_variable = { ITA_ENI_tunisia_stage = 0 }
		}
		localization_key = TUN_invest
	}
	text = {
		trigger = {
			check_variable = { ITA_ENI_tunisia_stage = 1 }
		}
		localization_key = TUN_prospect
	}
	text = {
		trigger = {
				check_variable = { ITA_ENI_tunisia_stage = 2 }
				has_country_flag = ILG_medium_turnout_tunisia
		}
		localization_key = TUN_development_med
	}
	text = {
		trigger = {
				check_variable = { ITA_ENI_tunisia_stage = 2 }
				has_country_flag = ILG_high_turnout_tunisia
		}
		localization_key = TUN_development_high
	}
	text = {
		trigger = {
				check_variable = { ITA_ENI_tunisia_stage = 3 }
				has_country_flag = ILG_medium_turnout_tunisia
		}
		localization_key = TUN_improve_med
	}
	text = {
		trigger = {
				check_variable = { ITA_ENI_tunisia_stage = 3 }
				has_country_flag = ILG_high_turnout_tunisia
		}
		localization_key = TUN_improve_high
	}
	text = {
		trigger = {
				check_variable = { ITA_ENI_tunisia_stage = 4 }
				has_country_flag = ILG_high_turnout_tunisia
		}
		localization_key = TUN_top_off_development
	}
}

defined_text = {
	name = GetTunisia_ENI_desc_invest
	text = {
		trigger = {
			check_variable = { ITA_ENI_tunisia_stage = 0 }
		}
		localization_key = ENI_invest
	}
	text = {
		trigger = {
			check_variable = { ITA_ENI_tunisia_stage = 1 }
		}
		localization_key = ENI_prospect
	}
	text = {
		trigger = {
				check_variable = { ITA_ENI_tunisia_stage = 2 }
				has_country_flag = ILG_low_turnout_tunisia
		}
		localization_key = ENI_development_low
	}
	text = {
		trigger = {
				check_variable = { ITA_ENI_tunisia_stage = 2 }
				has_country_flag = ILG_medium_turnout_tunisia
		}
		localization_key = ENI_development_med
	}
	text = {
		trigger = {
				check_variable = { ITA_ENI_tunisia_stage = 2 }
				has_country_flag = ILG_high_turnout_tunisia
		}
		localization_key = ENI_development_high
	}
	text = {
		trigger = {
				check_variable = { ITA_ENI_tunisia_stage = 3 }
				has_country_flag = ILG_medium_turnout_tunisia
		}
		localization_key = ENI_improve_med
	}
	text = {
		trigger = {
				check_variable = { ITA_ENI_tunisia_stage = 3 }
				has_country_flag = ILG_high_turnout_tunisia
		}
		localization_key = ENI_improve_high
	}
	text = {
		trigger = {
				check_variable = { ITA_ENI_tunisia_stage = 4 }
				has_country_flag = ILG_medium_turnout_tunisia
		}
		localization_key = ENI_good_peak
	}
	text = {
		trigger = {
				check_variable = { ITA_ENI_tunisia_stage = 4 }
				has_country_flag = ILG_high_turnout_tunisia
		}
		localization_key = ENI_good_improvable
	}
	text = {
		trigger = {
				check_variable = { ITA_ENI_tunisia_stage = 5 }
				has_country_flag = ILG_high_turnout_tunisia
		}
		localization_key = ENI_toped_off_development
	}
}

defined_text = {
	name = GetYemen_ENI_invest
	text = {
		trigger = {
			check_variable = { ITA_ENI_yemen_stage = 0 }
		}
		localization_key = YEM_invest
	}
	text = {
		trigger = {
			check_variable = { ITA_ENI_yemen_stage = 1 }
		}
		localization_key = YEM_prospect
	}
	text = {
		trigger = {
				check_variable = { ITA_ENI_yemen_stage = 2 }
				has_country_flag = ILG_medium_turnout_yemen
		}
		localization_key = YEM_development_med
	}
	text = {
		trigger = {
				check_variable = { ITA_ENI_yemen_stage = 2 }
				has_country_flag = ILG_high_turnout_yemen
		}
		localization_key = YEM_development_high
	}
	text = {
		trigger = {
				check_variable = { ITA_ENI_yemen_stage = 3 }
				has_country_flag = ILG_medium_turnout_yemen
		}
		localization_key = YEM_improve_med
	}
	text = {
		trigger = {
				check_variable = { ITA_ENI_yemen_stage = 3 }
				has_country_flag = ILG_high_turnout_yemen
		}
		localization_key = YEM_improve_high
	}
	text = {
		trigger = {
				check_variable = { ITA_ENI_yemen_stage = 4 }
				has_country_flag = ILG_high_turnout_yemen
		}
		localization_key = YEM_top_off_development
	}
}

defined_text = {
	name = GetYemen_ENI_desc_invest
	text = {
		trigger = {
			check_variable = { ITA_ENI_yemen_stage = 0 }
		}
		localization_key = ENI_invest
	}
	text = {
		trigger = {
			check_variable = { ITA_ENI_yemen_stage = 1 }
		}
		localization_key = ENI_prospect
	}
	text = {
		trigger = {
				check_variable = { ITA_ENI_yemen_stage = 2 }
				has_country_flag = ILG_low_turnout_yemen
		}
		localization_key = ENI_development_low
	}
	text = {
		trigger = {
				check_variable = { ITA_ENI_yemen_stage = 2 }
				has_country_flag = ILG_medium_turnout_yemen
		}
		localization_key = ENI_development_med
	}
	text = {
		trigger = {
				check_variable = { ITA_ENI_yemen_stage = 2 }
				has_country_flag = ILG_high_turnout_yemen
		}
		localization_key = ENI_development_high
	}
	text = {
		trigger = {
				check_variable = { ITA_ENI_yemen_stage = 3 }
				has_country_flag = ILG_medium_turnout_yemen
		}
		localization_key = ENI_improve_med
	}
	text = {
		trigger = {
				check_variable = { ITA_ENI_yemen_stage = 3 }
				has_country_flag = ILG_high_turnout_yemen
		}
		localization_key = ENI_improve_high
	}
	text = {
		trigger = {
				check_variable = { ITA_ENI_yemen_stage = 4 }
				has_country_flag = ILG_medium_turnout_yemen
		}
		localization_key = ENI_good_peak
	}
	text = {
		trigger = {
				check_variable = { ITA_ENI_yemen_stage = 4 }
				has_country_flag = ILG_high_turnout_yemen
		}
		localization_key = ENI_good_improvable
	}
	text = {
		trigger = {
				check_variable = { ITA_ENI_yemen_stage = 5 }
				has_country_flag = ILG_high_turnout_yemen
		}
		localization_key = ENI_toped_off_development
	}
}

defined_text = {
	name = ITA_Egypt_Block_Status
	text = {
		trigger = {
			check_variable = { ITA_EGY_management = 0 }
		}
		localization_key = ITA_Block_Status_0
	}

	text = {
		trigger = {
			check_variable = { ITA_EGY_management = 1 }
		}
		localization_key = ITA_Block_Status_1
	}

	text = {
		trigger = {
			check_variable = { ITA_EGY_management = 2 }
		}
		localization_key = ITA_Block_Status_2
	}

	text = {
		trigger = {
			check_variable = { ITA_EGY_management = 3 }
		}
		localization_key = ITA_Block_Status_3
	}
}

defined_text = {
	name = ITA_IEA_Block_Status
	text = {
		trigger = {
			check_variable = { ITA_IEA_management = 0 }
		}
		localization_key = ITA_Block_Status_0
	}

	text = {
		trigger = {
			check_variable = { ITA_IEA_management = 1 }
		}
		localization_key = ITA_Block_Status_1
	}

	text = {
		trigger = {
			check_variable = { ITA_IEA_management = 2 }
		}
		localization_key = ITA_Block_Status_2
	}

	text = {
		trigger = {
			check_variable = { ITA_IEA_management = 3 }
		}
		localization_key = ITA_Block_Status_3
	}
}

defined_text = {
	name = ITA_IME_Block_Status
	text = {
		trigger = {
			check_variable = { ITA_IME_management = 0 }
		}
		localization_key = ITA_Block_Status_0
	}

	text = {
		trigger = {
			check_variable = { ITA_IME_management = 1 }
		}
		localization_key = ITA_Block_Status_1
	}

	text = {
		trigger = {
			check_variable = { ITA_IME_management = 2 }
		}
		localization_key = ITA_Block_Status_2
	}

	text = {
		trigger = {
			check_variable = { ITA_IME_management = 3 }
		}
		localization_key = ITA_Block_Status_3
	}
}

defined_text = {
	name = ITA_GUL_Block_Status
	text = {
		trigger = {
			check_variable = { ITA_GUL_management = 0 }
		}
		localization_key = ITA_Block_Status_0
	}

	text = {
		trigger = {
			check_variable = { ITA_GUL_management = 1 }
		}
		localization_key = ITA_Block_Status_1
	}

	text = {
		trigger = {
			check_variable = { ITA_GUL_management = 2 }
		}
		localization_key = ITA_Block_Status_2
	}

	text = {
		trigger = {
			check_variable = { ITA_GUL_management = 3 }
		}
		localization_key = ITA_Block_Status_3
	}
}

defined_text = {
	name = ITA_ILG_Block_Status
	text = {
		trigger = {
			check_variable = { ITA_ILG_management = 0 }
		}
		localization_key = ITA_ILG_Block_Status_0
	}

	text = {
		trigger = {
			check_variable = { ITA_ILG_management = 1 }
		}
		localization_key = ITA_ILG_Block_Status_1
	}

	text = {
		trigger = {
			check_variable = { ITA_ILG_management = 2 }
		}
		localization_key = ITA_ILG_Block_Status_2
	}

	text = {
		trigger = {
			check_variable = { ITA_ILG_management = 3 }
		}
		localization_key = ITA_ILG_Block_Status_3
	}

	text = {
		trigger = {
			check_variable = { ITA_ILG_management = 0 }
			has_country_flag = ITA_algeria_done_empire
		}
		localization_key = ITA_NO_MORE_ALGERIA
	}
}

defined_text = {
	name = ITA_IRQ_Block_Status
	text = {
		trigger = {
			check_variable = { ITA_IRQ_management = 0 }
		}
		localization_key = ITA_Block_Status_0
	}

	text = {
		trigger = {
			check_variable = { ITA_IRQ_management = 1 }
		}
		localization_key = ITA_Block_Status_1
	}

	text = {
		trigger = {
			check_variable = { ITA_IRQ_management = 2 }
		}
		localization_key = ITA_Block_Status_2
	}

	text = {
		trigger = {
			check_variable = { ITA_IRQ_management = 3 }
		}
		localization_key = ITA_Block_Status_3
	}
}
