defined_text = {
	name = wal_politics_rulingparty
	text = {
		trigger = {
			OR = {
				has_government = fascism
				has_government = social_democrat
				has_government = authoritarian_democrat
			}
		}
		localization_key = WAL_PC_RULE
	}
	text = {
		trigger = {
			OR = {
				has_government = socialist
				has_government = social_conservative
			}
		}
		localization_key = WAL_UG_RULE
	}
}

defined_text = {
	name = wal_fac1
	text = {
		trigger = {
			check_variable = { WAL_POL_RULFAC^0 = 1 }
		}
		localization_key = WAL_AUTDEM_PARTY
	}
	text = {
		trigger = {
			check_variable = { WAL_POL_RULFAC^0 = 2 }
		}
		localization_key = WAL_SOCDEM_PARTY
	}
	text = {
		trigger = {
			check_variable = { WAL_POL_RULFAC^0 = 3 }
		}
		localization_key = WAL_FASCIST_PARTY
	}
	text = {
		trigger = {
			check_variable = { WAL_POL_RULFAC^0 = 4 }
		}
		localization_key = WAL_LIBSOC_PARTY
	}
	text = {
		trigger = {
			check_variable = { WAL_POL_RULFAC^0 = 5 }
		}
		localization_key = WAL_CONDEM_PARTY
	}
	text = {
		trigger = {
			check_variable = { WAL_POL_RULFAC^0 = 6 }
		}
		localization_key = WAL_NO_PARTY
	}
}

defined_text = {
	name = wal_fac2
	text = {
		trigger = {
			check_variable = { WAL_POL_RULFAC^1 = 1 }
		}
		localization_key = WAL_AUTDEM_PARTY
	}
	text = {
		trigger = {
			check_variable = { WAL_POL_RULFAC^1 = 2 }
		}
		localization_key = WAL_SOCDEM_PARTY
	}
	text = {
		trigger = {
			check_variable = { WAL_POL_RULFAC^1 = 3 }
		}
		localization_key = WAL_FASCIST_PARTY
	}
	text = {
		trigger = {
			check_variable = { WAL_POL_RULFAC^1 = 4 }
		}
		localization_key = WAL_LIBSOC_PARTY
	}
	text = {
		trigger = {
			check_variable = { WAL_POL_RULFAC^1 = 5 }
		}
		localization_key = WAL_CONDEM_PARTY
	}
	text = {
		trigger = {
			check_variable = { WAL_POL_RULFAC^1 = 6 }
		}
		localization_key = WAL_NO_PARTY
	}
}

defined_text = {
	name = wal_fac3
	text = {
		trigger = {
			check_variable = { WAL_POL_RULFAC^2 = 1 }
		}
		localization_key = WAL_AUTDEM_PARTY
	}
	text = {
		trigger = {
			check_variable = { WAL_POL_RULFAC^2 = 2 }
		}
		localization_key = WAL_SOCDEM_PARTY
	}
	text = {
		trigger = {
			check_variable = { WAL_POL_RULFAC^2 = 3 }
		}
		localization_key = WAL_FASCIST_PARTY
	}
	text = {
		trigger = {
			check_variable = { WAL_POL_RULFAC^2 = 4 }
		}
		localization_key = WAL_LIBSOC_PARTY
	}
	text = {
		trigger = {
			check_variable = { WAL_POL_RULFAC^2 = 5 }
		}
		localization_key = WAL_CONDEM_PARTY
	}
	text = {
		trigger = {
			check_variable = { WAL_POL_RULFAC^2 = 6 }
		}
		localization_key = WAL_NO_PARTY
	}
}

defined_text = {
	name = wal_fac4
	text = {
		trigger = {
			check_variable = { WAL_POL_RULFAC^3 = 1 }
		}
		localization_key = WAL_AUTDEM_PARTY
	}
	text = {
		trigger = {
			check_variable = { WAL_POL_RULFAC^3 = 2 }
		}
		localization_key = WAL_SOCDEM_PARTY
	}
	text = {
		trigger = {
			check_variable = { WAL_POL_RULFAC^3 = 3 }
		}
		localization_key = WAL_FASCIST_PARTY
	}
	text = {
		trigger = {
			check_variable = { WAL_POL_RULFAC^3 = 4 }
		}
		localization_key = WAL_LIBSOC_PARTY
	}
	text = {
		trigger = {
			check_variable = { WAL_POL_RULFAC^3 = 5 }
		}
		localization_key = WAL_CONDEM_PARTY
	}
	text = {
		trigger = {
			check_variable = { WAL_POL_RULFAC^3 = 6 }
		}
		localization_key = WAL_NO_PARTY
	}
}

defined_text = {
	name = wal_fac5
	text = {
		trigger = {
			check_variable = { WAL_POL_RULFAC^4 = 1 }
		}
		localization_key = WAL_AUTDEM_PARTY
	}
	text = {
		trigger = {
			check_variable = { WAL_POL_RULFAC^4 = 2 }
		}
		localization_key = WAL_SOCDEM_PARTY
	}
	text = {
		trigger = {
			check_variable = { WAL_POL_RULFAC^4 = 3 }
		}
		localization_key = WAL_FASCIST_PARTY
	}
	text = {
		trigger = {
			check_variable = { WAL_POL_RULFAC^4 = 4 }
		}
		localization_key = WAL_LIBSOC_PARTY
	}
	text = {
		trigger = {
			check_variable = { WAL_POL_RULFAC^4 = 5 }
		}
		localization_key = WAL_CONDEM_PARTY
	}
	text = {
		trigger = {
			check_variable = { WAL_POL_RULFAC^4 = 6 }
		}
		localization_key = WAL_NO_PARTY
	}
}

defined_text = {
	name = wal_fac6
	text = {
		trigger = {
			check_variable = { WAL_POL_RULFAC^5 = 1 }
		}
		localization_key = WAL_AUTDEM_PARTY
	}
	text = {
		trigger = {
			check_variable = { WAL_POL_RULFAC^5 = 2 }
		}
		localization_key = WAL_SOCDEM_PARTY
	}
	text = {
		trigger = {
			check_variable = { WAL_POL_RULFAC^5 = 3 }
		}
		localization_key = WAL_FASCIST_PARTY
	}
	text = {
		trigger = {
			check_variable = { WAL_POL_RULFAC^5 = 4 }
		}
		localization_key = WAL_LIBSOC_PARTY
	}
	text = {
		trigger = {
			check_variable = { WAL_POL_RULFAC^5 = 5 }
		}
		localization_key = WAL_CONDEM_PARTY
	}
	text = {
		trigger = {
			check_variable = { WAL_POL_RULFAC^5 = 6 }
		}
		localization_key = WAL_NO_PARTY
	}
}



#defined_text = {
#	name = wal_politics_autdem
#	text = {
#		trigger = {
#			check_variable = { WAL_PC_AutDem > 8 }
#		}
#		localization_key = WAL_PC_AutDem_VHigh
#	}
#
#	text = {
#		trigger = {
#			check_variable = { WAL_PC_AutDem > 6 }
#		}
#		localization_key = WAL_PC_AutDem_High
#	}
#
#	text = {
#		trigger = {
#			check_variable = { WAL_PC_AutDem > 4 }
#		}
#		localization_key = WAL_PC_AutDem_Med
#	}
#
#	text = {
#		trigger = {
#			check_variable = { WAL_PC_AutDem > 2 }
#		}
#		localization_key = WAL_PC_AutDem_Low
#	}
#
#	text = {
#		trigger = {
#			check_variable = { WAL_PC_AutDem > -0.1 }
#		}
#		localization_key = WAL_PC_AutDem_VLow
#	}
#}
#
#defined_text = {
#	name = wal_politics_SocDem
#	text = {
#		trigger = {
#			check_variable = { WAL_PC_SocDem > 8 }
#		}
#		localization_key = WAL_PC_SocDem_VHigh
#	}
#
#	text = {
#		trigger = {
#			check_variable = { WAL_PC_SocDem > 6 }
#		}
#		localization_key = WAL_PC_SocDem_High
#	}
#
#	text = {
#		trigger = {
#			check_variable = { WAL_PC_SocDem > 4 }
#		}
#		localization_key = WAL_PC_SocDem_Med
#	}
#
#	text = {
#		trigger = {
#			check_variable = { WAL_PC_SocDem > 2 }
#		}
#		localization_key = WAL_PC_SocDem_Low
#	}
#
#	text = {
#		trigger = {
#			check_variable = { WAL_PC_SocDem > -0.1 }
#		}
#		localization_key = WAL_PC_SocDem_VLow
#	}
#}
#
#defined_text = {
#	name = wal_politics_Fascist
#	text = {
#		trigger = {
#			check_variable = { WAL_PC_Fascist > 8 }
#		}
#		localization_key = WAL_PC_Fascist_VHigh
#	}
#
#	text = {
#		trigger = {
#			check_variable = { WAL_PC_Fascist > 6 }
#		}
#		localization_key = WAL_PC_Fascist_High
#	}
#
#	text = {
#		trigger = {
#			check_variable = { WAL_PC_Fascist > 4 }
#		}
#		localization_key = WAL_PC_Fascist_Med
#	}
#
#	text = {
#		trigger = {
#			check_variable = { WAL_PC_Fascist > 2 }
#		}
#		localization_key = WAL_PC_Fascist_Low
#	}
#
#	text = {
#		trigger = {
#			check_variable = { WAL_PC_Fascist > -0.1 }
#		}
#		localization_key = WAL_PC_Fascist_VLow
#	}
#}
#
#defined_text = {
#	name = wal_politics_Tory
#	text = {
#		trigger = {
#			check_variable = { WAL_Tory > 8 }
#		}
#		localization_key = WAL_Tory_VHigh
#	}
#
#	text = {
#		trigger = {
#			check_variable = { WAL_Tory > 6 }
#		}
#		localization_key = WAL_Tory_High
#	}
#
#	text = {
#		trigger = {
#			check_variable = { WAL_Tory > 4 }
#		}
#		localization_key = WAL_Tory_Med
#	}
#
#	text = {
#		trigger = {
#			check_variable = { WAL_Tory > 2 }
#		}
#		localization_key = WAL_Tory_Low
#	}
#
#	text = {
#		trigger = {
#			check_variable = { WAL_Tory > -0.1 }
#		}
#		localization_key = WAL_Tory_VLow
#	}
#}
#
#defined_text = {
#	name = wal_politics_CPGBW
#	text = {
#		trigger = {
#			check_variable = { WAL_CPGBW > 8 }
#		}
#		localization_key = WAL_CPGBW_VHigh
#	}
#
#	text = {
#		trigger = {
#			check_variable = { WAL_CPGBW > 6 }
#		}
#		localization_key = WAL_CPGBW_High
#	}
#
#	text = {
#		trigger = {
#			check_variable = { WAL_CPGBW > 4 }
#		}
#		localization_key = WAL_CPGBW_Med
#	}
#
#	text = {
#		trigger = {
#			check_variable = { WAL_CPGBW > 2 }
#		}
#		localization_key = WAL_CPGBW_Low
#	}
#
#	text = {
#		trigger = {
#			check_variable = { WAL_CPGBW > -0.1 }
#		}
#		localization_key = WAL_CPGBW_VLow
#	}
#}
#
#defined_text = {
#	name = wal_politics_CPGBWseats
#	text = {
#		localization_key = WAL_CPGBW_Seats
#	}
#}
#
#defined_text = {
#	name = wal_politics_Toryseats
#	text = {
#		localization_key = WAL_Tory_Seats
#	}
#}

#defined_text = {
#	name = wal_politics_PC_Fascistseats
#	text = {
#		localization_key = WAL_PC_Fascist_Seats
#	}
#}
#
#defined_text = {
#	name = wal_politics_PC_SocDemseats
#	text = {
#		localization_key = WAL_PC_SocDem_Seats
#	}
#}

#defined_text = {
#	name = wal_politics_Pc_AuthDemseats
#	text = {
#		localization_key = WAL_PC_AutDem_Seats
#	}
#}