defined_text = {
	name = GetAMR_JAP_support
	text = {
		trigger = {
			check_variable = { AMR_JAP_support > 79 }
		}
		localization_key = AMR_JAP_support_very_high
	}
	text = {
		trigger = {
			check_variable = { AMR_JAP_support > 59 }
		}
		localization_key = AMR_JAP_support_high
	}
	text = {
		trigger = {
			check_variable = { AMR_JAP_support > 39 }
		}
		localization_key = AMR_JAP_support_medium
	}
	text = {
		trigger = {
			check_variable = { AMR_JAP_support > 19 }
		}
		localization_key = AMR_JAP_support_low
	}
	text = {
		localization_key = AMR_JAP_support_very_low
	}
}

defined_text = {
	name = GetAMR_NAJUA
	text = {
		trigger = {
			check_variable = { AMR_NAJUA > 79 }
		}
		localization_key = AMR_NAJUA_very_high
	}
	text = {
		trigger = {
			check_variable = { AMR_NAJUA > 59 }
		}
		localization_key = AMR_NAJUA_high
	}
	text = {
		trigger = {
			check_variable = { AMR_NAJUA  > 39 }
		}
		localization_key = AMR_NAJUA_medium
	}
	text = {
		trigger = {
			check_variable = { AMR_NAJUA > 19 }
		}
		localization_key = AMR_NAJUA_low
	}
	text = {
		localization_key = AMR_NAJUA_very_low
	}
}