defined_text = {
	name = GetUSApprovalLevel
	text = {
		trigger = {
			always = yes
		}
		localization_key = US_APPROVAL_4
	}
}

defined_text = {
	name = GetSenator_1
	text = {
		trigger = {
			check_variable = { senator_1 = 0 }
		}
		localization_key = EMPTY_SENATOR
	}
	text = {
		trigger = {
			check_variable = { senator_1 = 1 }
		}
		localization_key = RD_R_SENATOR
	}
	text = {
		trigger = {
			check_variable = { senator_1 = 2 }
		}
		localization_key = RD_D_SENATOR
	}
	text = {
		trigger = {
			check_variable = { senator_1 = 3 }
		}
		localization_key = NPP_L_SENATOR
	}
	text = {
		trigger = {
			check_variable = { senator_1 = 4 }
		}
		localization_key = NPP_C_SENATOR
	}
	text = {
		trigger = {
			check_variable = { senator_1 = 5 }
		}
		localization_key = NPP_R_SENATOR
	}
	text = {
		trigger = {
			check_variable = { senator_1 = 6 }
		}
		localization_key = NPP_FR_SENATOR
	}
}

defined_text = {
	name = GetSenator_2
	text = {
		trigger = {
			check_variable = { senator_2 = 0 }
		}
		localization_key = EMPTY_SENATOR
	}
	text = {
		trigger = {
			check_variable = { senator_2 = 1 }
		}
		localization_key = RD_R_SENATOR
	}
	text = {
		trigger = {
			check_variable = { senator_2 = 2 }
		}
		localization_key = RD_D_SENATOR
	}
	text = {
		trigger = {
			check_variable = { senator_2 = 3 }
		}
		localization_key = NPP_L_SENATOR
	}
	text = {
		trigger = {
			check_variable = { senator_2 = 4 }
		}
		localization_key = NPP_C_SENATOR
	}
	text = {
		trigger = {
			check_variable = { senator_2 = 5 }
		}
		localization_key = NPP_R_SENATOR
	}
	text = {
		trigger = {
			check_variable = { senator_2 = 6 }
		}
		localization_key = NPP_FR_SENATOR
	}
}

defined_text = {
	name = GetSenateElections
	text = {
		trigger = {
			has_country_flag = USA_senate_conclusion
		}
		localization_key = USA_Senate_Elections_Conclusion
	}
	text = {
		trigger = {
			has_country_flag = USA_senate_elections
		}
		localization_key = USA_Senate_Elections_Race
	}
	text = {
		localization_key = USA_nothing
	}
}

defined_text = {
	name = GetSenateElectionsClass
	text = {
		trigger = {
			has_country_flag = USA_class_1_elections
		}
		localization_key = USA_class_1_elections_text
	}
	text = {
		trigger = {
			has_country_flag = USA_class_2_elections
		}
		localization_key = USA_class_2_elections_text
	}
	text = {
		trigger = {
			has_country_flag = USA_class_3_elections
		}
		localization_key = USA_class_3_elections_text
	}
	text = {
		localization_key = USA_nothing
	}
}

defined_text = {
	name = GetElectionPrediction
	#Safe  	RD
	text = {
		trigger = {
			check_variable = { USA_state_poll_pop_diff > 0.6 }
		}
		localization_key = USA_Election_RD_safe
	}
	#lean  	RD
	text = {
		trigger = {
			check_variable = { USA_state_poll_pop_diff > 0.4 }
		}
		localization_key = USA_Election_RD_likely
	}
	#tilt  	RD
	text = {
		trigger = {
			check_variable = { USA_state_poll_pop_diff > 0.25 }
		}
		localization_key = USA_Election_RD_lean
	}
	#likely	RD
	text = {
		trigger = {
			check_variable = { USA_state_poll_pop_diff > 0.1 }
		}
		localization_key = USA_Election_RD_tilt
	}
	#   Tossup
	text = {
		trigger = {
			check_variable = { USA_state_poll_pop_diff > -0.1 }
		}
		localization_key = USA_Election_tossup
	}
	#likely	NPP
	text = {
		trigger = {
			check_variable = { USA_state_poll_pop_diff > -0.25 }
		}
		localization_key = USA_Election_NPP_tilt
	}
	#tilt  	NPP
	text = {
		trigger = {
			check_variable = { USA_state_poll_pop_diff > -0.4 }
		}
		localization_key = USA_Election_NPP_lean
	}
	#lean  	NPP
	text = {
		trigger = {
			check_variable = { USA_state_poll_pop_diff > -0.6 }
		}
		localization_key = USA_Election_NPP_likely
	}
	#safe 	NPP
	text = {
		localization_key = USA_Election_NPP_safe
	}
}

defined_text = {
	name = GetPresidentElectionPrediction
	#Safe  	RD
	text = {
		trigger = {
			check_variable = { USA_state_president_poll_pop_diff > 0.6 }
		}
		localization_key = USA_Election_RD_safe
	}
	#lean  	RD
	text = {
		trigger = {
			check_variable = { USA_state_president_poll_pop_diff > 0.4 }
		}
		localization_key = USA_Election_RD_likely
	}
	#tilt  	RD
	text = {
		trigger = {
			check_variable = { USA_state_president_poll_pop_diff > 0.25 }
		}
		localization_key = USA_Election_RD_lean
	}
	#likely	RD
	text = {
		trigger = {
			check_variable = { USA_state_president_poll_pop_diff > 0.1 }
		}
		localization_key = USA_Election_RD_tilt
	}
	#   Tossup
	text = {
		trigger = {
			check_variable = { USA_state_president_poll_pop_diff > -0.1 }
		}
		localization_key = USA_Election_tossup
	}
	#likely	NPP
	text = {
		trigger = {
			check_variable = { USA_state_president_poll_pop_diff > -0.25 }
		}
		localization_key = USA_Election_NPP_tilt
	}
	#tilt  	NPP
	text = {
		trigger = {
			check_variable = { USA_state_president_poll_pop_diff > -0.4 }
		}
		localization_key = USA_Election_NPP_lean
	}
	#lean  	NPP
	text = {
		trigger = {
			check_variable = { USA_state_president_poll_pop_diff > -0.6 }
		}
		localization_key = USA_Election_NPP_likely
	}
	#safe 	NPP
	text = {
		localization_key = USA_Election_NPP_safe
	}
}

#defined_text = { COMMENTED OUT TO SEE THAT IT DOESNT BREAK ANYTHING
#	name = GetElectionBonusPrediction
#	text = {
#		trigger = {
#			check_variable = { RD_R_bonus_popularity > 0.2 }
#		}
#		localization_key = USA_Election_RD_R_strong_turnout
#	}
#	text = {
#		trigger = {
#			check_variable = { RD_D_bonus_popularity > 0.2 }
#		}
#		localization_key = USA_Election_RD_D_strong_turnout
#	}
#	text = {
#		trigger = {
#			check_variable = { NPP_L_bonus_popularity > 0.2 }
#		}
#		localization_key = USA_Election_NPP_L_strong_turnout
#	}
#	text = {
#		trigger = {
#			check_variable = { NPP_C_bonus_popularity > 0.2 }
#		}
#		localization_key = USA_Election_NPP_C_strong_turnout
#	}
#	text = {
#		trigger = {
#			check_variable = { NPP_Y_bonus_popularity > 0.2 }
#		}
#		localization_key = USA_Election_NPP_R_strong_turnout
#	}
#	text = {
#		trigger = {
#			check_variable = { NPP_FR_bonus_popularity > 0.2 }
#		}
#		localization_key = USA_Election_NPP_FR_strong_turnout
#	}
#	text = {
#		localization_key = USA_nothing
#	}
#}

defined_text = {
	name = GetSenator_1_Elections
	##ONLY FOR FUTURE PREDICTIONS
	#text = {
	#	trigger = {
	#		check_variable = { prev_senator_1 = senator_1 }
	#	}
	#	localization_key = USA_nothing
	#}
	#Continue normally
	text = {
		trigger = {
			check_variable = { senator_1 = 0 }
		}
		localization_key = EMPTY_SENATOR
	}
	text = {
		trigger = {
			check_variable = { senator_1 = 1 }
		}
		localization_key = RD_R_SENATOR_ELECTION
	}
	text = {
		trigger = {
			check_variable = { senator_1 = 2 }
		}
		localization_key = RD_D_SENATOR_ELECTION
	}
	text = {
		trigger = {
			check_variable = { senator_1 = 3 }
		}
		localization_key = NPP_L_SENATOR_ELECTION
	}
	text = {
		trigger = {
			check_variable = { senator_1 = 4 }
		}
		localization_key = NPP_C_SENATOR_ELECTION
	}
	text = {
		trigger = {
			check_variable = { senator_1 = 5 }
		}
		localization_key = NPP_R_SENATOR_ELECTION
	}
	text = {
		trigger = {
			check_variable = { senator_1 = 6 }
		}
		localization_key = NPP_FR_SENATOR_ELECTION
	}
}

defined_text = {
	name = GetSenator_2_Elections
	##ONLY FOR FUTURE PREDICTIONS
	#text = {
	#	trigger = {
	#		check_variable = { prev_senator_2 = senator_2 }
	#	}
	#	localization_key = USA_nothing
	#}
	#Continue normally
	text = {
		trigger = {
			check_variable = { senator_2 = 0 }
		}
		localization_key = EMPTY_SENATOR
	}
	text = {
		trigger = {
			check_variable = { senator_2 = 1 }
		}
		localization_key = RD_R_SENATOR_ELECTION
	}
	text = {
		trigger = {
			check_variable = { senator_2 = 2 }
		}
		localization_key = RD_D_SENATOR_ELECTION
	}
	text = {
		trigger = {
			check_variable = { senator_2 = 3 }
		}
		localization_key = NPP_L_SENATOR_ELECTION
	}
	text = {
		trigger = {
			check_variable = { senator_2 = 4 }
		}
		localization_key = NPP_C_SENATOR_ELECTION
	}
	text = {
		trigger = {
			check_variable = { senator_2 = 5 }
		}
		localization_key = NPP_R_SENATOR_ELECTION
	}
	text = {
		trigger = {
			check_variable = { senator_2 = 6 }
		}
		localization_key = NPP_FR_SENATOR_ELECTION
	}
}

#Get the party of the previous incumbent for determining election conclusions

defined_text = {
	name = GetSenator_1_Elections_Prev
	#text = {
	#	trigger = {
	#		check_variable = { prev_senator_1 = 0 }
	#	}
	#	localization_key = EMPTY_SENATOR
	#}
	text = {
		trigger = {
			check_variable = { prev_senator_1 = 1 }
		}
		localization_key = RD_R_SENATOR_ELECTION
	}
	text = {
		trigger = {
			check_variable = { prev_senator_1 = 2 }
		}
		localization_key = RD_D_SENATOR_ELECTION
	}
	text = {
		trigger = {
			check_variable = { prev_senator_1 = 3 }
		}
		localization_key = NPP_L_SENATOR_ELECTION
	}
	text = {
		trigger = {
			check_variable = { prev_senator_1 = 4 }
		}
		localization_key = NPP_C_SENATOR_ELECTION
	}
	text = {
		trigger = {
			check_variable = { prev_senator_1 = 5 }
		}
		localization_key = NPP_R_SENATOR_ELECTION
	}
	text = {
		trigger = {
			check_variable = { prev_senator_1 = 6 }
		}
		localization_key = NPP_FR_SENATOR_ELECTION
	}
}

defined_text = {
	name = GetSenator_2_Elections_Prev
	text = {
		trigger = {
			check_variable = { prev_senator_2 = 0 }
		}
		localization_key = EMPTY_SENATOR
	}
	text = {
		trigger = {
			check_variable = { prev_senator_2 = 1 }
		}
		localization_key = RD_R_SENATOR_ELECTION
	}
	text = {
		trigger = {
			check_variable = { prev_senator_2 = 2 }
		}
		localization_key = RD_D_SENATOR_ELECTION
	}
	text = {
		trigger = {
			check_variable = { prev_senator_2 = 3 }
		}
		localization_key = NPP_L_SENATOR_ELECTION
	}
	text = {
		trigger = {
			check_variable = { prev_senator_2 = 4 }
		}
		localization_key = NPP_C_SENATOR_ELECTION
	}
	text = {
		trigger = {
			check_variable = { prev_senator_2 = 5 }
		}
		localization_key = NPP_R_SENATOR_ELECTION
	}
	text = {
		trigger = {
			check_variable = { prev_senator_2 = 6 }
		}
		localization_key = NPP_FR_SENATOR_ELECTION
	}
}

#Tell whether the seat was held or changed hands
defined_text = {
	name = GetSenateElectionChange_1
	text = {
		trigger = {
			check_variable = { prev_senator_1 = senator_1 }
		}
		localization_key = SENATE_SEAT_DEFENDED
	}
	text = {
		localization_key = SENATE_SEAT_LOST
	}
}

defined_text = {
	name = GetSenateElectionChange_2
	text = {
		trigger = {
			check_variable = { prev_senator_2 = senator_2 }
		}
		localization_key = SENATE_SEAT_DEFENDED
	}
	text = {
		localization_key = SENATE_SEAT_LOST
	}
}

#Presidential Elections

defined_text = {
	name = GetPresidentVotes
	text = {
		trigger = {
			has_state_flag = voted_RD
		}
		localization_key = US_Election_RD
	}
	text = {
		trigger = {
			has_state_flag = voted_NPP
		}
		localization_key = US_Election_NPP
	}
	text = {
		localization_key = USA_nothing
	}
}

defined_text = {
	name = GetPresidentialElections
	text = {
		trigger = {
			has_country_flag = USA_presidential_conclusion
		}
		localization_key = USA_Presidential_Elections_Conclusion
	}
	text = {
		trigger = {
			has_country_flag = USA_presidential_elections
		}
		localization_key = USA_Presidential_Elections_Race
	}
	text = {
		localization_key = USA_nothing
	}
}

#Campaigning
defined_text = {
	name = GetOppositionCampaignRegion
	text = {
		trigger = {
			check_variable = { USA_opposition_campaign_region = 0 }
		}
		localization_key = USA_new_england_campaign_region
	}
	text = {
		trigger = {
			check_variable = { USA_opposition_campaign_region = 1 }
		}
		localization_key = USA_chesapeake_campaign_region
	}
	text = {
		trigger = {
			check_variable = { USA_opposition_campaign_region = 2 }
		}
		localization_key = USA_south_campaign_region
	}
	text = {
		trigger = {
			check_variable = { USA_opposition_campaign_region = 3 }
		}
		localization_key = USA_upper_south_campaign_region
	}
	text = {
		trigger = {
			check_variable = { USA_opposition_campaign_region = 4 }
		}
		localization_key = USA_southwest_campaign_region
	}
	text = {
		trigger = {
			check_variable = { USA_opposition_campaign_region = 5 }
		}
		localization_key = USA_great_lakes_campaign_region
	}
	text = {
		trigger = {
			check_variable = { USA_opposition_campaign_region = 6 }
		}
		localization_key = USA_great_plains_campaign_region
	}
	text = {
		trigger = {
			check_variable = { USA_opposition_campaign_region = 7 }
		}
		localization_key = USA_rockies_campaign_region
	}
	text = {
		trigger = {
			check_variable = { USA_opposition_campaign_region = 8 }
		}
		localization_key = USA_west_coast_campaign_region
	}
}
defined_text = {
	name = GetOppositionCampaignParty
	text = {
		trigger = {
			has_country_flag = USA_campaigning_for_NPP
		}
		localization_key = USA_RD_campaign
	}
	text = {
		trigger = {
			has_country_flag = USA_campaigning_for_RD
		}
		localization_key = USA_NPP_campaign
	}
}