state={
	id=1310
	name="STATE_1310"
	provinces={
		1403 4336 12125 
	}
	history={
		owner = BUR
		victory_points = { 1403 1 }
		buildings = {
			infrastructure = 1
		}
		add_core_of = BUR
		add_core_of = RAM
	}
	manpower=813300
	buildings_max_level_factor=1.000
	state_category = rural
}
