
state={
	id=51
	name="STATE_51"
	resources={
		steel=54.000
	}

	history={
		owner = GER
		add_core_of = GER
		victory_points = {
			587 5 
		}
		victory_points = {
			3547 1 
		}
		victory_points = {
			3488 5 
		}
		buildings = {
			infrastructure = 8
			arms_factory = 3
			industrial_complex = 1
			air_base = 3

		}

	}

	provinces={
		587 3444 3488 3547 9522 11562 
	}
	manpower=5047887
	buildings_max_level_factor=1.000
	state_category=metropolis
}
