#POP DONE
state={
	id=578
	name="STATE_578"
	resources = {
		steel = 24
		oil = 20
	}
	history={
		owner = ERS
		buildings = {
			air_base = 1
			infrastructure = 5
			arms_factory = 2
			industrial_complex = 1
		}
		victory_points = { 7655 20 }
		add_core_of = ERS

	}

	provinces={
		1674 1765 1824 4767 4827 7655 7793 7861 10529 12510 
	}
	manpower=856000
	buildings_max_level_factor=1.000
	state_category=city
}
