#POP DONE
state = {
	id = 759
	name="STATE_759"
	resources = {
		steel = 13
	}
	provinces = {
		4878 6211 12634 13350 13355 13356 
	}
	history = {
		owner = KOL
		buildings = {
			infrastructure = 1
			air_base = 1

		}
		victory_points = { 6211 1 }
		add_core_of = KOL
	}
	state_category = wasteland
	manpower = 23000
	buildings_max_level_factor = 1.000
}
