#POP DONE
state = {
	id = 761
	name="STATE_761"

	history = {
		owner = VIL
		buildings = {
			infrastructure = 1

		}
		add_core_of = VIL
		victory_points = { 9224 1 }
	}

	provinces = {
		6085 9224 11122 13060 13065 13353 13359 13360 
	}
	manpower = 34000
	buildings_max_level_factor = 1.000
	state_category = wasteland
}
