state={
	id=872
	name="STATE_872"

	history={
		owner = BUR
		victory_points = { 10386 3 }
		buildings = {
			infrastructure = 3
		}
	}

	provinces={
		4087 4588 10386 10486 12335 12464 12492 
	}
	manpower=2933000
	buildings_max_level_factor=1.000
	state_category=town
}
