#POP DONE
state = {
	id = 889
	name = "STATE_889"
	provinces = {
		1722 1745 2853 2877 3184 12549 13352 13354 
	}
	history = {
		owner = KOL
		buildings = {
			infrastructure = 1
		}
		add_core_of = KOL
		victory_points = { 3184 1 }
	}
	state_category = wasteland
	manpower = 20000
	buildings_max_level_factor = 1.000
}
