equipments = {

	motorized_equipment = {

		can_be_produced = {
			OR = {
				has_active_mission = demand_more_motorized
				NOT = { has_idea = ENG_Across_The_Channel }
			}
		}
		
		is_archetype = yes
		picture = archetype_motorized_equipment		
		is_buildable = no
		type = {
			#infantry #Removing inf type 
			motorized
		}
		group_by = archetype
		
		interface_category = interface_category_land
		
		maximum_speed = 14
		reliability = 0.8
		hardness = 0.05

		#Space taken in convoy
		lend_lease_cost = 5

		build_cost_ic = 2.5
		resources = {
			#oil = 1
			rubber = 1
			steel = 1
		}
		fuel_consumption = 1.2
	}

	motorized_equipment_0 = {
		archetype = motorized_equipment
		priority = 30			
	}
	motorized_equipment_1 = {
		archetype = motorized_equipment
		parent = motorized_equipment_0
		priority = 10
		visual_level = 2
		
		maximum_speed = 18
		reliability = 0.8
		hardness = 0.1

		#Offensive Abilities
		lend_lease_cost = 5
		
		build_cost_ic = 2.8
		resources = {
			#oil = 1
			rubber = 1
			steel = 1
		}
		fuel_consumption = 1.2
	}
	motorized_equipment_2 = {
		archetype = motorized_equipment
		parent = motorized_equipment_1
		priority = 10
		visual_level = 2
		
		maximum_speed = 22
		reliability = 0.8
		hardness = 0.15

		#Offensive Abilities
		lend_lease_cost = 5
		
		build_cost_ic = 3.1
		resources = {
			#oil = 1
			rubber = 1
			steel = 1
		}
		fuel_consumption = 1.2
	}
	motorized_equipment_3 = {
		archetype = motorized_equipment
		parent = motorized_equipment_2
		priority = 10
		visual_level = 2
		
		maximum_speed = 26
		reliability = 0.8
		hardness = 0.2

		#Offensive Abilities
		lend_lease_cost = 5
		
		build_cost_ic = 3.4
		resources = {
			#oil = 1
			rubber = 1
			steel = 1
		}
		fuel_consumption = 1.2
	}
	motorized_equipment_4 = {
		archetype = motorized_equipment
		parent = motorized_equipment_3
		priority = 10
		visual_level = 2
		
		maximum_speed = 30
		reliability = 0.8
		hardness = 0.2

		#Offensive Abilities
		lend_lease_cost = 5
		
		build_cost_ic = 3.7
		resources = {
			#oil = 1
			rubber = 1
			steel = 1
		}
		fuel_consumption = 1.2
	}
}