scripted_gui = {
	TNO_GG_Decisions_GUI = {
		context_type = decision_category
		window_name = "TNO_GG_Decisions_GUI"
		
		visible = {
			always = yes
		}
		
		triggers = {

		}
		
		effects = {

		}

		properties = {
			GG_Box_Divider_1 = {
				image = "[GetGGDivided1]"
			}
			GG_Box_Divider_2 = {
				image = "[GetGGDivided2]"
			}
			GG_Box_Divider_3 = {
				image = "[GetGGDivided3]"
			}
			GG_Box_Divider_4 = {
				image = "[GetGGDivided4]"
			}
			GG_Box_Divider_5 = {
				image = "[GetGGDivided5]"
			}
			GG_card_left_upper_right_suit = {
				image = "[GetGGGermanSuit]"
			}
			GG_card_left_lower_left_suit = {
				image = "[GetGGGermanSuitFlipped]"
			}
			GG_card_right_upper_right_suit = {
				image = "[GetGGItalianSuit]"
			}
			GG_card_right_lower_left_suit = {
				image = "[GetGGItalianSuitFlipped]"
			}
		}
	}
}