technologies = {
	### MtG NAVY SHIT ###
	basic_fire_control_system = {

		allow_branch = {
			has_dlc = "Man the Guns"
		}

		enable_equipment_modules = { 
			ship_fire_control_system_1
		}
		
		research_cost = 1
		
		folder = {
			name = electronics_folder
			position = { x = 0 y = 9 }
		}
		
		ai_will_do = {
			factor = 0.75
			modifier = {
				OR = {
					tag = ENG
					tag = USA
					tag = JAP
				}
				factor = 45
			}
			modifier = {
				OR = {
					can_research = improved_fire_control_system
					has_tech = improved_fire_control_system
				}
				factor = 0
			}
		}
		
		categories = {
			electronics
			computing_tech
			naval_equipment
		}
	}

	improved_fire_control_system = {

		enable_equipment_modules = { 
			ship_fire_control_system_2
		}
		
		research_cost = 1
		allow_branch = {
			has_dlc = "Man the Guns"
		}
		folder = {
			name = electronics_folder
			position = { x = 0 y = 15 }
		}
		
		ai_will_do = {
			factor = 0.75
			modifier = {
				OR = {
					tag = ENG
					tag = USA
					tag = JAP
				}
				factor = 45
			}
			modifier = {
				OR = {
					can_research = advanced_fire_control_system
					has_tech = advanced_fire_control_system
				}
				factor = 0
			}
		}
		
		categories = {
			electronics
			computing_tech
			naval_equipment
		}
	}

	advanced_fire_control_system = {

		enable_equipment_modules = { 
			ship_fire_control_system_3
		}
		allow_branch = {
			has_dlc = "Man the Guns"
		}
		
		research_cost = 1
		
		folder = {
			name = electronics_folder
			position = { x = 0 y = 23 }
		}
		
		ai_will_do = {
			factor = 0.75
			modifier = {
				OR = {
					tag = ENG
					tag = USA
					tag = JAP
				}
				factor = 45
			}
			
		}
		
		categories = {
			electronics
			computing_tech
			naval_equipment
		}
	}
	electronic_mechanical_engineering = {

		# small boost to research speed
		research_speed_factor = 0.01
		
		path = {
			leads_to_tech = radio 
			research_cost_coeff = 1
		}
		path = {
			leads_to_tech = mechanical_computing 
			research_cost_coeff = 1
		}
		
		research_cost = 0.5
		start_year = 1936
		folder = {
			name = electronics_folder
			position = { x = 0 y = 0 }
		}
		
		ai_will_do = {
			factor = 150
			
			modifier = {
				factor = 45
				date > "1936.1.6"
			}
			
			modifier = {
				factor = 45
				date > "1937.1.1"
			}
		}
		
		categories = {
			electronics
		}
	}
	
	radio = {

		# units with radios can more efficiently join combats when there is room
		land_reinforce_rate = 0.05
		enable_building = {
			building = radar_station
			level = 1
		}
		
		path = {
			leads_to_tech = radio_detection 
			research_cost_coeff = 1
		}
		
		research_cost = 0.5
		start_year = 1936
		
		folder = {
			name = electronics_folder
			position = { x = -4 y = 2 }
		}
		
		folder = {
			name = support_folder
			position = { x = 0 y = 0 } # x = 12 y = 0
		}
		
		ai_will_do = {
			factor = 45
			
			modifier = {
				factor = 5
				has_war = yes
			}
		}
		
		categories = {
			electronics
			radar_tech
		}
	}
	
	radio_detection = {

		# 
		enable_building = {
			building = radar_station
			level = 2
		}
		
		path = {
			leads_to_tech = decimetric_radar 
			research_cost_coeff = 1
		}
		
		research_cost = 0.5
		
		folder = {
			name = electronics_folder
			position = { x = -4 y = 4 }
		}
		
		ai_will_do = {
			factor = 15
		}
		
		categories = {
			electronics
			radar_tech
		}
	}
	
	decimetric_radar = {

		# can build radars/radar boost in air/sea combat depends on radar level
		
		path = {
			leads_to_tech = centimetric_radar 
			research_cost_coeff = 1
		}
		
		research_cost = 1
		start_year = 1940
		
		folder = {
			name = electronics_folder
			position = { x = -4 y = 6 }
		}
		
		ai_will_do = {
			factor = 15
		}
		
		categories = {
			electronics
			radar_tech
		}
		
		enable_building = {
			building = radar_station
			level = 3
		}
	}
	
	centimetric_radar = {

		# radar boost in air/sea combat depends on radar level
		enable_building = {
			building = radar_station
			level = 4
		}
		
		enable_equipment_modules = { 
			ship_radar_1
		}
		
		path = {
			leads_to_tech = radar_1950 
			research_cost_coeff = 1
		}
		
		research_cost = 1.5
		start_year = 1945
		
		folder = {
			name = electronics_folder
			position = { x = -4 y = 8 }
		}
		
		ai_will_do = {
			factor = 15
		}
		
		categories = {
			electronics
			radar_tech
		}
	}
	radar_1950 = {
		path = {
			leads_to_tech = flight_radar_1950 
			research_cost_coeff = 1
		}
		path = {
			leads_to_tech = naval_radar_1950 
			research_cost_coeff = 1
		}
		# radar boost in air/sea combat depends on radar level
		enable_building = {
			building = radar_station
			level = 5
		}
		
		path = {
			leads_to_tech = radar_1960 
			research_cost_coeff = 1
		}
		
		research_cost = 1.5
		start_year = 1950
		
		folder = {
			name = electronics_folder
			position = { x = -4 y = 10 }
		}
		
		ai_will_do = {
			factor = 15
		}
		
		categories = {
			electronics
			radar_tech
		}
	}
	flight_radar_1950 = {
	
		air_accidents_factor = -0.05
		air_night_penalty = -0.05
		air_weather_penalty = -0.05
		
		research_cost = 1.5
		start_year = 1950
		
		folder = {
			name = electronics_folder
			position = { x = -2 y = 10 }
		}
		
		ai_will_do = {
			factor = 15
		}
		
		categories = {
			electronics
			air_equipment
			radar_tech
		}
	}
	naval_radar_1950 = {

		naval_strike_targetting_factor = 0.05
		navy_anti_air_attack_factor = 0.1
		
		research_cost = 1.5
		start_year = 1950
		
		folder = {
			name = electronics_folder
			position = { x = -6 y = 10 }
		}
		
		ai_will_do = {
			factor = 15
		}
		
		categories = {
			electronics
			radar_tech
			naval_equipment
		}
	}
	radar_1960 = {
		path = {
			leads_to_tech = flight_radar_1960 
			research_cost_coeff = 1
		}
		path = {
			leads_to_tech = naval_radar_1960 
			research_cost_coeff = 1
		}
		# radar boost in air/sea combat depends on radar level
		enable_building = {
			building = radar_station
			level = 6
		}
			
		path = {
			leads_to_tech = radar_1970 
			research_cost_coeff = 1
		}
		
		research_cost = 1.5
		start_year = 1960
		
		folder = {
			name = electronics_folder
			position = { x = -4 y = 14 }
		}
		
		ai_will_do = {
			factor = 15
		}
		
		categories = {
			electronics
			radar_tech
		}
	}
	flight_radar_1960 = {
	
		air_accidents_factor = -0.05
		air_night_penalty = -0.05
		air_weather_penalty = -0.05
		
		research_cost = 1.5
		start_year = 1960
		
		folder = {
			name = electronics_folder
			position = { x = -2 y = 14 }
		}
		
		ai_will_do = {
			factor = 15
		}
		
		categories = {
			electronics
			radar_tech
			air_equipment
		}
	}
	naval_radar_1960 = {

		naval_strike_targetting_factor = 0.05
		navy_anti_air_attack_factor = 0.1
		
		enable_equipment_modules = { 
			ship_radar_2
		}
		
		research_cost = 1.5
		start_year = 1960
		
		folder = {
			name = electronics_folder
			position = { x = -6 y = 14 }
		}
		
		ai_will_do = {
			factor = 15
		}
		
		categories = {
			electronics
			radar_tech
			naval_equipment
		}
	}
	radar_1970 = {
		path = {
			leads_to_tech = flight_radar_1970 
			research_cost_coeff = 1
		}
		path = {
			leads_to_tech = naval_radar_1970 
			research_cost_coeff = 1
		}
		# radar boost in air/sea combat depends on radar level
		air_detection = 0.05
		
		path = {
			leads_to_tech = radar_1980 
			research_cost_coeff = 1
		}
		
		research_cost = 1.5
		start_year = 1970
		
		folder = {
			name = electronics_folder
			position = { x = -4 y = 18 }
		}
		
		ai_will_do = {
			factor = 15
		}
		
		categories = {
			electronics
			radar_tech
		}
	}
	flight_radar_1970 = {
	
		air_accidents_factor = -0.05
		air_night_penalty = -0.05
		air_weather_penalty = -0.05
		
		research_cost = 1.5
		start_year = 1970
		
		folder = {
			name = electronics_folder
			position = { x = -2 y = 18 }
		}
		
		ai_will_do = {
			factor = 15
		}
		
		categories = {
			electronics
			radar_tech
			air_equipment
		}
	}
	naval_radar_1970 = {

		naval_strike_targetting_factor = 0.05
		navy_anti_air_attack_factor = 0.1
		
		enable_equipment_modules = { 
			ship_radar_3
		}
		
		research_cost = 1.5
		start_year = 1970
		
		folder = {
			name = electronics_folder
			position = { x = -6 y = 18 }
		}
		
		ai_will_do = {
			factor = 15
		}
		
		categories = {
			electronics
			radar_tech
			naval_equipment
		}
	}
	radar_1980 = {

		# radar boost in air/sea combat depends on radar level
		air_detection = 0.05
		
		path = {
			leads_to_tech = radar_1990 
			research_cost_coeff = 1
		}
		path = {
			leads_to_tech = flight_radar_1980 
			research_cost_coeff = 1
		}
		path = {
			leads_to_tech = naval_radar_1980 
			research_cost_coeff = 1
		}
		research_cost = 1.5
		start_year = 1980
		
		folder = {
			name = electronics_folder
			position = { x = -4 y = 22 }
		}
		
		ai_will_do = {
			factor = 15
		}
		
		categories = {
			electronics
			radar_tech
		}
	}
	flight_radar_1980 = {
	
		air_accidents_factor = -0.05
		air_night_penalty = -0.05
		air_weather_penalty = -0.05
		
		research_cost = 1.5
		start_year = 1990
		
		folder = {
			name = electronics_folder
			position = { x = -2 y = 22 }
		}
		
		ai_will_do = {
			factor = 15
		}
		
		categories = {
			electronics
			radar_tech
			air_equipment
		}
	}
	naval_radar_1980 = {

		naval_strike_targetting_factor = 0.05
		navy_anti_air_attack_factor = 0.1
		
		enable_equipment_modules = { 
			ship_radar_4
		}
		
		research_cost = 1.5
		start_year = 1990
		
		folder = {
			name = electronics_folder
			position = { x = -6 y = 22 }
		}
		
		ai_will_do = {
			factor = 15
		}
		
		categories = {
			electronics
			radar_tech
			naval_equipment
		}
	}
	radar_1990 = {
		path = {
			leads_to_tech = flight_radar_1990 
			research_cost_coeff = 1
		}
		path = {
			leads_to_tech = naval_radar_1990 
			research_cost_coeff = 1
		}
		# radar boost in air/sea combat depends on radar level
		air_detection = 0.05
		
		research_cost = 1.5
		start_year = 1990
		
		folder = {
			name = electronics_folder
			position = { x = -4 y = 26 }
		}
		
		ai_will_do = {
			factor = 15
		}
		
		categories = {
			electronics
			radar_tech
		}
	}
	flight_radar_1990 = {

	
		air_accidents_factor = -0.05
		air_night_penalty = -0.05
		air_weather_penalty = -0.05
		
		research_cost = 1.5
		start_year = 1990
		
		folder = {
			name = electronics_folder
			position = { x = -2 y = 26 }
		}
		
		ai_will_do = {
			factor = 15
		}
		
		categories = {
			electronics
			radar_tech
			air_equipment
		}
	}
	naval_radar_1990 = {

		naval_strike_targetting_factor = 0.05
		navy_anti_air_attack_factor = 0.1
		
		research_cost = 1.5
		start_year = 1990
		
		folder = {
			name = electronics_folder
			position = { x = -6 y = 26 }
		}
		
		ai_will_do = {
			factor = 15
		}
		
		categories = {
			electronics
			radar_tech
			naval_equipment
		}
	}
	
##################################
###COMPUTING START################
##################################

	mechanical_computing = {

		# small boost to research speed
		research_speed_factor = 0.01
		
		path = {
			leads_to_tech = computing_machine 
			research_cost_coeff = 1
		}
		
		research_cost = 0.5
		
		folder = {
			name = electronics_folder
			position = { x = 4 y = 2 }
		}
		
		ai_will_do = {
			factor = 60
		}
		
		categories = {
			electronics
			computing_tech
		}
	}
	
	computing_machine = {

		# small boost to research speed
		research_speed_factor = 0.02
		
		path = {
			leads_to_tech = improved_computing_machine 
			research_cost_coeff = 1
		}
		path = {
			leads_to_tech = basic_encryption 
			research_cost_coeff = 1
		}
		path = {
			leads_to_tech = basic_decryption 
			research_cost_coeff = 1
		}
		
		research_cost = 0.5
		start_year = 1938
		
		folder = {
			name = electronics_folder
			position = { x = 4 y = 4 }
		}
		
		ai_will_do = {
			factor = 60
		}
		
		categories = {
			electronics
			encryption_tech
			decryption_tech
			computing_tech
		}
	}
	
	improved_computing_machine = {

		# small boost to research speed
		research_speed_factor = 0.02
		
		path = {
			leads_to_tech = advanced_computing_machine 
			research_cost_coeff = 1
		}
		path = {
			leads_to_tech = improved_encryption 
			research_cost_coeff = 1
		}
		path = {
			leads_to_tech = improved_decryption 
			research_cost_coeff = 1
		}
		
		research_cost = 1
		start_year = 1940
		
		folder = {
			name = electronics_folder
			position = { x = 4 y = 6 }
		}
		
		ai_will_do = {
			factor = 45
		}
		
		categories = {
			electronics
			encryption_tech
			decryption_tech
			computing_tech
		}
	}
	
	advanced_computing_machine = {

		# small boost to research speed
		research_speed_factor = 0.03
		
		path = {
			leads_to_tech = advanced_encryption 
			research_cost_coeff = 1
		}
		path = {
			leads_to_tech = advanced_decryption 
			research_cost_coeff = 1
		}
		path = {
			leads_to_tech = computing_machine_1950 
			research_cost_coeff = 1
		}
		path = {
			leads_to_tech = basic_fire_control_system 
			research_cost_coeff = 1
		}
		
		research_cost = 1.5
		start_year = 1945
		
		folder = {
			name = electronics_folder
			position = { x = 4 y = 8 }
		}
		
		ai_will_do = {
			factor = 45
		}
		
		categories = {
			electronics
			encryption_tech
			decryption_tech
			computing_tech
		}
	}
	computing_machine_1950 = {

		# small boost to research speed
		research_speed_factor = 0.03
		
		path = {
			leads_to_tech = encryption_1950
			research_cost_coeff = 1
		}
		path = {
			leads_to_tech = decryption_1950 
			research_cost_coeff = 1
		}
		path = {
			leads_to_tech = computing_machine_1960 
			research_cost_coeff = 1
		}
		
		research_cost = 1.5
		start_year = 1950
		
		folder = {
			name = electronics_folder
			position = { x = 4 y = 10 }
		}
		
		ai_will_do = {
			factor = 45
		}
		
		categories = {
			electronics
			encryption_tech
			decryption_tech
			computing_tech
		}
	}
	computing_machine_1960 = {

		# small boost to research speed
		research_speed_factor = 0.03
		
		path = {
			leads_to_tech = encryption_1960 
			research_cost_coeff = 1
		}
		path = {
			leads_to_tech = decryption_1960 
			research_cost_coeff = 1
		}
		path = {
			leads_to_tech = computing_machine_1970 
			research_cost_coeff = 1
		}
		path = {
			leads_to_tech = improved_fire_control_system 
			research_cost_coeff = 1
		}
		
		research_cost = 1.5
		start_year = 1960
		
		folder = {
			name = electronics_folder
			position = { x = 4 y = 14 }
		}
		
		ai_will_do = {
			factor = 45
		}
		
		categories = {
			electronics
			encryption_tech
			decryption_tech
			computing_tech
		}
	}
	computing_machine_1970 = {

		# small boost to research speed
		research_speed_factor = 0.03
		
		path = {
			leads_to_tech = encryption_1970 
			research_cost_coeff = 1
		}
		path = {
			leads_to_tech = decryption_1970 
			research_cost_coeff = 1
		}
		path = {
			leads_to_tech = computing_machine_1980 
			research_cost_coeff = 1
		}
		
		research_cost = 1.5
		start_year = 1970
		
		folder = {
			name = electronics_folder
			position = { x = 4 y = 18 }
		}
		
		ai_will_do = {
			factor = 45
		}
		
		categories = {
			electronics
			encryption_tech
			decryption_tech
			computing_tech
		}
	}
	computing_machine_1980 = {

		# small boost to research speed
		research_speed_factor = 0.03
		
		path = {
			leads_to_tech = encryption_1980 
			research_cost_coeff = 1
		}
		path = {
			leads_to_tech = decryption_1980 
			research_cost_coeff = 1
		}
		path = {
			leads_to_tech = computing_machine_1990 
			research_cost_coeff = 1
		}
		path = {
			leads_to_tech = advanced_fire_control_system 
			research_cost_coeff = 1
		}
		
		research_cost = 1.5
		start_year = 1980
		
		folder = {
			name = electronics_folder
			position = { x = 4 y = 22 }
		}
		
		ai_will_do = {
			factor = 45
		}
		
		categories = {
			electronics
			encryption_tech
			decryption_tech
			computing_tech
		}
	}
	computing_machine_1990 = {

		# small boost to research speed
		research_speed_factor = 0.03
		
		path = {
			leads_to_tech = encryption_1990 
			research_cost_coeff = 1
		}
		path = {
			leads_to_tech = decryption_1990 
			research_cost_coeff = 1
		}
		
		research_cost = 1.5
		start_year = 1990
		
		folder = {
			name = electronics_folder
			position = { x = 4 y = 26 }
		}
		
		ai_will_do = {
			factor = 45
		}
		
		categories = {
			electronics
			encryption_tech
			decryption_tech
			computing_tech
		}
	}
	
##################################
###ENCRYPTION START###############
##################################
	
	basic_encryption = {

		# encryption 1
		encryption = 1
		allow_branch = {
			NOT = { has_dlc = "La Resistance" }
		}
		
		research_cost = 0.5
		start_year = 1938
		
		folder = {
			name = electronics_folder
			position = { x = 2 y = 4 }
		}
		
		ai_will_do = {
			factor = 15
		}
		
		categories = {
			electronics
			encryption_tech
		}
	}
	
	improved_encryption = {

		# encryption 2
		encryption = 1
		allow_branch = {
			NOT = { has_dlc = "La Resistance" }
		}
		
		research_cost = 1
		start_year = 1940
		
		folder = {
			name = electronics_folder
			position = { x = 2 y = 6 }
		}
		
		ai_will_do = {
			factor = 15
		}
		
		categories = {
			electronics
			encryption_tech
		}
	}
	
	advanced_encryption = {

		# encryption 3
		encryption = 1
		allow_branch = {
			NOT = { has_dlc = "La Resistance" }
		}
		
		research_cost = 1.5
		start_year = 1942
		
		folder = {
			name = electronics_folder
			position = { x = 2 y = 8 }
		}
		
		ai_will_do = {
			factor = 15
		}
		
		categories = {
			electronics
			encryption_tech
		}
	}
	encryption_1950 = {

		# encryption 3
		encryption = 1
		allow_branch = {
			NOT = { has_dlc = "La Resistance" }
		}
		
		research_cost = 1.5
		start_year = 1950
		
		folder = {
			name = electronics_folder
			position = { x = 2 y = 10 }
		}
		
		ai_will_do = {
			factor = 15
		}
		
		categories = {
			electronics
			encryption_tech
		}
	}
	encryption_1960 = {

		# encryption 3
		encryption = 1
		allow_branch = {
			NOT = { has_dlc = "La Resistance" }
		}
		
		research_cost = 1.5
		start_year = 1960
		
		folder = {
			name = electronics_folder
			position = { x = 2 y = 14 }
		}
		
		ai_will_do = {
			factor = 15
		}
		
		categories = {
			electronics
			encryption_tech
		}
	}
	encryption_1970 = {

		# encryption 3
		encryption = 1
		allow_branch = {
			NOT = { has_dlc = "La Resistance" }
		}
		
		research_cost = 1.5
		start_year = 1970
		
		folder = {
			name = electronics_folder
			position = { x = 2 y = 18 }
		}
		
		ai_will_do = {
			factor = 15
		}
		
		categories = {
			electronics
			encryption_tech
		}
	}
	encryption_1980 = {

		# encryption 3
		encryption = 1
		allow_branch = {
			NOT = { has_dlc = "La Resistance" }
		}
		
		research_cost = 1.5
		start_year = 1980
		
		folder = {
			name = electronics_folder
			position = { x = 2 y = 22 }
		}
		
		ai_will_do = {
			factor = 15
		}
		
		categories = {
			electronics
			encryption_tech
		}
	}
	encryption_1990 = {

		# encryption 3
		encryption = 1
		allow_branch = {
			NOT = { has_dlc = "La Resistance" }
		}
		
		research_cost = 1.5
		start_year = 1990
		
		folder = {
			name = electronics_folder
			position = { x = 2 y = 26 }
		}
		
		ai_will_do = {
			factor = 15
		}
		
		categories = {
			electronics
			encryption_tech
		}
	}
	
	basic_decryption = {

		# decryption 1
		decryption = 1
		allow_branch = {
			NOT = { has_dlc = "La Resistance" }
		}
		
		research_cost = 0.5
		start_year = 1938
		
		folder = {
			name = electronics_folder
			position = { x = 6 y = 4 }
		}
		
		ai_will_do = {
			factor = 15
		}
		
		categories = {
			electronics
			decryption_tech
		}
	}
	
	improved_decryption = {

		# decryption 2
		decryption = 1
		allow_branch = {
			NOT = { has_dlc = "La Resistance" }
		}
		
		research_cost = 1
		start_year = 1940
		
		folder = {
			name = electronics_folder
			position = { x = 6 y = 6 }
		}
		
		ai_will_do = {
			factor = 15
		}
		
		categories = {
			electronics
			decryption_tech
		}
	}
	
	advanced_decryption = {

		# decryption 3
		decryption = 1
		allow_branch = {
			NOT = { has_dlc = "La Resistance" }
		}
		
		research_cost = 1.5
		start_year = 1942
		
		folder = {
			name = electronics_folder
			position = { x = 6 y = 8 }
		}
		
		ai_will_do = {
			factor = 15
		}
		
		categories = {
			electronics
			decryption_tech
		}
	}
	decryption_1950 = {

		# decryption 3
		decryption = 1
		allow_branch = {
			NOT = { has_dlc = "La Resistance" }
		}
		
		research_cost = 1.5
		start_year = 1950
		
		folder = {
			name = electronics_folder
			position = { x = 6 y = 10 }
		}
		
		ai_will_do = {
			factor = 15
		}
		
		categories = {
			electronics
			decryption_tech
		}
	}
	decryption_1960 = {

		# decryption 3
		decryption = 1
		allow_branch = {
			NOT = { has_dlc = "La Resistance" }
		}
		
		research_cost = 1.5
		start_year = 1960
		
		folder = {
			name = electronics_folder
			position = { x = 6 y = 14 }
		}
		
		ai_will_do = {
			factor = 15
		}
		
		categories = {
			electronics
			decryption_tech
		}
	}
	decryption_1970 = {

		# decryption 3
		decryption = 1
		allow_branch = {
			NOT = { has_dlc = "La Resistance" }
		}
		
		research_cost = 1.5
		start_year = 1970
		
		folder = {
			name = electronics_folder
			position = { x = 6 y = 18 }
		}
		
		ai_will_do = {
			factor = 15
		}
		
		categories = {
			electronics
			decryption_tech
		}
	}
	decryption_1980 = {

		# decryption 3
		decryption = 1
		allow_branch = {
			NOT = { has_dlc = "La Resistance" }
		}
		
		research_cost = 1.5
		start_year = 1980
		
		folder = {
			name = electronics_folder
			position = { x = 6 y = 22 }
		}
		
		ai_will_do = {
			factor = 15
		}
		
		categories = {
			electronics
			decryption_tech
		}
	}
	decryption_1990 = {

		# decryption 3
		decryption = 1
		allow_branch = {
			NOT = { has_dlc = "La Resistance" }
		}
		
		research_cost = 1.5
		start_year = 1990
		
		folder = {
			name = electronics_folder
			position = { x = 6 y = 26 }
		}
		
		ai_will_do = {
			factor = 15
		}
		
		categories = {
			electronics
			decryption_tech
		}
	}	
	
#######################################
####ENGINE RESEARCH / AIR TREE#########
#######################################	
	
	helicopter_engines = {
		folder = {
			name = helicopter_techs_folder
			position = { x = -1 y = 0 }
		}
		folder = {
			name = support_folder
			position = { x = 0 y = 0 }
		}
		start_year = 1945
		research_cost = 2
		
		enable_equipments = {
			helicopter_equipment_engines
		}
		
		path = {
			leads_to_tech = very_early_helicopter
			research_cost_coeff = 1
		}
		
		ai_will_do = {
			factor = 30
		}
		
		categories = {
			helicopter
			jet_technology
		}
	}
	
	jet_engines = {
		path = {
			leads_to_tech = improved_jet_engines_1 
			research_cost_coeff = 1
		}

		folder = {
			name = light_air_techs_folder
			position = { x = 0 y = 0 }
		}
		start_year = 1950
		
		research_cost = 2
		
		enable_equipments = {
			jet_equipment_engines
		}
		
		ai_will_do = {
			factor = 100
		}
		
		categories = {
			jet_technology
		}
	}
	jet_engines_bombers = {

		path = {
			leads_to_tech = improved_jet_engines_bombers_1 
			research_cost_coeff = 1
		}
		folder = {
			name = air_techs_folder
			position = { x = 0 y = 0 }
		}
		start_year = 1950
		
		research_cost = 2
		
		enable_equipments = {
			jet_bomber_equipment_engines
		}
		
		ai_will_do = {
			factor = 60
		}
		
		categories = {
			jet_technology
		}
	}
	
	improved_jet_engines_1 = {
		fighter = {
		   	air_range = 0.05
		}
		cv_fighter = {
		   	air_range = 0.05
		}
		cas = {
		   	air_range = 0.05
		}
		cv_cas = {
		   	air_range = 0.05
		}
		mca = {
		   	air_range = 0.05
		}
		cv_mca = {
		   	air_range = 0.05
		}
		interceptor = {
		   	air_range = 0.05
		}
		light_stealth = {
		   	air_range = 0.05
		}
		path = {
			leads_to_tech = improved_jet_engines_2 
			research_cost_coeff = 1
		}
		enable_equipments = {
			improved_jet_range_1
		}
		
		start_year = 1955
		
		research_cost = 1

		folder = {
			name = light_air_techs_folder
			position = { x = 4 y = 0 }
		}

		ai_will_do = {
			factor = 30
		}

		categories = {
			jet_technology
		}
	}
	
	improved_jet_engines_2 = {
		fighter = {
		   	air_range = 0.05
		}
		cv_fighter = {
		   	air_range = 0.05
		}
		cas = {
		   	air_range = 0.05
		}
		cv_cas = {
		   	air_range = 0.05
		}
		mca = {
		   	air_range = 0.05
		}
		cv_mca = {
		   	air_range = 0.05
		}
		interceptor = {
		   	air_range = 0.05
		}
		light_stealth = {
		   	air_range = 0.05
		}
		enable_equipments = {
			improved_jet_range_2
		}

		start_year = 1965
		
		research_cost = 1

		folder = {
			name = light_air_techs_folder
			position = { x = 8 y = 0 }
		}
		
		ai_will_do = {
			factor = 30
		}
		
		categories = {
			jet_technology
		}
	}

	improved_jet_engines_bombers_1 = {
	
		strat_bomber = {
			air_range = 0.05
		}
		tac_bomber = {
			air_range = 0.05
		}
		heavy_stealth_strat = {
			air_range = 0.05
		}
		heavy_stealth_tac = {
			air_range = 0.05
		}
		transport_plane = {
			air_range = 0.05
		}
		scout_plane = {
			air_range = 0.05
		}
		gunship = {
			air_range = 0.05
		}
		attack_helicopter = {
			air_range = 0.05
		}
		asw_helicopter = {
			air_range = 0.05
		}
		path = {
			leads_to_tech = improved_jet_engines_bombers_2
			research_cost_coeff = 1
		}
		enable_equipments = {
			improved_bomber_range_1
		}

		start_year = 1955
		
		research_cost = 1

		folder = {
			name = air_techs_folder
			position = { x = 4 y = 0 }
		}

		ai_will_do = {
			factor = 30
		}

		categories = {
			jet_technology
		}
	}

	improved_jet_engines_bombers_2 = {
	
		strat_bomber = {
			air_range = 0.05
		}
		tac_bomber = {
			air_range = 0.05
		}
		heavy_stealth_strat = {
			air_range = 0.05
		}
		heavy_stealth_tac = {
			air_range = 0.05
		}
		transport_plane = {
			air_range = 0.05
		}
		scout_plane = {
			air_range = 0.05
		}
		gunship = {
			air_range = 0.05
		}
		attack_helicopter = {
			air_range = 0.05
		}
		asw_helicopter = {
			air_range = 0.05
		}
		enable_equipments = {
			improved_bomber_range_2
		}

		start_year = 1965
		
		research_cost = 1

		folder = {
			name = air_techs_folder
			position = { x = 8 y = 0 }
		}

		ai_will_do = {
			factor = 30
		}

		categories = {
			jet_technology
		}
	}
	
	ICBM = {

		show_equipment_icon = yes

		enable_equipments = {
			ICBM_equipment
		}
		
		research_cost = 2
		start_year = 1960
		
		folder = {
			name = hidden_folder
			position = { x = 0 y = 12 }
		}
		
		ai_will_do = {
			factor = 0
		}
		
		categories = {
			missile
			ICBM
		}
	}
	
	MRBM = {

		show_equipment_icon = yes

		enable_equipments = {
			MRBM_equipment
		}
		
		research_cost = 2
		start_year = 1962
		
		folder = {
			name = hidden_folder
			position = { x = 8 y = 12 }
		}
		
		ai_will_do = {
			factor = 0
		}
		
		categories = {
			missile
			MRBM
		}
	}
	
	SRBM = {

		show_equipment_icon = yes

		enable_equipments = {
			SRBM_equipment
		}
		
		research_cost = 2
		start_year = 1962
		
		folder = {
			name = hidden_folder
			position = { x = 16 y = 12 }
		}
		
		ai_will_do = {
			factor = 0
		}
		
		categories = {
			missile
			SRBM
		}		
	}
}