add_namespace = npp_fp
add_namespace = USA_NPP_FP_Sabotage

country_event = { #
	id = npp_fp.1
	immediate = { log = "[GetDateText]: [Root.GetName]: event npp_fp.1" }
	title = npp_fp.1.t
	desc = npp_fp.1.desc
	picture = GFX_report_event_whitehouse_bnw
	
	is_triggered_only = yes
	fire_only_once = yes
	
	option = { #
		name = npp_fp.1.a
		ai_chance = { factor = 1 }
		add_political_power = 25 
	}
}

country_event = { #
	id = npp_fp.2
	immediate = { log = "[GetDateText]: [Root.GetName]: event npp_fp.2" }
	title = npp_fp.2.t
	desc = npp_fp.2.desc
	picture = GFX_report_event_us_presidential_podium
	
	is_triggered_only = yes
	fire_only_once = yes
	
	option = { #
		name = npp_fp.2.a
		ai_chance = { factor = 1 }
		
	}
}

country_event = { #
	id = npp_fp.3
	immediate = { log = "[GetDateText]: [Root.GetName]: event npp_fp.3" }
	title = npp_fp.3.t
	desc = npp_fp.3.desc
	picture = GFX_report_event_iberia_meeting_table
	
	is_triggered_only = yes
	fire_only_once = yes
	
	option = { #
		name = npp_fp.3.a
		ai_chance = { factor = 1 }
		
	}
}

country_event = { #
	id = npp_fp.4
	immediate = { log = "[GetDateText]: [Root.GetName]: event npp_fp.4" }
	title = npp_fp.4.t
	desc = npp_fp.4.desc
	picture = GFX_report_event_npp_generic3
	
	is_triggered_only = yes
	fire_only_once = yes
	
	option = { #
		name = npp_fp.4.a
		ai_chance = { factor = 1 }
		AST = {
			add_offsite_building = { type = arms_factory level = 1 }
			add_offsite_building = { type = industrial_complex level = 2 }
			}
			USA = {
				multiply_variable = {GDP = 0.99}
			}
			custom_effect_tooltip = USA.aiding.nations.tt
	}
}

country_event = { #
	id = npp_fp.5
	immediate = { log = "[GetDateText]: [Root.GetName]: event npp_fp.5" }
	title = npp_fp.5.t
	desc = npp_fp.5.desc
	picture = GFX_report_event_generic_people
	
	is_triggered_only = yes
	fire_only_once = yes
	
	option = { #
		name = npp_fp.5.a
		ai_chance = { factor = 1 }
		
	}
}

country_event = { #
	id = npp_fp.6
	immediate = { log = "[GetDateText]: [Root.GetName]: event npp_fp.6" }
	title = npp_fp.6.t
	desc = npp_fp.6.desc
	picture = GFX_report_event_us_presidential_podium
	
	is_triggered_only = yes
	fire_only_once = yes
	
	option = { #
		name = npp_fp.6.a
		ai_chance = { factor = 1 }
		
	}
}

country_event = { #
	id = npp_fp.7
	immediate = { log = "[GetDateText]: [Root.GetName]: event npp_fp.7" }
	title = npp_fp.7.t
	desc = npp_fp.7.desc
	picture = GFX_report_event_USA_congress_2
	
	is_triggered_only = yes
	fire_only_once = yes
	
	option = { #
		name = npp_fp.7.a
		ai_chance = { factor = 1 }
		
	}
}

country_event = { #
	id = npp_fp.8
	immediate = { log = "[GetDateText]: [Root.GetName]: event npp_fp.8" }
	title = npp_fp.8.t
	desc = npp_fp.8.desc
	picture = GFX_report_event_us_congress2
	
	is_triggered_only = yes
	fire_only_once = yes
	
	option = { #
		name = npp_fp.8.a
		ai_chance = { factor = 1 }
		
	}
}

country_event = { #
	id = npp_fp.9
	immediate = { log = "[GetDateText]: [Root.GetName]: event npp_fp.9" }
	title = npp_fp.9.t
	desc = npp_fp.9.desc
	picture = GFX_report_event_npp_generic3
	
	is_triggered_only = yes
	fire_only_once = yes
	
	option = { #
		name = npp_fp.9.a
		ai_chance = { factor = 1 }
		
	}
}

country_event = { #
	id = npp_fp.10
	immediate = { log = "[GetDateText]: [Root.GetName]: event npp_fp.10" }
	title = npp_fp.10.t
	desc = npp_fp.10.desc
	picture = GFX_report_event_npp_generic2
	
	is_triggered_only = yes
	fire_only_once = yes
	
	option = { #
		name = npp_fp.10.a
		ai_chance = { factor = 1 }
		
	}
}

country_event = { #
	id = npp_fp.11
	immediate = { log = "[GetDateText]: [Root.GetName]: event npp_fp.11" }
	title = npp_fp.11.t
	desc = npp_fp.11.desc
	picture = GFX_report_event_npp_generic1
	
	is_triggered_only = yes
	fire_only_once = yes
	
	option = { #
		name = npp_fp.11.a
		ai_chance = { factor = 1 }
		
	}
}

country_event = { #
	id = npp_fp.12
	immediate = { log = "[GetDateText]: [Root.GetName]: event npp_fp.12" }
	title = npp_fp.12.t
	desc = npp_fp.12.desc
	picture = GFX_report_event_us_congress
	
	is_triggered_only = yes
	fire_only_once = yes
	
	option = { #
		name = npp_fp.12.a
		ai_chance = { factor = 1 }
		
	}
}

country_event = { #
	id = npp_fp.13
	immediate = { log = "[GetDateText]: [Root.GetName]: event npp_fp.13" }
	title = npp_fp.13.t
	desc = npp_fp.13.desc
	picture = GFX_report_event_USA_congress_2
	
	is_triggered_only = yes
	fire_only_once = yes
	
	option = { #
		name = npp_fp.13.a
		ai_chance = { factor = 1 }
		
	}
}

country_event = { #
	id = npp_fp.14
	immediate = { log = "[GetDateText]: [Root.GetName]: event npp_fp.14" }
	title = npp_fp.14.t
	desc = npp_fp.14.desc
	picture = GFX_report_event_us_flag
	
	is_triggered_only = yes
	fire_only_once = yes
	
	option = { #
		name = npp_fp.14.a
		ai_chance = { factor = 1 }
		
	}
}

country_event = { #
	id = npp_fp.15
	immediate = { log = "[GetDateText]: [Root.GetName]: event npp_fp.15" }
	title = npp_fp.15.t
	desc = npp_fp.15.desc
	picture = GFX_report_event_whitehouse_color
	
	is_triggered_only = yes
	fire_only_once = yes
	
	option = { #
		name = npp_fp.15.a
		ai_chance = { factor = 1 }
		
	}
}

country_event = { #
	id = npp_fp.16
	immediate = { log = "[GetDateText]: [Root.GetName]: event npp_fp.16" }
	title = npp_fp.16.t
	desc = npp_fp.16.desc
	picture = GFX_report_event_us_flag
	
	is_triggered_only = yes
	fire_only_once = yes
	
	option = { #
		name = npp_fp.16.a
		ai_chance = { factor = 1 }
		
	}
}

country_event = { #
	id = npp_fp.17
	immediate = { log = "[GetDateText]: [Root.GetName]: event npp_fp.17" }
	title = npp_fp.17.t
	desc = npp_fp.17.desc
	picture = GFX_report_event_us_presidential_podium
	
	is_triggered_only = yes
	fire_only_once = yes
	
	option = { #
		name = npp_fp.17.a
		ai_chance = { factor = 1 }
		
	}
}

country_event = { #
	id = npp_fp.18
	immediate = { log = "[GetDateText]: [Root.GetName]: event npp_fp.18" }
	title = npp_fp.18.t
	desc = npp_fp.18.desc
	picture = GFX_report_event_whitehouse_bnw
	
	is_triggered_only = yes
	fire_only_once = yes
	
	option = { #
		name = npp_fp.18.a
		ai_chance = { factor = 1 }
		
	}
}

country_event = { #
	id = npp_fp.19
	immediate = { log = "[GetDateText]: [Root.GetName]: event npp_fp.19" }
	title = npp_fp.19.t
	desc = npp_fp.19.desc
	picture = GFX_report_event_iberia_meeting_table
	
	is_triggered_only = yes
	fire_only_once = yes
	
	option = { #
		name = npp_fp.19.a
		ai_chance = { factor = 1 }
		
	}
}

country_event = { #
	id = npp_fp.20
	immediate = { log = "[GetDateText]: [Root.GetName]: event npp_fp.20" }
	title = npp_fp.20.t
	desc = npp_fp.20.desc
	picture = GFX_report_event_us_washington_obelisk
	
	is_triggered_only = yes
	fire_only_once = yes
	
	option = { #
		name = npp_fp.20.a
		ai_chance = { factor = 1 }
		
	}
}

country_event = { #
	id = npp_fp.21
	immediate = { log = "[GetDateText]: [Root.GetName]: event npp_fp.21" }
	title = npp_fp.21.t
	desc = npp_fp.21.desc
	picture = GFX_report_event_iberia_big_meeting
	
	is_triggered_only = yes
	fire_only_once = yes
	
	option = { #
		name = npp_fp.21.a
		ai_chance = { factor = 1 }
		random_owned_state = {
			damage_building = {
				type = infrastructure
				damage = 1
				}
		}
		add_manpower = -30
	}
}

country_event = { #
	id = npp_fp.22
	immediate = { log = "[GetDateText]: [Root.GetName]: event npp_fp.22" }
	title = npp_fp.22.t
	desc = npp_fp.22.desc
	picture = GFX_report_event_whitehouse_color
	
	is_triggered_only = yes
	fire_only_once = yes
	
	option = { #
		name = npp_fp.22.a
		ai_chance = { factor = 1 }
		PHI = {
			add_stability = -0.05
		}
	}
}

country_event = { #
	id = npp_fp.23
	immediate = { log = "[GetDateText]: [Root.GetName]: event npp_fp.23" }
	title = npp_fp.23.t
	desc = npp_fp.23.desc
	picture = GFX_report_event_whitehouse_bnw
	
	is_triggered_only = yes
	fire_only_once = yes
	
	option = { #
		name = npp_fp.23.a
		ai_chance = { factor = 1 }
		add_stability = -0.04
	}
}

country_event = { #
	id = npp_fp.24
	immediate = { log = "[GetDateText]: [Root.GetName]: event npp_fp.24" }
	title = npp_fp.24.t
	desc = npp_fp.24.desc
	picture = GFX_report_event_generic_people
	
	is_triggered_only = yes
	fire_only_once = yes
	
	option = { #
		name = npp_fp.24.a
		ai_chance = { factor = 1 }
		add_timed_idea = {
			idea = NPP_FP_supply_lines_not_secure
			days = 200
		}
	}
}

country_event = { #
	id = npp_fp.25
	immediate = { log = "[GetDateText]: [Root.GetName]: event npp_fp.25" }
	title = npp_fp.25.t
	desc = npp_fp.25.desc
	picture = GFX_report_event_npp_generic3
	
	is_triggered_only = yes
	fire_only_once = yes
	
	option = { #
		name = npp_fp.25.a
		ai_chance = { factor = 1 }
		add_stability = -0.04
	}
}

country_event = { #
	id = npp_fp.26
	immediate = { log = "[GetDateText]: [Root.GetName]: event npp_fp.26" }
	title = npp_fp.26.t
	desc = npp_fp.26.desc
	picture = GFX_report_event_npp_generic1
	
	is_triggered_only = yes
	fire_only_once = yes
	
	option = { #
		name = npp_fp.26.a
		ai_chance = { factor = 1 }
		add_timed_idea = {
			idea = NPP_FP_cuban_sabotagers
			days = 200
		}
	}
}

country_event = { #
	id = npp_fp.27
	immediate = { log = "[GetDateText]: [Root.GetName]: event npp_fp.27" }
	title = npp_fp.27.t
	desc = npp_fp.27.desc
	picture = GFX_report_event_us_flag
	
	is_triggered_only = yes
	fire_only_once = yes
	
	option = { #
		name = npp_fp.27.a
		ai_chance = { factor = 1 } # Phillipines lose stability because rebels are increasing activity
		PHI = {
			add_stability = -0.03
		}
	}
}

country_event = { #
	id = npp_fp.28
	immediate = { log = "[GetDateText]: [Root.GetName]: event npp_fp.28" }
	title = npp_fp.28.t
	desc = npp_fp.28.desc
	picture = GFX_report_event_npp_generic2
	
	is_triggered_only = yes
	fire_only_once = yes
	
	option = { #
		name = npp_fp.28.a
		ai_chance = { factor = 1 }
		random_owned_state = {
		    damage_building = {
		        type = industrial_complex
				damage = 1
			}
		}
		add_timed_idea = {
			idea = NPP_FP_damaged_industry
			days = 200
		}
	}
}

country_event = { #
	id = npp_fp.29
	immediate = { log = "[GetDateText]: [Root.GetName]: event npp_fp.29" }
	title = npp_fp.29.t
	desc = npp_fp.29.desc
	picture = GFX_report_event_iberia_meeting_table
	
	is_triggered_only = yes
	fire_only_once = yes
	
	option = { #
		name = npp_fp.29.a
		ai_chance = { factor = 1 }
		hidden_effect = {
			set_country_flag = NPP_FP_enable_sabotage_in_the_sphere
		}
		custom_effect_tooltip = NPP.FP.enable.sabotage.in.the.sphere.tt
	}
}

country_event = { #
	id = npp_fp.30
	immediate = { log = "[GetDateText]: [Root.GetName]: event npp_fp.30" }
	title = npp_fp.30.t
	desc = npp_fp.30.desc
	picture = GFX_report_event_npp_generic1
	
	is_triggered_only = yes
	fire_only_once = yes
	
	option = { #
		name = npp_fp.30.a
		ai_chance = { factor = 1 }
		PHI = {
			add_stability = -0.05
		}
	}
}

country_event = {
	id = npp_fp.31 
	immediate = { log = "[GetDateText]: [Root.GetName]: event npp_fp.31" }
	title = npp_fp.31.t
	desc = npp_fp.31.desc

	is_triggered_only = yes
	option = {
		name = npp_fp.31.a
		ai_chance = { factor = 1 }
	}
	option = {
		name = npp_fp.31.b
		ai_chance = { factor = 1 }
	}
}

country_event = {
	id = npp_fp.32 
	immediate = { log = "[GetDateText]: [Root.GetName]: event npp_fp.32" }
	title = npp_fp.32.t
	desc = npp_fp.32.desc

	is_triggered_only = yes
	option = {
		name = npp_fp.32.a
		ai_chance = { factor = 1 }
	}
}

country_event = {
	id = npp_fp.33 
	immediate = { log = "[GetDateText]: [Root.GetName]: event npp_fp.33" }
	title = npp_fp.33.t
	desc = npp_fp.33.desc

	is_triggered_only = yes
	option = {
		name = npp_fp.33.a
		ai_chance = { factor = 1 }
	}
}
#is draft raising passed?
country_event = {
	id = npp_fp.34
	picture = GFX_report_event_iberia_meeting_table
	title = {
		text = WAL_passed_DR.t
		trigger = {
			has_country_flag = bill_passed
			has_country_flag = USA_64_FR_NPP
		}
	}
	title = {
		text = RFK_passed_DR.t
		trigger = {
			has_country_flag = bill_passed
			has_country_flag = USA_64_C_NPP
		}
	}
	title = {
		text = HAR_passed_DR.t
		trigger = {
			has_country_flag = bill_passed
			has_country_flag = USA_68_C_NPP
		}
	}
	title = {
		text = MCS_passed_DR.t
		trigger = {
			has_country_flag = bill_passed
			has_country_flag = USA_68_FR_NPP
		}
	}
	title = {
		text = STROM_passed_DR.t
		trigger = {
			has_country_flag = bill_passed
			has_country_flag = USA_THURMOND_FR_NPP
		}
	}
	title = {
		text = LEMAY_passed_DR.t
		trigger = {
			has_country_flag = bill_passed
			has_country_flag = USA_LEMAY
		}
	}
	title = {
		text = USA_failed_DR.t
		trigger = {
			NOT = { has_country_flag = bill_passed }
		}
	}
	
	immediate = {
		log = "[GetDateText]: [Root.GetName]: event npp_fp.34"
		check_if_bill_passed = yes
		}
	desc = {
		text = WAL_passed_DR
		trigger = {
			has_country_flag = bill_passed
			has_country_flag = USA_64_FR_NPP
			}
		}
	desc = {
		text = RFK_passed_DR
		trigger = {
			has_country_flag = bill_passed
			has_country_flag = USA_64_C_NPP
			}
		}
	desc = {
		text = HAR_passed_DR
		trigger = {
			has_country_flag = bill_passed
			has_country_flag = USA_68_C_NPP
			}
		}
	desc = {
		text = MCS_passed_DR
		trigger = {
			has_country_flag = bill_passed
			has_country_flag = USA_68_FR_NPP
		}
	}
	desc = {
		text = STROM_passed_DR
		trigger = {
			has_country_flag = bill_passed
			has_country_flag = USA_THURMOND_FR_NPP
		}
	}
	desc = {
		text = LEMAY_passed_DR
		trigger = {
			has_country_flag = bill_passed
			has_country_flag = USA_LEMAY
		}
	}
	desc = {
		text = USA_failed_DR
		trigger = { NOT = { has_country_flag = bill_passed } }
	}
	is_triggered_only = yes
	option = {
		name = npp_fp.34.a
		ai_chance = { factor = 1 }
		#yes
		trigger = { has_country_flag = bill_passed }
		if = {
			limit = { has_country_flag = bill_passed }
			tno_draft_exemptions_worsen = yes
			add_to_variable = { USA_NPP_Unity = 0.5 }
			custom_effect_tooltip = USA_add_NPP_unity
			custom_effect_tooltip = USA_add_RD_popularity_low_north
			hidden_effect = {
				every_owned_state = {
					limit = { check_variable = { nationality = 82 } }
					add_to_variable = { RD_popularity = 0.05 }
					subtract_from_variable = { NPP_popularity = 0.05 }
				}
			}
		}
		USA_bill_clear = yes
	}
	option = {
		name = npp_fp.34.b 
		trigger = { NOT = { has_country_flag = bill_passed } }
		#no
		subtract_from_variable = { USA_NPP_Unity = 0.5 }
		custom_effect_tooltip = USA_subtract_NPP_unity
		USA_bill_clear = yes
	}
}
#is women passed
country_event = {
	id = npp_fp.35
	picture = GFX_report_event_iberia_meeting_table
	immediate = {
		log = "[GetDateText]: [Root.GetName]: event npp_fp.35"
		check_if_bill_passed = yes
	}
	title = {
		text = WAL_passed_RR.t
		trigger = {
			has_country_flag = bill_passed
			has_country_flag = USA_64_FR_NPP
		}
	}
	title = {
		text = RFK_passed_RR.t
		trigger = {
			has_country_flag = bill_passed
			has_country_flag = USA_64_C_NPP
		}
	}
	title = {
		text = HAR_passed_RR.t
		trigger = {
			has_country_flag = bill_passed
			has_country_flag = USA_68_C_NPP
		}
	}
	title = {
		text = MCS_passed_RR.t
		trigger = {
			has_country_flag = bill_passed
			has_country_flag = USA_68_FR_NPP
		}
	}
	title = {
		text = STROM_passed_RR.t
		trigger = {
			has_country_flag = bill_passed
			has_country_flag = USA_THURMOND_FR_NPP
		}
	}
	title = {
		text = LEMAY_passed_RR.t
		trigger = {
			has_country_flag = bill_passed
			has_country_flag = USA_LEMAY
		}
	}
	title = {
		text = USA_failed_RR.t
		trigger = {
			NOT = { has_country_flag = bill_passed }
		}
	}
		
	desc = {
		text = WAL_passed_RR
		trigger = {
			has_country_flag = bill_passed
			has_country_flag = USA_64_FR_NPP
		}
	}
	desc = {
		text = RFK_passed_RR
		trigger = {
			has_country_flag = bill_passed
			has_country_flag = USA_64_C_NPP
		}
	}
	desc = {
		text = HAR_passed_RR
		trigger = {
			has_country_flag = bill_passed
			has_country_flag = USA_68_C_NPP
		}
	}
	desc = {
		text = MCS_passed_RR
		trigger = {
			has_country_flag = bill_passed
			has_country_flag = USA_68_FR_NPP
		}
	}
	desc = {
		text = STROM_passed_RR
		trigger = {
			has_country_flag = bill_passed
			has_country_flag = USA_THURMOND_FR_NPP
		}
	}
	desc = {
		text = LEMAY_passed_RR
		trigger = {
			has_country_flag = bill_passed
			has_country_flag = USA_LEMAY
		}
	}
	desc = {
		text = USA_failed_RR
		trigger = { NOT = { has_country_flag = bill_passed } }
	}
	is_triggered_only = yes
	option = {
		name = npp_fp.35.a
		trigger = { has_country_flag = bill_passed }
		ai_chance = { factor = 1 }
		#yes
		if = {
			limit = { has_idea = tno_women_military_assistance }
			tno_women_improve = yes
		}
		else = {
			add_manpower = 50000
		}
		add_to_variable = { USA_NPP_Unity = 0.5 }
		custom_effect_tooltip = USA_add_NPP_unity
		custom_effect_tooltip = USA_add_RD_popularity_low_south
		hidden_effect = {
			USA_bill_clear = yes
			every_owned_state = {
				limit = { check_variable = { nationality = 83 } }
				add_to_variable = { RD_popularity = 0.05 }
				subtract_from_variable = { NPP_popularity = 0.05 }
				}
			}
		}
	option = {
		name = npp_fp.35.b 
		trigger = { NOT = { has_country_flag = bill_passed } }
		subtract_from_variable = { USA_NPP_Unity = 0.5 }
		custom_effect_tooltip = USA_subtract_NPP_unity
		USA_bill_clear = yes
	}

}

country_event = {
	id = npp_fp.36
	immediate = { log = "[GetDateText]: [Root.GetName]: event npp_fp.36" }
	title = npp_fp.36.t
	desc = npp_fp.36.desc
	picture = GFX_report_event_npp_generic1

	is_triggered_only = yes
	option = {
		name = npp_fp.36.a
		ai_chance = { factor = 1 }
	}
}
	

country_event = {
	id = USA_NPP_FP_Sabotage.1
	immediate = {log = "[GetDateText]: [Root.GetName]: event USA_NPP_FP_Sabotage.1"}
	title = USA_NPP_FP_Sabotage.1.t
	desc = USA_NPP_FP_Sabotage.1.desc
	picture = GFX_report_event_us_congress

	is_triggered_only = yes

 	option = {
		name = USA_NPP_FP_Sabotage.1.a
		random_owned_state = {
			damage_building = {
				type = infrastructure
				damage = 1
			}
		}
	}
}

country_event = {
	id = USA_NPP_FP_Sabotage.2
	immediate = {log = "[GetDateText]: [Root.GetName]: event USA_NPP_FP_Sabotage.2"}
	title = USA_NPP_FP_Sabotage.1.t
	desc = USA_NPP_FP_Sabotage.1.desc
	picture = GFX_report_event_us_flag

	is_triggered_only = yes

 	option = {
		name = USA_NPP_FP_Sabotage.1.a
		random_owned_state = {
			damage_building = {
				type = industrial_complex
				damage = 1
			}
		}
 	}
}
