﻿### Lost Legion Events #not funny didn't laugh

add_namespace = SPQR

###Legion arrives in our universe###
country_event = {
	id = SPQR.50
	immediate = {log = "[GetDateText]: [Root.GetName]: event SPQR.50"}
	title = SPQR.50.t
	desc = SPQR.50.desc
	picture = GFX_report_event_bormann_wins
	
	hidden = yes

	is_triggered_only = yes
	fire_only_once = yes
	
	option = {
		name = SPQR.50.a
		hidden_effect = {
		    RMN = {
			    transfer_state = 348 # Kayseri
			    add_state_core = 348
			    load_oob = RMN_1962
		    }
		    TUR = {
				leave_faction = yes
		    }
		    set_global_flag = the_lost_legion
			RMN = {
			country_event = { 
			    id = SPQR.51 
				days = 1 
			}
			}
		}
	}
}

#Continue the ancient war against the Turks
country_event = {
	id = SPQR.51
	immediate = {log = "[GetDateText]: [Root.GetName]: event SPQR.51"}
	title = SPQR.51.t
	desc = SPQR.51.desc
	picture = GFX_report_event_bormann_wins

	is_triggered_only = yes
	fire_only_once = yes

	option = {
		name = SPQR.51.a
		hidden_effect = {
		RMN = {
			declare_war_on = {
				target = TUR
				type = annex_everything
			}
		}
		every_country = {
			limit = {
				NOT = {
					tag = RMN
				}
			}
			news_event = {
				id = WORLD.789
			}
		}
		}
	}
}

#Turkey has died
country_event = {
	id = SPQR.52
	immediate = {log = "[GetDateText]: [Root.GetName]: event SPQR.52"}
	title = SPQR.52.t
	desc = SPQR.52.desc
	picture = GFX_report_event_bormann_wins

	is_triggered_only = yes
	fire_only_once = yes
	
	option = {
		name = SPQR.52.a
		hidden_effect = {
		set_global_flag = turkey_dead
		341 = { set_state_name = "Constantinople" }
		set_province_name = { id = 9833 name = "Constantinople" }
		add_state_core = 184
		add_state_core = 341
		add_state_core = 340
		add_state_core = 339
		add_state_core = 342
		add_state_core = 343
		add_state_core = 347
		add_state_core = 49
		add_state_core = 346
		add_state_core = 345
		add_state_core = 356
		add_state_core = 348
		add_state_core = 344
		add_state_core = 355
		add_state_core = 349
		add_state_core = 350
		add_state_core = 352
		add_state_core = 353
		add_state_core = 354
		add_state_core = 783
		add_state_core = 230
		add_state_core = 677
		add_state_core = 680
		add_state_core = 781
		add_state_core = 554
		set_capital = 341
		random_owned_controlled_state = {
					prioritize = { 341 }
					create_unit = {
						division = "name = \"Turkish Auxiliaries\" division_template = \"Auxiliaries\" start_experience_factor = 0.5" 
						owner = RMN
					}	
				}
		random_owned_controlled_state = {
					prioritize = { 341 }
					create_unit = {
						division = "name = \"Turkish Auxiliaries\" division_template = \"Auxiliaries\" start_experience_factor = 0.5" 
						owner = RMN
					}	
				}
		random_owned_controlled_state = {
					prioritize = { 341 }
					create_unit = {
						division = "name = \"Turkish Auxiliaries\" division_template = \"Auxiliaries\" start_experience_factor = 0.5" 
						owner = RMN
					}	
				}
		random_owned_controlled_state = {
					prioritize = { 341 }
					create_unit = {
						division = "name = \"Turkish Auxiliaries\" division_template = \"Auxiliaries\" start_experience_factor = 0.5" 
						owner = RMN
					}	
				}
		random_owned_controlled_state = {
					prioritize = { 341 }
					create_unit = {
						division = "name = \"Turkish Auxiliaries\" division_template = \"Auxiliaries\" start_experience_factor = 0.5" 
						owner = RMN
					}	
				}
		random_owned_controlled_state = {
					prioritize = { 341 }
					create_unit = {
						division = "name = \"Turkish Auxiliaries\" division_template = \"Auxiliaries\" start_experience_factor = 0.5" 
						owner = RMN
					}	
				}
		random_owned_controlled_state = {
					prioritize = { 341 }
					create_unit = {
						division = "name = \"Turkish Auxiliaries\" division_template = \"Auxiliaries\" start_experience_factor = 0.5" 
						owner = RMN
					}	
				}
		random_owned_controlled_state = {
					prioritize = { 341 }
					create_unit = {
						division = "name = \"Turkish Auxiliaries\" division_template = \"Auxiliaries\" start_experience_factor = 0.5" 
						owner = RMN
					}	
				}
		random_owned_controlled_state = {
					prioritize = { 341 }
					create_unit = {
						division = "name = \"Turkish Auxiliaries\" division_template = \"Auxiliaries\" start_experience_factor = 0.5" 
						owner = RMN
					}	
				}
		random_owned_controlled_state = {
					prioritize = { 341 }
					create_unit = {
						division = "name = \"Turkish Auxiliaries\" division_template = \"Auxiliaries\" start_experience_factor = 0.5" 
						owner = RMN
					}	
				}
		random_owned_controlled_state = {
					prioritize = { 341 }
					create_unit = {
						division = "name = \"Turkish Auxiliaries\" division_template = \"Auxiliaries\" start_experience_factor = 0.5" 
						owner = RMN
					}	
				}
		random_owned_controlled_state = {
					prioritize = { 341 }
					create_unit = {
						division = "name = \"Turkish Auxiliaries\" division_template = \"Auxiliaries\" start_experience_factor = 0.5" 
						owner = RMN
					}	
				}
		random_owned_controlled_state = {
					prioritize = { 341 }
					create_unit = {
						division = "name = \"Turkish Auxiliaries\" division_template = \"Auxiliaries\" start_experience_factor = 0.5" 
						owner = RMN
					}	
				}
		random_owned_controlled_state = {
					prioritize = { 341 }
					create_unit = {
						division = "name = \"Turkish Auxiliaries\" division_template = \"Auxiliaries\" start_experience_factor = 0.5" 
						owner = RMN
					}	
				}
		random_owned_controlled_state = {
					prioritize = { 341 }
					create_unit = {
						division = "name = \"Turkish Auxiliaries\" division_template = \"Auxiliaries\" start_experience_factor = 0.5" 
						owner = RMN
					}	
				}
		random_owned_controlled_state = {
					prioritize = { 341 }
					create_unit = {
						division = "name = \"Turkish Auxiliaries\" division_template = \"Auxiliaries\" start_experience_factor = 0.5" 
						owner = RMN
					}	
				}
		random_owned_controlled_state = {
					prioritize = { 341 }
					create_unit = {
						division = "name = \"Turkish Auxiliaries\" division_template = \"Auxiliaries\" start_experience_factor = 0.5" 
						owner = RMN
					}	
				}
		random_owned_controlled_state = {
					prioritize = { 341 }
					create_unit = {
						division = "name = \"Turkish Auxiliaries\" division_template = \"Auxiliaries\" start_experience_factor = 0.5" 
						owner = RMN
					}	
				}
		random_owned_controlled_state = {
					prioritize = { 341 }
					create_unit = {
						division = "name = \"Turkish Auxiliaries\" division_template = \"Auxiliaries\" start_experience_factor = 0.5" 
						owner = RMN
					}	
				}
		random_owned_controlled_state = {
					prioritize = { 341 }
					create_unit = {
						division = "name = \"Turkish Auxiliaries\" division_template = \"Auxiliaries\" start_experience_factor = 0.5" 
						owner = RMN
					}	
				}
		random_owned_controlled_state = {
					prioritize = { 341 }
					create_unit = {
						division = "name = \"Turkish Auxiliaries\" division_template = \"Auxiliaries\" start_experience_factor = 0.5" 
						owner = RMN
					}	
				}
		random_owned_controlled_state = {
					prioritize = { 341 }
					create_unit = {
						division = "name = \"Turkish Auxiliaries\" division_template = \"Auxiliaries\" start_experience_factor = 0.5" 
						owner = RMN
					}	
				}
		random_owned_controlled_state = {
					prioritize = { 341 }
					create_unit = {
						division = "name = \"Turkish Auxiliaries\" division_template = \"Auxiliaries\" start_experience_factor = 0.5" 
						owner = RMN
					}	
				}
		random_owned_controlled_state = {
					prioritize = { 341 }
					create_unit = {
						division = "name = \"Turkish Auxiliaries\" division_template = \"Auxiliaries\" start_experience_factor = 0.5" 
						owner = RMN
					}	
				}
		random_owned_controlled_state = {
					prioritize = { 341 }
					create_unit = {
						division = "name = \"Turkish Auxiliaries\" division_template = \"Auxiliaries\" start_experience_factor = 0.5" 
						owner = RMN
					}	
				}
		random_owned_controlled_state = {
					prioritize = { 341 }
					create_unit = {
						division = "name = \"Turkish Auxiliaries\" division_template = \"Auxiliaries\" start_experience_factor = 0.5" 
						owner = RMN
					}	
				}
		random_owned_controlled_state = {
					prioritize = { 341 }
					create_unit = {
						division = "name = \"Turkish Auxiliaries\" division_template = \"Auxiliaries\" start_experience_factor = 0.5" 
						owner = RMN
					}	
				}
		random_owned_controlled_state = {
					prioritize = { 341 }
					create_unit = {
						division = "name = \"Turkish Auxiliaries\" division_template = \"Auxiliaries\" start_experience_factor = 0.5" 
						owner = RMN
					}	
				}
		random_owned_controlled_state = {
					prioritize = { 341 }
					create_unit = {
						division = "name = \"Turkish Auxiliaries\" division_template = \"Auxiliaries\" start_experience_factor = 0.5" 
						owner = RMN
					}	
				}
		random_owned_controlled_state = {
					prioritize = { 341 }
					create_unit = {
						division = "name = \"Turkish Auxiliaries\" division_template = \"Auxiliaries\" start_experience_factor = 0.5" 
						owner = RMN
					}	
				}
		country_event = { 
			    id = SPQR.53
				days = 7
		}
		}
		}
}

#The World proves they are unworthy
country_event = {
	id = SPQR.53
	immediate = {log = "[GetDateText]: [Root.GetName]: event SPQR.53"}
	title = SPQR.53.t
	desc = SPQR.53.desc
	picture = GFX_report_event_bormann_wins

	is_triggered_only = yes
	fire_only_once = yes

	option = {
		name = SPQR.53.a
		every_country = {
			limit = {
				NOT = {
					tag = RMN
				}
			}
				declare_war_on = { type = annex_everything target = RMN }
		}
	}
}