﻿add_namespace = IRK
add_namespace = IRK_superregional

### INTRO EVENTS ###
## Irkutsk intro

country_event = { #Intro event
	id = IRK.1
	immediate = {log = "[GetDateText]: [Root.GetName]: event IRK.1"}
	title = IRK.1.t
	desc = IRK.1.desc
	picture = GFX_report_event_soviet_russian_officer_child

	is_triggered_only = yes


	option = { #
		name = IRK.1.a
		ai_chance = { factor = 1 }
	
	}
}

country_event = {  #In the KGB
	id = IRK.2
	immediate = {log = "[GetDateText]: [Root.GetName]: event IRK.2"}
	title = IRK.2.t
	desc = IRK.2.desc
	picture = GFX_report_event_soviet_russian_soldiers_2

	is_triggered_only = yes

	option = { #
		name = IRK.2.a
		ai_chance = { factor = 1 }
		add_stability = 0.1
	}
}

country_event = {  #Ministry Of Propaganda
	id = IRK.3
	immediate = {log = "[GetDateText]: [Root.GetName]: event IRK.3"}
	title = IRK.3.t
	desc = IRK.3.desc
	picture = GFX_report_event_kaukasus_fear_and_loathing

	is_triggered_only = yes


	option = {
		name = IRK.3.a
		ai_chance = { factor = 1 }
		add_war_support = -0.05
	}
}

country_event = {  #In the KGB - Sablin
	id = IRK.4
	immediate = {log = "[GetDateText]: [Root.GetName]: event IRK.4"}
	title = IRK.4.t
	desc = IRK.4.desc
	picture = GFX_report_event_soviet_russian_officer_pistol

	is_triggered_only = yes


	option = { #
		name = IRK.4.a
		ai_chance = { factor = 1 }
		add_timed_idea = { idea = IRK_yagodite_atrocities days = 90 }
	}
}

country_event = { #The Response
	id = IRK.5
	immediate = {log = "[GetDateText]: [Root.GetName]: event IRK.5"}
	title = IRK.5.t
	desc = IRK.5.desc
	picture = GFX_report_event_soviet_russian_sniper

	is_triggered_only = yes


	option = { #
		name = IRK.5.a
		ai_chance = { factor = 1 }

	}
}

country_event = { #Load postwar tree
	id = IRK.6
	immediate = {log = "[GetDateText]: [Root.GetName]: event IRK.6"}
	title = IRK.6.t
	desc = IRK.6.desc
	picture = GFX_report_event_iberia_prison_jail_cell

	is_triggered_only = yes


	option = { #
		name = IRK.6.a
		ai_chance = { factor = 1 }
		add_ideas = IRK_administrative_shortcomings
		hidden_effect = { load_focus_tree = IRK_postwar }
	}
}

country_event = { #Load expansion tree
	id = IRK.7
	immediate = {log = "[GetDateText]: [Root.GetName]: event IRK.7"}
	title = IRK.7.t
	desc = IRK.7.desc
	picture = GFX_report_event_command_table

	is_triggered_only = yes


	option = { #
		name = IRK.7.a
		ai_chance = { factor = 1 }
		load_focus_tree = IRK_expansion
	}
}

country_event = { #The Great Purge
	id = IRK.8
	immediate = {log = "[GetDateText]: [Root.GetName]: event IRK.8"}
	title = IRK.8.t
	desc = IRK.8.desc
	picture = GFX_report_event_purge

	is_triggered_only = yes


	option = { #
		name = IRK.8.a
		ai_chance = { factor = 1 }
		add_political_power = -15
		add_stability = -0.05
	}
}

country_event = { #Investigations
	id = IRK.9
	immediate = {log = "[GetDateText]: [Root.GetName]: event IRK.9"}
	title = IRK.9.t
	desc = IRK.9.desc
	picture = GFX_report_event_iberia_filing_cabinet

	is_triggered_only = yes


	option = { #
		name = IRK.9.a
		ai_chance = { factor = 1 }
		swap_ideas = {
			remove_idea = IRK_administrative_shortcomings_2
			add_idea = IRK_bureaucracy_purged
		}
	}
}

country_event = { #The Irkutsk Trials
	id = IRK.10
	immediate = {log = "[GetDateText]: [Root.GetName]: event IRK.10"}
	title = IRK.10.t
	desc = IRK.10.desc
	picture = GFX_report_event_russia_court

	is_triggered_only = yes


	option = { #
		name = IRK.10.a
		ai_chance = {
			factor = 10
			modifier = {
				has_country_flag = IRK_AI_REFORM
				factor = 10
			}
		}
		add_popularity = {
			ideology = communist
			popularity = 0.02
		}
		IRK_increase_party_influence_low = yes
	}
	option = { #
		name = IRK.10.b
		ai_chance = { factor = 25 }
		add_manpower = -25
		add_stability = 0.02
	}
}

country_event = { #Lessons From The Mutiny
	id = IRK.11
	immediate = {log = "[GetDateText]: [Root.GetName]: event IRK.11"}
	title = IRK.11.t
	desc = IRK.11.desc
	picture = GFX_report_event_soviet_russian_officers_4

	is_triggered_only = yes


	option = { #
		name = IRK.11.a
		ai_chance = {
			factor = 10
			modifier = {
				has_country_flag = IRK_AI_REFORM
				factor = 10
			}
		}
		IRK_increase_party_influence_low = yes
		add_tech_bonus = {
			bonus = 0.5
			uses = 1
			category = land_doctrine
		}
	}
	option = { #
		name = IRK.11.b
		ai_chance = {
			factor = 10
			modifier = {
				has_country_flag = IRK_AI_YAGODA
				factor = 10
			}
		}
		IRK_increase_nkvd_influence_low = yes
		add_tech_bonus = {
			bonus = 0.75
			uses = 1
			category = land_doctrine
		}
	}
}

country_event = { #Lessons From Their Spirit
	id = IRK.12
	immediate = {log = "[GetDateText]: [Root.GetName]: event IRK.12"}
	title = IRK.12.t
	desc = IRK.12.desc
	picture = GFX_report_event_russian_volunteers

	is_triggered_only = yes


	option = { #
		name = IRK.12.a
		ai_chance = {
			factor = 10
			modifier = {
				has_country_flag = IRK_AI_REFORM
				factor = 10
			}
		}
		IRK_increase_party_influence_med = yes
		add_war_support = 0.05
	}
	option = { #
		name = IRK.12.b
		ai_chance = {
			factor = 10
			modifier = {
				has_country_flag = IRK_AI_YAGODA
				factor = 10
			}
		}
		IRK_increase_nkvd_influence_med = yes
		add_political_power = 50
	}
}

country_event = { #Lessons From Sablin
	id = IRK.13
	immediate = {log = "[GetDateText]: [Root.GetName]: event IRK.13"}
	title = IRK.13.t
	desc = IRK.13.desc
	picture = GFX_report_event_iberia_meeting_table

	is_triggered_only = yes


	option = { #
		name = IRK.13.a
		ai_chance = {
			factor = 10
			modifier = {
				has_country_flag = IRK_AI_REFORM
				factor = 10
			}
		}
		add_stability = 0.05
		IRK_increase_party_influence_high = yes
	}
	option = { #
		name = IRK.13.b
		ai_chance = {
			factor = 10
			modifier = {
				has_country_flag = IRK_AI_YAGODA
				factor = 10
			}
		}
		add_political_power = 25
	}
	option = { #
		name = IRK.13.c
		ai_chance = {
			factor = 10
			modifier = {
				has_country_flag = IRK_AI_YAGODA
				factor = 5
			}
		}
		IRK_increase_nkvd_influence_med = yes
	}
}

country_event = { #Aldan - Submit?
	id = IRK.14
	immediate = {log = "[GetDateText]: [Root.GetName]: event IRK.14"}
	title = IRK.14.t
	desc = IRK.14.desc
	picture =  GFX_report_event_soviet_russian_mech_infantry_1

	is_triggered_only = yes


	option = { #
		name = IRK.14.a
		ai_chance = { factor = 1 }
		IRK = {
			country_event = {
				id = IRK.15
				days = 1
			}
		}
	}
	option = { #
		name = IRK.14.b
		ai_chance = { factor = 1 }
		IRK = {
			country_event = {
				id = IRK.16
				days = 1
			}
		}
	}
}

country_event = { #Y
	id = IRK.15
	immediate = {log = "[GetDateText]: [Root.GetName]: event IRK.15"}
	title = IRK.15.t
	desc = IRK.15.desc
	picture = GFX_report_generic_prisoners

	is_triggered_only = yes


	option = { #
		name = IRK.15.a
		ai_chance = { factor = 1 }
		set_country_flag = SEV_will_join
	}
}

country_event = { #N
	id = IRK.16
	immediate = {log = "[GetDateText]: [Root.GetName]: event IRK.16"}
	title = IRK.16.t
	desc = IRK.16.desc
	picture = GFX_report_event_russian_irregulars

	is_triggered_only = yes


	option = { #
		name = IRK.16.a
		ai_chance = { factor = 1 }
		set_country_flag = SEV_will_war
	}
}

country_event = { #The Far Eastern Campaign
	id = IRK.17
	immediate = {log = "[GetDateText]: [Root.GetName]: event IRK.17"}
	title = IRK.17.t
	desc = IRK.17.desc
	picture = GFX_report_event_russia_war_planning

	is_triggered_only = yes


	option = { #
		name = IRK.17.a
		ai_chance = { factor = 1 }
		add_political_power = 25
	}
}

country_event = { #Trials For The Partisans
	id = IRK.18
	immediate = {log = "[GetDateText]: [Root.GetName]: event IRK.18"}
	title = IRK.18.t
	desc = IRK.18.desc
	picture = GFX_report_event_court_case_2

	is_triggered_only = yes


	option = { #
		name = IRK.18.a
		ai_chance = { factor = 1 }
		add_war_support = -0.01
		add_manpower = -55
	}
}

country_event = { #Operation Uranus
	id = IRK.19
	immediate = {log = "[GetDateText]: [Root.GetName]: event IRK.19"}
	title = IRK.19.t
	desc = IRK.19.desc
	picture = GFX_report_event_soviet_russian_mech_infantry_3

	is_triggered_only = yes


	option = { #
		name = IRK.19.a
		ai_chance = { factor = 1 }

	}
}

country_event = { #Matkovsky gets shot
	id = IRK.20
	immediate = {log = "[GetDateText]: [Root.GetName]: event IRK.20"}
	title = IRK.20.t
	desc = IRK.20.desc
	picture = GFX_report_event_court_case_3

	is_triggered_only = yes


	option = { #
		name = IRK.20.a
		ai_chance = { factor = 1 }

	}
}

country_event = { #Bogan Tsar gets shot
	id = IRK.21
	immediate = {log = "[GetDateText]: [Root.GetName]: event IRK.21"}
	title = IRK.21.t
	desc = IRK.21.desc
	picture = GFX_report_event_soviet_russian_officer_pistol

	is_triggered_only = yes


	option = { #
		name = IRK.21.a
		ai_chance = { factor = 1 }

	}
}

country_event = { #Rodzaevsky get shot
	id = IRK.22
	immediate = {log = "[GetDateText]: [Root.GetName]: event IRK.22"}
	title = IRK.22.t
	desc = IRK.22.desc
	picture = GFX_report_event_court_case_1

	is_triggered_only = yes


	option = { #
		name = IRK.22.a
		ai_chance = { factor = 1 }

	}
}

country_event = { #The union triumphant
	id = IRK.23
	immediate = {log = "[GetDateText]: [Root.GetName]: event IRK.23"}
	title = IRK.23.t
	desc = IRK.23.desc
	picture = GFX_report_event_soviet_symbol

	is_triggered_only = yes


	option = { #
		name = IRK.23.a
		ai_chance = { factor = 1 }
		load_focus_tree = IRK_regional
		set_country_flag = IRK_regional_stage
	}
}

country_event = { #New premier elected
	id = IRK.24
	immediate = {log = "[GetDateText]: [Root.GetName]: event IRK.24"}
	title = IRK.24.t
	desc = IRK.24.desc
	picture = GFX_report_event_russia_court

	is_triggered_only = yes


	option = { #
		name = IRK.24.a
		ai_chance = { factor = 1 }
		add_ideas = IRK_Sergey_Bessonov_hog
		add_ideas = IRK_Yakov_Malik_for
	}
}

country_event = { #GenSec powers strengthened
	id = IRK.25
	immediate = {log = "[GetDateText]: [Root.GetName]: event IRK.25"}
	title = IRK.25.t
	desc = IRK.25.desc
	picture = GFX_report_event_russia_nkvd_officer

	is_triggered_only = yes


	option = { #
		name = IRK.25.a
		ai_chance = { factor = 1 }
		IRK_increase_nkvd_influence_high = yes
		add_political_power = 100
		remove_ideas = IRK_Sergey_Bessonov_for
		add_ideas = IRK_Konstantin_Chernenko_for
	}
}

country_event = { #The Motherland Resurgent
	id = IRK.26
	immediate = {log = "[GetDateText]: [Root.GetName]: event IRK.26"}
	title = IRK.26.t
	desc = IRK.26.desc
	picture = GFX_report_event_soviet_propoganda

	is_triggered_only = yes


	option = { #
		name = IRK.26.a
		ai_chance = { factor = 1 }

	}
}

country_event = { #The Proletarian Dictatorship Forever
	id = IRK.27
	immediate = {log = "[GetDateText]: [Root.GetName]: event IRK.27"}
	title = IRK.27.t
	desc = IRK.27.desc
	picture = GFX_report_event_russia_court

	is_triggered_only = yes


	option = { #
		name = IRK.27.a
		ai_chance = { factor = 1 }

	}
}

country_event = { #The Revitalized Economic Plan
	id = IRK.28
	immediate = {log = "[GetDateText]: [Root.GetName]: event IRK.28"}
	title = IRK.28.t
	desc = IRK.28.desc
	picture = GFX_report_event_CHI_Industry_Synth_Refine

	is_triggered_only = yes


	option = { #
		name = IRK.28.a
		ai_chance = { factor = 1 }

	}
}

country_event = { #The Soviet Armed Forces
	id = IRK.29
	immediate = {log = "[GetDateText]: [Root.GetName]: event IRK.29"}
	title = IRK.29.t
	desc = IRK.29.desc
	picture = GFX_report_event_generic_military_parade

	is_triggered_only = yes


	option = { #
		name = IRK.29.a
		ai_chance = { factor = 1 }
		army_experience = 15
	}
}

country_event = { #The Home Of The Revolution
	id = IRK.30
	immediate = {log = "[GetDateText]: [Root.GetName]: event IRK.30"}
	title = IRK.30.t
	desc = IRK.30.desc
	picture = GFX_news_event_generic_globe

	is_triggered_only = yes


	option = { #
		name = IRK.30.a
		ai_chance = { factor = 1 }

	}
}

country_event = { #Across the Pacific
	id = IRK.31
	immediate = {log = "[GetDateText]: [Root.GetName]: event IRK.31"}
	title = IRK.31.t
	desc = IRK.31.desc
	picture = GFX_report_event_soviet_propoganda

	is_triggered_only = yes


	option = { #
		name = IRK.31.a
		ai_chance = { factor = 1 }
		add_political_power = 25
	}
}

country_event = { #
	id = IRK.32
	immediate = {log = "[GetDateText]: [Root.GetName]: event IRK.32"}
	title = IRK.32.t
	desc = IRK.32.desc
	picture = GFX_report_event_soviet_symbol

	is_triggered_only = yes


	option = { #
		name = IRK.32.a
		ai_chance = { factor = 3 }
		add_opinion_modifier = {
			target = IRK
			modifier = TNO_opened_diplomatic_relations
		}
		add_political_power = 15
		IRK = {
			add_political_power = 15
			country_event = { id = IRK.33 days = 1 }
			add_opinion_modifier = {
				target = ROOT
				modifier = TNO_opened_diplomatic_relations
			}
		}
	}
	option = { #
		name = IRK.32.b
		ai_chance = { factor = 1 }
		IRK = {
			country_event = { id = IRK.34 days = 1 }
		}
	}
}

country_event = { #USA Recognizes us
	id = IRK.33
	immediate = {log = "[GetDateText]: [Root.GetName]: event IRK.33"}
	title = IRK.33.t
	desc = IRK.33.desc
	picture = GFX_white_house_picture

	is_triggered_only = yes


	option = { #
		name = IRK.33.a
		ai_chance = { factor = 1 }
		add_stability = 0.01
	}
}

country_event = { #USA doesn't recognize us
	id = IRK.34
	immediate = {log = "[GetDateText]: [Root.GetName]: event IRK.34"}
	title = IRK.34.t
	desc = IRK.34.desc
	picture = GFX_white_house_picture

	is_triggered_only = yes


	option = { #
		name = IRK.34.a
		ai_chance = { factor = 1 }
		add_stability = -0.01
	}
}

country_event = { #USA: Yagoda Requests OFN Funding
	id = IRK.35
	immediate = {log = "[GetDateText]: [Root.GetName]: event IRK.35"}
	title = IRK.35.t
	desc = IRK.35.desc
	picture = GFX_report_event_generic_money

	is_triggered_only = yes


	option = { #Yes
		name = IRK.35.a
		ai_chance = { factor = 1 }
		custom_effect_tooltip = IRK_regional_apply_for_ofn_funding_tt
		add_to_variable = { national_debt = 30 }
		IRK = {
			country_event = { id = IRK.36 days = 1 }
		}
	}
	option = { #Refuse
		name = IRK.35.b
		ai_chance = { factor = 1 }
		IRK = {
			country_event = { id = IRK.37 days = 1 }
		}
	}
}

country_event = { #OFN funds us
	id = IRK.36
	immediate = {log = "[GetDateText]: [Root.GetName]: event IRK.36"}
	title = IRK.36.t
	desc = IRK.36.desc
	picture = GFX_report_event_generic_money

	is_triggered_only = yes


	option = { #
		name = IRK.36.a
		ai_chance = { factor = 1 }
		custom_effect_tooltip = IRK_regional_apply_for_ofn_funding2_tt
		add_to_variable = { money_reserves = 30 }
	}
}

country_event = { #OFN refuses funding
	id = IRK.37
	immediate = {log = "[GetDateText]: [Root.GetName]: event IRK.37"}
	title = IRK.37.t
	desc = IRK.37.desc
	picture = GFX_report_event_usa_supreme_court

	is_triggered_only = yes


	option = { #
		name = IRK.37.a
		ai_chance = { factor = 1 }
		add_political_power = -10
	}
}

country_event = { #Increase Japanese Cooperation
	id = IRK.38
	immediate = {log = "[GetDateText]: [Root.GetName]: event IRK.38"}
	title = IRK.38.t
	desc = IRK.38.desc
	picture = report_event_soviet_propoganda

	is_triggered_only = yes


	option = { #
		name = IRK.38.a
		ai_chance = { factor = 1 }
		add_political_power = 25
	}
}

country_event = { #Mission to Tokyo
	id = IRK.39
	immediate = {log = "[GetDateText]: [Root.GetName]: event IRK.39"}
	title = IRK.39.t
	desc = IRK.39.desc
	picture = GFX_report_event_soviet_symbol

	is_triggered_only = yes


	option = { #Recognize Yagoda
		name = IRK.39.a
		ai_chance = { factor = 3 }
		add_opinion_modifier = {
			target = IRK
			modifier = TNO_opened_diplomatic_relations
		}
		add_political_power = 15
		IRK = {
			add_political_power = 15
			country_event = { id = IRK.40 days = 1 }
			add_opinion_modifier = {
				target = ROOT
				modifier = TNO_opened_diplomatic_relations
			}
		}
	}
	option = { #Do not recognize Yagoda
		name = IRK.39.b
		ai_chance = { factor = 1 }
		IRK = {
			country_event = { id = IRK.41 days = 1 }
		}
	}
}

country_event = { #Mission to Japan success
	id = IRK.40
	immediate = {log = "[GetDateText]: [Root.GetName]: event IRK.40"}
	title = IRK.40.t
	desc = IRK.40.desc
	picture = GFX_report_event_japan_diet_1

	is_triggered_only = yes


	option = { #
		name = IRK.40.a
		ai_chance = { factor = 1 }
		add_stability = 0.01
	}
}

country_event = { #Mission to Japan Failure
	id = IRK.41
	immediate = {log = "[GetDateText]: [Root.GetName]: event IRK.41"}
	title = IRK.41.t
	desc = IRK.41.desc
	picture = GFX_report_event_japan_diet_1

	is_triggered_only = yes


	option = { #
		name = IRK.41.a
		ai_chance = { factor = 1 }
		add_stability = -0.01
	}
}

country_event = { #Embassies to the Liberated World
	id = IRK.42
	immediate = {log = "[GetDateText]: [Root.GetName]: event IRK.42"}
	title = IRK.42.t
	desc = IRK.42.desc
	picture = GFX_report_event_generic_communist_congress

	is_triggered_only = yes


	option = { #
		name = IRK.42.a
		ai_chance = { factor = 1 }
		add_opinion_modifier = {
			target = IRK
			modifier = TNO_opened_diplomatic_relations
		}
		add_political_power = 15
		IRK = {
			add_political_power = 15
			add_opinion_modifier = {
				target = ROOT
				modifier = TNO_opened_diplomatic_relations
			}
		}
	}
}

country_event = { #Restore the ASSRs
	id = IRK.43
	immediate = {log = "[GetDateText]: [Root.GetName]: event IRK.43"}
	title = IRK.43.t
	desc = IRK.43.desc
	picture = GFX_report_event_generic_read_write

	is_triggered_only = yes

	option = { #Racism is bad
		name = IRK.43.a
		tno_minorities_improve = yes
	}
	option = { #This is good enough
		name = IRK.43.b
		add_political_power = 25
	}
	
}

country_event = { #Cultural Restrictions
	id = IRK.44
	immediate = {log = "[GetDateText]: [Root.GetName]: event IRK.44"}
	title = IRK.44.t
	desc = IRK.44.desc
	picture = GFX_report_event_Paper_Bundle

	is_triggered_only = yes


	option = { #
		name = IRK.44.a
		add_political_power = 15
	}
}

country_event = { #No cultural restrictions
	id = IRK.45
	immediate = {log = "[GetDateText]: [Root.GetName]: event IRK.45"}
	title = IRK.45.t
	desc = IRK.45.desc
	picture = GFX_report_event_art

	is_triggered_only = yes


	option = { #
		name = IRK.45.a
		ai_chance = { factor = 1 }
		TNO_improve_academic_base_low = yes
	}
}

country_event = { #Soviet Patriotism
	id = IRK.46
	immediate = {log = "[GetDateText]: [Root.GetName]: event IRK.46"}
	title = IRK.46.t
	desc = IRK.46.desc
	picture = GFX_report_event_soviet_propoganda

	is_triggered_only = yes


	option = {
		name = IRK.46.a
		add_war_support = 0.015
	}
}

country_event = { #Strengthen the Securocracy
	id = IRK.47
	immediate = {log = "[GetDateText]: [Root.GetName]: event IRK.47"}
	title = IRK.47.t
	desc = IRK.47.desc
	picture = GFX_report_event_russia_nkvd_officer

	is_triggered_only = yes


	option = { #
		name = IRK.47.a
		ai_chance = { factor = 1 }
	}
}

country_event = { #Pay rise event
	id = IRK.48
	immediate = {log = "[GetDateText]: [Root.GetName]: event IRK.48"}
	title = IRK.48.t
	desc = IRK.48.desc
	picture = GFX_report_event_generic_money

	is_triggered_only = yes


	option = { #
		name = IRK.48.a
		ai_chance = { factor = 1 }
	}
}

country_event = { #Dude gets fired
	id = IRK.49
	immediate = {log = "[GetDateText]: [Root.GetName]: event IRK.49"}
	title = IRK.49.t
	desc = IRK.49.desc
	picture = GFX_report_event_Paper_Bundle

	is_triggered_only = yes


	option = { #
		name = IRK.49.a
		ai_chance = { factor = 1 }
		add_manpower = -1
	}
}

country_event = { #Return to Leninism
	id = IRK.50
	immediate = {log = "[GetDateText]: [Root.GetName]: event IRK.50"}
	title = IRK.50.t
	desc = IRK.50.desc
	picture = GFX_report_event_death_of_lenin

	is_triggered_only = yes


	option = { #
		name = IRK.50.a
		ai_chance = { factor = 1 }
	}
}

country_event = { #Replace the Nomenklatura
	id = IRK.51
	immediate = {log = "[GetDateText]: [Root.GetName]: event IRK.51"}
	title = IRK.51.t
	desc = IRK.51.desc
	picture = GFX_report_event_command_table

	is_triggered_only = yes


	option = { #
		name = IRK.51.a
		ai_chance = { factor = 1 }
		add_stability = -0.01
	}
}

country_event = { #Replace the Nomenklatura
	id = IRK.52
	immediate = {log = "[GetDateText]: [Root.GetName]: event IRK.52"}
	title = IRK.52.t
	desc = IRK.52.desc
	picture = GFX_report_event_russia_war_planning

	is_triggered_only = yes


	option = { #
		name = IRK.52.a
		ai_chance = { factor = 1 }
		add_stability = 0.05
		RUS_decrease_administrative_strain = yes
	}
}

country_event = { #The Revolution Renewed
	id = IRK.53
	immediate = {log = "[GetDateText]: [Root.GetName]: event IRK.53"}
	title = IRK.53.t
	desc = IRK.53.desc
	picture = GFX_report_event_commune_protest

	is_triggered_only = yes


	option = { #
		name = IRK.53.a
		ai_chance = { factor = 1 }
	}
}

country_event = { #The Man Who Arranges the Tanks
	id = IRK.54
	immediate = {log = "[GetDateText]: [Root.GetName]: event IRK.54"}
	title = IRK.54.t
	desc = IRK.54.desc
	picture = GFX_IRK_tanks_at_night

	is_triggered_only = yes

	option = {
		name = IRK.54.a
		ai_chance = { factor = 1 }
		add_war_support = 0.015
		add_political_power = -15
		add_equipment_to_stockpile = {
			type = IFV_equipment
			amount = 15
			producer = JAP
		}
	}
}

country_event = { #The purge of the Party faction
	id = IRK.55
	immediate = {log = "[GetDateText]: [Root.GetName]: event IRK.55"}
	title = IRK.55.t
	desc = IRK.55.desc
	picture = GFX_report_event_purge

	is_triggered_only = yes

	option = {
		name = IRK.55.a
		add_political_power = 100
	}
}

country_event = { #Anti-Corruption 1
	id = IRK.56
	immediate = {log = "[GetDateText]: [Root.GetName]: event IRK.56"}
	title = IRK.56.t
	desc = IRK.56.desc
	picture = GFX_report_event_generic_money

	is_triggered_only = yes

	option = {
		name = IRK.56.a
		hidden_effect = {
			country_event = {
				id = IRK.57
				days = 5
			}
		}
	}
}

country_event = { #Anti-Corruption 2
	id = IRK.57
	immediate = {log = "[GetDateText]: [Root.GetName]: event IRK.57"}
	title = IRK.57.t
	desc = IRK.57.desc
	picture = GFX_report_event_Paper_Bundle

	is_triggered_only = yes

	option = {
		name = IRK.57.a
		hidden_effect = {
			country_event = {
				id = IRK.58
				days = 7
			}
		}
	}
}

country_event = { #Anti-Corruption 3
	id = IRK.58
	immediate = {log = "[GetDateText]: [Root.GetName]: event IRK.58"}
	title = IRK.58.t
	desc = IRK.58.desc
	picture = GFX_report_event_commune_protest

	is_triggered_only = yes

	option = {
		name = IRK.58.a
	}
}

country_event = { #Escalate Foreign Censorship
	id = IRK.59
	immediate = {log = "[GetDateText]: [Root.GetName]: event IRK.59"}
	title = IRK.59.t
	desc = IRK.59.desc
	picture = GFX_report_event_iberia_guy_paper_meeting

	is_triggered_only = yes

	option = {
		name = IRK.59.a
	}
}

country_event = { #Professionalize the Judiciary
	id = IRK.60
	immediate = {log = "[GetDateText]: [Root.GetName]: event IRK.60"}
	title = IRK.60.t
	desc = IRK.60.desc
	picture = GFX_report_event_russia_court

	is_triggered_only = yes

	option = {
		name = IRK.60.a
	}
}

country_event = { #Reform Industrial Efficiency
	id = IRK.61
	immediate = {log = "[GetDateText]: [Root.GetName]: event IRK.61"}
	title = IRK.61.t
	desc = IRK.61.desc
	picture = GFX_report_event_komi_factory

	is_triggered_only = yes

	option = {
		name = IRK.61.a
	}
}

country_event = { #The end of Yagoda
	id = IRK.62
	immediate = {log = "[GetDateText]: [Root.GetName]: event IRK.62"}
	title = IRK.62.t
	desc = IRK.62.desc
	picture = GFX_report_event_soviet_russian_officers_2

	is_triggered_only = yes

	option = {
		name = IRK.62.a
		hidden_effect = {
			retire_country_leader = yes
		}
		add_stability = -0.10
		add_political_power = 25
		create_country_leader = {
			name = "Sergey Bessonov"
			desc = "POLITICS_SERGEY_BESSONOV_DESC"
			picture = "Portrait_Irkutsk_Sergey_Bessonov.dds"
			expire = "1973.6.5"
			ideology = communist_subtype
			traits = {

			}
		}
		add_ideas = IRK_Grigory_Grinko_hog
		add_ideas = IRK_Vladimir_Novikov_eco
	}
}

country_event = { #Expand the Regional Councils
	id = IRK.63
	immediate = {log = "[GetDateText]: [Root.GetName]: event IRK.63"}
	title = IRK.63.t
	desc = IRK.63.desc
	picture = GFX_report_event_russia_court

	is_triggered_only = yes

	option = {
		name = IRK.63.a
	}
}

country_event = { #Promote the Young Bureaucrats 1
	id = IRK.64
	immediate = {log = "[GetDateText]: [Root.GetName]: event IRK.64"}
	title = IRK.64.t
	desc = IRK.64.desc
	picture = GFX_report_event_iberia_guy_paper_meeting

	is_triggered_only = yes

	option = {
		name = IRK.64.a
		hidden_effect = {
			country_event = {
				id = IRK.65
				days = 8
			}
		}
	}
}

country_event = { #Promote the Young Bureaucrats 2
	id = IRK.65
	immediate = {log = "[GetDateText]: [Root.GetName]: event IRK.65"}
	title = IRK.65.t
	desc = IRK.65.desc
	picture = GFX_report_event_Generic_Papers

	is_triggered_only = yes

	option = {
		name = IRK.65.a
		hidden_effect = {
			country_event = {
				id = IRK.66
				days = 10
			}
		}
	}
}

country_event = { #Promote the Young Bureaucrats 3
	id = IRK.66
	immediate = {log = "[GetDateText]: [Root.GetName]: event IRK.66"}
	title = IRK.66.t
	desc = IRK.66.desc
	picture = GFX_report_event_Paper_Bundle

	is_triggered_only = yes

	option = {
		name = IRK.66.a
	}
}

country_event = { #Instate Universal Identification
	id = IRK.67
	immediate = {log = "[GetDateText]: [Root.GetName]: event IRK.67"}
	title = IRK.67.t
	desc = IRK.67.desc
	picture = GFX_report_event_russia_nkvd_officer

	is_triggered_only = yes

	option = {
		name = IRK.67.a
		add_stability = 0.025
		hidden_effect = {
			country_event = {
				id = IRK.68
				days = 28
			}
		}
	}
}

country_event = { #Instate Universal Identification 2
	id = IRK.68
	immediate = {log = "[GetDateText]: [Root.GetName]: event IRK.68"}
	title = IRK.68.t
	desc = IRK.68.desc
	picture = GFX_report_event_russia_trade_caravan

	is_triggered_only = yes

	option = {
		name = IRK.68.a
		TNO_improve_poverty_high = yes
	}
}

country_event = { #Encourage Socialist Egalitarianism
	id = IRK.69
	immediate = {log = "[GetDateText]: [Root.GetName]: event IRK.69"}
	title = IRK.69.t
	desc = IRK.69.desc
	picture = GFX_report_event_commune_protest

	is_triggered_only = yes

	option = {
		name = IRK.69.a
		add_political_power = 25
		add_stability = -0.025
	}
}

country_event = {
	id = IRK.70
	immediate = {log = "[GetDateText]: [Root.GetName]: event IRK.70"}
	title = IRK.70.t
	desc = IRK.70.desc
	picture = GFX_report_event_komi_bombing_2

	is_triggered_only = yes

	option = {
		name = IRK.70.a
	}
}

country_event = { #An Afternoon Swim
	id = IRK.71
	immediate = {log = "[GetDateText]: [Root.GetName]: event IRK.71"}
	title = IRK.71.t
	desc = IRK.71.desc
	picture = GFX_report_event_russia_hunter

	is_triggered_only = yes

	option = {
		name = IRK.71.a
	}
}

country_event = { #Comrade Maxim
	id = IRK.72
	immediate = {log = "[GetDateText]: [Root.GetName]: event IRK.72"}
	title = IRK.72.t
	desc = IRK.72.desc
	picture = GFX_report_event_russia_hunter

	is_triggered_only = yes

	option = {
		name = IRK.72.a
	}
}

country_event = { #Night Watch
	id = IRK.73
	immediate = {log = "[GetDateText]: [Root.GetName]: event IRK.73"}
	title = IRK.73.t
	desc = IRK.73.desc
	picture = GFX_report_event_russia_hunter

	is_triggered_only = yes

	option = {
		name = IRK.73.a
	}
}

country_event = { #A Split in the Family
	id = IRK.74
	immediate = {log = "[GetDateText]: [Root.GetName]: event IRK.74"}
	title = IRK.74.t
	desc = IRK.74.desc
	picture = GFX_report_event_russia_hunter

	is_triggered_only = yes

	option = {
		name = IRK.74.a
	}
}

country_event = { #Two Brothers
	id = IRK.75
	immediate = {log = "[GetDateText]: [Root.GetName]: event IRK.75"}
	title = IRK.75.t
	desc = IRK.75.desc
	picture = GFX_report_event_russia_hunter

	is_triggered_only = yes

	option = {
		name = IRK.75.a
	}
}

country_event = { #A Death in the Family
	id = IRK.76
	immediate = {log = "[GetDateText]: [Root.GetName]: event IRK.76"}
	title = IRK.76.t
	desc = IRK.76.desc
	picture = GFX_report_event_komi_house_2

	is_triggered_only = yes

	option = {
		name = IRK.76.a
	}
}

country_event = { #A Hero in the Family
	id = IRK.77
	immediate = {log = "[GetDateText]: [Root.GetName]: event IRK.77"}
	title = IRK.77.t
	desc = IRK.77.desc
	picture = GFX_report_event_komi_house_2

	is_triggered_only = yes

	option = {
		name = IRK.77.a
	}
}

### Superregional events ###
#State
country_event = { #A Red Siberia
	id = IRK_superregional.1
	immediate = { log = "[GetDateText]: [Root.GetName]: event IRK_superregional.1" }
	title = IRK_superregional.1.t
	desc = IRK_superregional.1.desc
	picture = GFX_report_event_generic_read_write
	
	is_triggered_only = yes

	option = { #
		name = IRK_superregional.1.a
		ai_chance = { factor = 1 }
	}
}

country_event = { #Opportunities for Amnesty
	id = IRK_superregional.2
	immediate = { log = "[GetDateText]: [Root.GetName]: event IRK_superregional.2" }
	title = IRK_superregional.2.t
	desc = IRK_superregional.2.desc
	picture = GFX_report_event_soviet_russian_officers_4
	
	is_triggered_only = yes
	
	option = { #
		name = IRK_superregional.2.a
		ai_chance = { factor = 1 }
		army_experience = 15
		TNO_improve_army_professionalism_low = yes
		SVO = {
			every_unit_leader = {
				limit = {
					OR = {
						has_id = 3686
						has_id = 3687
						has_id = 3688
						has_id = 3689
						has_id = 3690
					}
				}
				set_nationality = IRK
			}
		}
	}
}

country_event = { #Assess Our Progress
	id = IRK_superregional.3
	immediate = { log = "[GetDateText]: [Root.GetName]: event IRK_superregional.3" }
	title = IRK_superregional.3.t
	desc = IRK_superregional.3.desc
	picture = GFX_report_event_generic_office
	
	is_triggered_only = yes
	
	option = { #
		name = IRK_superregional.3.a
		ai_chance = { factor = 1 }
		add_stability = 0.075
		RUS_integration_cost_days_decrease = yes
	}
}

country_event = { #Open Up Manufacturing
	id = IRK_superregional.4
	immediate = { log = "[GetDateText]: [Root.GetName]: event IRK_superregional.4" }
	title = IRK_superregional.4.t
	desc = IRK_superregional.4.desc
	picture = GFX_report_event_russia_siberian_worker
	
	is_triggered_only = yes
	
	option = { #
		name = IRK_superregional.4.a
		ai_chance = { factor = 1 }
		add_to_variable = { GDP_growth = 0.01 }
		custom_effect_tooltip = MAG_made_in_russia_tt
	}
}

country_event = { #The People's Trust
	id = IRK_superregional.5
	immediate = { log = "[GetDateText]: [Root.GetName]: event IRK_superregional.5" }
	title = IRK_superregional.5.t
	desc = IRK_superregional.5.desc
	picture = GFX_report_event_soviet_propoganda
	
	is_triggered_only = yes
	
	option = { #
		name = IRK_superregional.5.a
		ai_chance = { factor = 1 }
		add_political_power = 20
	}
}

country_event = { #Project Glasnost
	id = IRK_superregional.6
	immediate = { log = "[GetDateText]: [Root.GetName]: event IRK_superregional.6" }
	title = IRK_superregional.6.t
	desc = IRK_superregional.6.desc
	picture = GFX_report_event_soviet_propoganda
	
	is_triggered_only = yes
	
	option = { #
		name = IRK_superregional.6.a
		ai_chance = { factor = 1 }
		add_ideas = tno_vote_franchise_registered_voting
	}
}

country_event = { #Pride of the Union - YAGODAGANG
	id = IRK_superregional.7
	immediate = { log = "[GetDateText]: [Root.GetName]: event IRK_superregional.7" }
	title = IRK_superregional.7.t
	desc = IRK_superregional.7.desc
	picture = GFX_report_event_soviet_symbol
	
	is_triggered_only = yes
	
	option = { #
		name = IRK_superregional.7.a
		ai_chance = { factor = 1 }
		
	}
}

country_event = { #Continue the Reforms
	id = IRK_superregional.8
	immediate = { log = "[GetDateText]: [Root.GetName]: event IRK_superregional.8" }
	title = IRK_superregional.8.t
	desc = IRK_superregional.8.desc
	picture = GFX_report_event_generic_sign_treaty2
	
	is_triggered_only = yes
	
	option = { #
		name = IRK_superregional.8.a
		ai_chance = { factor = 1 }
		
	}
}

country_event = { #Curb the Nomenklatura
	id = IRK_superregional.9
	immediate = { log = "[GetDateText]: [Root.GetName]: event IRK_superregional.9" }
	title = IRK_superregional.9.t
	desc = IRK_superregional.9.desc
	picture = GFX_report_event_generic_sign_treaty3
	
	is_triggered_only = yes
	
	option = { #
		name = IRK_superregional.9.a
		ai_chance = { factor = 1 }
		
	}
}

country_event = { #Stand Against Personalism
	id = IRK_superregional.10
	immediate = { log = "[GetDateText]: [Root.GetName]: event IRK_superregional.10" }
	title = IRK_superregional.10.t
	desc = IRK_superregional.10.desc
	picture = GFX_report_event_soviet_propoganda
	
	is_triggered_only = yes
	
	option = { #
		name = IRK_superregional.10.a
		ai_chance = { factor = 1 }
		
	}
}

country_event = { #An Open Cultural Exchange
	id = IRK_superregional.11
	immediate = { log = "[GetDateText]: [Root.GetName]: event IRK_superregional.11" }
	title = IRK_superregional.11.t
	desc = IRK_superregional.11.desc
	picture = GFX_report_event_soviet_propoganda
	
	is_triggered_only = yes

	
	option = { #
		name = IRK_superregional.11.a
		ai_chance = { factor = 1 }
		
	}
}

country_event = { #Lower Bureacratic Restrictions
	id = IRK_superregional.12
	immediate = { log = "[GetDateText]: [Root.GetName]: event IRK_superregional.12" }
	title = IRK_superregional.12.t
	desc = IRK_superregional.12.desc
	picture = GFX_report_event_generic_sign_treaty3
	
	is_triggered_only = yes
	
	option = { #
		name = IRK_superregional.12.a
		ai_chance = { factor = 1 }
		RUS_integration_cost_days_decrease = yes
	}
}

country_event = { #Pride of the Union - Party like it's 1917
	id = IRK_superregional.13
	immediate = { log = "[GetDateText]: [Root.GetName]: event IRK_superregional.13" }
	title = IRK_superregional.13.t
	desc = IRK_superregional.13.desc
	picture = GFX_report_event_generic_office
	
	is_triggered_only = yes

	
	option = { #
		name = IRK_superregional.13.a
		ai_chance = { factor = 1 }
		
	}
}

country_event = { #
	id = IRK_superregional.14
	immediate = { log = "[GetDateText]: [Root.GetName]: event IRK_superregional.14" }
	title = IRK_superregional.14.t
	desc = IRK_superregional.14.desc
	#picture = 
	
	is_triggered_only = yes

	
	option = { #
		name = IRK_superregional.14.a
		ai_chance = { factor = 1 }
		
	}
}

country_event = { #
	id = IRK_superregional.15
	immediate = { log = "[GetDateText]: [Root.GetName]: event IRK_superregional.15" }
	title = IRK_superregional.15.t
	desc = IRK_superregional.15.desc
	#picture = 
	
	is_triggered_only = yes

	
	option = { #
		name = IRK_superregional.15.a
		ai_chance = { factor = 1 }
		
	}
}

country_event = { #
	id = IRK_superregional.16
	immediate = { log = "[GetDateText]: [Root.GetName]: event IRK_superregional.16" }
	title = IRK_superregional.16.t
	desc = IRK_superregional.16.desc
	#picture = 
	
	is_triggered_only = yes

	
	option = { #
		name = IRK_superregional.16.a
		ai_chance = { factor = 1 }
		
	}
}

country_event = { #
	id = IRK_superregional.17
	immediate = { log = "[GetDateText]: [Root.GetName]: event IRK_superregional.17" }
	title = IRK_superregional.17.t
	desc = IRK_superregional.17.desc
	#picture = 
	
	is_triggered_only = yes

	
	option = { #
		name = IRK_superregional.17.a
		ai_chance = { factor = 1 }
		
	}
}

country_event = { #
	id = IRK_superregional.18
	immediate = { log = "[GetDateText]: [Root.GetName]: event IRK_superregional.18" }
	title = IRK_superregional.18.t
	desc = IRK_superregional.18.desc
	#picture = 
	
	is_triggered_only = yes

	
	option = { #
		name = IRK_superregional.18.a
		ai_chance = { factor = 1 }
		
	}
}

country_event = { #
	id = IRK_superregional.19
	immediate = { log = "[GetDateText]: [Root.GetName]: event IRK_superregional.19" }
	title = IRK_superregional.19.t
	desc = IRK_superregional.19.desc
	#picture = 
	
	is_triggered_only = yes
	
	option = { #
		name = IRK_superregional.19.a
		ai_chance = { factor = 1 }
		
	}
}

country_event = { #
	id = IRK_superregional.20
	immediate = { log = "[GetDateText]: [Root.GetName]: event IRK_superregional.20" }
	title = IRK_superregional.20.t
	desc = IRK_superregional.20.desc
	#picture = 
	
	is_triggered_only = yes
	
	option = { #
		name = IRK_superregional.20.a
		ai_chance = { factor = 1 }
		
	}
}

country_event = { #Past Wounds
	id = IRK_superregional.21
	immediate = { log = "[GetDateText]: [Root.GetName]: event IRK_superregional.21" }
	title = IRK_superregional.21.t
	desc = IRK_superregional.21.desc
	picture = GFX_report_event_russia_court
	
	is_triggered_only = yes
	
	option = { #
		name = IRK_superregional.21.a
		ai_chance = { factor = 1 }
		add_war_support = 0.025
	}
}

country_event = { #Creative Differences
	id = IRK_superregional.22
	immediate = { log = "[GetDateText]: [Root.GetName]: event IRK_superregional.22" }
	title = IRK_superregional.22.t
	desc = IRK_superregional.22.desc
	picture = GFX_report_event_iberia_prison_jail_cell
	
	is_triggered_only = yes
	
	option = { #
		name = IRK_superregional.22.a
		ai_chance = { factor = 1 }
	}
}