﻿division_template = {
	name = "División de Infanteria"	
	division_names_group = SPAN_INF_02

	regiments = {
		infantry = { x = 0 y = 0 }
		infantry = { x = 0 y = 1 }
		infantry = { x = 0 y = 2 }
		infantry = { x = 1 y = 0 }
		infantry = { x = 1 y = 1 }
		infantry = { x = 1 y = 2 }
		infantry = { x = 2 y = 0 }
		infantry = { x = 2 y = 1 }
		infantry = { x = 2 y = 2 }
	}
}
division_template = {
	name = "Brigada Montaña"
	division_names_group = SPAN_MNT_02
	regiments = {
		mountaineers = { x = 0 y = 0 }	
		mountaineers = { x = 0 y = 1 }
		mountaineers = { x = 0 y = 2 }
	}
}
division_template = {
	name = "División de Caballería"  
	division_names_group = SPAN_CAV_01

	regiments = {
		cavalry = { x = 0 y = 0 }
		cavalry = { x = 0 y = 1 }
		cavalry = { x = 0 y = 2 }
		cavalry = { x = 1 y = 0 }
		cavalry = { x = 1 y = 1 }
		cavalry = { x = 1 y = 2 }
		cavalry = { x = 2 y = 0 }
		cavalry = { x = 2 y = 1 }
		cavalry = { x = 2 y = 2 }
	}
}

units = {
	##### Ejército Argentino #####
	division= {	# "1era División del Ejercito"
		division_name = {
				is_name_ordered = yes
				name_order = 1
		}
		location = 12364 # Buenos Aires
		division_template = "División de Infanteria"
		start_experience_factor = 0.1
		start_equipment_factor = 0.5

	}
	division= {	# "2da División del Ejercito"
		division_name = {
				is_name_ordered = yes
				name_order = 2
		}
		location = 10953 # Southern Argentina
		division_template = "División de Infanteria"
		start_experience_factor = 0.1
		start_equipment_factor = 0.5

	}
	division= {	# "3era División del Ejercito"
		division_name = {
				is_name_ordered = yes
				name_order = 3
		}
		location = 7500 # Parana
		division_template = "División de Infanteria"
		start_experience_factor = 0.1
		start_equipment_factor = 0.5

	}
	division= {	# "4ta División del Ejercito"
		division_name = {
				is_name_ordered = yes
				name_order = 4
		}
		location = 12942 # Cordoba
		division_template = "División de Infanteria"
		start_experience_factor = 0.1
		start_equipment_factor = 0.5

	}
	division= {	# "5ta División del Ejercito"
		division_name = {
				is_name_ordered = yes
				name_order = 5
		}
		location = 8216 # Salta
		division_template = "División de Infanteria"
		start_experience_factor = 0.1
		start_equipment_factor = 0.5

	}
	division= {	
		name = "División de Caballería"
		location = 12364 # Buenos Aires
		division_template = "División de Caballería"
		start_experience_factor = 0.1
		start_equipment_factor = 0.5

	}
	division= {	
		name = "Destacamento de Montaña Cuyo"
		location = 10992 # Mendoza
		division_template = "Brigada Montaña"
		start_experience_factor = 0.1
		start_equipment_factor = 0.5

	}
	division= {	
		name = "Destacamento de Montaña Norte"
		location = 8216 # Salta
		division_template = "Brigada Montaña"
		start_experience_factor = 0.1
		start_equipment_factor = 0.5

	}


	##### Naval OOB #####
#	navy = {				
#		name = "Armada Argentina"			
#		base = 12364 
#		location = 12364 # Buenos Aires
#		ship = { name = "ARA Rivadavia" definition = battleship equipment = { battleship_1 = { amount = 1 owner = ARG } } }
#		ship = { name = "ARA Moreno" definition = battleship equipment = { battleship_1 = { amount = 1 owner = ARG } } }
#		ship = { name = "ARA Veinticinco de Mayo" definition = heavy_cruiser equipment = { heavy_cruiser_1 = { amount = 1 owner = ARG #version_name = "Veinticinco de Mayo Class" } } }
#		ship = { name = "ARA Almirante Brown" definition = heavy_cruiser equipment = { heavy_cruiser_1 = { amount = 1 owner = ARG #version_name = "Veinticinco de Mayo Class" } } }
#		ship = { name = "ARA Pueyrredon" definition = heavy_cruiser equipment = { heavy_cruiser_1 = { amount = 1 owner = ARG } } }
#		ship = { name = "ARA Libertad" definition = light_cruiser equipment = { light_cruiser_1 = { amount = 1 owner = ARG } } }
#		ship = { name = "ARA Independencia" definition = light_cruiser equipment = { light_cruiser_1 = { amount = 1 owner = ARG } } }
#		ship = { name = "ARA La Argentina" definition = light_cruiser equipment = { light_cruiser_2 = { amount = 1 owner = ARG } } }
#		# Flotilla de Destructores nro. 1
#		ship = { name = "ARA Catamarca" definition = destroyer equipment = { destroyer_1 = { amount = 1 owner = ARG } } }
#		ship = { name = "ARA Jujuy" definition = destroyer equipment = { destroyer_1 = { amount = 1 owner = ARG } } }
#		ship = { name = "ARA Córdoba" definition = destroyer equipment = { destroyer_1 = { amount = 1 owner = ARG } } }
#		ship = { name = "ARA La Plata" definition = destroyer equipment = { destroyer_1 = { amount = 1 owner = ARG } } }
#		# Flotilla de Destructores nro. 2
#		ship = { name = "ARA Cervantes" definition = destroyer equipment = { destroyer_1 = { amount = 1 owner = ARG version_name = #"Cervantes Class" } } }
#		ship = { name = "ARA Juan de Garay" definition = destroyer equipment = { destroyer_1 = { amount = 1 owner = ARG version_name = #"Cervantes Class" } } }
#		ship = { name = "ARA Mendoza" definition = destroyer equipment = { destroyer_1 = { amount = 1 owner = ARG version_name = #"Cervantes Class" } } }
#		ship = { name = "ARA La Rioja" definition = destroyer equipment = { destroyer_1 = { amount = 1 owner = ARG version_name = #"Cervantes Class" } } }
#		ship = { name = "ARA Tucumán" definition = destroyer equipment = { destroyer_1 = { amount = 1 owner = ARG version_name = #"Cervantes Class" } } }
#		# Flotilla de Destructores nro. 3
#		ship = { name = "ARA Buenos Aires" definition = destroyer equipment = { destroyer_2 = { amount = 1 owner = ARG } } }
#		ship = { name = "ARA Entre Rios" definition = destroyer equipment = { destroyer_2 = { amount = 1 owner = ARG } } }
#		ship = { name = "ARA Corrientes" definition = destroyer equipment = { destroyer_2 = { amount = 1 owner = ARG } } }
#		ship = { name = "ARA San Juan" definition = destroyer equipment = { destroyer_2 = { amount = 1 owner = ARG } } }
#		# Flotilla de Destructores nro. 4
#		ship = { name = "ARA San Luis" definition = destroyer equipment = { destroyer_2 = { amount = 1 owner = ARG } } }
#		ship = { name = "ARA Misiones" definition = destroyer equipment = { destroyer_2 = { amount = 1 owner = ARG } } }
#		ship = { name = "ARA Santa Cruz" definition = destroyer equipment = { destroyer_2 = { amount = 1 owner = ARG } } }
#	}				
#	navy = {				
#		name = "Flotilla de Submarinos"			
#		base = 12364 
#		location = 12364 # Buenos Aires
#		ship = { name = "ARA Santa Fe" definition = submarine equipment = { submarine_1 = { amount = 1 owner = ARG } } }
#		ship = { name = "ARA Santiago del Estero" definition = submarine equipment = { submarine_1 = { amount = 1 owner = ARG } } }
#		ship = { name = "ARA Salta" definition = submarine equipment = { submarine_1 = { amount = 1 owner = ARG } } }
#	}				
}

#air_wings = {
#	### Dirección General de Aeronáutica -- Buenos Aires
#	278 = {
#		tac_bomber_equipment_0 =  { owner = "ARG" amount = 15 }			# Bomber Air Group -- Martin 139Ws (US: B-18 Bolos)
#		CAS_equipment_1 =  { owner = "ARG" amount = 15 }				# CAS Air Group -- Mostly Vought V-142A Corsairs (US: SBU)
#		nav_bomber_equipment_1 = { owner = "ARG" amount = 12 }			# Coastal Group -- mostly P2Y-3A Rangers 
#	}
#}


instant_effect = {
	add_equipment_production = {
		equipment = {
			type = infantry_equipment_1
			creator = "ARG"
		}
		requested_factories = 1
		progress = 0.21
		efficiency = 100
	}
}