﻿units = {
	navy = {					
		name = "[ROOT.GetKingName] Squadron"				
		base = 4159	#Borrowing Italian Ports
		location = 1452
		ship = { name = "Charles Robert" definition = destroyer equipment = { destroyer_1 = { amount = 1 owner = HUN } } }			
		ship = { name = "Zrinyi Miklos" definition = destroyer equipment = { destroyer_1 = { amount = 1 owner = HUN } } }		
		ship = { name = "Oszkar Asboth" definition = destroyer equipment = { destroyer_1 = { amount = 1 owner = HUN } } }			
		ship = { name = "Mihaly Karolyi" definition = destroyer equipment = { destroyer_1 = { amount = 1 owner = HUN } } }		
		ship = { name = "Louis I" definition = destroyer equipment = { destroyer_1 = { amount = 1 owner = HUN } } }			
	}	
}