﻿division_template = {
	name = "Narodnoe Opolchenie Diviziya"
	#add after making division names
	#division_names_group = KHA_Militia
	regiments = {
		light_infantry = { x = 0 y = 0 }
		light_infantry = { x = 0 y = 1 }
		light_infantry = { x = 0 y = 2 }
		light_infantry = { x = 1 y = 0 }
		light_infantry = { x = 1 y = 1 }
	}
	support = {
		recon = { x = 0 y = 0 }
	}
}

division_template = {
	name = "Chjornuju Armiju Diviziya"
	#add after making division names
	#division_names_group = KHA_Infantry
	regiments = {
		infantry = { x = 0 y = 0 }
		infantry = { x = 0 y = 1 }
   		infantry = { x = 1 y = 0 }
		infantry = { x = 1 y = 1 }
		infantry = { x = 2 y = 0 }
		infantry = { x = 2 y = 1 }
	}
	support = {
		artillery = { x = 0 y = 0 }
		engineer = { x = 0 y = 1 }
	}
}

units = {
	division = {
		name = "Abakan Militsiya"
		location = 12563
		division_template = "Chjornuju Armiju Diviziya"
		start_experience_factor = 0.3
	}
	division = {
		name = "Zapad Militsiya"
		location = 4853
		division_template = "Chjornuju Armiju Diviziya"
		start_experience_factor = 0.3
	}
	division = {
		name = "Kansk Militsiya"
		location = 4853
		division_template = "Chjornuju Armiju Diviziya"
		start_experience_factor = 0.3
	}
	division = {
		name = "Bratsk Militsiya"
		location = 1803
		division_template = "Chjornuju Armiju Diviziya"
		start_experience_factor = 0.3
	}
	division = {
		name = "Severnyy Militsiya"
		location = 4782
		division_template = "Narodnoe Opolchenie Diviziya"
		start_experience_factor = 0.1
	}
	division = {
		name = "Severnyy Militsiya"
		location = 4782
		division_template = "Narodnoe Opolchenie Diviziya"
		start_experience_factor = 0.1
	}
	division = {
		name = "Severnyy Militsiya"
		location = 4782
		division_template = "Narodnoe Opolchenie Diviziya"
		start_experience_factor = 0.1
	}
}
